1.93"/local/scratch/gretl-1.9.14-as-built/cephes""current""external""gcc"()((build-pa . "af")(build-compression . "compressed")(build-expmalloc . "not-expanded")(build-strings . "one-string")(build-cfg-sets . "yes")(build-cfg-edges . "both")(build-basic-blocks . "no")(mmap-base-address . "default (0x51000000)")(user-library-path . "")(include-libc . "no")(build-remove-temp . "yes")(build-comp-trees . "yes")(build-compute-gmod . "yes")(build-data-dependence . "yes")(build-control-dependence . "yes")(build-compute-summaries . "yes")(retain-pdg-vertex-to-ast-mapping . "no")(build-pa-inline . "yes")(build-pa-inline-file . "input.pa_inline")(build-parameter-evaluation-order . "right-to-left")(build-invoke-compiler . "yes")(include-libgccbuiltin . "no")(build-pa-inline-mask . 513)(build-pa-inline-level . 1)(build-pa-inline-max-size . 100)(build-pa-inline-percent-growth . 0)(build-pa-inline-percent-calls . 0)(build-compute-ssa . "no")(pa-analyzer . "gt_pa")(build-pa-hint-mask . 75)(libcsmodels . "normal")(build-pa-mem-fns . "default")(build-pa-mem-fns-file . "input.pa_mem_fns")(build-astdb . "yes")(build-pi-nodes . "no"))()""("CSURF.FILES" "CSURF.FILES" "../../../../usr/local/codesurfer-1.9p3/libmodels/CodeSurfer/libcsmodels/normal/CSURF.FILES")""(
(O "/local/scratch/gretl-1.9.14-as-built/cephes/dwb-unity.o"#f
(C "/local/scratch/gretl-1.9.14-as-built/cephes/dwb-unity.c" ( (build-compression . "compressed") (build-expmalloc . "expanded") (build-strings . "one-string")       (build-remove-temp . "yes") (build-comp-trees . "yes")        (build-parameter-evaluation-order . "right-to-left") (build-invoke-compiler . "yes")           (build-pa-mem-fns . "default") (build-pa-mem-fns-file . "input.pa_mem_fns")  ) "gcc" ("-msse2" "-I/usr/include/curl" "-g" "-O2" "-I.." "-I..") () () "7c93a6ce" #t #f)
)
(O "/local/scratch/gretl-1.9.14-as-built/cephes/i0.o"#f
(C "/local/scratch/gretl-1.9.14-as-built/cephes/i0.c" ( (build-compression . "compressed") (build-expmalloc . "expanded") (build-strings . "one-string")       (build-remove-temp . "yes") (build-comp-trees . "yes")        (build-parameter-evaluation-order . "right-to-left") (build-invoke-compiler . "yes")           (build-pa-mem-fns . "default") (build-pa-mem-fns-file . "input.pa_mem_fns")  ) "gcc" ("-msse2" "-I/usr/include/curl" "-g" "-O2" "-I.." "-I..") () () "7c93877c" #t #f)
)
(O "/local/scratch/gretl-1.9.14-as-built/cephes/k0.o"#f
(C "/local/scratch/gretl-1.9.14-as-built/cephes/k0.c" ( (build-compression . "compressed") (build-expmalloc . "expanded") (build-strings . "one-string")       (build-remove-temp . "yes") (build-comp-trees . "yes")        (build-parameter-evaluation-order . "right-to-left") (build-invoke-compiler . "yes")           (build-pa-mem-fns . "default") (build-pa-mem-fns-file . "input.pa_mem_fns")  ) "gcc" ("-msse2" "-I/usr/include/curl" "-g" "-O2" "-I.." "-I..") () () "7c9389e8" #t #f)
)
(O "/local/scratch/gretl-1.9.14-as-built/cephes/chbevl.o"#f
(C "/local/scratch/gretl-1.9.14-as-built/cephes/chbevl.c" ( (build-compression . "compressed") (build-expmalloc . "expanded") (build-strings . "one-string")       (build-remove-temp . "yes") (build-comp-trees . "yes")        (build-parameter-evaluation-order . "right-to-left") (build-invoke-compiler . "yes")           (build-pa-mem-fns . "default") (build-pa-mem-fns-file . "input.pa_mem_fns")  ) "gcc" ("-msse2" "-I/usr/include/curl" "-g" "-O2" "-I.." "-I..") () () "7c938c2d" #t #f)
)
(O "/local/scratch/gretl-1.9.14-as-built/cephes/mtherr.o"#f
(C "/local/scratch/gretl-1.9.14-as-built/cephes/mtherr.c" ( (build-compression . "compressed") (build-expmalloc . "expanded") (build-strings . "one-string")       (build-remove-temp . "yes") (build-comp-trees . "yes")        (build-parameter-evaluation-order . "right-to-left") (build-invoke-compiler . "yes")           (build-pa-mem-fns . "default") (build-pa-mem-fns-file . "input.pa_mem_fns")  ) "gcc" ("-msse2" "-I/usr/include/curl" "-g" "-O2" "-I.." "-I..") () () "7c938e40" #t #f)
)
(O "/local/scratch/gretl-1.9.14-as-built/cephes/const.o"#f
(C "/local/scratch/gretl-1.9.14-as-built/cephes/const.c" ( (build-compression . "compressed") (build-expmalloc . "expanded") (build-strings . "one-string")       (build-remove-temp . "yes") (build-comp-trees . "yes")        (build-parameter-evaluation-order . "right-to-left") (build-invoke-compiler . "yes")           (build-pa-mem-fns . "default") (build-pa-mem-fns-file . "input.pa_mem_fns")  ) "gcc" ("-msse2" "-I/usr/include/curl" "-g" "-O2" "-I.." "-I..") () () "7c9390c5" #t #f)
)
(O "/local/scratch/gretl-1.9.14-as-built/cephes/unity.o"#f
(C "/local/scratch/gretl-1.9.14-as-built/cephes/unity.c" ( (build-compression . "compressed") (build-expmalloc . "expanded") (build-strings . "one-string")       (build-remove-temp . "yes") (build-comp-trees . "yes")        (build-parameter-evaluation-order . "right-to-left") (build-invoke-compiler . "yes")           (build-pa-mem-fns . "default") (build-pa-mem-fns-file . "input.pa_mem_fns")  ) "gcc" ("-msse2" "-I/usr/include/curl" "-g" "-O2" "-I.." "-I..") () () "7c9392ed" #t #f)
)
(O "/local/scratch/gretl-1.9.14-as-built/cephes/polevl.o"#f
(C "/local/scratch/gretl-1.9.14-as-built/cephes/polevl.c" ( (build-compression . "compressed") (build-expmalloc . "expanded") (build-strings . "one-string")       (build-remove-temp . "yes") (build-comp-trees . "yes")        (build-parameter-evaluation-order . "right-to-left") (build-invoke-compiler . "yes")           (build-pa-mem-fns . "default") (build-pa-mem-fns-file . "input.pa_mem_fns")  ) "gcc" ("-msse2" "-I/usr/include/curl" "-g" "-O2" "-I.." "-I..") () () "7c93954b" #t #f)
)
(O "/local/scratch/gretl-1.9.14-as-built/cephes/dwb.o"#f
(C "/local/scratch/gretl-1.9.14-as-built/cephes/dwb.c" ( (build-compression . "compressed") (build-expmalloc . "expanded") (build-strings . "one-string")       (build-remove-temp . "yes") (build-comp-trees . "yes")        (build-parameter-evaluation-order . "right-to-left") (build-invoke-compiler . "yes")           (build-pa-mem-fns . "default") (build-pa-mem-fns-file . "input.pa_mem_fns")  ) "gcc" ("-msse2" "-I/usr/include/curl" "-g" "-O2" "-I.." "-I..") () () "7c93975a" #t #f)
)
(O "/usr/local/codesurfer-1.9p3/libmodels/CodeSurfer/libcsmodels/normal/sqrt.o"#t
(C "/usr/local/codesurfer-1.9p3/libmodels/CodeSurfer/libcsmodels/sqrt.c" ( (build-compression . "compressed") (build-expmalloc . "expanded") (build-strings . "many-strings")       (build-remove-temp . "yes") (build-comp-trees . "yes")        (build-parameter-evaluation-order . "right-to-left") (build-invoke-compiler . "no")           (build-pa-mem-fns . "default") (build-pa-mem-fns-file . "input.pa_mem_fns")  ) "xcc" ("-D__CSURF_MARKER_LIBRARY_FUNCTION__=1") ("-noconfig") ("--diag_error" "implicit_func_decl" "--allow_ellipsis_only_param" "--diag_remark" "174,177,550") "2ab489aa" #t #t)
)
(O "/usr/local/codesurfer-1.9p3/libmodels/CodeSurfer/libcsmodels/normal/variables.o"#t
(C "/usr/local/codesurfer-1.9p3/libmodels/CodeSurfer/libcsmodels/variables.c" ( (build-compression . "compressed") (build-expmalloc . "expanded") (build-strings . "many-strings")       (build-remove-temp . "yes") (build-comp-trees . "yes")        (build-parameter-evaluation-order . "right-to-left") (build-invoke-compiler . "no")           (build-pa-mem-fns . "default") (build-pa-mem-fns-file . "input.pa_mem_fns")  ) "xcc" ("-D__CSURF_MARKER_LIBRARY_FUNCTION__=1") ("-noconfig") ("--diag_error" "implicit_func_decl" "--allow_ellipsis_only_param" "--diag_remark" "174,177,550") "2aaff711" #t #t)
)
(O "/usr/local/codesurfer-1.9p3/libmodels/CodeSurfer/libcsmodels/normal/cos.o"#t
(C "/usr/local/codesurfer-1.9p3/libmodels/CodeSurfer/libcsmodels/cos.c" ( (build-compression . "compressed") (build-expmalloc . "expanded") (build-strings . "many-strings")       (build-remove-temp . "yes") (build-comp-trees . "yes")        (build-parameter-evaluation-order . "right-to-left") (build-invoke-compiler . "no")           (build-pa-mem-fns . "default") (build-pa-mem-fns-file . "input.pa_mem_fns")  ) "xcc" ("-D__CSURF_MARKER_LIBRARY_FUNCTION__=1") ("-noconfig") ("--diag_error" "implicit_func_decl" "--allow_ellipsis_only_param" "--diag_remark" "174,177,550") "2ab42d24" #t #t)
)
(O "/usr/local/codesurfer-1.9p3/libmodels/CodeSurfer/libcsmodels/normal/exp.o"#t
(C "/usr/local/codesurfer-1.9p3/libmodels/CodeSurfer/libcsmodels/exp.c" ( (build-compression . "compressed") (build-expmalloc . "expanded") (build-strings . "many-strings")       (build-remove-temp . "yes") (build-comp-trees . "yes")        (build-parameter-evaluation-order . "right-to-left") (build-invoke-compiler . "no")           (build-pa-mem-fns . "default") (build-pa-mem-fns-file . "input.pa_mem_fns")  ) "xcc" ("-D__CSURF_MARKER_LIBRARY_FUNCTION__=1") ("-noconfig") ("--diag_error" "implicit_func_decl" "--allow_ellipsis_only_param" "--diag_remark" "174,177,550") "2ab43711" #t #t)
)
(O "/usr/local/codesurfer-1.9p3/libmodels/CodeSurfer/libcsmodels/normal/log.o"#t
(C "/usr/local/codesurfer-1.9p3/libmodels/CodeSurfer/libcsmodels/log.c" ( (build-compression . "compressed") (build-expmalloc . "expanded") (build-strings . "many-strings")       (build-remove-temp . "yes") (build-comp-trees . "yes")        (build-parameter-evaluation-order . "right-to-left") (build-invoke-compiler . "no")           (build-pa-mem-fns . "default") (build-pa-mem-fns-file . "input.pa_mem_fns")  ) "xcc" ("-D__CSURF_MARKER_LIBRARY_FUNCTION__=1") ("-noconfig") ("--diag_error" "implicit_func_decl" "--allow_ellipsis_only_param" "--diag_remark" "174,177,550") "2ab46a18" #t #t)
)
)

"CSURF.FILES/unity.sdg"
""
"None"