Test object: org.iguanatool.casestudies.cody.testobjects.gamma_cody
13T	OK  	3	[-97.1]
13F	OK  	1	[51.7]
17T	OK  	3	[-97.1]
17F	OK  	36	[-24.0]
18T	OK  	3	[-97.1]
18F	OK  	4	[-92.1]
23T	FAIL	100000	
23F	OK  	1	[51.7]
24T	FAIL	100000	
24F	FAIL	100000	
27T	OK  	11	[6.8]
27F	OK  	1	[51.7]
29T	OK  	115	[0.8]
29F	OK  	11	[6.8]
37T	OK  	11	[6.8]
37F	OK  	11	[6.8]
41T	OK  	115	[0.8]
41F	OK  	11	[6.8]
43T	OK  	11	[6.8]
43F	OK  	16	[-0.8]
44T	OK  	11	[6.8]
44F	OK  	11	[6.8]
47T	OK  	1	[51.7]
47F	FAIL	100000	
50T	OK  	1	[51.7]
50F	OK  	1	[51.7]
56T	OK  	3	[-97.1]
56F	OK  	1	[51.7]
58T	OK  	3	[-97.1]
58F	OK  	1	[51.7]
