Test object: org.iguanatool.casestudies.cody.testobjects.gamma_cody
13T	OK  	2	[-81.1]
13F	OK  	1	[15.0]
17T	OK  	2	[-81.1]
17F	OK  	5	[-44.0]
18T	OK  	2	[-81.1]
18F	OK  	3	[-82.4]
23T	OK  	5573	[2.220412167932423E-17]
23F	OK  	1	[15.0]
24T	OK  	5573	[2.220412167932423E-17]
24F	FAIL	100000	
27T	OK  	10	[10.7]
27F	OK  	1	[15.0]
29T	OK  	116	[0.5]
29F	OK  	10	[10.7]
37T	OK  	10	[10.7]
37F	OK  	10	[10.7]
41T	OK  	116	[0.5]
41F	OK  	10	[10.7]
43T	OK  	10	[10.7]
43F	OK  	129	[-0.4]
44T	OK  	10	[10.7]
44F	OK  	10	[10.7]
47T	OK  	1	[15.0]
47F	FAIL	100000	
50T	OK  	1	[15.0]
50F	OK  	1	[15.0]
56T	OK  	2	[-81.1]
56F	OK  	1	[15.0]
58T	OK  	2	[-81.1]
58F	OK  	1	[15.0]
