Test object: org.iguanatool.casestudies.cody.testobjects.gamma_cody
13T	OK  	1	[-6.9]
13F	OK  	5	[33.6]
17T	OK  	1	[-6.9]
17F	OK  	7	[-68.0]
18T	OK  	2	[-13.9]
18F	OK  	1	[-6.9]
23T	FAIL	100000	
23F	OK  	1	[-6.9]
24T	FAIL	100000	
24F	FAIL	100000	
27T	OK  	1	[-6.9]
27F	OK  	2	[-13.9]
29T	OK  	123	[0.6]
29F	OK  	1	[-6.9]
37T	OK  	1	[-6.9]
37F	OK  	1	[-6.9]
41T	OK  	123	[0.6]
41F	OK  	1	[-6.9]
43T	OK  	1	[-6.9]
43F	OK  	76	[-0.9]
44T	OK  	1	[-6.9]
44F	OK  	1	[-6.9]
47T	OK  	2	[-13.9]
47F	FAIL	100000	
50T	OK  	2	[-13.9]
50F	OK  	2	[-13.9]
56T	OK  	2	[-13.9]
56F	OK  	1	[-6.9]
58T	OK  	1	[-6.9]
58F	OK  	5	[33.6]
