Test object: org.iguanatool.casestudies.cody.testobjects.gamma_cody
13T	OK  	1	[-42.6]
13F	OK  	11	[8.500000000000004]
17T	OK  	1	[-42.6]
17F	OK  	21	[-6.0]
18T	OK  	13	[-3.2]
18F	OK  	1	[-42.6]
23T	OK  	1226	[2.7755575615628914E-17]
23F	OK  	1	[-42.6]
24T	OK  	1226	[2.7755575615628914E-17]
24F	FAIL	100000	
27T	OK  	11	[8.500000000000004]
27F	OK  	1	[-42.6]
29T	OK  	24	[0.7000000000000035]
29F	OK  	11	[8.500000000000004]
37T	OK  	11	[8.500000000000004]
37F	OK  	11	[8.500000000000004]
41T	OK  	64	[0.09999999999999343]
41F	OK  	11	[8.500000000000004]
43T	OK  	11	[8.500000000000004]
43F	OK  	163	[-0.7999999999999936]
44T	OK  	4	[-6.6]
44F	OK  	4	[-6.6]
47T	OK  	1	[-42.6]
47F	FAIL	100000	
50T	OK  	1	[-42.6]
50F	OK  	1	[-42.6]
56T	OK  	11	[-31.1]
56F	OK  	1	[-42.6]
58T	OK  	1	[-42.6]
58F	OK  	13	[3.1]
