Test object: org.iguanatool.casestudies.cody.testobjects.gamma_cody
13T	OK  	2	[-86.0]
13F	OK  	1	[16.0]
17T	OK  	3	[-13.2]
17F	OK  	2	[-86.0]
18T	OK  	3	[-13.2]
18F	OK  	4	[-16.6]
23T	FAIL	100000	
23F	OK  	1	[16.0]
24T	FAIL	100000	
24F	FAIL	100000	
27T	OK  	8	[-2.5]
27F	OK  	1	[16.0]
29T	OK  	1077	[0.99989375]
29F	OK  	8	[-2.5]
37T	OK  	8	[-2.5]
37F	OK  	8	[-2.5]
41T	OK  	1077	[0.99989375]
41F	OK  	8	[-2.5]
43T	OK  	8	[-2.5]
43F	OK  	184	[-0.3]
44T	OK  	8	[-2.5]
44F	OK  	8	[-2.5]
47T	OK  	1	[16.0]
47F	FAIL	100000	
50T	OK  	1	[16.0]
50F	OK  	1	[16.0]
56T	OK  	3	[-13.2]
56F	OK  	1	[16.0]
58T	OK  	3	[-13.2]
58F	OK  	1	[16.0]
