Test object: org.iguanatool.casestudies.cody.testobjects.gamma_cody
13T	OK  	2	[-56.8]
13F	OK  	1	[61.7]
17T	OK  	2	[-56.8]
17F	OK  	24	[-34.0]
18T	OK  	13	[-85.6]
18F	OK  	2	[-56.8]
23T	OK  	14728	[4.2993698336733777E-17]
23F	OK  	1	[61.7]
24T	OK  	14728	[4.2993698336733777E-17]
24F	FAIL	100000	
27T	OK  	7	[3.4]
27F	OK  	1	[61.7]
29T	OK  	36	[0.9]
29F	OK  	7	[3.4]
37T	OK  	7	[3.4]
37F	OK  	7	[3.4]
41T	OK  	36	[0.9]
41F	OK  	7	[3.4]
43T	OK  	7	[3.4]
43F	OK  	53	[-0.7]
44T	OK  	7	[3.4]
44F	OK  	7	[3.4]
47T	OK  	1	[61.7]
47F	FAIL	100000	
50T	OK  	1	[61.7]
50F	OK  	1	[61.7]
56T	OK  	13	[-85.6]
56F	OK  	1	[61.7]
58T	OK  	2	[-56.8]
58F	OK  	1	[61.7]
