Test object: org.iguanatool.casestudies.cody.testobjects.gamma_cody
13T	OK  	1	[-6.5]
13F	OK  	9	[6.200000000000001]
17T	OK  	1	[-6.5]
17F	OK  	21	[-73.0]
18T	OK  	4	[-73.8]
18F	OK  	1	[-6.5]
23T	OK  	687	[1.6653345369377348E-16]
23F	OK  	1	[-6.5]
24T	OK  	687	[1.6653345369377348E-16]
24F	FAIL	100000	
27T	OK  	1	[-6.5]
27F	OK  	12	[-13.5]
29T	OK  	13	[0.5000000000000004]
29F	OK  	1	[-6.5]
37T	OK  	1	[-6.5]
37F	OK  	1	[-6.5]
41T	OK  	350	[0.20000000000000018]
41F	OK  	1	[-6.5]
43T	OK  	1	[-6.5]
43F	OK  	187	[-0.40000000000000036]
44T	OK  	1	[-6.5]
44F	OK  	1	[-6.5]
47T	OK  	12	[-13.5]
47F	FAIL	100000	
50T	OK  	4	[-73.8]
50F	OK  	4	[-73.8]
56T	OK  	4	[-73.8]
56F	OK  	1	[-6.5]
58T	OK  	1	[-6.5]
58F	OK  	11	[59.2]
