Test object: org.iguanatool.casestudies.cody.testobjects.gamma_cody
13T	OK  	1	[-77.4]
13F	OK  	12	[24.9]
17T	OK  	1	[-77.4]
17F	OK  	22	[-96.0]
18T	OK  	1	[-77.4]
18F	OK  	4	[-16.4]
23T	OK  	2064	[8.326672684688674E-17]
23F	OK  	1	[-77.4]
24T	OK  	2064	[8.326672684688674E-17]
24F	FAIL	100000	
27T	OK  	20	[-0.6000000000000032]
27F	OK  	1	[-77.4]
29T	OK  	24	[0.09999999999999681]
29F	OK  	20	[-0.6000000000000032]
37T	OK  	20	[-0.6000000000000032]
37F	OK  	20	[-0.6000000000000032]
41T	OK  	157	[0.2]
41F	OK  	20	[-0.6000000000000032]
43T	OK  	31	[-10.099999999999998]
43F	OK  	20	[-0.6000000000000032]
44T	OK  	19	[9.1]
44F	OK  	19	[9.1]
47T	OK  	1	[-77.4]
47F	FAIL	100000	
50T	OK  	1	[-77.4]
50F	OK  	1	[-77.4]
56T	OK  	1	[-77.4]
56F	OK  	4	[-16.4]
58T	OK  	1	[-77.4]
58F	OK  	20	[22.4]
