Test object: org.iguanatool.casestudies.cody.testobjects.gamma_cody
13T	OK  	11	[-35.6]
13F	OK  	1	[66.7]
17T	OK  	11	[-35.6]
17F	OK  	76	[-4.0]
18T	OK  	11	[-35.6]
18F	OK  	27	[-32.20000000000001]
23T	OK  	31	[5.551115123125783E-17]
23F	OK  	1	[66.7]
24T	OK  	31	[5.551115123125783E-17]
24F	FAIL	100000	
27T	OK  	18	[9.3]
27F	OK  	1	[66.7]
29T	OK  	29	[0.10000000000000006]
29F	OK  	18	[9.3]
37T	OK  	18	[9.3]
37F	OK  	18	[9.3]
41T	OK  	47	[5.329070518200751E-15]
41F	OK  	18	[9.3]
43T	OK  	18	[9.3]
43F	OK  	50	[-0.09999999999999468]
44T	OK  	13	[-4.7]
44F	OK  	13	[-4.7]
47T	OK  	1	[66.7]
47F	FAIL	100000	
50T	OK  	1	[66.7]
50F	OK  	1	[66.7]
56T	OK  	4	[-77.5]
56F	OK  	1	[66.7]
58T	OK  	4	[-77.5]
58F	OK  	1	[66.7]
