Test object: org.iguanatool.casestudies.cody.testobjects.gamma_cody
13T	OK  	9	[-9.500000000000002]
13F	OK  	1	[16.0]
17T	OK  	9	[-9.500000000000002]
17F	OK  	12	[-35.0]
18T	OK  	9	[-9.500000000000002]
18F	OK  	14	[-86.1]
23T	OK  	604	[8.326672684688674E-17]
23F	OK  	1	[16.0]
24T	OK  	604	[8.326672684688674E-17]
24F	FAIL	100000	
27T	OK  	7	[9.7]
27F	OK  	1	[16.0]
29T	OK  	15	[0.19999999999999862]
29F	OK  	7	[9.7]
37T	OK  	7	[9.7]
37F	OK  	7	[9.7]
41T	OK  	109	[0.2999999999999998]
41F	OK  	7	[9.7]
43T	OK  	7	[9.7]
43F	OK  	25	[-0.4999999999999991]
44T	OK  	22	[-2.5]
44F	OK  	22	[-2.5]
47T	OK  	1	[16.0]
47F	FAIL	100000	
50T	OK  	1	[16.0]
50F	OK  	1	[16.0]
56T	OK  	9	[-13.2]
56F	OK  	1	[16.0]
58T	OK  	5	[-86.1]
58F	OK  	1	[16.0]
