Test object: org.iguanatool.casestudies.g.testobjects.gradient_calc_bilinear_factor
5T	FAIL	100000	
5F	OK  	1	[-774.1, -164.4, -966.7, 223.5, 611.3]
11T	OK  	878	[-818.6, 491.4, 222.1, 37.6, -82.3]
11F	OK  	1	[-774.1, -164.4, -966.7, 223.5, 611.3]
13T	OK  	16642	[-163.96875915527346, -38.62802734374999, 100.0, -89.36559143066405, 725.9807006835938]
13F	OK  	1	[-774.1, -164.4, -966.7, 223.5, 611.3]
14T	FAIL	100000	
14F	OK  	16642	[-163.96875915527346, -38.62802734374999, 100.0, -89.36559143066405, 725.9807006835938]
Test object: org.iguanatool.casestudies.g.testobjects.gradient_calc_conical_asym_factor
8T	FAIL	100000	
8F	OK  	1	[-774.1, -164.4, -966.7, 223.5, 611.3]
10T	OK  	1	[-774.1, -164.4, -966.7, 223.5, 611.3]
10F	OK  	50416	[-417.210380859375, -939.8730277709961, -748.6958020019532, 0.0, -259.18912091064453]
12T	OK  	50416	[-417.210380859375, -939.8730277709961, -748.6958020019532, 0.0, -259.18912091064453]
12F	FAIL	100000	
19T	OK  	2	[-337.0, 91.2, -96.4, -723.9, 636.9]
19F	OK  	1	[-774.1, -164.4, -966.7, 223.5, 611.3]
23T	OK  	1	[-774.1, -164.4, -966.7, 223.5, 611.3]
23F	OK  	5	[120.0, -293.0, 882.7, 178.2, 785.2]
25T	FAIL	100000	
25F	OK  	5	[120.0, -293.0, 882.7, 178.2, 785.2]
Test object: org.iguanatool.casestudies.g.testobjects.gradient_calc_conical_sym_factor
6T	FAIL	100000	
6F	OK  	1	[-774.1, -164.4, -966.7, 223.5, 611.3]
8T	OK  	1	[-774.1, -164.4, -966.7, 223.5, 611.3]
8F	OK  	50416	[-417.210380859375, -939.8730277709961, -748.6958020019532, 0.0, -259.18912091064453]
10T	OK  	50416	[-417.210380859375, -939.8730277709961, -748.6958020019532, 0.0, -259.18912091064453]
10F	FAIL	100000	
16T	OK  	4	[-677.7, 799.4, -763.9, 777.1, 418.3]
16F	OK  	1	[-774.1, -164.4, -966.7, 223.5, 611.3]
18T	OK  	1	[-774.1, -164.4, -966.7, 223.5, 611.3]
18F	OK  	926	[294.6951171875, -150.9, -12.7390625, 16.379345703125, -185.81219482421875]
23T	OK  	4	[-677.7, 799.4, -763.9, 777.1, 418.3]
23F	OK  	1	[-774.1, -164.4, -966.7, 223.5, 611.3]
25T	FAIL	100000	
25F	OK  	1	[-774.1, -164.4, -966.7, 223.5, 611.3]
Test object: org.iguanatool.casestudies.g.testobjects.gradient_calc_linear_factor
3T	FAIL	100000	
3F	OK  	1	[-774.1, -164.4, -966.7, 223.5, 611.3]
8T	OK  	1	[-774.1, -164.4, -966.7, 223.5, 611.3]
8F	OK  	3	[913.6, 2.2, -314.6, -237.4, 854.8]
9T	OK  	723	[-203.7, 412.9, 480.1, 334.4, -287.6]
9F	OK  	1	[-774.1, -164.4, -966.7, 223.5, 611.3]
13T	OK  	16645	[-163.96875915527346, -38.62802734374999, 100.0, -89.36559143066405, 725.9807006835938]
13F	OK  	1	[-774.1, -164.4, -966.7, 223.5, 611.3]
14T	OK  	17776	[71.08699951171876, -38.84031982421874, 100.0, -89.36245422363281, 725.980599975586]
14F	OK  	16645	[-163.96875915527346, -38.62802734374999, 100.0, -89.36559143066405, 725.9807006835938]
17T	OK  	3	[913.6, 2.2, -314.6, -237.4, 854.8]
17F	OK  	1	[-774.1, -164.4, -966.7, 223.5, 611.3]
Test object: org.iguanatool.casestudies.g.testobjects.gradient_calc_radial_factor
3T	FAIL	100000	
3F	OK  	1	[-774.1, -164.4, -966.7, 223.5]
8T	OK  	3	[-723.9, 636.9, 913.6, 2.2]
8F	OK  	1	[-774.1, -164.4, -966.7, 223.5]
10T	OK  	22059	[234.95040771484375, 100.0, -297.94632812500004, -77.30991699218751]
10F	OK  	1	[-774.1, -164.4, -966.7, 223.5]
11T	OK  	22059	[234.95040771484375, 100.0, -297.94632812500004, -77.30991699218751]
11F	FAIL	100000	
Test object: org.iguanatool.casestudies.g.testobjects.gradient_calc_spiral_factor
9T	FAIL	100000	
9F	OK  	1	[-774.1, -164.4, -966.7, 223.5, 611.3, -337.0]
11T	OK  	1	[-774.1, -164.4, -966.7, 223.5, 611.3, -337.0]
11F	FAIL	100000	
13T	FAIL	100000	
13F	FAIL	100000	
19T	OK  	1	[-774.1, -164.4, -966.7, 223.5, 611.3, -337.0]
19F	OK  	298	[309.6, 746.0, -618.5, 989.9, 402.3, 0.2]
22T	OK  	3	[-314.6, -237.4, 854.8, -677.7, 799.4, -763.9]
22F	OK  	1	[-774.1, -164.4, -966.7, 223.5, 611.3, -337.0]
Test object: org.iguanatool.casestudies.g.testobjects.gradient_calc_square_factor
9T	FAIL	100000	
9F	OK  	1	[-774.1, -164.4, -966.7, 223.5]
14T	FAIL	100000	
14F	OK  	1	[-774.1, -164.4, -966.7, 223.5]
20T	OK  	1	[-774.1, -164.4, -966.7, 223.5]
20F	OK  	2	[611.3, -337.0, 91.2, -96.4]
22T	OK  	19100	[4.626552490234374, 100.0, -85.00526306152345, -547.6713806152343]
22F	OK  	2	[611.3, -337.0, 91.2, -96.4]
23T	OK  	19100	[4.626552490234374, 100.0, -85.00526306152345, -547.6713806152343]
23F	FAIL	100000	
Test object: org.iguanatool.casestudies.g.testobjects.main
