Test object: org.iguanatool.casestudies.g.testobjects.gradient_calc_bilinear_factor
5T	OK  	2032	[0.0, -529.89609375, 68.7, 634.30390625, 294.8]
5F	OK  	1	[-933.0, 331.7, -163.4, 694.8, 3.1]
11T	OK  	225	[261.9, -186.5, 871.8, -942.7, -199.9]
11F	OK  	1	[-933.0, 331.7, -163.4, 694.8, 3.1]
13T	OK  	12382	[347.1125, -336.73325195312503, 100.0, -0.7271728515625, 840.3866760253907]
13F	OK  	1	[-933.0, 331.7, -163.4, 694.8, 3.1]
14T	FAIL	100000	
14F	OK  	12382	[347.1125, -336.73325195312503, 100.0, -0.7271728515625, 840.3866760253907]
Test object: org.iguanatool.casestudies.g.testobjects.gradient_calc_conical_asym_factor
8T	OK  	2032	[0.0, -529.89609375, 68.7, 634.30390625, 294.8]
8F	OK  	1	[-933.0, 331.7, -163.4, 694.8, 3.1]
10T	OK  	1	[-933.0, 331.7, -163.4, 694.8, 3.1]
10F	OK  	40559	[-408.6786865234375, -664.5809267578126, 113.85494384765626, 0.0, -693.4087426757811]
12T	OK  	40559	[-408.6786865234375, -664.5809267578126, 113.85494384765626, 0.0, -693.4087426757811]
12F	FAIL	100000	
19T	OK  	1	[-933.0, 331.7, -163.4, 694.8, 3.1]
19F	OK  	5	[418.3, 940.6, 231.2, 626.0, -693.5]
23T	OK  	1	[-933.0, 331.7, -163.4, 694.8, 3.1]
23F	OK  	3	[-160.6, -686.3, 865.3, -225.5, -5.5]
25T	FAIL	100000	
25F	OK  	3	[-160.6, -686.3, 865.3, -225.5, -5.5]
Test object: org.iguanatool.casestudies.g.testobjects.gradient_calc_conical_sym_factor
6T	OK  	2032	[0.0, -529.89609375, 68.7, 634.30390625, 294.8]
6F	OK  	1	[-933.0, 331.7, -163.4, 694.8, 3.1]
8T	OK  	1	[-933.0, 331.7, -163.4, 694.8, 3.1]
8F	OK  	40559	[-408.6786865234375, -664.5809267578126, 113.85494384765626, 0.0, -693.4087426757811]
10T	OK  	40559	[-408.6786865234375, -664.5809267578126, 113.85494384765626, 0.0, -693.4087426757811]
10F	FAIL	100000	
16T	OK  	1	[-933.0, 331.7, -163.4, 694.8, 3.1]
16F	OK  	6	[-296.8, -943.1, 485.8, 513.5, -530.2]
18T	OK  	6	[-296.8, -943.1, 485.8, 513.5, -530.2]
18F	OK  	1099	[847.3, 191.6020137939453, -171.1, 884.3, 990.9]
23T	OK  	1	[-933.0, 331.7, -163.4, 694.8, 3.1]
23F	OK  	3	[-160.6, -686.3, 865.3, -225.5, -5.5]
25T	FAIL	100000	
25F	OK  	3	[-160.6, -686.3, 865.3, -225.5, -5.5]
Test object: org.iguanatool.casestudies.g.testobjects.gradient_calc_linear_factor
3T	OK  	2032	[0.0, -529.89609375, 68.7, 634.30390625, 294.8]
3F	OK  	1	[-933.0, 331.7, -163.4, 694.8, 3.1]
8T	OK  	4	[495.2, -348.0, 162.4, -364.9, -71.0]
8F	OK  	1	[-933.0, 331.7, -163.4, 694.8, 3.1]
9T	OK  	225	[261.9, -186.5, 871.8, -942.7, -199.9]
9F	OK  	4	[495.2, -348.0, 162.4, -364.9, -71.0]
13T	OK  	12383	[347.1125, -336.73325195312503, 100.0, -0.7271728515625, 840.3866760253907]
13F	OK  	1	[-933.0, 331.7, -163.4, 694.8, 3.1]
14T	OK  	12383	[347.1125, -336.73325195312503, 100.0, -0.7271728515625, 840.3866760253907]
14F	OK  	12662	[347.1124938964844, -336.680859375, 100.0, 524.41455078125, 840.168212890625]
17T	OK  	1	[-933.0, 331.7, -163.4, 694.8, 3.1]
17F	OK  	4	[495.2, -348.0, 162.4, -364.9, -71.0]
Test object: org.iguanatool.casestudies.g.testobjects.gradient_calc_radial_factor
3T	FAIL	100000	
3F	OK  	1	[-933.0, 331.7, -163.4, 694.8]
8T	OK  	1	[-933.0, 331.7, -163.4, 694.8]
8F	OK  	2	[3.1, -206.2, -626.3, -47.9]
10T	FAIL	100000	
10F	OK  	2	[3.1, -206.2, -626.3, -47.9]
11T	FAIL	100000	
11F	FAIL	100000	
Test object: org.iguanatool.casestudies.g.testobjects.gradient_calc_spiral_factor
9T	FAIL	100000	
9F	OK  	1	[-933.0, 331.7, -163.4, 694.8, 3.1, -206.2]
11T	OK  	1	[-933.0, 331.7, -163.4, 694.8, 3.1, -206.2]
11F	OK  	4689	[-24.9372314453125, 343.65875854492185, -989.9, 0.0, 760.5, -473.725]
13T	OK  	4689	[-24.9372314453125, 343.65875854492185, -989.9, 0.0, 760.5, -473.725]
13F	FAIL	100000	
19T	OK  	1	[-933.0, 331.7, -163.4, 694.8, 3.1, -206.2]
19F	OK  	3342	[-529.8313720703125, 345.58701171875, -639.7, -149.00006103515625, -188.9869140625, 0.8157470703124998]
22T	OK  	1	[-933.0, 331.7, -163.4, 694.8, 3.1, -206.2]
22F	OK  	2	[-626.3, -47.9, -706.1, -406.0, -160.6, -686.3]
Test object: org.iguanatool.casestudies.g.testobjects.gradient_calc_square_factor
9T	FAIL	100000	
9F	OK  	1	[-933.0, 331.7, -163.4, 694.8]
14T	FAIL	100000	
14F	OK  	1	[-933.0, 331.7, -163.4, 694.8]
20T	OK  	1	[-933.0, 331.7, -163.4, 694.8]
20F	OK  	2	[3.1, -206.2, -626.3, -47.9]
22T	OK  	12117	[721.3994140625, 100.0, -416.8103149414062, -827.7]
22F	OK  	2	[3.1, -206.2, -626.3, -47.9]
23T	OK  	12117	[721.3994140625, 100.0, -416.8103149414062, -827.7]
23F	FAIL	100000	
Test object: org.iguanatool.casestudies.g.testobjects.main
