Test object: org.iguanatool.casestudies.g.testobjects.gradient_calc_bilinear_factor
5T	OK  	34367	[0.0, 109.35871191406247, -432.6245629882812, 447.9875009765625, -80.98465454101563]
5F	OK  	1	[667.2, -775.1, 700.5, 499.2, -47.1]
11T	OK  	612	[667.2, 53.1, 750.5, 656.2, -47.1]
11F	OK  	1	[667.2, -775.1, 700.5, 499.2, -47.1]
13T	FAIL	100000	
13F	OK  	1	[667.2, -775.1, 700.5, 499.2, -47.1]
14T	FAIL	100000	
14F	FAIL	100000	
Test object: org.iguanatool.casestudies.g.testobjects.gradient_calc_conical_asym_factor
8T	OK  	34367	[0.0, 109.35871191406247, -432.6245629882812, 447.9875009765625, -80.98465454101563]
8F	OK  	1	[667.2, -775.1, 700.5, 499.2, -47.1]
10T	OK  	1	[667.2, -775.1, 700.5, 499.2, -47.1]
10F	OK  	40241	[-159.89421112060546, 577.8499603271486, -986.7, 0.0, -149.20389099121098]
12T	OK  	40241	[-159.89421112060546, 577.8499603271486, -986.7, 0.0, -149.20389099121098]
12F	FAIL	100000	
19T	OK  	2	[901.9, 434.8, 247.4, -226.3, 620.5]
19F	OK  	1	[667.2, -775.1, 700.5, 499.2, -47.1]
23T	OK  	3	[-87.9, -389.5, -487.3, -233.5, -431.1]
23F	OK  	1	[667.2, -775.1, 700.5, 499.2, -47.1]
25T	FAIL	100000	
25F	OK  	1	[667.2, -775.1, 700.5, 499.2, -47.1]
Test object: org.iguanatool.casestudies.g.testobjects.gradient_calc_conical_sym_factor
6T	OK  	34367	[0.0, 109.35871191406247, -432.6245629882812, 447.9875009765625, -80.98465454101563]
6F	OK  	1	[667.2, -775.1, 700.5, 499.2, -47.1]
8T	OK  	1	[667.2, -775.1, 700.5, 499.2, -47.1]
8F	OK  	40241	[-159.89421112060546, 577.8499603271486, -986.7, 0.0, -149.20389099121098]
10T	OK  	40241	[-159.89421112060546, 577.8499603271486, -986.7, 0.0, -149.20389099121098]
10F	FAIL	100000	
16T	OK  	2	[901.9, 434.8, 247.4, -226.3, 620.5]
16F	OK  	1	[667.2, -775.1, 700.5, 499.2, -47.1]
18T	OK  	1	[667.2, -775.1, 700.5, 499.2, -47.1]
18F	OK  	1781	[-656.5, 27.384375, -404.24888916015624, -598.2490234375, -41.9]
23T	OK  	1	[667.2, -775.1, 700.5, 499.2, -47.1]
23F	OK  	2	[901.9, 434.8, 247.4, -226.3, 620.5]
25T	FAIL	100000	
25F	OK  	2	[901.9, 434.8, 247.4, -226.3, 620.5]
Test object: org.iguanatool.casestudies.g.testobjects.gradient_calc_linear_factor
3T	OK  	34367	[0.0, 109.35871191406247, -432.6245629882812, 447.9875009765625, -80.98465454101563]
3F	OK  	1	[667.2, -775.1, 700.5, 499.2, -47.1]
8T	OK  	2	[901.9, 434.8, 247.4, -226.3, 620.5]
8F	OK  	1	[667.2, -775.1, 700.5, 499.2, -47.1]
9T	OK  	1652	[819.9, -59.9, 518.648828125, -313.6, -32.684960937499994]
9F	OK  	2	[901.9, 434.8, 247.4, -226.3, 620.5]
13T	OK  	12384	[587.2000305175782, 277.1015594482422, 100.0, 63.16688537597656, -163.21928710937502]
13F	OK  	1	[667.2, -775.1, 700.5, 499.2, -47.1]
14T	OK  	12384	[587.2000305175782, 277.1015594482422, 100.0, 63.16688537597656, -163.21928710937502]
14F	OK  	12924	[582.2048828125, -200.809912109375, 100.0, 752.0477081298827, -163.21928710937502]
17T	OK  	1	[667.2, -775.1, 700.5, 499.2, -47.1]
17F	OK  	2	[901.9, 434.8, 247.4, -226.3, 620.5]
Test object: org.iguanatool.casestudies.g.testobjects.gradient_calc_radial_factor
3T	OK  	68243	[0.0, -725.3052026672364, 619.1146876525879, 308.775634765625]
3F	OK  	1	[667.2, -775.1, 700.5, 499.2]
8T	OK  	2	[-47.1, 901.9, 434.8, 247.4]
8F	OK  	1	[667.2, -775.1, 700.5, 499.2]
10T	OK  	18826	[50.752758789062504, 100.0, -366.05927734375, 460.4846435546875]
10F	OK  	1	[667.2, -775.1, 700.5, 499.2]
11T	OK  	18826	[50.752758789062504, 100.0, -366.05927734375, 460.4846435546875]
11F	FAIL	100000	
Test object: org.iguanatool.casestudies.g.testobjects.gradient_calc_spiral_factor
9T	FAIL	100000	
9F	OK  	1	[667.2, -775.1, 700.5, 499.2, -47.1, 901.9]
11T	OK  	1	[667.2, -775.1, 700.5, 499.2, -47.1, 901.9]
11F	OK  	12827	[-430.92216796875005, 631.4977416992188, 336.13239135742185, 0.0, -597.4178466796875, 602.42373046875]
13T	OK  	12827	[-430.92216796875005, 631.4977416992188, 336.13239135742185, 0.0, -597.4178466796875, 602.42373046875]
13F	FAIL	100000	
19T	OK  	1	[667.2, -775.1, 700.5, 499.2, -47.1, 901.9]
19F	OK  	1933	[-33.099999999999994, -108.65234375, 986.125, -641.18779296875, 356.2, -0.5]
22T	OK  	2	[434.8, 247.4, -226.3, 620.5, -87.9, -389.5]
22F	OK  	1	[667.2, -775.1, 700.5, 499.2, -47.1, 901.9]
Test object: org.iguanatool.casestudies.g.testobjects.gradient_calc_square_factor
9T	OK  	68243	[0.0, -725.3052026672364, 619.1146876525879, 308.775634765625]
9F	OK  	1	[667.2, -775.1, 700.5, 499.2]
14T	FAIL	100000	
14F	OK  	1	[667.2, -775.1, 700.5, 499.2]
20T	OK  	2	[-47.1, 901.9, 434.8, 247.4]
20F	OK  	1	[667.2, -775.1, 700.5, 499.2]
22T	OK  	11565	[734.5877166748046, 100.0, 620.327490234375, -438.453515625]
22F	OK  	1	[667.2, -775.1, 700.5, 499.2]
23T	OK  	11565	[734.5877166748046, 100.0, 620.327490234375, -438.453515625]
23F	FAIL	100000	
Test object: org.iguanatool.casestudies.g.testobjects.main
