Test object: org.iguanatool.casestudies.g.testobjects.gradient_calc_bilinear_factor
5T	FAIL	100000	
5F	OK  	1	[-977.1, 371.3, -993.5, 886.1, 821.5]
11T	OK  	4	[492.0, 454.9, 524.0, 173.2, -152.2]
11F	OK  	1	[-977.1, 371.3, -993.5, 886.1, 821.5]
13T	OK  	13874	[872.4296020507812, 448.420703125, 100.0, -928.7439453125, -618.26806640625]
13F	OK  	1	[-977.1, 371.3, -993.5, 886.1, 821.5]
14T	FAIL	100000	
14F	OK  	13874	[872.4296020507812, 448.420703125, 100.0, -928.7439453125, -618.26806640625]
Test object: org.iguanatool.casestudies.g.testobjects.gradient_calc_conical_asym_factor
8T	FAIL	100000	
8F	OK  	1	[-977.1, 371.3, -993.5, 886.1, 821.5]
10T	OK  	1	[-977.1, 371.3, -993.5, 886.1, 821.5]
10F	FAIL	100000	
12T	FAIL	100000	
12F	FAIL	100000	
19T	OK  	1	[-977.1, 371.3, -993.5, 886.1, 821.5]
19F	OK  	2	[-509.9, -210.2, -73.7, -24.2, 725.0]
23T	OK  	1	[-977.1, 371.3, -993.5, 886.1, 821.5]
23F	OK  	4	[492.0, 454.9, 524.0, 173.2, -152.2]
25T	FAIL	100000	
25F	OK  	4	[492.0, 454.9, 524.0, 173.2, -152.2]
Test object: org.iguanatool.casestudies.g.testobjects.gradient_calc_conical_sym_factor
6T	FAIL	100000	
6F	OK  	1	[-977.1, 371.3, -993.5, 886.1, 821.5]
8T	OK  	1	[-977.1, 371.3, -993.5, 886.1, 821.5]
8F	FAIL	100000	
10T	FAIL	100000	
10F	FAIL	100000	
16T	OK  	6	[-29.9, -521.6, 239.0, -289.3, 126.3]
16F	OK  	1	[-977.1, 371.3, -993.5, 886.1, 821.5]
18T	OK  	1	[-977.1, 371.3, -993.5, 886.1, 821.5]
18F	OK  	556	[-723.1, 162.1, 372.7, -774.9, 337.4]
23T	OK  	4	[492.0, 454.9, 524.0, 173.2, -152.2]
23F	OK  	1	[-977.1, 371.3, -993.5, 886.1, 821.5]
25T	FAIL	100000	
25F	OK  	1	[-977.1, 371.3, -993.5, 886.1, 821.5]
Test object: org.iguanatool.casestudies.g.testobjects.gradient_calc_linear_factor
3T	FAIL	100000	
3F	OK  	1	[-977.1, 371.3, -993.5, 886.1, 821.5]
8T	OK  	1	[-977.1, 371.3, -993.5, 886.1, 821.5]
8F	OK  	3	[5.7, 728.5, -957.1, -529.3, 569.5]
9T	OK  	805	[-214.0, 872.2, 267.0, 285.2, -933.0]
9F	OK  	1	[-977.1, 371.3, -993.5, 886.1, 821.5]
13T	OK  	16317	[-736.0034912109375, -603.604296875, 100.0, 498.203125, -532.5421875]
13F	OK  	1	[-977.1, 371.3, -993.5, 886.1, 821.5]
14T	OK  	16317	[-736.0034912109375, -603.604296875, 100.0, 498.203125, -532.5421875]
14F	OK  	16607	[-736.0034912109375, -603.604296875, 100.0, -791.81669921875, -532.5421875]
17T	OK  	3	[5.7, 728.5, -957.1, -529.3, 569.5]
17F	OK  	1	[-977.1, 371.3, -993.5, 886.1, 821.5]
Test object: org.iguanatool.casestudies.g.testobjects.gradient_calc_radial_factor
3T	OK  	23597	[0.0, -432.4223299560547, 146.89087585449215, 572.9143969726562]
3F	OK  	1	[-977.1, 371.3, -993.5, 886.1]
8T	OK  	1	[-977.1, 371.3, -993.5, 886.1]
8F	OK  	2	[821.5, -509.9, -210.2, -73.7]
10T	OK  	20700	[55.91221618652344, 100.0, -124.0671630859375, -296.4419677734375]
10F	OK  	2	[821.5, -509.9, -210.2, -73.7]
11T	OK  	20700	[55.91221618652344, 100.0, -124.0671630859375, -296.4419677734375]
11F	FAIL	100000	
Test object: org.iguanatool.casestudies.g.testobjects.gradient_calc_spiral_factor
9T	FAIL	100000	
9F	OK  	1	[-977.1, 371.3, -993.5, 886.1, 821.5, -509.9]
11T	OK  	1	[-977.1, 371.3, -993.5, 886.1, 821.5, -509.9]
11F	OK  	34294	[199.49561767578126, 168.19466888427732, 758.0874987792969, 0.0, -446.92638122558594, 830.3982351684572]
13T	OK  	34294	[199.49561767578126, 168.19466888427732, 758.0874987792969, 0.0, -446.92638122558594, 830.3982351684572]
13F	FAIL	100000	
19T	OK  	1	[-977.1, 371.3, -993.5, 886.1, 821.5, -509.9]
19F	OK  	152	[-750.7, 207.2, -768.5, -996.8, -960.1, -0.4]
22T	OK  	1	[-977.1, 371.3, -993.5, 886.1, 821.5, -509.9]
22F	OK  	2	[-210.2, -73.7, -24.2, 725.0, 5.7, 728.5]
Test object: org.iguanatool.casestudies.g.testobjects.gradient_calc_square_factor
9T	OK  	23597	[0.0, -432.4223299560547, 146.89087585449215, 572.9143969726562]
9F	OK  	1	[-977.1, 371.3, -993.5, 886.1]
14T	FAIL	100000	
14F	OK  	1	[-977.1, 371.3, -993.5, 886.1]
20T	OK  	1	[-977.1, 371.3, -993.5, 886.1]
20F	OK  	2	[821.5, -509.9, -210.2, -73.7]
22T	OK  	16386	[567.5487533569336, 100.0, 620.4797708129885, 625.60724609375]
22F	OK  	2	[821.5, -509.9, -210.2, -73.7]
23T	OK  	16386	[567.5487533569336, 100.0, 620.4797708129885, 625.60724609375]
23F	FAIL	100000	
Test object: org.iguanatool.casestudies.g.testobjects.main
