Test object: org.iguanatool.casestudies.g.testobjects.gradient_calc_bilinear_factor
5T	OK  	23278	[0.0, 648.5363896484375, -274.7769744873047, 700.4160644531249, 707.3221133117676]
5F	OK  	1	[149.8, -810.7, -823.9, 328.9, -439.3]
11T	OK  	377	[-263.1048828125, 884.6, 232.1, -75.6, 289.5]
11F	OK  	1	[149.8, -810.7, -823.9, 328.9, -439.3]
13T	OK  	11021	[-435.51526220703124, -876.7123565673829, 100.0, -567.7034301757812, 920.3401428222658]
13F	OK  	1	[149.8, -810.7, -823.9, 328.9, -439.3]
14T	FAIL	100000	
14F	OK  	11021	[-435.51526220703124, -876.7123565673829, 100.0, -567.7034301757812, 920.3401428222658]
Test object: org.iguanatool.casestudies.g.testobjects.gradient_calc_conical_asym_factor
8T	OK  	23278	[0.0, 648.5363896484375, -274.7769744873047, 700.4160644531249, 707.3221133117676]
8F	OK  	1	[149.8, -810.7, -823.9, 328.9, -439.3]
10T	OK  	1	[149.8, -810.7, -823.9, 328.9, -439.3]
10F	OK  	86275	[-751.5119557495117, -210.13637756347654, -844.7121277160644, 0.0, 367.09446716308594]
12T	OK  	86275	[-751.5119557495117, -210.13637756347654, -844.7121277160644, 0.0, 367.09446716308594]
12F	FAIL	100000	
19T	OK  	4	[-125.5, -440.8, 897.6, -56.5, -129.6]
19F	OK  	1	[149.8, -810.7, -823.9, 328.9, -439.3]
23T	OK  	1	[149.8, -810.7, -823.9, 328.9, -439.3]
23F	OK  	2	[850.9, -735.1, 390.5, 793.0, 106.7]
25T	FAIL	100000	
25F	OK  	2	[850.9, -735.1, 390.5, 793.0, 106.7]
Test object: org.iguanatool.casestudies.g.testobjects.gradient_calc_conical_sym_factor
6T	OK  	23278	[0.0, 648.5363896484375, -274.7769744873047, 700.4160644531249, 707.3221133117676]
6F	OK  	1	[149.8, -810.7, -823.9, 328.9, -439.3]
8T	OK  	1	[149.8, -810.7, -823.9, 328.9, -439.3]
8F	OK  	86275	[-751.5119557495117, -210.13637756347654, -844.7121277160644, 0.0, 367.09446716308594]
10T	OK  	86275	[-751.5119557495117, -210.13637756347654, -844.7121277160644, 0.0, 367.09446716308594]
10F	FAIL	100000	
16T	OK  	1	[149.8, -810.7, -823.9, 328.9, -439.3]
16F	OK  	2	[850.9, -735.1, 390.5, 793.0, 106.7]
18T	OK  	2	[850.9, -735.1, 390.5, 793.0, 106.7]
18F	OK  	357	[-500.9, -724.2, -176.4, 37.6, -155.2]
23T	OK  	1	[149.8, -810.7, -823.9, 328.9, -439.3]
23F	OK  	5	[773.8, 265.2, 173.5, 566.7, -447.9]
25T	FAIL	100000	
25F	OK  	5	[773.8, 265.2, 173.5, 566.7, -447.9]
Test object: org.iguanatool.casestudies.g.testobjects.gradient_calc_linear_factor
3T	OK  	23278	[0.0, 648.5363896484375, -274.7769744873047, 700.4160644531249, 707.3221133117676]
3F	OK  	1	[149.8, -810.7, -823.9, 328.9, -439.3]
8T	OK  	1	[149.8, -810.7, -823.9, 328.9, -439.3]
8F	OK  	2	[850.9, -735.1, 390.5, 793.0, 106.7]
9T	OK  	712	[-668.0, 785.8, 529.7872802734375, 263.4, -397.2]
9F	OK  	1	[149.8, -810.7, -823.9, 328.9, -439.3]
13T	OK  	11021	[-435.51526220703124, -876.7123565673829, 100.0, -567.7034301757812, 920.3401428222658]
13F	OK  	1	[149.8, -810.7, -823.9, 328.9, -439.3]
14T	OK  	11607	[-294.9793850708008, -876.5131500244141, 100.0, 838.0984344482422, -358.26108398437503]
14F	OK  	11021	[-435.51526220703124, -876.7123565673829, 100.0, -567.7034301757812, 920.3401428222658]
17T	OK  	2	[850.9, -735.1, 390.5, 793.0, 106.7]
17F	OK  	1	[149.8, -810.7, -823.9, 328.9, -439.3]
Test object: org.iguanatool.casestudies.g.testobjects.gradient_calc_radial_factor
3T	FAIL	100000	
3F	OK  	1	[149.8, -810.7, -823.9, 328.9]
8T	OK  	2	[-439.3, 850.9, -735.1, 390.5]
8F	OK  	1	[149.8, -810.7, -823.9, 328.9]
10T	FAIL	100000	
10F	OK  	1	[149.8, -810.7, -823.9, 328.9]
11T	FAIL	100000	
11F	FAIL	100000	
Test object: org.iguanatool.casestudies.g.testobjects.gradient_calc_spiral_factor
9T	OK  	47330	[0.0, -583.9020388793946, 689.4181744384766, 905.0470635986328, -170.80439178466798, -630.6924482421874]
9F	OK  	1	[149.8, -810.7, -823.9, 328.9, -439.3, 850.9]
11T	OK  	1	[149.8, -810.7, -823.9, 328.9, -439.3, 850.9]
11F	OK  	58862	[-967.7397961425781, 813.4986389160156, 2.2661459350585935, 0.0, -967.627933959961, -745.2596191406249]
13T	OK  	58862	[-967.7397961425781, 813.4986389160156, 2.2661459350585935, 0.0, -967.627933959961, -745.2596191406249]
13F	FAIL	100000	
19T	OK  	1	[149.8, -810.7, -823.9, 328.9, -439.3, 850.9]
19F	OK  	4154	[294.4, 991.025, -224.28504638671876, 213.05625, 916.759716796875, 0.0]
22T	OK  	3	[911.5, 882.9, -606.0, -125.5, -440.8, 897.6]
22F	OK  	1	[149.8, -810.7, -823.9, 328.9, -439.3, 850.9]
Test object: org.iguanatool.casestudies.g.testobjects.gradient_calc_square_factor
9T	FAIL	100000	
9F	OK  	1	[149.8, -810.7, -823.9, 328.9]
14T	FAIL	100000	
14F	OK  	1	[149.8, -810.7, -823.9, 328.9]
20T	OK  	2	[-439.3, 850.9, -735.1, 390.5]
20F	OK  	1	[149.8, -810.7, -823.9, 328.9]
22T	OK  	8538	[273.08366210937504, 100.0, 447.7709228515625, -178.20054748535156]
22F	OK  	1	[149.8, -810.7, -823.9, 328.9]
23T	OK  	8538	[273.08366210937504, 100.0, 447.7709228515625, -178.20054748535156]
23F	FAIL	100000	
Test object: org.iguanatool.casestudies.g.testobjects.main
