Test object: org.iguanatool.casestudies.g.testobjects.gradient_calc_bilinear_factor
5T	FAIL	100000	
5F	OK  	1	[-977.1, 371.3, -993.5, 886.1, 821.5]
11T	OK  	410	[492.0, 454.9, 524.0, 173.2, -152.2]
11F	OK  	1	[-977.1, 371.3, -993.5, 886.1, 821.5]
13T	OK  	190	[-509.9, -210.2, 100.0, -24.2, 725.0]
13F	OK  	1	[-977.1, 371.3, -993.5, 886.1, 821.5]
14T	FAIL	100000	
14F	OK  	190	[-509.9, -210.2, 100.0, -24.2, 725.0]
Test object: org.iguanatool.casestudies.g.testobjects.gradient_calc_conical_asym_factor
8T	FAIL	100000	
8F	OK  	1	[-977.1, 371.3, -993.5, 886.1, 821.5]
10T	OK  	1	[-977.1, 371.3, -993.5, 886.1, 821.5]
10F	FAIL	100000	
12T	FAIL	100000	
12F	FAIL	100000	
19T	OK  	1	[-977.1, 371.3, -993.5, 886.1, 821.5]
19F	OK  	48	[-977.1, 780.8, 644.8000000000001, 988.4000000000001, 815.1999999999999]
23T	OK  	1	[-977.1, 371.3, -993.5, 886.1, 821.5]
23F	OK  	31	[-977.1, 780.8, 644.8000000000001, 886.1, 821.5]
25T	FAIL	100000	
25F	OK  	31	[-977.1, 780.8, 644.8000000000001, 886.1, 821.5]
Test object: org.iguanatool.casestudies.g.testobjects.gradient_calc_conical_sym_factor
6T	FAIL	100000	
6F	OK  	1	[-977.1, 371.3, -993.5, 886.1, 821.5]
8T	OK  	1	[-977.1, 371.3, -993.5, 886.1, 821.5]
8F	FAIL	100000	
10T	FAIL	100000	
10F	FAIL	100000	
16T	OK  	28	[-977.1, 780.8, -788.8, 886.1, 821.5]
16F	OK  	1	[-977.1, 371.3, -993.5, 886.1, 821.5]
18T	OK  	1	[-977.1, 371.3, -993.5, 886.1, 821.5]
18F	OK  	38	[-977.1, 780.8, -891.1999999999999, 937.2, 821.5]
23T	OK  	19	[-977.1, 371.3, -174.39999999999998, 886.1, 821.5]
23F	OK  	1	[-977.1, 371.3, -993.5, 886.1, 821.5]
25T	FAIL	100000	
25F	OK  	1	[-977.1, 371.3, -993.5, 886.1, 821.5]
Test object: org.iguanatool.casestudies.g.testobjects.gradient_calc_linear_factor
3T	FAIL	100000	
3F	OK  	1	[-977.1, 371.3, -993.5, 886.1, 821.5]
8T	OK  	1	[-977.1, 371.3, -993.5, 886.1, 821.5]
8F	OK  	34	[-989.8000000000001, 780.8, -788.8, 886.1, 821.5]
9T	OK  	441	[901.5, 461.2, 524.0, 173.2, -152.2]
9F	OK  	1	[-977.1, 371.3, -993.5, 886.1, 821.5]
13T	OK  	190	[-509.9, -210.2, 100.0, -24.2, 725.0]
13F	OK  	1	[-977.1, 371.3, -993.5, 886.1, 821.5]
14T	OK  	204	[-509.9, -210.2, 100.0, 385.3, 725.0]
14F	OK  	190	[-509.9, -210.2, 100.0, -24.2, 725.0]
17T	OK  	34	[-989.8000000000001, 780.8, -788.8, 886.1, 821.5]
17F	OK  	1	[-977.1, 371.3, -993.5, 886.1, 821.5]
Test object: org.iguanatool.casestudies.g.testobjects.gradient_calc_radial_factor
3T	FAIL	100000	
3F	OK  	1	[-977.1, 371.3, -993.5, 886.1]
8T	OK  	1	[-977.1, 371.3, -993.5, 886.1]
8F	OK  	22	[-989.8000000000001, -447.80000000000007, -993.5, 886.1]
10T	OK  	2571	[387.3, 100.0, -857.3, 26.8]
10F	OK  	22	[-989.8000000000001, -447.80000000000007, -993.5, 886.1]
11T	OK  	2571	[387.3, 100.0, -857.3, 26.8]
11F	FAIL	100000	
Test object: org.iguanatool.casestudies.g.testobjects.gradient_calc_spiral_factor
9T	FAIL	100000	
9F	OK  	1	[-977.1, 371.3, -993.5, 886.1, 821.5, -509.9]
11T	OK  	1	[-977.1, 371.3, -993.5, 886.1, 821.5, -509.9]
11F	FAIL	100000	
13T	FAIL	100000	
13F	FAIL	100000	
19T	OK  	1	[-977.1, 371.3, -993.5, 886.1, 821.5, -509.9]
19F	OK  	2116	[-750.7, 207.2, -768.5, -996.8, -960.1, -0.4]
22T	OK  	1	[-977.1, 371.3, -993.5, 886.1, 821.5, -509.9]
22F	OK  	48	[-977.1, 780.8, 644.8000000000001, 988.4000000000001, 815.1999999999999, -509.9]
Test object: org.iguanatool.casestudies.g.testobjects.gradient_calc_square_factor
9T	FAIL	100000	
9F	OK  	1	[-977.1, 371.3, -993.5, 886.1]
14T	FAIL	100000	
14F	OK  	1	[-977.1, 371.3, -993.5, 886.1]
20T	OK  	1	[-977.1, 371.3, -993.5, 886.1]
20F	OK  	130	[821.5, -509.9, -210.2, -73.7]
22T	OK  	2650	[894.4, 100.0, 805.6, 383.1]
22F	OK  	130	[821.5, -509.9, -210.2, -73.7]
23T	OK  	2650	[894.4, 100.0, 805.6, 383.1]
23F	FAIL	100000	
Test object: org.iguanatool.casestudies.g.testobjects.main
