Test object: org.iguanatool.casestudies.g.testobjects.gradient_calc_bilinear_factor
5T	OK  	7214	[0.0, 172.9, 487.4, 346.8, -789.5]
5F	OK  	1	[-192.4, 753.0, 979.0, 831.3, -990.9]
11T	OK  	1369	[-325.5, 95.4, 424.6, -272.2, 62.1]
11F	OK  	1	[-192.4, 753.0, 979.0, 831.3, -990.9]
13T	OK  	34542	[-458.6, 692.3, 100.0, -256.8, -62.4]
13F	OK  	1	[-192.4, 753.0, 979.0, 831.3, -990.9]
14T	FAIL	100000	
14F	OK  	34542	[-458.6, 692.3, 100.0, -256.8, -62.4]
Test object: org.iguanatool.casestudies.g.testobjects.gradient_calc_conical_asym_factor
8T	OK  	7214	[0.0, 172.9, 487.4, 346.8, -789.5]
8F	OK  	1	[-192.4, 753.0, 979.0, 831.3, -990.9]
10T	OK  	1	[-192.4, 753.0, 979.0, 831.3, -990.9]
10F	OK  	28251	[-798.2, 913.7, -246.5, 0.0, -296.1]
12T	OK  	28251	[-798.2, 913.7, -246.5, 0.0, -296.1]
12F	FAIL	100000	
19T	OK  	2	[387.3, 279.5, -677.6, 267.8, 973.1]
19F	OK  	1	[-192.4, 753.0, 979.0, 831.3, -990.9]
23T	OK  	2	[387.3, 279.5, -677.6, 267.8, 973.1]
23F	OK  	1	[-192.4, 753.0, 979.0, 831.3, -990.9]
25T	FAIL	100000	
25F	OK  	1	[-192.4, 753.0, 979.0, 831.3, -990.9]
Test object: org.iguanatool.casestudies.g.testobjects.gradient_calc_conical_sym_factor
6T	OK  	7214	[0.0, 172.9, 487.4, 346.8, -789.5]
6F	OK  	1	[-192.4, 753.0, 979.0, 831.3, -990.9]
8T	OK  	1	[-192.4, 753.0, 979.0, 831.3, -990.9]
8F	OK  	28251	[-798.2, 913.7, -246.5, 0.0, -296.1]
10T	OK  	28251	[-798.2, 913.7, -246.5, 0.0, -296.1]
10F	FAIL	100000	
16T	OK  	6	[-101.2, -818.7, 778.1, -312.4, 911.7]
16F	OK  	1	[-192.4, 753.0, 979.0, 831.3, -990.9]
18T	OK  	1	[-192.4, 753.0, 979.0, 831.3, -990.9]
18F	OK  	903	[-784.6, 263.7, -201.7, 739.0, 966.6]
23T	OK  	1	[-192.4, 753.0, 979.0, 831.3, -990.9]
23F	OK  	2	[387.3, 279.5, -677.6, 267.8, 973.1]
25T	FAIL	100000	
25F	OK  	2	[387.3, 279.5, -677.6, 267.8, 973.1]
Test object: org.iguanatool.casestudies.g.testobjects.gradient_calc_linear_factor
3T	OK  	7214	[0.0, 172.9, 487.4, 346.8, -789.5]
3F	OK  	1	[-192.4, 753.0, 979.0, 831.3, -990.9]
8T	OK  	1	[-192.4, 753.0, 979.0, 831.3, -990.9]
8F	OK  	2	[387.3, 279.5, -677.6, 267.8, 973.1]
9T	OK  	2167	[718.0, 291.6, 455.4, -259.4, 168.0]
9F	OK  	1	[-192.4, 753.0, 979.0, 831.3, -990.9]
13T	OK  	34542	[-458.6, 692.3, 100.0, -256.8, -62.4]
13F	OK  	1	[-192.4, 753.0, 979.0, 831.3, -990.9]
14T	OK  	34542	[-458.6, 692.3, 100.0, -256.8, -62.4]
14F	OK  	42293	[567.9, -84.8, 100.0, 597.6, -852.5]
17T	OK  	2	[387.3, 279.5, -677.6, 267.8, 973.1]
17F	OK  	1	[-192.4, 753.0, 979.0, 831.3, -990.9]
Test object: org.iguanatool.casestudies.g.testobjects.gradient_calc_radial_factor
3T	OK  	9592	[0.0, 156.5, 278.4, 226.4]
3F	OK  	1	[-192.4, 753.0, 979.0, 831.3]
8T	OK  	1	[-192.4, 753.0, 979.0, 831.3]
8F	OK  	4	[575.7, -643.9, -701.2, 91.9]
10T	OK  	7107	[905.3, 100.0, -326.4, -921.4]
10F	OK  	4	[575.7, -643.9, -701.2, 91.9]
11T	OK  	7107	[905.3, 100.0, -326.4, -921.4]
11F	FAIL	100000	
Test object: org.iguanatool.casestudies.g.testobjects.gradient_calc_spiral_factor
9T	OK  	6395	[0.0, 156.5, 278.4, 226.4, -535.2, -917.6]
9F	OK  	1	[-192.4, 753.0, 979.0, 831.3, -990.9, 387.3]
11T	OK  	1	[-192.4, 753.0, 979.0, 831.3, -990.9, 387.3]
11F	OK  	21299	[-829.1, -616.7, -794.4, 0.0, 524.9, 742.7]
13T	OK  	21299	[-829.1, -616.7, -794.4, 0.0, 524.9, 742.7]
13F	FAIL	100000	
19T	OK  	1	[-192.4, 753.0, 979.0, 831.3, -990.9, 387.3]
19F	OK  	3777	[-637.1, 167.3, 477.4, -202.6, -89.0, -0.2]
22T	OK  	4	[712.8, 423.5, 238.0, -567.3, 686.2, -657.0]
22F	OK  	1	[-192.4, 753.0, 979.0, 831.3, -990.9, 387.3]
Test object: org.iguanatool.casestudies.g.testobjects.gradient_calc_square_factor
9T	OK  	9592	[0.0, 156.5, 278.4, 226.4]
9F	OK  	1	[-192.4, 753.0, 979.0, 831.3]
14T	FAIL	100000	
14F	OK  	1	[-192.4, 753.0, 979.0, 831.3]
20T	OK  	1	[-192.4, 753.0, 979.0, 831.3]
20F	OK  	3	[267.8, 973.1, 325.3, 256.1]
22T	OK  	7107	[905.3, 100.0, -326.4, -921.4]
22F	OK  	3	[267.8, 973.1, 325.3, 256.1]
23T	OK  	7107	[905.3, 100.0, -326.4, -921.4]
23F	FAIL	100000	
Test object: org.iguanatool.casestudies.g.testobjects.main
