Test object: org.iguanatool.casestudies.g.testobjects.gradient_calc_bilinear_factor
5T	OK  	6757	[0.0, -624.5, -978.7, -443.9, -252.6]
5F	OK  	1	[-933.0, 331.7, -163.4, 694.8, 3.1]
11T	OK  	225	[261.9, -186.5, 871.8, -942.7, -199.9]
11F	OK  	1	[-933.0, 331.7, -163.4, 694.8, 3.1]
13T	OK  	348	[-716.3, -577.4, 100.0, 900.2, 275.0]
13F	OK  	1	[-933.0, 331.7, -163.4, 694.8, 3.1]
14T	FAIL	100000	
14F	OK  	348	[-716.3, -577.4, 100.0, 900.2, 275.0]
Test object: org.iguanatool.casestudies.g.testobjects.gradient_calc_conical_asym_factor
8T	OK  	6757	[0.0, -624.5, -978.7, -443.9, -252.6]
8F	OK  	1	[-933.0, 331.7, -163.4, 694.8, 3.1]
10T	OK  	1	[-933.0, 331.7, -163.4, 694.8, 3.1]
10F	OK  	26336	[293.2, -905.2, -54.9, 0.0, 464.6]
12T	OK  	26336	[293.2, -905.2, -54.9, 0.0, 464.6]
12F	FAIL	100000	
19T	OK  	1	[-933.0, 331.7, -163.4, 694.8, 3.1]
19F	OK  	5	[418.3, 940.6, 231.2, 626.0, -693.5]
23T	OK  	1	[-933.0, 331.7, -163.4, 694.8, 3.1]
23F	OK  	3	[-160.6, -686.3, 865.3, -225.5, -5.5]
25T	FAIL	100000	
25F	OK  	3	[-160.6, -686.3, 865.3, -225.5, -5.5]
Test object: org.iguanatool.casestudies.g.testobjects.gradient_calc_conical_sym_factor
6T	OK  	6757	[0.0, -624.5, -978.7, -443.9, -252.6]
6F	OK  	1	[-933.0, 331.7, -163.4, 694.8, 3.1]
8T	OK  	1	[-933.0, 331.7, -163.4, 694.8, 3.1]
8F	OK  	26336	[293.2, -905.2, -54.9, 0.0, 464.6]
10T	OK  	26336	[293.2, -905.2, -54.9, 0.0, 464.6]
10F	FAIL	100000	
16T	OK  	1	[-933.0, 331.7, -163.4, 694.8, 3.1]
16F	OK  	6	[-296.8, -943.1, 485.8, 513.5, -530.2]
18T	OK  	6	[-296.8, -943.1, 485.8, 513.5, -530.2]
18F	OK  	708	[198.2, -180.5, 189.9, 991.7, 948.0]
23T	OK  	1	[-933.0, 331.7, -163.4, 694.8, 3.1]
23F	OK  	3	[-160.6, -686.3, 865.3, -225.5, -5.5]
25T	FAIL	100000	
25F	OK  	3	[-160.6, -686.3, 865.3, -225.5, -5.5]
Test object: org.iguanatool.casestudies.g.testobjects.gradient_calc_linear_factor
3T	OK  	6757	[0.0, -624.5, -978.7, -443.9, -252.6]
3F	OK  	1	[-933.0, 331.7, -163.4, 694.8, 3.1]
8T	OK  	4	[495.2, -348.0, 162.4, -364.9, -71.0]
8F	OK  	1	[-933.0, 331.7, -163.4, 694.8, 3.1]
9T	OK  	225	[261.9, -186.5, 871.8, -942.7, -199.9]
9F	OK  	4	[495.2, -348.0, 162.4, -364.9, -71.0]
13T	OK  	348	[-716.3, -577.4, 100.0, 900.2, 275.0]
13F	OK  	1	[-933.0, 331.7, -163.4, 694.8, 3.1]
14T	OK  	348	[-716.3, -577.4, 100.0, 900.2, 275.0]
14F	OK  	12888	[961.5, -28.0, 100.0, -790.1, -684.9]
17T	OK  	1	[-933.0, 331.7, -163.4, 694.8, 3.1]
17F	OK  	4	[495.2, -348.0, 162.4, -364.9, -71.0]
Test object: org.iguanatool.casestudies.g.testobjects.gradient_calc_radial_factor
3T	OK  	8446	[0.0, -624.5, -978.7, -443.9]
3F	OK  	1	[-933.0, 331.7, -163.4, 694.8]
8T	OK  	1	[-933.0, 331.7, -163.4, 694.8]
8F	OK  	2	[3.1, -206.2, -626.3, -47.9]
10T	OK  	9514	[10.7, 100.0, 299.8, -708.9]
10F	OK  	2	[3.1, -206.2, -626.3, -47.9]
11T	OK  	9514	[10.7, 100.0, 299.8, -708.9]
11F	FAIL	100000	
Test object: org.iguanatool.casestudies.g.testobjects.gradient_calc_spiral_factor
9T	OK  	5631	[0.0, -624.5, -978.7, -443.9, -252.6, 396.0]
9F	OK  	1	[-933.0, 331.7, -163.4, 694.8, 3.1, -206.2]
11T	OK  	1	[-933.0, 331.7, -163.4, 694.8, 3.1, -206.2]
11F	OK  	4547	[616.2, 779.8, 932.5, 0.0, -5.1, 261.4]
13T	OK  	4547	[616.2, 779.8, 932.5, 0.0, -5.1, 261.4]
13F	FAIL	100000	
19T	OK  	1	[-933.0, 331.7, -163.4, 694.8, 3.1, -206.2]
19F	OK  	2256	[-895.5, -706.1, 739.8, -905.8, -743.3, 0.1]
22T	OK  	1	[-933.0, 331.7, -163.4, 694.8, 3.1, -206.2]
22F	OK  	2	[-626.3, -47.9, -706.1, -406.0, -160.6, -686.3]
Test object: org.iguanatool.casestudies.g.testobjects.gradient_calc_square_factor
9T	OK  	8446	[0.0, -624.5, -978.7, -443.9]
9F	OK  	1	[-933.0, 331.7, -163.4, 694.8]
14T	FAIL	100000	
14F	OK  	1	[-933.0, 331.7, -163.4, 694.8]
20T	OK  	1	[-933.0, 331.7, -163.4, 694.8]
20F	OK  	2	[3.1, -206.2, -626.3, -47.9]
22T	OK  	9514	[10.7, 100.0, 299.8, -708.9]
22F	OK  	2	[3.1, -206.2, -626.3, -47.9]
23T	OK  	9514	[10.7, 100.0, 299.8, -708.9]
23F	FAIL	100000	
Test object: org.iguanatool.casestudies.g.testobjects.main
