Test object: org.iguanatool.casestudies.g.testobjects.gradient_calc_bilinear_factor
5T	OK  	29439	[0.0, -65.3, -330.3, 856.6, -952.2]
5F	OK  	1	[-383.6, 285.3, 810.4, 817.8, -844.7]
11T	OK  	42	[511.1, -230.9, 766.7, -875.8, -259.4]
11F	OK  	1	[-383.6, 285.3, 810.4, 817.8, -844.7]
13T	OK  	447	[-342.7, 590.4, 100.0, -607.1, 291.5]
13F	OK  	1	[-383.6, 285.3, 810.4, 817.8, -844.7]
14T	FAIL	100000	
14F	OK  	447	[-342.7, 590.4, 100.0, -607.1, 291.5]
Test object: org.iguanatool.casestudies.g.testobjects.gradient_calc_conical_asym_factor
8T	OK  	29439	[0.0, -65.3, -330.3, 856.6, -952.2]
8F	OK  	1	[-383.6, 285.3, 810.4, 817.8, -844.7]
10T	OK  	1	[-383.6, 285.3, 810.4, 817.8, -844.7]
10F	OK  	5473	[885.2, -585.3, -987.4, 0.0, 270.6]
12T	OK  	5473	[885.2, -585.3, -987.4, 0.0, 270.6]
12F	FAIL	100000	
19T	OK  	3	[-886.3, -687.3, 430.8, -331.0, -499.5]
19F	OK  	1	[-383.6, 285.3, 810.4, 817.8, -844.7]
23T	OK  	2	[44.4, -258.9, -846.0, 63.6, -425.1]
23F	OK  	1	[-383.6, 285.3, 810.4, 817.8, -844.7]
25T	FAIL	100000	
25F	OK  	1	[-383.6, 285.3, 810.4, 817.8, -844.7]
Test object: org.iguanatool.casestudies.g.testobjects.gradient_calc_conical_sym_factor
6T	OK  	29439	[0.0, -65.3, -330.3, 856.6, -952.2]
6F	OK  	1	[-383.6, 285.3, 810.4, 817.8, -844.7]
8T	OK  	1	[-383.6, 285.3, 810.4, 817.8, -844.7]
8F	OK  	5473	[885.2, -585.3, -987.4, 0.0, 270.6]
10T	OK  	5473	[885.2, -585.3, -987.4, 0.0, 270.6]
10F	FAIL	100000	
16T	OK  	2	[44.4, -258.9, -846.0, 63.6, -425.1]
16F	OK  	1	[-383.6, 285.3, 810.4, 817.8, -844.7]
18T	OK  	1	[-383.6, 285.3, 810.4, 817.8, -844.7]
18F	OK  	168	[-527.9, -430.1, -845.5, -816.1, 415.8]
23T	OK  	1	[-383.6, 285.3, 810.4, 817.8, -844.7]
23F	OK  	3	[-886.3, -687.3, 430.8, -331.0, -499.5]
25T	FAIL	100000	
25F	OK  	3	[-886.3, -687.3, 430.8, -331.0, -499.5]
Test object: org.iguanatool.casestudies.g.testobjects.gradient_calc_linear_factor
3T	OK  	29439	[0.0, -65.3, -330.3, 856.6, -952.2]
3F	OK  	1	[-383.6, 285.3, 810.4, 817.8, -844.7]
8T	OK  	1	[-383.6, 285.3, 810.4, 817.8, -844.7]
8F	OK  	3	[-886.3, -687.3, 430.8, -331.0, -499.5]
9T	OK  	42	[511.1, -230.9, 766.7, -875.8, -259.4]
9F	OK  	1	[-383.6, 285.3, 810.4, 817.8, -844.7]
13T	OK  	447	[-342.7, 590.4, 100.0, -607.1, 291.5]
13F	OK  	1	[-383.6, 285.3, 810.4, 817.8, -844.7]
14T	OK  	447	[-342.7, 590.4, 100.0, -607.1, 291.5]
14F	FAIL	100000	
17T	OK  	3	[-886.3, -687.3, 430.8, -331.0, -499.5]
17F	OK  	1	[-383.6, 285.3, 810.4, 817.8, -844.7]
Test object: org.iguanatool.casestudies.g.testobjects.gradient_calc_radial_factor
3T	OK  	3000	[0.0, -72.5, 23.6, -6.3]
3F	OK  	1	[-383.6, 285.3, 810.4, 817.8]
8T	OK  	1	[-383.6, 285.3, 810.4, 817.8]
8F	OK  	3	[63.6, -425.1, -886.3, -687.3]
10T	OK  	20050	[654.9, 100.0, 126.7, -754.4]
10F	OK  	3	[63.6, -425.1, -886.3, -687.3]
11T	OK  	20050	[654.9, 100.0, 126.7, -754.4]
11F	FAIL	100000	
Test object: org.iguanatool.casestudies.g.testobjects.gradient_calc_spiral_factor
9T	OK  	15370	[0.0, 597.0, -181.7, -99.9, -95.3, 293.6]
9F	OK  	1	[-383.6, 285.3, 810.4, 817.8, -844.7, 44.4]
11T	OK  	1	[-383.6, 285.3, 810.4, 817.8, -844.7, 44.4]
11F	OK  	4561	[885.2, -585.3, -987.4, 0.0, 270.6, -457.4]
13T	OK  	4561	[885.2, -585.3, -987.4, 0.0, 270.6, -457.4]
13F	FAIL	100000	
19T	OK  	1	[-383.6, 285.3, 810.4, 817.8, -844.7, 44.4]
19F	OK  	480	[-98.4, 816.9, 370.7, 865.9, -432.0, 0.9]
22T	OK  	2	[-258.9, -846.0, 63.6, -425.1, -886.3, -687.3]
22F	OK  	1	[-383.6, 285.3, 810.4, 817.8, -844.7, 44.4]
Test object: org.iguanatool.casestudies.g.testobjects.gradient_calc_square_factor
9T	OK  	3000	[0.0, -72.5, 23.6, -6.3]
9F	OK  	1	[-383.6, 285.3, 810.4, 817.8]
14T	FAIL	100000	
14F	OK  	1	[-383.6, 285.3, 810.4, 817.8]
20T	OK  	1	[-383.6, 285.3, 810.4, 817.8]
20F	OK  	3	[63.6, -425.1, -886.3, -687.3]
22T	OK  	20050	[654.9, 100.0, 126.7, -754.4]
22F	OK  	3	[63.6, -425.1, -886.3, -687.3]
23T	OK  	20050	[654.9, 100.0, 126.7, -754.4]
23F	FAIL	100000	
Test object: org.iguanatool.casestudies.g.testobjects.main
