Test object: org.iguanatool.casestudies.g.testobjects.gradient_calc_bilinear_factor
5T	OK  	12699	[0.0, -898.1, 109.0, 453.3, 902.8]
5F	OK  	1	[516.7, 156.2, -970.6, -920.8, 284.7]
11T	OK  	529	[-310.9, 376.9, 655.4, -504.4, 292.6]
11F	OK  	1	[516.7, 156.2, -970.6, -920.8, 284.7]
13T	OK  	1026	[-493.5, -827.4, 100.0, 683.7, -199.4]
13F	OK  	1	[516.7, 156.2, -970.6, -920.8, 284.7]
14T	FAIL	100000	
14F	OK  	1026	[-493.5, -827.4, 100.0, 683.7, -199.4]
Test object: org.iguanatool.casestudies.g.testobjects.gradient_calc_conical_asym_factor
8T	OK  	12699	[0.0, -898.1, 109.0, 453.3, 902.8]
8F	OK  	1	[516.7, 156.2, -970.6, -920.8, 284.7]
10T	OK  	1	[516.7, 156.2, -970.6, -920.8, 284.7]
10F	FAIL	100000	
12T	FAIL	100000	
12F	FAIL	100000	
19T	OK  	1	[516.7, 156.2, -970.6, -920.8, 284.7]
19F	OK  	2	[-407.3, -469.0, 625.5, 698.2, 139.1]
23T	OK  	1	[516.7, 156.2, -970.6, -920.8, 284.7]
23F	OK  	2	[-407.3, -469.0, 625.5, 698.2, 139.1]
25T	FAIL	100000	
25F	OK  	2	[-407.3, -469.0, 625.5, 698.2, 139.1]
Test object: org.iguanatool.casestudies.g.testobjects.gradient_calc_conical_sym_factor
6T	OK  	12699	[0.0, -898.1, 109.0, 453.3, 902.8]
6F	OK  	1	[516.7, 156.2, -970.6, -920.8, 284.7]
8T	OK  	1	[516.7, 156.2, -970.6, -920.8, 284.7]
8F	FAIL	100000	
10T	FAIL	100000	
10F	FAIL	100000	
16T	OK  	4	[-7.6, 573.8, 847.9, 153.8, 333.9]
16F	OK  	1	[516.7, 156.2, -970.6, -920.8, 284.7]
18T	OK  	1	[516.7, 156.2, -970.6, -920.8, 284.7]
18F	OK  	1006	[-97.1, 37.5, -135.8, -931.2, -256.3]
23T	OK  	2	[-407.3, -469.0, 625.5, 698.2, 139.1]
23F	OK  	1	[516.7, 156.2, -970.6, -920.8, 284.7]
25T	FAIL	100000	
25F	OK  	1	[516.7, 156.2, -970.6, -920.8, 284.7]
Test object: org.iguanatool.casestudies.g.testobjects.gradient_calc_linear_factor
3T	OK  	12699	[0.0, -898.1, 109.0, 453.3, 902.8]
3F	OK  	1	[516.7, 156.2, -970.6, -920.8, 284.7]
8T	OK  	2	[-407.3, -469.0, 625.5, 698.2, 139.1]
8F	OK  	1	[516.7, 156.2, -970.6, -920.8, 284.7]
9T	OK  	1687	[-936.1, 28.3, 940.0, -338.4, 4.3]
9F	OK  	2	[-407.3, -469.0, 625.5, 698.2, 139.1]
13T	OK  	1026	[-493.5, -827.4, 100.0, 683.7, -199.4]
13F	OK  	1	[516.7, 156.2, -970.6, -920.8, 284.7]
14T	OK  	1026	[-493.5, -827.4, 100.0, 683.7, -199.4]
14F	OK  	1956	[702.0, 236.7, 100.0, 214.6, -710.8]
17T	OK  	1	[516.7, 156.2, -970.6, -920.8, 284.7]
17F	OK  	2	[-407.3, -469.0, 625.5, 698.2, 139.1]
Test object: org.iguanatool.casestudies.g.testobjects.gradient_calc_radial_factor
3T	OK  	16979	[0.0, -478.5, -845.7, 491.8]
3F	OK  	1	[516.7, 156.2, -970.6, -920.8]
8T	OK  	3	[698.2, 139.1, 68.4, 927.6]
8F	OK  	1	[516.7, 156.2, -970.6, -920.8]
10T	OK  	2445	[236.7, 100.0, 214.6, -710.8]
10F	OK  	1	[516.7, 156.2, -970.6, -920.8]
11T	OK  	2445	[236.7, 100.0, 214.6, -710.8]
11F	FAIL	100000	
Test object: org.iguanatool.casestudies.g.testobjects.gradient_calc_spiral_factor
9T	OK  	48251	[0.0, 621.8, 930.0, 850.8, 69.0, 860.3]
9F	OK  	1	[516.7, 156.2, -970.6, -920.8, 284.7, -407.3]
11T	OK  	1	[516.7, 156.2, -970.6, -920.8, 284.7, -407.3]
11F	OK  	17265	[483.2, 871.4, 198.3, 0.0, 819.8, 380.6]
13T	OK  	17265	[483.2, 871.4, 198.3, 0.0, 819.8, 380.6]
13F	FAIL	100000	
19T	OK  	1	[516.7, 156.2, -970.6, -920.8, 284.7, -407.3]
19F	OK  	368	[872.5, 830.2, 1.8, 435.6, -647.4, -0.8]
22T	OK  	1	[516.7, 156.2, -970.6, -920.8, 284.7, -407.3]
22F	OK  	2	[-469.0, 625.5, 698.2, 139.1, 68.4, 927.6]
Test object: org.iguanatool.casestudies.g.testobjects.gradient_calc_square_factor
9T	OK  	16979	[0.0, -478.5, -845.7, 491.8]
9F	OK  	1	[516.7, 156.2, -970.6, -920.8]
14T	FAIL	100000	
14F	OK  	1	[516.7, 156.2, -970.6, -920.8]
20T	OK  	10	[-334.7, -670.8, -778.7, 973.0]
20F	OK  	1	[516.7, 156.2, -970.6, -920.8]
22T	OK  	2445	[236.7, 100.0, 214.6, -710.8]
22F	OK  	1	[516.7, 156.2, -970.6, -920.8]
23T	OK  	2445	[236.7, 100.0, 214.6, -710.8]
23F	FAIL	100000	
Test object: org.iguanatool.casestudies.g.testobjects.main
