Test object: org.iguanatool.casestudies.gamma.testobjects.gammafn
7T	FAIL	100000	
7F	FAIL	100000	
12T	FAIL	100000	
12F	OK  	1	[142.3]
14T	OK  	4	[-121.0]
14F	OK  	1	[142.3]
18T	OK  	311	[-8.95]
18F	OK  	1	[142.3]
20T	OK  	311	[-8.95]
20F	OK  	600	[9.706103515625003]
25T	OK  	2007	[1.9430664062500007]
25F	OK  	311	[-8.95]
27T	OK  	311	[-8.95]
27F	OK  	600	[9.706103515625003]
28T	FAIL	100000	
28F	OK  	311	[-8.95]
30T	FAIL	100000	
30F	OK  	311	[-8.95]
32T	FAIL	100000	
32F	FAIL	100000	
36T	OK  	16284	[-0.9781250000000057]
36F	OK  	16284	[-0.9781250000000057]
39T	OK  	14652	[4.176293945312494]
39F	OK  	14652	[4.176293945312494]
42T	OK  	6	[604.1]
42F	OK  	1	[142.3]
45T	OK  	3	[-582.6]
45F	OK  	1	[142.3]
48T	OK  	12665	[22.0]
48F	OK  	1	[142.3]
50T	FAIL	100000	
50F	FAIL	100000	
53T	OK  	1	[142.3]
53F	OK  	12	[-84.6]
55T	OK  	4531	[-59.000000610351556]
55F	OK  	12	[-84.6]
58T	FAIL	100000	
58F	OK  	12	[-84.6]
