Test object: org.iguanatool.casestudies.gamma.testobjects.gammafn
7T	FAIL	100000	
7F	FAIL	100000	
12T	FAIL	100000	
12F	OK  	1	[382.6]
14T	OK  	18	[-873.0]
14F	OK  	1	[382.6]
18T	OK  	112	[-3.9]
18F	OK  	1	[382.6]
20T	OK  	112	[-3.9]
20F	OK  	1155	[8.537500000000001]
25T	OK  	1938	[1.6494140625]
25F	OK  	112	[-3.9]
27T	OK  	112	[-3.9]
27F	OK  	1155	[8.537500000000001]
28T	FAIL	100000	
28F	OK  	112	[-3.9]
30T	FAIL	100000	
30F	OK  	112	[-3.9]
32T	FAIL	100000	
32F	FAIL	100000	
36T	OK  	112	[-3.9]
36F	OK  	112	[-3.9]
39T	OK  	600	[5.237499999999997]
39F	OK  	600	[5.237499999999997]
42T	OK  	1	[382.6]
42F	OK  	2	[22.6]
45T	OK  	5	[-436.1]
45F	OK  	2	[22.6]
48T	OK  	29816	[36.0]
48F	OK  	2	[22.6]
50T	OK  	8640	[44.0]
50F	OK  	8640	[44.0]
53T	OK  	2	[22.6]
53F	OK  	19	[-110.6]
55T	OK  	5937	[-105.00000030517577]
55F	OK  	19	[-110.6]
58T	FAIL	100000	
58F	OK  	19	[-110.6]
