Test object: org.iguanatool.casestudies.gamma.testobjects.gammafn
7T	FAIL	100000	
7F	FAIL	100000	
12T	FAIL	100000	
12F	OK  	1	[-870.8]
14T	OK  	10	[-96.0]
14F	OK  	1	[-870.8]
18T	OK  	26	[-0.59999999999987]
18F	OK  	1	[-870.8]
20T	OK  	26	[-0.59999999999987]
20F	OK  	31	[0.10000000000013004]
25T	OK  	53	[1.4999999999999414]
25F	OK  	26	[-0.59999999999987]
27T	OK  	26	[-0.59999999999987]
27F	OK  	162	[2.399999999999938]
28T	FAIL	100000	
28F	OK  	26	[-0.59999999999987]
30T	FAIL	100000	
30F	OK  	26	[-0.59999999999987]
32T	FAIL	100000	
32F	FAIL	100000	
36T	OK  	16	[0.9]
36F	OK  	16	[0.9]
39T	OK  	652	[9.6]
39F	OK  	652	[9.6]
42T	OK  	16	[767.5000000000002]
42F	OK  	1	[-870.8]
45T	OK  	1	[-870.8]
45F	OK  	15	[-51.699999999999875]
48T	OK  	126	[26.0]
48F	OK  	15	[-51.699999999999875]
50T	OK  	542	[46.0]
50F	OK  	542	[46.0]
53T	OK  	62	[26.999999999999943]
53F	OK  	15	[-51.699999999999875]
55T	OK  	18	[-51.99999999999988]
55F	OK  	15	[-51.699999999999875]
58T	FAIL	100000	
58F	OK  	15	[-51.699999999999875]
