Test object: org.iguanatool.casestudies.gamma.testobjects.gammafn
7T	FAIL	100000	
7F	FAIL	100000	
12T	FAIL	100000	
12F	OK  	1	[-65.4]
14T	OK  	5	[-988.0]
14F	OK  	1	[-65.4]
18T	OK  	81	[2.6]
18F	OK  	1	[-65.4]
20T	OK  	255	[-3.9]
20F	OK  	81	[2.6]
25T	OK  	128	[1.6]
25F	OK  	81	[2.6]
27T	OK  	119	[0.3]
27F	OK  	81	[2.6]
28T	FAIL	100000	
28F	OK  	119	[0.3]
30T	FAIL	100000	
30F	OK  	119	[0.3]
32T	FAIL	100000	
32F	FAIL	100000	
36T	OK  	119	[0.3]
36F	OK  	119	[0.3]
39T	OK  	81	[2.6]
39F	OK  	81	[2.6]
42T	OK  	3	[591.3]
42F	OK  	1	[-65.4]
45T	OK  	2	[-737.5]
45F	OK  	1	[-65.4]
48T	OK  	224	[43.0]
48F	OK  	1	[-65.4]
50T	OK  	224	[43.0]
50F	OK  	224	[43.0]
53T	OK  	7	[162.7]
53F	OK  	1	[-65.4]
55T	OK  	4535	[-153.00000000000003]
55F	OK  	1	[-65.4]
58T	FAIL	100000	
58F	OK  	1	[-65.4]
