Test object: org.iguanatool.casestudies.gamma.testobjects.gammafn
7T	FAIL	100000	
7F	FAIL	100000	
12T	FAIL	100000	
12F	OK  	1	[142.3]
14T	OK  	10	[-121.0]
14F	OK  	1	[142.3]
18T	OK  	27	[-9.59999999999999]
18F	OK  	1	[142.3]
20T	OK  	27	[-9.59999999999999]
20F	OK  	30	[1.6000000000000094]
25T	OK  	30	[1.6000000000000094]
25F	OK  	27	[-9.59999999999999]
27T	OK  	27	[-9.59999999999999]
27F	OK  	82	[6.100000000000033]
28T	FAIL	100000	
28F	OK  	27	[-9.59999999999999]
30T	FAIL	100000	
30F	OK  	27	[-9.59999999999999]
32T	FAIL	100000	
32F	FAIL	100000	
36T	OK  	1762	[-9.7]
36F	OK  	1762	[-9.7]
39T	OK  	1730	[10.0]
39F	OK  	1730	[10.0]
42T	OK  	11	[193.4]
42F	OK  	1	[142.3]
45T	OK  	13	[-267.2]
45F	OK  	1	[142.3]
48T	OK  	27	[30.0]
48F	OK  	1	[142.3]
50T	OK  	27	[30.0]
50F	OK  	27	[30.0]
53T	OK  	1	[142.3]
53F	OK  	12	[-62.39999999999999]
55T	OK  	18	[-61.999999999999986]
55F	OK  	12	[-62.39999999999999]
58T	FAIL	100000	
58F	OK  	12	[-62.39999999999999]
