Test object: org.iguanatool.casestudies.gamma.testobjects.gammafn
7T	FAIL	100000	
7F	FAIL	100000	
12T	FAIL	100000	
12F	OK  	1	[159.7]
14T	OK  	12	[-166.0]
14F	OK  	1	[159.7]
18T	OK  	22	[6.099999999999991]
18F	OK  	1	[159.7]
20T	OK  	29	[-0.2000000000000095]
20F	OK  	22	[6.099999999999991]
25T	OK  	215	[1.0000000000000004]
25F	OK  	22	[6.099999999999991]
27T	OK  	65	[-1.8999999999998929]
27F	OK  	22	[6.099999999999991]
28T	FAIL	100000	
28F	OK  	65	[-1.8999999999998929]
30T	FAIL	100000	
30F	OK  	65	[-1.8999999999998929]
32T	FAIL	100000	
32F	FAIL	100000	
36T	OK  	550	[-3.2]
36F	OK  	550	[-3.2]
39T	OK  	855	[9.6]
39F	OK  	855	[9.6]
42T	OK  	9	[172.39999999999998]
42F	OK  	1	[159.7]
45T	OK  	13	[-249.8]
45F	OK  	1	[159.7]
48T	OK  	1541	[48.0]
48F	OK  	1	[159.7]
50T	OK  	923	[43.0]
50F	OK  	923	[43.0]
53T	OK  	1	[159.7]
53F	OK  	12	[-45.000000000000014]
55T	OK  	12	[-45.000000000000014]
55F	OK  	14	[-44.90000000000001]
58T	FAIL	100000	
58F	OK  	12	[-45.000000000000014]
