Test object: org.iguanatool.casestudies.gamma.testobjects.gammafn
7T	FAIL	100000	
7F	FAIL	100000	
12T	FAIL	100000	
12F	OK  	1	[-125.8]
14T	OK  	9	[-436.0]
14F	OK  	1	[-125.8]
18T	OK  	22	[2.000000000000016]
18F	OK  	1	[-125.8]
20T	OK  	28	[-1.0999999999999843]
20F	OK  	22	[2.000000000000016]
25T	OK  	24	[1.900000000000016]
25F	OK  	22	[2.000000000000016]
27T	OK  	64	[0.9000000000000083]
27F	OK  	22	[2.000000000000016]
28T	FAIL	100000	
28F	OK  	64	[0.9000000000000083]
30T	FAIL	100000	
30F	OK  	64	[0.9000000000000083]
32T	FAIL	100000	
32F	FAIL	100000	
36T	OK  	125	[-1.1]
36F	OK  	125	[-1.1]
39T	OK  	900	[8.5]
39F	OK  	900	[8.5]
42T	OK  	14	[283.70000000000005]
42F	OK  	1	[-125.8]
45T	OK  	10	[-176.9]
45F	OK  	1	[-125.8]
48T	OK  	2338	[20.0]
48F	OK  	1	[-125.8]
50T	OK  	546	[20.0]
50F	OK  	546	[20.0]
53T	OK  	13	[78.90000000000002]
53F	OK  	1	[-125.8]
55T	OK  	177	[-97.00000000000001]
55F	OK  	1	[-125.8]
58T	FAIL	100000	
58F	OK  	1	[-125.8]
