Test object: org.iguanatool.casestudies.gamma.testobjects.gammafn
7T	FAIL	100000	
7F	FAIL	100000	
12T	FAIL	100000	
12F	OK  	1	[616.4]
14T	OK  	91	[-66.0]
14F	OK  	1	[616.4]
18T	OK  	25	[1.9999999999999005]
18F	OK  	1	[616.4]
20T	OK  	31	[-1.1000000000000998]
20F	OK  	25	[1.9999999999999005]
25T	OK  	25	[1.9999999999999005]
25F	OK  	28	[2.0999999999999006]
27T	OK  	68	[-4.499999999999968]
27F	OK  	28	[2.0999999999999006]
28T	FAIL	100000	
28F	OK  	68	[-4.499999999999968]
30T	FAIL	100000	
30F	OK  	68	[-4.499999999999968]
32T	FAIL	100000	
32F	FAIL	100000	
36T	OK  	157	[-7.5]
36F	OK  	157	[-7.5]
39T	OK  	106	[8.6]
39F	OK  	106	[8.6]
42T	OK  	1	[616.4]
42F	OK  	14	[-202.7000000000001]
45T	OK  	14	[-202.7000000000001]
45F	OK  	23	[-151.6000000000001]
48T	OK  	178	[34.0]
48F	OK  	23	[-151.6000000000001]
50T	OK  	23	[34.0]
50F	OK  	23	[34.0]
53T	OK  	96	[46.60000000000004]
53F	OK  	23	[-151.6000000000001]
55T	OK  	29	[-152.00000000000009]
55F	OK  	23	[-151.6000000000001]
58T	FAIL	100000	
58F	OK  	23	[-151.6000000000001]
