Test object: org.iguanatool.casestudies.gamma.testobjects.gammafn
7T	FAIL	100000	
7F	FAIL	100000	
12T	FAIL	100000	
12F	OK  	1	[-68.5]
14T	OK  	9	[-574.0]
14F	OK  	1	[-68.5]
18T	OK  	25	[-3.9999999999999947]
18F	OK  	1	[-68.5]
20T	OK  	25	[-3.9999999999999947]
20F	OK  	26	[8.800000000000006]
25T	OK  	59	[1.9000000000000066]
25F	OK  	25	[-3.9999999999999947]
27T	OK  	25	[-3.9999999999999947]
27F	OK  	26	[8.800000000000006]
28T	FAIL	100000	
28F	OK  	25	[-3.9999999999999947]
30T	FAIL	100000	
30F	OK  	25	[-3.9999999999999947]
32T	FAIL	100000	
32F	FAIL	100000	
36T	OK  	226	[-8.6]
36F	OK  	226	[-8.6]
39T	OK  	367	[5.7]
39F	OK  	367	[5.7]
42T	OK  	19	[341.70000000000005]
42F	OK  	1	[-68.5]
45T	OK  	16	[-171.5]
45F	OK  	1	[-68.5]
48T	OK  	447	[41.0]
48F	OK  	1	[-68.5]
50T	OK  	88	[41.0]
50F	OK  	88	[41.0]
53T	OK  	17	[34.50000000000001]
53F	OK  	1	[-68.5]
55T	OK  	9	[-69.00000000000001]
55F	OK  	1	[-68.5]
58T	FAIL	100000	
58F	OK  	1	[-68.5]
