Test object: org.iguanatool.casestudies.gamma.testobjects.gammafn
7T	FAIL	100000	
7F	FAIL	100000	
12T	FAIL	100000	
12F	OK  	1	[667.2]
14T	OK  	6	[-775.0]
14F	OK  	1	[667.2]
18T	OK  	36	[1.499999999999968]
18F	OK  	1	[667.2]
20T	OK  	41	[-3.2085445411667024E-14]
20F	OK  	36	[1.499999999999968]
25T	OK  	36	[1.499999999999968]
25F	OK  	76	[-3.6000000000000814]
27T	OK  	76	[-3.6000000000000814]
27F	OK  	77	[9.19999999999992]
28T	FAIL	100000	
28F	OK  	76	[-3.6000000000000814]
30T	FAIL	100000	
30F	OK  	76	[-3.6000000000000814]
32T	FAIL	100000	
32F	FAIL	100000	
36T	OK  	727	[-9.8]
36F	OK  	727	[-9.8]
39T	OK  	910	[6.0]
39F	OK  	910	[6.0]
42T	OK  	1	[667.2]
42F	OK  	14	[-151.90000000000003]
45T	OK  	15	[-971.1000000000001]
45F	OK  	14	[-151.90000000000003]
48T	OK  	277	[14.0]
48F	OK  	14	[-151.90000000000003]
50T	OK  	48	[14.0]
50F	OK  	48	[14.0]
53T	OK  	26	[52.79999999999997]
53F	OK  	14	[-151.90000000000003]
55T	OK  	17	[-152.00000000000003]
55F	OK  	14	[-151.90000000000003]
58T	FAIL	100000	
58F	OK  	14	[-151.90000000000003]
