Test object: org.iguanatool.casestudies.i0.testobjects.cephes_bessel_I0
2T	OK  	1	[-933.0]
2F	OK  	16	[705.3000000000001]
4T	OK  	35	[-5.299999999999973]
4F	OK  	1	[-933.0]
Test object: org.iguanatool.casestudies.i0.testobjects.i0e
2T	OK  	1	[-933.0]
2F	OK  	16	[705.3000000000001]
4T	OK  	35	[-5.299999999999973]
4F	OK  	1	[-933.0]
