Test object: org.iguanatool.casestudies.i0.testobjects.cephes_bessel_I0
2T	OK  	3	[-970.6]
2F	OK  	1	[516.7]
4T	OK  	16	[-7.6]
4F	OK  	1	[516.7]
Test object: org.iguanatool.casestudies.i0.testobjects.i0e
2T	OK  	3	[-970.6]
2F	OK  	1	[516.7]
4T	OK  	16	[-7.6]
4F	OK  	1	[516.7]
