Test object: org.iguanatool.casestudies.i0.testobjects.cephes_bessel_I0
2T	OK  	1	[-383.6]
2F	OK  	14	[25.900000000000006]
4T	OK  	23	[0.4000000000000039]
4F	OK  	1	[-383.6]
Test object: org.iguanatool.casestudies.i0.testobjects.i0e
2T	OK  	1	[-383.6]
2F	OK  	14	[25.900000000000006]
4T	OK  	23	[0.4000000000000039]
4F	OK  	1	[-383.6]
