Test object: org.iguanatool.casestudies.i0.testobjects.cephes_bessel_I0
2T	OK  	5	[-67.2]
2F	OK  	1	[200.8]
4T	OK  	166	[-3.9]
4F	OK  	1	[200.8]
Test object: org.iguanatool.casestudies.i0.testobjects.i0e
2T	OK  	5	[-67.2]
2F	OK  	1	[200.8]
4T	OK  	166	[-3.9]
4F	OK  	1	[200.8]
