Test object: org.iguanatool.casestudies.i0.testobjects.cephes_bessel_I0
2T	OK  	2	[-151.3]
2F	OK  	1	[86.8]
4T	OK  	9	[-4.4]
4F	OK  	1	[86.8]
Test object: org.iguanatool.casestudies.i0.testobjects.i0e
2T	OK  	2	[-151.3]
2F	OK  	1	[86.8]
4T	OK  	9	[-4.4]
4F	OK  	1	[86.8]
