Test object: org.iguanatool.casestudies.i0.testobjects.cephes_bessel_I0
2T	OK  	2	[-567.6]
2F	OK  	1	[616.4]
4T	OK  	53	[-7.5]
4F	OK  	1	[616.4]
Test object: org.iguanatool.casestudies.i0.testobjects.i0e
2T	OK  	2	[-567.6]
2F	OK  	1	[616.4]
4T	OK  	53	[-7.5]
4F	OK  	1	[616.4]
