Test object: org.iguanatool.casestudies.i0.testobjects.cephes_bessel_I0
2T	OK  	14	[-202.7000000000001]
2F	OK  	1	[616.4]
4T	OK  	25	[1.9999999999999005]
4F	OK  	1	[616.4]
Test object: org.iguanatool.casestudies.i0.testobjects.i0e
2T	OK  	14	[-202.7000000000001]
2F	OK  	1	[616.4]
4T	OK  	25	[1.9999999999999005]
4F	OK  	1	[616.4]
