Test object: org.iguanatool.casestudies.i0.testobjects.cephes_bessel_I0
2T	OK  	1	[-68.5]
2F	OK  	5	[335.6]
4T	OK  	123	[5.7]
4F	OK  	1	[-68.5]
Test object: org.iguanatool.casestudies.i0.testobjects.i0e
2T	OK  	1	[-68.5]
2F	OK  	5	[335.6]
4T	OK  	123	[5.7]
4F	OK  	1	[-68.5]
