Test object: org.iguanatool.casestudies.i0.testobjects.cephes_bessel_I0
2T	OK  	1	[-933.0]
2F	OK  	2	[331.7]
4T	OK  	5	[3.1]
4F	OK  	1	[-933.0]
Test object: org.iguanatool.casestudies.i0.testobjects.i0e
2T	OK  	1	[-933.0]
2F	OK  	2	[331.7]
4T	OK  	5	[3.1]
4F	OK  	1	[-933.0]
