Test object: org.iguanatool.casestudies.i0.testobjects.cephes_bessel_I0
2T	OK  	1	[-450.6]
2F	OK  	2	[842.3]
4T	OK  	111	[0.0]
4F	OK  	1	[-450.6]
Test object: org.iguanatool.casestudies.i0.testobjects.i0e
2T	OK  	1	[-450.6]
2F	OK  	2	[842.3]
4T	OK  	111	[0.0]
4F	OK  	1	[-450.6]
