Test object: org.iguanatool.casestudies.i0.testobjects.cephes_bessel_I0
2T	OK  	1	[-65.4]
2F	OK  	12	[36.9]
4T	OK  	20	[-1.6000000000000032]
4F	OK  	1	[-65.4]
Test object: org.iguanatool.casestudies.i0.testobjects.i0e
2T	OK  	1	[-65.4]
2F	OK  	12	[36.9]
4T	OK  	20	[-1.6000000000000032]
4F	OK  	1	[-65.4]
