Test object: org.iguanatool.casestudies.i0.testobjects.cephes_bessel_I0
2T	OK  	1	[-508.1]
2F	OK  	3	[206.7]
4T	OK  	152	[-4.5]
4F	OK  	1	[-508.1]
Test object: org.iguanatool.casestudies.i0.testobjects.i0e
2T	OK  	1	[-508.1]
2F	OK  	3	[206.7]
4T	OK  	152	[-4.5]
4F	OK  	1	[-508.1]
