Test object: org.iguanatool.casestudies.i0.testobjects.cephes_bessel_I0
2T	OK  	1	[-426.0]
2F	OK  	15	[393.1]
4T	OK  	23	[-3.7999999999999705]
4F	OK  	1	[-426.0]
Test object: org.iguanatool.casestudies.i0.testobjects.i0e
2T	OK  	1	[-426.0]
2F	OK  	15	[393.1]
4T	OK  	23	[-3.7999999999999705]
4F	OK  	1	[-426.0]
