Test object: org.iguanatool.casestudies.i0.testobjects.cephes_bessel_I0
2T	OK  	1	[-977.1]
2F	OK  	16	[661.2000000000002]
4T	OK  	38	[-4.3999999999998884]
4F	OK  	1	[-977.1]
Test object: org.iguanatool.casestudies.i0.testobjects.i0e
2T	OK  	1	[-977.1]
2F	OK  	16	[661.2000000000002]
4T	OK  	38	[-4.3999999999998884]
4F	OK  	1	[-977.1]
