Test object: org.iguanatool.casestudies.i0.testobjects.cephes_bessel_I0
2T	OK  	1	[-247.6]
2F	OK  	6	[581.4]
4T	OK  	153	[-3.6]
4F	OK  	1	[-247.6]
Test object: org.iguanatool.casestudies.i0.testobjects.i0e
2T	OK  	1	[-247.6]
2F	OK  	6	[581.4]
4T	OK  	153	[-3.6]
4F	OK  	1	[-247.6]
