Test object: org.iguanatool.casestudies.i0.testobjects.cephes_bessel_I0
2T	OK  	1	[-65.4]
2F	OK  	3	[591.3]
4T	OK  	81	[2.6]
4F	OK  	1	[-65.4]
Test object: org.iguanatool.casestudies.i0.testobjects.i0e
2T	OK  	1	[-65.4]
2F	OK  	3	[591.3]
4T	OK  	81	[2.6]
4F	OK  	1	[-65.4]
