Test object: org.iguanatool.casestudies.k0.testobjects.cephes_bessel_K0
2T	OK  	1	[-247.6]
2F	OK  	6	[581.4]
5T	OK  	513	[1.5]
5F	OK  	6	[581.4]
Test object: org.iguanatool.casestudies.k0.testobjects.k0e
2T	OK  	1	[-247.6]
2F	OK  	6	[581.4]
5T	OK  	513	[1.5]
5F	OK  	6	[581.4]
