Test object: org.iguanatool.casestudies.k0.testobjects.cephes_bessel_K0
2T	OK  	2	[-810.7]
2F	OK  	1	[149.8]
5T	OK  	4095	[0.3]
5F	OK  	1	[149.8]
Test object: org.iguanatool.casestudies.k0.testobjects.k0e
2T	OK  	2	[-810.7]
2F	OK  	1	[149.8]
5T	OK  	4095	[0.3]
5F	OK  	1	[149.8]
