Test object: org.iguanatool.casestudies.k0.testobjects.cephes_bessel_K0
2T	OK  	2	[-775.1]
2F	OK  	1	[667.2]
5T	OK  	620	[0.1]
5F	OK  	1	[667.2]
Test object: org.iguanatool.casestudies.k0.testobjects.k0e
2T	OK  	2	[-775.1]
2F	OK  	1	[667.2]
5T	OK  	620	[0.1]
5F	OK  	1	[667.2]
