Test object: org.iguanatool.casestudies.k0.testobjects.cephes_bessel_K0
2T	OK  	14	[-302.40000000000003]
2F	OK  	1	[516.7]
5T	OK  	32	[1.7999999999999843]
5F	OK  	1	[516.7]
Test object: org.iguanatool.casestudies.k0.testobjects.k0e
2T	OK  	14	[-302.40000000000003]
2F	OK  	1	[516.7]
5T	OK  	32	[1.7999999999999843]
5F	OK  	1	[516.7]
