Test object: org.iguanatool.casestudies.k0.testobjects.cephes_bessel_K0
2T	OK  	2	[-478.4]
2F	OK  	1	[316.1]
5T	OK  	1669	[1.3097412109374993]
5F	OK  	1	[316.1]
Test object: org.iguanatool.casestudies.k0.testobjects.k0e
2T	OK  	2	[-478.4]
2F	OK  	1	[316.1]
5T	OK  	1669	[1.3097412109374993]
5F	OK  	1	[316.1]
