Test object: org.iguanatool.casestudies.k0.testobjects.cephes_bessel_K0
2T	OK  	1	[-933.0]
2F	OK  	16	[705.3000000000001]
5T	OK  	71	[1.7999999999999883]
5F	OK  	16	[705.3000000000001]
Test object: org.iguanatool.casestudies.k0.testobjects.k0e
2T	OK  	1	[-933.0]
2F	OK  	16	[705.3000000000001]
5T	OK  	71	[1.7999999999999883]
5F	OK  	16	[705.3000000000001]
