Test object: org.iguanatool.casestudies.k0.testobjects.cephes_bessel_K0
2T	OK  	1	[-247.6]
2F	OK  	14	[161.9]
5T	OK  	48	[1.9000000000000072]
5F	OK  	14	[161.9]
Test object: org.iguanatool.casestudies.k0.testobjects.k0e
2T	OK  	1	[-247.6]
2F	OK  	14	[161.9]
5T	OK  	48	[1.9000000000000072]
5F	OK  	14	[161.9]
