Test object: org.iguanatool.casestudies.k0.testobjects.cephes_bessel_K0
2T	OK  	1	[-383.6]
2F	OK  	2	[285.3]
5T	OK  	657	[0.17343749999999858]
5F	OK  	2	[285.3]
Test object: org.iguanatool.casestudies.k0.testobjects.k0e
2T	OK  	1	[-383.6]
2F	OK  	2	[285.3]
5T	OK  	657	[0.17343749999999858]
5F	OK  	2	[285.3]
