Test object: org.iguanatool.casestudies.k0.testobjects.cephes_bessel_K0
2T	OK  	2	[-567.6]
2F	OK  	1	[616.4]
5T	OK  	3330	[1.7]
5F	OK  	1	[616.4]
Test object: org.iguanatool.casestudies.k0.testobjects.k0e
2T	OK  	2	[-567.6]
2F	OK  	1	[616.4]
5T	OK  	3330	[1.7]
5F	OK  	1	[616.4]
