Test object: org.iguanatool.casestudies.k0.testobjects.cephes_bessel_K0
2T	OK  	10	[-8.200000000000006]
2F	OK  	1	[42.9]
5T	OK  	25	[1.5999999999999939]
5F	OK  	1	[42.9]
Test object: org.iguanatool.casestudies.k0.testobjects.k0e
2T	OK  	10	[-8.200000000000006]
2F	OK  	1	[42.9]
5T	OK  	25	[1.5999999999999939]
5F	OK  	1	[42.9]
