Test object: org.iguanatool.casestudies.k0.testobjects.cephes_bessel_K0
2T	OK  	1	[-426.0]
2F	OK  	15	[393.1]
5T	OK  	73	[1.7000000000000035]
5F	OK  	15	[393.1]
Test object: org.iguanatool.casestudies.k0.testobjects.k0e
2T	OK  	1	[-426.0]
2F	OK  	15	[393.1]
5T	OK  	73	[1.7000000000000035]
5F	OK  	15	[393.1]
