Test object: org.iguanatool.casestudies.k0.testobjects.cephes_bessel_K0
2T	OK  	2	[-966.0]
2F	OK  	1	[994.2]
5T	OK  	269	[1.6]
5F	OK  	1	[994.2]
Test object: org.iguanatool.casestudies.k0.testobjects.k0e
2T	OK  	2	[-966.0]
2F	OK  	1	[994.2]
5T	OK  	269	[1.6]
5F	OK  	1	[994.2]
