Test object: org.iguanatool.casestudies.pnchisq.testobjects.pnchisq
2T	FAIL	100000	
2F	OK  	1	[-508.1, -126.0, 206.7, 0.0, 0.0]
4T	OK  	1	[-508.1, -126.0, 206.7, 0.0, 0.0]
4F	FAIL	100000	
6T	FAIL	100000	
6F	FAIL	100000	
9T	FAIL	100000	
9F	FAIL	100000	
10T	FAIL	100000	
10F	FAIL	100000	
12T	FAIL	100000	
12F	FAIL	100000	
15T	FAIL	100000	
15F	FAIL	100000	
17T	FAIL	100000	
17F	FAIL	100000	
Test object: org.iguanatool.casestudies.pnchisq.testobjects.pnchisq_raw
7T	OK  	1	[-508.1, -126.0, 206.7, -184.3, -622.8, 0.0, 0.0]
7F	OK  	15	[311.00000000000006, -126.0, 206.7, -184.3, -622.8, 0.0, 0.0]
8T	FAIL	100000	
8F	OK  	1	[-508.1, -126.0, 206.7, -184.3, -622.8, 0.0, 0.0]
11T	OK  	15	[311.00000000000006, -126.0, 206.7, -184.3, -622.8, 0.0, 0.0]
11F	FAIL	100000	
14T	FAIL	100000	
14F	FAIL	100000	
18T	FAIL	100000	
18F	FAIL	100000	
21T	FAIL	100000	
21F	FAIL	100000	
28T	FAIL	100000	
28F	FAIL	100000	
38T	FAIL	100000	
38F	FAIL	100000	
44T	FAIL	100000	
44F	FAIL	100000	
45T	FAIL	100000	
45F	FAIL	100000	
55T	FAIL	100000	
55F	FAIL	100000	
57T	FAIL	100000	
57F	FAIL	100000	
61T	FAIL	100000	
61F	FAIL	100000	
64T	FAIL	100000	
64F	FAIL	100000	
66T	FAIL	100000	
66F	FAIL	100000	
72T	FAIL	100000	
72F	FAIL	100000	
74T	FAIL	100000	
74F	FAIL	100000	
79T	FAIL	100000	
79F	FAIL	100000	
82T	FAIL	100000	
82F	FAIL	100000	
