Test object: org.iguanatool.casestudies.pnorm.testobjects.pnorm5
2T	FAIL	100000	
2F	OK  	1	[86.8, -151.3, 943.7, 1.0, 0.0]
4T	OK  	101	[574.9000000000001, 574.9000000000001, -636.5, 0.0, 1.0]
4F	OK  	1	[86.8, -151.3, 943.7, 1.0, 0.0]
6T	OK  	19	[86.8, -151.3, -694.6, 1.0, 0.0]
6F	OK  	1	[86.8, -151.3, 943.7, 1.0, 0.0]
7T	OK  	19	[86.8, -151.3, -694.6, 1.0, 0.0]
7F	OK  	25910	[-170.2, 421.4, 0.0, 0.0, 1.0]
11T	OK  	1	[86.8, -151.3, 943.7, 1.0, 0.0]
11F	FAIL	100000	
Test object: org.iguanatool.casestudies.pnorm.testobjects.pnorm_both
10T	FAIL	100000	
10F	OK  	1	[86.8, -151.3, 943.7, 1.0, 0.0]
17T	OK  	32	[0.29999999999999427, -151.3, 943.7, 1.0, 0.0]
17F	OK  	1	[86.8, -151.3, 943.7, 1.0, 0.0]
18T	OK  	32	[0.29999999999999427, -151.3, 943.7, 1.0, 0.0]
18F	OK  	1421	[1.1102230246251565E-16, 154.9, -607.7, 1.0, 0.0]
22T	OK  	9387	[-0.2, 816.0, -685.5, 0.0, 0.0]
22F	OK  	9387	[-0.2, 816.0, -685.5, 0.0, 0.0]
27T	OK  	38	[0.29999999999999427, -151.3, 943.7, 0.0, 0.0]
27F	OK  	32	[0.29999999999999427, -151.3, 943.7, 1.0, 0.0]
29T	OK  	32	[0.29999999999999427, -151.3, 943.7, 1.0, 0.0]
29F	OK  	38	[0.29999999999999427, -151.3, 943.7, 0.0, 0.0]
31T	OK  	39	[0.29999999999999427, -151.3, 943.7, 1.0, 1.0]
31F	OK  	32	[0.29999999999999427, -151.3, 943.7, 1.0, 0.0]
32T	OK  	46	[0.29999999999999427, -151.3, 943.7, 0.0, 1.0]
32F	OK  	39	[0.29999999999999427, -151.3, 943.7, 1.0, 1.0]
34T	OK  	39	[0.29999999999999427, -151.3, 943.7, 1.0, 1.0]
34F	OK  	46	[0.29999999999999427, -151.3, 943.7, 0.0, 1.0]
36T	OK  	19	[-2.800000000000006, -151.3, 943.7, 1.0, 0.0]
36F	OK  	1	[86.8, -151.3, 943.7, 1.0, 0.0]
39T	OK  	19	[-2.800000000000006, -151.3, 943.7, 1.0, 0.0]
39F	OK  	19	[-2.800000000000006, -151.3, 943.7, 1.0, 0.0]
45T	OK  	9	[86.8, -151.3, 943.7, 1.0, 1.0]
45F	OK  	1	[86.8, -151.3, 943.7, 1.0, 0.0]
49T	OK  	9	[86.8, -151.3, 943.7, 1.0, 1.0]
49F	OK  	9	[86.8, -151.3, 943.7, 1.0, 1.0]
56T	OK  	1	[86.8, -151.3, 943.7, 1.0, 0.0]
56F	OK  	102	[-40.000000000000014, 773.2, -636.5, 0.0, 0.0]
61T	FAIL	100000	
61F	FAIL	100000	
62T	FAIL	100000	
62F	FAIL	100000	
64T	FAIL	100000	
64F	FAIL	100000	
66T	FAIL	100000	
66F	FAIL	100000	
68T	FAIL	100000	
68F	FAIL	100000	
