Test object: org.iguanatool.casestudies.pnorm.testobjects.pnorm5
2T	FAIL	100000	
2F	OK  	1	[-65.4, 194.7, -413.8, 1.0, 0.0]
4T	FAIL	100000	
4F	OK  	1	[-65.4, 194.7, -413.8, 1.0, 0.0]
6T	OK  	1	[-65.4, 194.7, -413.8, 1.0, 0.0]
6F	OK  	3	[177.7, 65.5, 840.5, 1.0, 1.0]
7T	OK  	1	[-65.4, 194.7, -413.8, 1.0, 0.0]
7F	FAIL	100000	
11T	OK  	3	[177.7, 65.5, 840.5, 1.0, 1.0]
11F	FAIL	100000	
Test object: org.iguanatool.casestudies.pnorm.testobjects.pnorm_both
10T	FAIL	100000	
10F	OK  	1	[-65.4, 194.7, -413.8, 1.0, 0.0]
17T	OK  	3742	[-0.4750000000000014, 912.2201171875, 934.603662109375, 1.0, 1.0]
17F	OK  	1	[-65.4, 194.7, -413.8, 1.0, 0.0]
18T	OK  	3742	[-0.4750000000000014, 912.2201171875, 934.603662109375, 1.0, 1.0]
18F	FAIL	100000	
22T	FAIL	100000	
22F	FAIL	100000	
27T	OK  	3989	[0.15244140624999858, 914.1079345703125, 694.87744140625, 0.99984375, 1.0]
27F	OK  	3742	[-0.4750000000000014, 912.2201171875, 934.603662109375, 1.0, 1.0]
29T	OK  	3742	[-0.4750000000000014, 912.2201171875, 934.603662109375, 1.0, 1.0]
29F	OK  	3989	[0.15244140624999858, 914.1079345703125, 694.87744140625, 0.99984375, 1.0]
31T	OK  	3742	[-0.4750000000000014, 912.2201171875, 934.603662109375, 1.0, 1.0]
31F	OK  	4212	[0.5941894531249972, 725.4164306640625, 144.95576171875, 1.0, 0.985888671875]
32T	OK  	3989	[0.15244140624999858, 914.1079345703125, 694.87744140625, 0.99984375, 1.0]
32F	OK  	3742	[-0.4750000000000014, 912.2201171875, 934.603662109375, 1.0, 1.0]
34T	OK  	3742	[-0.4750000000000014, 912.2201171875, 934.603662109375, 1.0, 1.0]
34F	OK  	3989	[0.15244140624999858, 914.1079345703125, 694.87744140625, 0.99984375, 1.0]
36T	OK  	1479	[5.306103515624997, 725.4164306640625, 97.8, 1.0, 0.985888671875]
36F	OK  	1	[-65.4, 194.7, -413.8, 1.0, 0.0]
39T	OK  	1479	[5.306103515624997, 725.4164306640625, 97.8, 1.0, 0.985888671875]
39F	OK  	1479	[5.306103515624997, 725.4164306640625, 97.8, 1.0, 0.985888671875]
45T	OK  	2	[-527.3, -974.3, -780.6, 1.0, 1.0]
45F	OK  	1	[-65.4, 194.7, -413.8, 1.0, 0.0]
49T	OK  	2	[-527.3, -974.3, -780.6, 1.0, 1.0]
49F	OK  	2	[-527.3, -974.3, -780.6, 1.0, 1.0]
56T	OK  	7	[50.9, -272.5, 358.9, 0.0, 0.0]
56F	OK  	1	[-65.4, 194.7, -413.8, 1.0, 0.0]
61T	FAIL	100000	
61F	FAIL	100000	
62T	FAIL	100000	
62F	FAIL	100000	
64T	FAIL	100000	
64F	FAIL	100000	
66T	FAIL	100000	
66F	FAIL	100000	
68T	FAIL	100000	
68F	FAIL	100000	
