Test object: org.iguanatool.casestudies.pnorm.testobjects.pnorm5
2T	FAIL	100000	
2F	OK  	1	[382.6, 22.6, 586.8, 1.0, 0.0]
4T	OK  	10418	[-807.757421875, -807.757421875, 759.02392578125, 1.0, 0.9999658233642578]
4F	OK  	1	[382.6, 22.6, 586.8, 1.0, 0.0]
6T	OK  	3	[62.1, -453.3, -197.2, 1.0, 1.0]
6F	OK  	1	[382.6, 22.6, 586.8, 1.0, 0.0]
7T	OK  	3	[62.1, -453.3, -197.2, 1.0, 1.0]
7F	FAIL	100000	
11T	OK  	1	[382.6, 22.6, 586.8, 1.0, 0.0]
11F	FAIL	100000	
Test object: org.iguanatool.casestudies.pnorm.testobjects.pnorm_both
10T	FAIL	100000	
10F	OK  	1	[382.6, 22.6, 586.8, 1.0, 0.0]
17T	OK  	2466	[0.15061035156250036, -295.6, 904.7, 0.0, 0.0]
17F	OK  	1	[382.6, 22.6, 586.8, 1.0, 0.0]
18T	OK  	2466	[0.15061035156250036, -295.6, 904.7, 0.0, 0.0]
18F	FAIL	100000	
22T	FAIL	100000	
22F	FAIL	100000	
27T	OK  	2466	[0.15061035156250036, -295.6, 904.7, 0.0, 0.0]
27F	OK  	2941	[0.15061035156250036, 283.3, 904.7, 1.0, 0.0]
29T	OK  	2941	[0.15061035156250036, 283.3, 904.7, 1.0, 0.0]
29F	OK  	2466	[0.15061035156250036, -295.6, 904.7, 0.0, 0.0]
31T	OK  	3441	[0.15061035156250036, -295.6, 914.7, 1.953125E-5, 1.0]
31F	OK  	2466	[0.15061035156250036, -295.6, 904.7, 0.0, 0.0]
32T	OK  	3441	[0.15061035156250036, -295.6, 914.7, 1.953125E-5, 1.0]
32F	OK  	3712	[-0.5593750000000028, 189.59993896484374, -486.77265625, 1.0, 1.0]
34T	OK  	3712	[-0.5593750000000028, 189.59993896484374, -486.77265625, 1.0, 1.0]
34F	OK  	3441	[0.15061035156250036, -295.6, 914.7, 1.953125E-5, 1.0]
36T	OK  	126	[-5.3, 191.6, 265.6, 1.0, 1.0]
36F	OK  	1	[382.6, 22.6, 586.8, 1.0, 0.0]
39T	OK  	126	[-5.3, 191.6, 265.6, 1.0, 1.0]
39F	OK  	126	[-5.3, 191.6, 265.6, 1.0, 1.0]
45T	OK  	3	[62.1, -453.3, -197.2, 1.0, 1.0]
45F	OK  	1	[382.6, 22.6, 586.8, 1.0, 0.0]
49T	OK  	3	[62.1, -453.3, -197.2, 1.0, 1.0]
49F	OK  	3	[62.1, -453.3, -197.2, 1.0, 1.0]
56T	OK  	1	[382.6, 22.6, 586.8, 1.0, 0.0]
56F	OK  	4	[-752.2, 282.6, -873.0, 0.0, 0.0]
61T	FAIL	100000	
61F	FAIL	100000	
62T	FAIL	100000	
62F	FAIL	100000	
64T	FAIL	100000	
64F	FAIL	100000	
66T	FAIL	100000	
66F	FAIL	100000	
68T	FAIL	100000	
68F	FAIL	100000	
