Test object: org.iguanatool.casestudies.pnorm.testobjects.pnorm5
2T	FAIL	100000	
2F	OK  	1	[159.7, -859.7, -131.8, 0.0, 0.0]
4T	OK  	9314	[395.4, 395.4, -739.8, 1.0, 1.0]
4F	OK  	1	[159.7, -859.7, -131.8, 0.0, 0.0]
6T	OK  	1	[159.7, -859.7, -131.8, 0.0, 0.0]
6F	OK  	3	[517.6, 167.5, 55.9, 0.0, 0.0]
7T	OK  	1	[159.7, -859.7, -131.8, 0.0, 0.0]
7F	OK  	10199	[-803.7, -960.0, 0.0, 0.0, 1.0]
11T	OK  	3	[517.6, 167.5, 55.9, 0.0, 0.0]
11F	FAIL	100000	
Test object: org.iguanatool.casestudies.pnorm.testobjects.pnorm_both
10T	FAIL	100000	
10F	OK  	1	[159.7, -859.7, -131.8, 0.0, 0.0]
17T	OK  	173	[-0.2, 161.4, -467.1, 0.0, 0.0]
17F	OK  	1	[159.7, -859.7, -131.8, 0.0, 0.0]
18T	OK  	173	[-0.2, 161.4, -467.1, 0.0, 0.0]
18F	FAIL	100000	
22T	OK  	173	[-0.2, 161.4, -467.1, 0.0, 0.0]
22F	OK  	173	[-0.2, 161.4, -467.1, 0.0, 0.0]
27T	OK  	173	[-0.2, 161.4, -467.1, 0.0, 0.0]
27F	OK  	3046	[-0.6, -117.3, 555.5, 1.0, 0.0]
29T	OK  	3046	[-0.6, -117.3, 555.5, 1.0, 0.0]
29F	OK  	173	[-0.2, 161.4, -467.1, 0.0, 0.0]
31T	OK  	6931	[-0.4, 643.1, -483.7, 1.0, 1.0]
31F	OK  	173	[-0.2, 161.4, -467.1, 0.0, 0.0]
32T	OK  	19955	[-0.6, -45.9, 648.7, 0.0, 1.0]
32F	OK  	6931	[-0.4, 643.1, -483.7, 1.0, 1.0]
34T	OK  	6931	[-0.4, 643.1, -483.7, 1.0, 1.0]
34F	OK  	19955	[-0.6, -45.9, 648.7, 0.0, 1.0]
36T	OK  	237	[0.8, -487.3, 666.2, 0.0, 0.0]
36F	OK  	1	[159.7, -859.7, -131.8, 0.0, 0.0]
39T	OK  	237	[0.8, -487.3, 666.2, 0.0, 0.0]
39F	OK  	237	[0.8, -487.3, 666.2, 0.0, 0.0]
45T	OK  	2	[-505.2, 559.7, -24.6, 1.0, 1.0]
45F	OK  	1	[159.7, -859.7, -131.8, 0.0, 0.0]
49T	OK  	2	[-505.2, 559.7, -24.6, 1.0, 1.0]
49F	OK  	2	[-505.2, 559.7, -24.6, 1.0, 1.0]
56T	OK  	1	[159.7, -859.7, -131.8, 0.0, 0.0]
56F	OK  	6	[-466.8, 194.3, -308.2, 0.0, 0.0]
61T	FAIL	100000	
61F	FAIL	100000	
62T	FAIL	100000	
62F	FAIL	100000	
64T	FAIL	100000	
64F	FAIL	100000	
66T	FAIL	100000	
66F	FAIL	100000	
68T	FAIL	100000	
68F	FAIL	100000	
