Test object: org.iguanatool.casestudies.pnorm.testobjects.pnorm5
2T	FAIL	100000	
2F	OK  	1	[149.8, -810.7, -823.9, 1.0, 0.0]
4T	OK  	53	[-707.6999999999999, -707.6999999999999, -823.9, 1.0, 0.0]
4F	OK  	1	[149.8, -810.7, -823.9, 1.0, 0.0]
6T	OK  	1	[149.8, -810.7, -823.9, 1.0, 0.0]
6F	OK  	20	[149.8, -810.7, 814.4000000000001, 1.0, 0.0]
7T	OK  	1	[149.8, -810.7, -823.9, 1.0, 0.0]
7F	FAIL	100000	
11T	OK  	20	[149.8, -810.7, 814.4000000000001, 1.0, 0.0]
11F	FAIL	100000	
Test object: org.iguanatool.casestudies.pnorm.testobjects.pnorm_both
10T	FAIL	100000	
10F	OK  	1	[149.8, -810.7, -823.9, 1.0, 0.0]
17T	OK  	34	[-0.4999999999999907, -810.7, -823.9, 1.0, 0.0]
17F	OK  	1	[149.8, -810.7, -823.9, 1.0, 0.0]
18T	OK  	34	[-0.4999999999999907, -810.7, -823.9, 1.0, 0.0]
18F	OK  	11817	[-2.7755575615628914E-17, -479.5, 85.3, 1.0, 0.0]
22T	OK  	20683	[-0.2, -718.8, 239.7, 0.0, 1.0]
22F	OK  	20683	[-0.2, -718.8, 239.7, 0.0, 1.0]
27T	OK  	40	[-0.4999999999999907, -810.7, -823.9, 0.0, 0.0]
27F	OK  	34	[-0.4999999999999907, -810.7, -823.9, 1.0, 0.0]
29T	OK  	34	[-0.4999999999999907, -810.7, -823.9, 1.0, 0.0]
29F	OK  	40	[-0.4999999999999907, -810.7, -823.9, 0.0, 0.0]
31T	OK  	41	[-0.4999999999999907, -810.7, -823.9, 1.0, 1.0]
31F	OK  	34	[-0.4999999999999907, -810.7, -823.9, 1.0, 0.0]
32T	OK  	48	[-0.4999999999999907, -810.7, -823.9, 0.0, 1.0]
32F	OK  	41	[-0.4999999999999907, -810.7, -823.9, 1.0, 1.0]
34T	OK  	41	[-0.4999999999999907, -810.7, -823.9, 1.0, 1.0]
34F	OK  	48	[-0.4999999999999907, -810.7, -823.9, 0.0, 1.0]
36T	OK  	28	[-3.5999999999999908, -810.7, -823.9, 1.0, 0.0]
36F	OK  	1	[149.8, -810.7, -823.9, 1.0, 0.0]
39T	OK  	28	[-3.5999999999999908, -810.7, -823.9, 1.0, 0.0]
39F	OK  	28	[-3.5999999999999908, -810.7, -823.9, 1.0, 0.0]
45T	OK  	9	[149.8, -810.7, -823.9, 1.0, 1.0]
45F	OK  	1	[149.8, -810.7, -823.9, 1.0, 0.0]
49T	OK  	9	[149.8, -810.7, -823.9, 1.0, 1.0]
49F	OK  	9	[149.8, -810.7, -823.9, 1.0, 1.0]
56T	OK  	1	[149.8, -810.7, -823.9, 1.0, 0.0]
56F	OK  	12	[-54.89999999999999, -810.7, -823.9, 1.0, 0.0]
61T	FAIL	100000	
61F	FAIL	100000	
62T	FAIL	100000	
62F	FAIL	100000	
64T	FAIL	100000	
64F	FAIL	100000	
66T	FAIL	100000	
66F	FAIL	100000	
68T	FAIL	100000	
68F	FAIL	100000	
