Test object: org.iguanatool.casestudies.pnorm.testobjects.pnorm5
2T	FAIL	100000	
2F	OK  	1	[667.2, -775.1, 700.5, 1.0, 0.0]
4T	OK  	635	[-163.6, -163.6, 32.8, 1.0, 0.0]
4F	OK  	1	[667.2, -775.1, 700.5, 1.0, 0.0]
6T	OK  	3	[-87.9, -389.5, -487.3, 0.0, 0.0]
6F	OK  	1	[667.2, -775.1, 700.5, 1.0, 0.0]
7T	OK  	3	[-87.9, -389.5, -487.3, 0.0, 0.0]
7F	OK  	25284	[825.9, -785.5, 0.0, 0.0, 1.0]
11T	OK  	1	[667.2, -775.1, 700.5, 1.0, 0.0]
11F	FAIL	100000	
Test object: org.iguanatool.casestudies.pnorm.testobjects.pnorm_both
10T	FAIL	100000	
10F	OK  	1	[667.2, -775.1, 700.5, 1.0, 0.0]
17T	OK  	977	[-0.6, 654.3, -338.9, 0.0, 1.0]
17F	OK  	1	[667.2, -775.1, 700.5, 1.0, 0.0]
18T	OK  	977	[-0.6, 654.3, -338.9, 0.0, 1.0]
18F	OK  	12710	[0.0, 391.3, 179.3, 0.0, 1.0]
22T	OK  	977	[-0.6, 654.3, -338.9, 0.0, 1.0]
22F	OK  	977	[-0.6, 654.3, -338.9, 0.0, 1.0]
27T	OK  	977	[-0.6, 654.3, -338.9, 0.0, 1.0]
27F	OK  	2229	[-0.2, 486.2, 87.2, 1.0, 0.0]
29T	OK  	2229	[-0.2, 486.2, 87.2, 1.0, 0.0]
29F	OK  	977	[-0.6, 654.3, -338.9, 0.0, 1.0]
31T	OK  	977	[-0.6, 654.3, -338.9, 0.0, 1.0]
31F	OK  	2229	[-0.2, 486.2, 87.2, 1.0, 0.0]
32T	OK  	977	[-0.6, 654.3, -338.9, 0.0, 1.0]
32F	OK  	11271	[0.1, 873.1, -959.0, 1.0, 1.0]
34T	OK  	11271	[0.1, 873.1, -959.0, 1.0, 1.0]
34F	OK  	977	[-0.6, 654.3, -338.9, 0.0, 1.0]
36T	OK  	442	[5.3, 289.1, -673.8, 1.0, 0.0]
36F	OK  	1	[667.2, -775.1, 700.5, 1.0, 0.0]
39T	OK  	442	[5.3, 289.1, -673.8, 1.0, 0.0]
39F	OK  	442	[5.3, 289.1, -673.8, 1.0, 0.0]
45T	OK  	2	[901.9, 434.8, 247.4, 0.0, 1.0]
45F	OK  	1	[667.2, -775.1, 700.5, 1.0, 0.0]
49T	OK  	2	[901.9, 434.8, 247.4, 0.0, 1.0]
49F	OK  	2	[901.9, 434.8, 247.4, 0.0, 1.0]
56T	OK  	1	[667.2, -775.1, 700.5, 1.0, 0.0]
56F	OK  	3	[-87.9, -389.5, -487.3, 0.0, 0.0]
61T	FAIL	100000	
61F	FAIL	100000	
62T	FAIL	100000	
62F	FAIL	100000	
64T	FAIL	100000	
64F	FAIL	100000	
66T	FAIL	100000	
66F	FAIL	100000	
68T	FAIL	100000	
68F	FAIL	100000	
