Test object: org.iguanatool.casestudies.pnorm.testobjects.pnorm5
2T	FAIL	100000	
2F	OK  	1	[516.7, 156.2, -970.6, 0.0, 1.0]
4T	OK  	4936	[836.2, 836.2, 580.9, 1.0, 0.0]
4F	OK  	1	[516.7, 156.2, -970.6, 0.0, 1.0]
6T	OK  	1	[516.7, 156.2, -970.6, 0.0, 1.0]
6F	OK  	2	[-407.3, -469.0, 625.5, 1.0, 1.0]
7T	OK  	1	[516.7, 156.2, -970.6, 0.0, 1.0]
7F	OK  	13583	[484.6, 766.6, 0.0, 0.0, 0.0]
11T	OK  	2	[-407.3, -469.0, 625.5, 1.0, 1.0]
11F	FAIL	100000	
Test object: org.iguanatool.casestudies.pnorm.testobjects.pnorm_both
10T	FAIL	100000	
10F	OK  	1	[516.7, 156.2, -970.6, 0.0, 1.0]
17T	OK  	616	[-0.3, -24.8, 60.3, 1.0, 1.0]
17F	OK  	1	[516.7, 156.2, -970.6, 0.0, 1.0]
18T	OK  	616	[-0.3, -24.8, 60.3, 1.0, 1.0]
18F	OK  	12699	[0.0, -898.1, 109.0, 1.0, 1.0]
22T	OK  	616	[-0.3, -24.8, 60.3, 1.0, 1.0]
22F	OK  	616	[-0.3, -24.8, 60.3, 1.0, 1.0]
27T	OK  	5372	[0.3, 242.8, -247.1, 0.0, 1.0]
27F	OK  	616	[-0.3, -24.8, 60.3, 1.0, 1.0]
29T	OK  	616	[-0.3, -24.8, 60.3, 1.0, 1.0]
29F	OK  	5372	[0.3, 242.8, -247.1, 0.0, 1.0]
31T	OK  	616	[-0.3, -24.8, 60.3, 1.0, 1.0]
31F	OK  	2750	[0.1, 821.3, 998.0, 1.0, 0.0]
32T	OK  	5372	[0.3, 242.8, -247.1, 0.0, 1.0]
32F	OK  	616	[-0.3, -24.8, 60.3, 1.0, 1.0]
34T	OK  	616	[-0.3, -24.8, 60.3, 1.0, 1.0]
34F	OK  	5372	[0.3, 242.8, -247.1, 0.0, 1.0]
36T	OK  	79	[1.9, 496.8, -26.8, 0.0, 1.0]
36F	OK  	1	[516.7, 156.2, -970.6, 0.0, 1.0]
39T	OK  	79	[1.9, 496.8, -26.8, 0.0, 1.0]
39F	OK  	79	[1.9, 496.8, -26.8, 0.0, 1.0]
45T	OK  	1	[516.7, 156.2, -970.6, 0.0, 1.0]
45F	OK  	11	[282.5, -403.4, -595.9, 1.0, 0.0]
49T	OK  	1	[516.7, 156.2, -970.6, 0.0, 1.0]
49F	OK  	1	[516.7, 156.2, -970.6, 0.0, 1.0]
56T	OK  	11	[282.5, -403.4, -595.9, 1.0, 0.0]
56F	OK  	12	[-28.6, 518.6, 820.8, 1.0, 0.0]
61T	FAIL	100000	
61F	FAIL	100000	
62T	FAIL	100000	
62F	FAIL	100000	
64T	FAIL	100000	
64F	FAIL	100000	
66T	FAIL	100000	
66F	FAIL	100000	
68T	FAIL	100000	
68F	FAIL	100000	
