Test object: org.iguanatool.casestudies.pnorm.testobjects.pnorm5
2T	FAIL	100000	
2F	OK  	1	[86.8, -151.3, 943.7, 1.0, 0.0]
4T	OK  	47717	[-398.2, -398.2, 438.1, 1.0, 0.0]
4F	OK  	1	[86.8, -151.3, 943.7, 1.0, 0.0]
6T	OK  	2	[164.7, 773.2, -636.5, 0.0, 1.0]
6F	OK  	1	[86.8, -151.3, 943.7, 1.0, 0.0]
7T	OK  	2	[164.7, 773.2, -636.5, 0.0, 1.0]
7F	OK  	7502	[830.3, -718.5, 0.0, 1.0, 1.0]
11T	OK  	1	[86.8, -151.3, 943.7, 1.0, 0.0]
11F	FAIL	100000	
Test object: org.iguanatool.casestudies.pnorm.testobjects.pnorm_both
10T	FAIL	100000	
10F	OK  	1	[86.8, -151.3, 943.7, 1.0, 0.0]
17T	OK  	1044	[-0.2, 816.0, -685.5, 0.0, 0.0]
17F	OK  	1	[86.8, -151.3, 943.7, 1.0, 0.0]
18T	OK  	1044	[-0.2, 816.0, -685.5, 0.0, 0.0]
18F	OK  	27751	[0.0, 848.0, -599.9, 0.0, 1.0]
22T	OK  	1044	[-0.2, 816.0, -685.5, 0.0, 0.0]
22F	OK  	1044	[-0.2, 816.0, -685.5, 0.0, 0.0]
27T	OK  	1044	[-0.2, 816.0, -685.5, 0.0, 0.0]
27F	OK  	2823	[0.3, -214.8, 834.6, 1.0, 1.0]
29T	OK  	2823	[0.3, -214.8, 834.6, 1.0, 1.0]
29F	OK  	1044	[-0.2, 816.0, -685.5, 0.0, 0.0]
31T	OK  	2823	[0.3, -214.8, 834.6, 1.0, 1.0]
31F	OK  	1044	[-0.2, 816.0, -685.5, 0.0, 0.0]
32T	OK  	5498	[-0.6, 45.2, -209.0, 0.0, 1.0]
32F	OK  	2823	[0.3, -214.8, 834.6, 1.0, 1.0]
34T	OK  	2823	[0.3, -214.8, 834.6, 1.0, 1.0]
34F	OK  	5498	[-0.6, 45.2, -209.0, 0.0, 1.0]
36T	OK  	7	[-4.5, -484.3, 45.4, 1.0, 1.0]
36F	OK  	1	[86.8, -151.3, 943.7, 1.0, 0.0]
39T	OK  	7	[-4.5, -484.3, 45.4, 1.0, 1.0]
39F	OK  	7	[-4.5, -484.3, 45.4, 1.0, 1.0]
45T	OK  	2	[164.7, 773.2, -636.5, 0.0, 1.0]
45F	OK  	1	[86.8, -151.3, 943.7, 1.0, 0.0]
49T	OK  	2	[164.7, 773.2, -636.5, 0.0, 1.0]
49F	OK  	2	[164.7, 773.2, -636.5, 0.0, 1.0]
56T	OK  	1	[86.8, -151.3, 943.7, 1.0, 0.0]
56F	OK  	15	[-927.3, 467.3, 699.3, 0.0, 0.0]
61T	FAIL	100000	
61F	FAIL	100000	
62T	FAIL	100000	
62F	FAIL	100000	
64T	FAIL	100000	
64F	FAIL	100000	
66T	FAIL	100000	
66F	FAIL	100000	
68T	FAIL	100000	
68F	FAIL	100000	
