Test object: org.iguanatool.casestudies.pnorm.testobjects.pnorm5
2T	FAIL	100000	
2F	OK  	1	[-508.1, -126.0, 206.7, 0.0, 0.0]
4T	OK  	3135	[919.0, 919.0, -28.5, 0.0, 0.0]
4F	OK  	1	[-508.1, -126.0, 206.7, 0.0, 0.0]
6T	OK  	2	[-401.3, -168.5, -754.7, 1.0, 1.0]
6F	OK  	1	[-508.1, -126.0, 206.7, 0.0, 0.0]
7T	OK  	2	[-401.3, -168.5, -754.7, 1.0, 1.0]
7F	OK  	6917	[-278.0, -203.8, 0.0, 0.0, 0.0]
11T	OK  	1	[-508.1, -126.0, 206.7, 0.0, 0.0]
11F	FAIL	100000	
Test object: org.iguanatool.casestudies.pnorm.testobjects.pnorm_both
10T	FAIL	100000	
10F	OK  	1	[-508.1, -126.0, 206.7, 0.0, 0.0]
17T	OK  	3647	[0.2, 562.0, -6.1, 1.0, 1.0]
17F	OK  	1	[-508.1, -126.0, 206.7, 0.0, 0.0]
18T	OK  	3647	[0.2, 562.0, -6.1, 1.0, 1.0]
18F	OK  	6894	[0.0, -475.1, 696.7, 0.0, 1.0]
22T	OK  	3647	[0.2, 562.0, -6.1, 1.0, 1.0]
22F	OK  	3647	[0.2, 562.0, -6.1, 1.0, 1.0]
27T	OK  	4023	[0.3, -925.4, -442.6, 0.0, 0.0]
27F	OK  	3647	[0.2, 562.0, -6.1, 1.0, 1.0]
29T	OK  	3647	[0.2, 562.0, -6.1, 1.0, 1.0]
29F	OK  	4023	[0.3, -925.4, -442.6, 0.0, 0.0]
31T	OK  	3647	[0.2, 562.0, -6.1, 1.0, 1.0]
31F	OK  	4023	[0.3, -925.4, -442.6, 0.0, 0.0]
32T	OK  	6443	[-0.2, 362.8, 335.0, 0.0, 1.0]
32F	OK  	3647	[0.2, 562.0, -6.1, 1.0, 1.0]
34T	OK  	3647	[0.2, 562.0, -6.1, 1.0, 1.0]
34F	OK  	6443	[-0.2, 362.8, 335.0, 0.0, 1.0]
36T	OK  	421	[-5.6, -793.4, 167.0, 0.0, 1.0]
36F	OK  	1	[-508.1, -126.0, 206.7, 0.0, 0.0]
39T	OK  	421	[-5.6, -793.4, 167.0, 0.0, 1.0]
39F	OK  	421	[-5.6, -793.4, 167.0, 0.0, 1.0]
45T	OK  	2	[-401.3, -168.5, -754.7, 1.0, 1.0]
45F	OK  	1	[-508.1, -126.0, 206.7, 0.0, 0.0]
49T	OK  	2	[-401.3, -168.5, -754.7, 1.0, 1.0]
49F	OK  	2	[-401.3, -168.5, -754.7, 1.0, 1.0]
56T	OK  	18	[82.4, -788.2, -114.7, 1.0, 0.0]
56F	OK  	1	[-508.1, -126.0, 206.7, 0.0, 0.0]
61T	FAIL	100000	
61F	FAIL	100000	
62T	FAIL	100000	
62F	FAIL	100000	
64T	FAIL	100000	
64F	FAIL	100000	
66T	FAIL	100000	
66F	FAIL	100000	
68T	FAIL	100000	
68F	FAIL	100000	
