Test object: org.iguanatool.casestudies.pnorm.testobjects.pnorm5
2T	FAIL	100000	
2F	OK  	1	[-383.6, 285.3, 810.4, 1.0, 0.0]
4T	OK  	51433	[164.4, 164.4, -293.5, 0.0, 0.0]
4F	OK  	1	[-383.6, 285.3, 810.4, 1.0, 0.0]
6T	OK  	2	[44.4, -258.9, -846.0, 1.0, 0.0]
6F	OK  	1	[-383.6, 285.3, 810.4, 1.0, 0.0]
7T	OK  	2	[44.4, -258.9, -846.0, 1.0, 0.0]
7F	OK  	27793	[-779.3, 596.3, 0.0, 0.0, 1.0]
11T	OK  	1	[-383.6, 285.3, 810.4, 1.0, 0.0]
11F	FAIL	100000	
Test object: org.iguanatool.casestudies.pnorm.testobjects.pnorm_both
10T	FAIL	100000	
10F	OK  	1	[-383.6, 285.3, 810.4, 1.0, 0.0]
17T	OK  	927	[-0.1, 838.9, -55.0, 1.0, 1.0]
17F	OK  	1	[-383.6, 285.3, 810.4, 1.0, 0.0]
18T	OK  	927	[-0.1, 838.9, -55.0, 1.0, 1.0]
18F	OK  	29439	[0.0, -65.3, -330.3, 1.0, 0.0]
22T	OK  	927	[-0.1, 838.9, -55.0, 1.0, 1.0]
22F	OK  	927	[-0.1, 838.9, -55.0, 1.0, 1.0]
27T	OK  	2392	[-0.1, -81.6, 678.4, 0.0, 0.0]
27F	OK  	927	[-0.1, 838.9, -55.0, 1.0, 1.0]
29T	OK  	927	[-0.1, 838.9, -55.0, 1.0, 1.0]
29F	OK  	2392	[-0.1, -81.6, 678.4, 0.0, 0.0]
31T	OK  	927	[-0.1, 838.9, -55.0, 1.0, 1.0]
31F	OK  	2392	[-0.1, -81.6, 678.4, 0.0, 0.0]
32T	OK  	4264	[0.2, -652.5, -485.3, 0.0, 1.0]
32F	OK  	927	[-0.1, 838.9, -55.0, 1.0, 1.0]
34T	OK  	927	[-0.1, 838.9, -55.0, 1.0, 1.0]
34F	OK  	4264	[0.2, -652.5, -485.3, 0.0, 1.0]
36T	OK  	277	[1.0, 562.6, -422.6, 1.0, 0.0]
36F	OK  	1	[-383.6, 285.3, 810.4, 1.0, 0.0]
39T	OK  	277	[1.0, 562.6, -422.6, 1.0, 0.0]
39F	OK  	277	[1.0, 562.6, -422.6, 1.0, 0.0]
45T	OK  	4	[-525.5, 271.7, -240.6, 0.0, 1.0]
45F	OK  	1	[-383.6, 285.3, 810.4, 1.0, 0.0]
49T	OK  	4	[-525.5, 271.7, -240.6, 0.0, 1.0]
49F	OK  	4	[-525.5, 271.7, -240.6, 0.0, 1.0]
56T	OK  	2	[44.4, -258.9, -846.0, 1.0, 0.0]
56F	OK  	1	[-383.6, 285.3, 810.4, 1.0, 0.0]
61T	FAIL	100000	
61F	FAIL	100000	
62T	FAIL	100000	
62F	FAIL	100000	
64T	FAIL	100000	
64F	FAIL	100000	
66T	FAIL	100000	
66F	FAIL	100000	
68T	FAIL	100000	
68F	FAIL	100000	
