Test object: org.iguanatool.casestudies.pnorm.testobjects.pnorm5
2T	FAIL	100000	
2F	OK  	1	[-774.1, -164.4, -966.7, 1.0, 1.0]
4T	OK  	1746	[-10.0, -10.0, 648.0, 0.0, 0.0]
4F	OK  	1	[-774.1, -164.4, -966.7, 1.0, 1.0]
6T	OK  	1	[-774.1, -164.4, -966.7, 1.0, 1.0]
6F	OK  	5	[120.0, -293.0, 882.7, 1.0, 1.0]
7T	OK  	1	[-774.1, -164.4, -966.7, 1.0, 1.0]
7F	OK  	15459	[986.9, -693.2, 0.0, 1.0, 1.0]
11T	OK  	5	[120.0, -293.0, 882.7, 1.0, 1.0]
11F	FAIL	100000	
Test object: org.iguanatool.casestudies.pnorm.testobjects.pnorm_both
10T	FAIL	100000	
10F	OK  	1	[-774.1, -164.4, -966.7, 1.0, 1.0]
17T	OK  	5179	[0.5, -889.0, 921.1, 1.0, 1.0]
17F	OK  	1	[-774.1, -164.4, -966.7, 1.0, 1.0]
18T	OK  	5179	[0.5, -889.0, 921.1, 1.0, 1.0]
18F	OK  	11064	[0.0, -190.9, 625.0, 0.0, 1.0]
22T	OK  	5179	[0.5, -889.0, 921.1, 1.0, 1.0]
22F	OK  	5179	[0.5, -889.0, 921.1, 1.0, 1.0]
27T	OK  	7477	[0.1, -20.9, -616.6, 0.0, 0.0]
27F	OK  	5179	[0.5, -889.0, 921.1, 1.0, 1.0]
29T	OK  	5179	[0.5, -889.0, 921.1, 1.0, 1.0]
29F	OK  	7477	[0.1, -20.9, -616.6, 0.0, 0.0]
31T	OK  	5179	[0.5, -889.0, 921.1, 1.0, 1.0]
31F	OK  	7477	[0.1, -20.9, -616.6, 0.0, 0.0]
32T	OK  	8426	[0.5, 367.4, 316.5, 0.0, 1.0]
32F	OK  	5179	[0.5, -889.0, 921.1, 1.0, 1.0]
34T	OK  	5179	[0.5, -889.0, 921.1, 1.0, 1.0]
34F	OK  	8426	[0.5, 367.4, 316.5, 0.0, 1.0]
36T	OK  	778	[-2.6, -198.6, 845.3, 1.0, 0.0]
36F	OK  	1	[-774.1, -164.4, -966.7, 1.0, 1.0]
39T	OK  	778	[-2.6, -198.6, 845.3, 1.0, 0.0]
39F	OK  	778	[-2.6, -198.6, 845.3, 1.0, 0.0]
45T	OK  	1	[-774.1, -164.4, -966.7, 1.0, 1.0]
45F	OK  	7	[-292.4, 415.5, -475.3, 0.0, 0.0]
49T	OK  	1	[-774.1, -164.4, -966.7, 1.0, 1.0]
49F	OK  	1	[-774.1, -164.4, -966.7, 1.0, 1.0]
56T	OK  	10	[270.6, 412.8, -171.4, 1.0, 0.0]
56F	OK  	7	[-292.4, 415.5, -475.3, 0.0, 0.0]
61T	FAIL	100000	
61F	FAIL	100000	
62T	FAIL	100000	
62F	FAIL	100000	
64T	FAIL	100000	
64F	FAIL	100000	
66T	FAIL	100000	
66F	FAIL	100000	
68T	FAIL	100000	
68F	FAIL	100000	
