Test object: org.iguanatool.casestudies.pnorm.testobjects.pnorm5
2T	FAIL	100000	
2F	OK  	1	[-426.0, -66.0, 30.7, 0.0, 1.0]
4T	OK  	15031	[-456.4147430419922, -456.4147430419922, -932.8705859375001, 0.9999804486083985, 2.5634765624999993E-7]
4F	OK  	1	[-426.0, -66.0, 30.7, 0.0, 1.0]
6T	OK  	6	[-167.2, 131.0, -944.8, 1.0, 0.0]
6F	OK  	1	[-426.0, -66.0, 30.7, 0.0, 1.0]
7T	OK  	6	[-167.2, 131.0, -944.8, 1.0, 0.0]
7F	FAIL	100000	
11T	OK  	1	[-426.0, -66.0, 30.7, 0.0, 1.0]
11F	FAIL	100000	
Test object: org.iguanatool.casestudies.pnorm.testobjects.pnorm_both
10T	FAIL	100000	
10F	OK  	1	[-426.0, -66.0, 30.7, 0.0, 1.0]
17T	OK  	1394	[0.498046875, 75.09951171875, -417.5, 1.0, 1.0]
17F	OK  	1	[-426.0, -66.0, 30.7, 0.0, 1.0]
18T	OK  	1394	[0.498046875, 75.09951171875, -417.5, 1.0, 1.0]
18F	OK  	7029	[0.0, 75.09755859375, -417.4833984375, 0.9999918823242188, 0.999994140625]
22T	FAIL	100000	
22F	FAIL	100000	
27T	OK  	1878	[0.498046875, 75.16640625, 646.9, 0.0, 1.0]
27F	OK  	1394	[0.498046875, 75.09951171875, -417.5, 1.0, 1.0]
29T	OK  	1394	[0.498046875, 75.09951171875, -417.5, 1.0, 1.0]
29F	OK  	1878	[0.498046875, 75.16640625, 646.9, 0.0, 1.0]
31T	OK  	1394	[0.498046875, 75.09951171875, -417.5, 1.0, 1.0]
31F	OK  	1857	[0.498046875, 75.09951171875, -417.5, 1.0, 0.0]
32T	OK  	1878	[0.498046875, 75.16640625, 646.9, 0.0, 1.0]
32F	OK  	1394	[0.498046875, 75.09951171875, -417.5, 1.0, 1.0]
34T	OK  	1394	[0.498046875, 75.09951171875, -417.5, 1.0, 1.0]
34F	OK  	1878	[0.498046875, 75.16640625, 646.9, 0.0, 1.0]
36T	OK  	34	[4.8, -654.2, 83.2, 1.0, 0.0]
36F	OK  	1	[-426.0, -66.0, 30.7, 0.0, 1.0]
39T	OK  	34	[4.8, -654.2, 83.2, 1.0, 0.0]
39F	OK  	34	[4.8, -654.2, 83.2, 1.0, 0.0]
45T	OK  	1	[-426.0, -66.0, 30.7, 0.0, 1.0]
45F	OK  	3	[-467.6, 258.8, 288.0, 1.0, 0.0]
49T	OK  	1	[-426.0, -66.0, 30.7, 0.0, 1.0]
49F	OK  	1	[-426.0, -66.0, 30.7, 0.0, 1.0]
56T	OK  	12	[403.6, 7.9, 846.8, 0.0, 0.0]
56F	OK  	3	[-467.6, 258.8, 288.0, 1.0, 0.0]
61T	FAIL	100000	
61F	FAIL	100000	
62T	FAIL	100000	
62F	FAIL	100000	
64T	FAIL	100000	
64F	FAIL	100000	
66T	FAIL	100000	
66F	FAIL	100000	
68T	FAIL	100000	
68F	FAIL	100000	
