Test object: org.iguanatool.casestudies.pnorm.testobjects.pnorm5
2T	FAIL	100000	
2F	OK  	1	[42.9, 381.7, -730.4, 0.0, 1.0]
4T	OK  	244	[-191.79999999999998, -191.79999999999998, -653.3, 1.0, 1.0]
4F	OK  	1	[42.9, 381.7, -730.4, 0.0, 1.0]
6T	OK  	1	[42.9, 381.7, -730.4, 0.0, 1.0]
6F	OK  	19	[42.9, 381.7, 88.7000000000001, 0.0, 1.0]
7T	OK  	1	[42.9, 381.7, -730.4, 0.0, 1.0]
7F	FAIL	100000	
11T	OK  	19	[42.9, 381.7, 88.7000000000001, 0.0, 1.0]
11F	FAIL	100000	
Test object: org.iguanatool.casestudies.pnorm.testobjects.pnorm_both
10T	FAIL	100000	
10F	OK  	1	[42.9, 381.7, -730.4, 0.0, 1.0]
17T	OK  	29	[-0.40000000000000635, 381.7, -730.4, 0.0, 1.0]
17F	OK  	1	[42.9, 381.7, -730.4, 0.0, 1.0]
18T	OK  	29	[-0.40000000000000635, 381.7, -730.4, 0.0, 1.0]
18F	OK  	1871	[2.7755575615628914E-17, 643.9, -847.7, 1.0, 1.0]
22T	OK  	1629	[0.3, 50.6, 600.0, 0.0, 1.0]
22F	OK  	1629	[0.3, 50.6, 600.0, 0.0, 1.0]
27T	OK  	29	[-0.40000000000000635, 381.7, -730.4, 0.0, 1.0]
27F	OK  	35	[-0.40000000000000635, 381.7, -730.4, 1.0, 1.0]
29T	OK  	35	[-0.40000000000000635, 381.7, -730.4, 1.0, 1.0]
29F	OK  	29	[-0.40000000000000635, 381.7, -730.4, 0.0, 1.0]
31T	OK  	29	[-0.40000000000000635, 381.7, -730.4, 0.0, 1.0]
31F	OK  	36	[-0.40000000000000635, 381.7, -730.4, 0.0, 0.0]
32T	OK  	29	[-0.40000000000000635, 381.7, -730.4, 0.0, 1.0]
32F	OK  	35	[-0.40000000000000635, 381.7, -730.4, 1.0, 1.0]
34T	OK  	35	[-0.40000000000000635, 381.7, -730.4, 1.0, 1.0]
34F	OK  	29	[-0.40000000000000635, 381.7, -730.4, 0.0, 1.0]
36T	OK  	16	[-5.100000000000007, 381.7, -730.4, 0.0, 1.0]
36F	OK  	1	[42.9, 381.7, -730.4, 0.0, 1.0]
39T	OK  	16	[-5.100000000000007, 381.7, -730.4, 0.0, 1.0]
39F	OK  	16	[-5.100000000000007, 381.7, -730.4, 0.0, 1.0]
45T	OK  	1	[42.9, 381.7, -730.4, 0.0, 1.0]
45F	OK  	9	[42.9, 381.7, -730.4, 0.0, 0.0]
49T	OK  	1	[42.9, 381.7, -730.4, 0.0, 1.0]
49F	OK  	1	[42.9, 381.7, -730.4, 0.0, 1.0]
56T	OK  	9	[42.9, 381.7, -730.4, 0.0, 0.0]
56F	OK  	98	[-334.7000000000001, -53.4, -725.6, 0.0, 0.0]
61T	FAIL	100000	
61F	FAIL	100000	
62T	FAIL	100000	
62F	FAIL	100000	
64T	FAIL	100000	
64F	FAIL	100000	
66T	FAIL	100000	
66F	FAIL	100000	
68T	FAIL	100000	
68F	FAIL	100000	
