Test object: org.iguanatool.casestudies.ptukey.testobjects.ptukey
15T	FAIL	100000	
15F	OK  	1	[-192.4, 753.0, 979.0, 831.3, 0.0, 1.0]
17T	OK  	1	[-192.4, 753.0, 979.0, 831.3, 0.0, 1.0]
17F	OK  	13	[12.299999999999997, 753.0, 979.0, 831.3, 0.0, 1.0]
19T	OK  	27	[12.299999999999997, -66.10000000000008, 979.0, 831.3, 0.0, 1.0]
19F	OK  	13	[12.299999999999997, 753.0, 979.0, 831.3, 0.0, 1.0]
21T	OK  	13	[12.299999999999997, 753.0, 979.0, 831.3, 0.0, 1.0]
21F	FAIL	100000	
23T	FAIL	100000	
23F	FAIL	100000	
29T	FAIL	100000	
29F	FAIL	100000	
31T	FAIL	100000	
31F	FAIL	100000	
33T	FAIL	100000	
33F	FAIL	100000	
38T	FAIL	100000	
38F	FAIL	100000	
41T	FAIL	100000	
41F	FAIL	100000	
42T	FAIL	100000	
42F	FAIL	100000	
47T	FAIL	100000	
47F	FAIL	100000	
48T	FAIL	100000	
48F	FAIL	100000	
54T	FAIL	100000	
54F	FAIL	100000	
57T	FAIL	100000	
57F	FAIL	100000	
59T	FAIL	100000	
59F	FAIL	100000	
Test object: org.iguanatool.casestudies.ptukey.testobjects.wprob
14T	OK  	14	[217.10000000000002, 753.0, 979.0]
14F	OK  	1	[-192.4, 753.0, 979.0]
17T	OK  	82	[12.199999999999875, -990.9, 387.3]
17F	OK  	1	[-192.4, 753.0, 979.0]
20T	OK  	13	[12.299999999999997, 753.0, 979.0]
20F	OK  	1	[-192.4, 753.0, 979.0]
28T	OK  	1	[-192.4, 753.0, 979.0]
28F	OK  	1	[-192.4, 753.0, 979.0]
32T	OK  	1	[-192.4, 753.0, 979.0]
32F	OK  	21	[12.199999999999875, -990.9, 387.3]
33T	OK  	21	[12.199999999999875, -990.9, 387.3]
33F	OK  	1	[-192.4, 753.0, 979.0]
41T	OK  	1	[-192.4, 753.0, 979.0]
41F	OK  	13	[12.299999999999997, 753.0, 979.0]
46T	OK  	13	[12.299999999999997, 753.0, 979.0]
46F	OK  	219	[-78.90000000000003, -677.6, 267.8]
54T	OK  	1	[-192.4, 753.0, 979.0]
54F	OK  	144	[5.899999999999875, -997.2, 796.8]
57T	OK  	1862	[8.2, 657.2, 831.0]
57F	OK  	144	[5.899999999999875, -997.2, 796.8]
