Test object: org.iguanatool.casestudies.ptukey.testobjects.ptukey
15T	FAIL	100000	
15F	OK  	1	[616.4, -567.6, -367.3, 249.7, 1.0, 1.0]
17T	OK  	14	[-202.7000000000001, -567.6, -367.3, 249.7, 1.0, 1.0]
17F	OK  	1	[616.4, -567.6, -367.3, 249.7, 1.0, 1.0]
19T	OK  	1	[616.4, -567.6, -367.3, 249.7, 1.0, 1.0]
19F	OK  	30	[616.4, 251.50000000000006, 42.20000000000002, 249.7, 1.0, 1.0]
21T	OK  	12	[34.2, 725.6, 357.2, 363.9, 1.0, 1.0]
21F	FAIL	100000	
23T	FAIL	100000	
23F	FAIL	100000	
29T	FAIL	100000	
29F	FAIL	100000	
31T	FAIL	100000	
31F	FAIL	100000	
33T	FAIL	100000	
33F	FAIL	100000	
38T	FAIL	100000	
38F	FAIL	100000	
41T	FAIL	100000	
41F	FAIL	100000	
42T	FAIL	100000	
42F	FAIL	100000	
47T	FAIL	100000	
47F	FAIL	100000	
48T	FAIL	100000	
48F	FAIL	100000	
54T	FAIL	100000	
54F	FAIL	100000	
57T	FAIL	100000	
57F	FAIL	100000	
59T	FAIL	100000	
59F	FAIL	100000	
Test object: org.iguanatool.casestudies.ptukey.testobjects.wprob
14T	OK  	1	[616.4, -567.6, -367.3]
14F	OK  	14	[-202.7000000000001, -567.6, -367.3]
17T	OK  	201	[8.7, 725.6, 357.2]
17F	OK  	14	[-202.7000000000001, -567.6, -367.3]
20T	OK  	35	[3.4999999999999005, -567.6, -367.3]
20F	OK  	14	[-202.7000000000001, -567.6, -367.3]
28T	OK  	14	[-202.7000000000001, -567.6, -367.3]
28F	OK  	14	[-202.7000000000001, -567.6, -367.3]
32T	OK  	14	[-202.7000000000001, -567.6, -367.3]
32F	OK  	49	[8.7, 725.6, 357.2]
33T	OK  	49	[8.7, 725.6, 357.2]
33F	OK  	14	[-202.7000000000001, -567.6, -367.3]
41T	OK  	14	[-202.7000000000001, -567.6, -367.3]
41F	OK  	25	[1.9999999999999005, -567.6, -367.3]
46T	OK  	230	[8.7, 725.6, 357.2]
46F	OK  	25	[1.9999999999999005, -567.6, -367.3]
54T	OK  	14	[-202.7000000000001, -567.6, -367.3]
54F	OK  	135	[8.7, 725.6, 357.2]
57T	OK  	135	[8.7, 725.6, 357.2]
57F	OK  	7938	[3.9, -422.2, 874.4]
