Test object: org.iguanatool.casestudies.spice1.testobjects.clip_to_circle
7T	OK  	1	[9547.0, -3856.0, -5952.0, 9243.0, 7999.0, -958.0, 8486.0]
7F	OK  	110	[8014.0, -1839.0, -5952.0, 9243.0, 8014.0, -1839.0, 8486.0]
10T	OK  	1	[9547.0, -3856.0, -5952.0, 9243.0, 7999.0, -958.0, 8486.0]
10F	OK  	137	[9547.0, -3856.0, 4159.0, 1083.0, 4159.0, 1083.0, 8486.0]
13T	OK  	1	[9547.0, -3856.0, -5952.0, 9243.0, 7999.0, -958.0, 8486.0]
13F	OK  	23	[9802.0, 239.0, -5952.0, 9243.0, 7999.0, -958.0, 8486.0]
15T	OK  	89	[9547.0, -3856.0, 6334.0, 5659.0, -8384.0, 7233.0, 8486.0]
15F	OK  	1	[9547.0, -3856.0, -5952.0, 9243.0, 7999.0, -958.0, 8486.0]
18T	OK  	71	[-6836.0, 4335.0, -7999.0, -7140.0, -8384.0, -958.0, 8486.0]
18F	OK  	1	[9547.0, -3856.0, -5952.0, 9243.0, 7999.0, -958.0, 8486.0]
20T	OK  	22	[9802.0, -1809.0, -5952.0, 9243.0, 7999.0, -958.0, 8486.0]
20F	OK  	1	[9547.0, -3856.0, -5952.0, 9243.0, 7999.0, -958.0, 8486.0]
22T	OK  	1	[9547.0, -3856.0, -5952.0, 9243.0, 7999.0, -958.0, 8486.0]
22F	OK  	55	[-6836.0, 4335.0, -7999.0, 1052.0, 7999.0, -958.0, 8486.0]
40T	OK  	31	[4885.0, -7689.0, 6080.0, 4613.0, -1821.0, -2580.0, 2663.0]
40F	OK  	1	[9547.0, -3856.0, -5952.0, 9243.0, 7999.0, -958.0, 8486.0]
42T	FAIL	100000	
42F	OK  	31	[4885.0, -7689.0, 6080.0, 4613.0, -1821.0, -2580.0, 2663.0]
44T	FAIL	100000	
44F	OK  	31	[4885.0, -7689.0, 6080.0, 4613.0, -1821.0, -2580.0, 2663.0]
48T	OK  	213	[-2661.0, 8252.0, -9575.0, -2613.0, 8848.0, 6186.0, 2051.0]
48F	OK  	1	[9547.0, -3856.0, -5952.0, 9243.0, 7999.0, -958.0, 8486.0]
51T	OK  	61	[9802.0, -5903.0, -5952.0, 9243.0, 7488.0, -447.0, 4391.0]
51F	OK  	1	[9547.0, -3856.0, -5952.0, 9243.0, 7999.0, -958.0, 8486.0]
53T	OK  	1	[9547.0, -3856.0, -5952.0, 9243.0, 7999.0, -958.0, 8486.0]
53F	OK  	31	[9547.0, -3856.0, 2239.0, 5148.0, 7999.0, -958.0, 8486.0]
55T	OK  	6250	[9935.0, 6574.0, -61.0, 6217.0, -5.0, 6219.0, 3630.0]
55F	OK  	1	[9547.0, -3856.0, -5952.0, 9243.0, 7999.0, -958.0, 8486.0]
57T	FAIL	100000	
57F	OK  	1	[9547.0, -3856.0, -5952.0, 9243.0, 7999.0, -958.0, 8486.0]
61T	OK  	1	[9547.0, -3856.0, -5952.0, 9243.0, 7999.0, -958.0, 8486.0]
61F	FAIL	100000	
66T	OK  	39	[9802.0, -7951.0, -5952.0, 9243.0, 3904.0, -958.0, 8486.0]
66F	OK  	1	[9547.0, -3856.0, -5952.0, 9243.0, 7999.0, -958.0, 8486.0]
68T	OK  	42593	[9648.0, 9943.0, -5399.0, -4192.0, -5366.0, -4161.0, 522.0]
68F	OK  	39	[9802.0, -7951.0, -5952.0, 9243.0, 3904.0, -958.0, 8486.0]
70T	FAIL	100000	
70F	OK  	39	[9802.0, -7951.0, -5952.0, 9243.0, 3904.0, -958.0, 8486.0]
74T	OK  	39	[9802.0, -7951.0, -5952.0, 9243.0, 3904.0, -958.0, 8486.0]
74F	FAIL	100000	
79T	OK  	1	[9547.0, -3856.0, -5952.0, 9243.0, 7999.0, -958.0, 8486.0]
79F	OK  	47	[-210.0, -2967.0, -4002.0, 5251.0, -5185.0, 6834.0, 4378.0]
