Test object: org.iguanatool.casestudies.spice1.testobjects.clip_to_circle
7T	OK  	1	[-4506.0, 8423.0, -2592.0, 1560.0, -9906.0, 9751.0, 305.0]
7F	OK  	134	[-8853.0, 8679.0, -2592.0, 1560.0, -8853.0, 8679.0, 305.0]
10T	OK  	1	[-4506.0, 8423.0, -2592.0, 1560.0, -9906.0, 9751.0, 305.0]
10F	OK  	114	[-4506.0, 8423.0, -5680.0, 1560.0, -5680.0, 1560.0, 305.0]
13T	OK  	1	[-4506.0, 8423.0, -2592.0, 1560.0, -9906.0, 9751.0, 305.0]
13F	OK  	46	[3685.0, 9446.0, -2592.0, 1560.0, -9969.0, 9240.0, 305.0]
15T	OK  	1	[-4506.0, 8423.0, -2592.0, 1560.0, -9906.0, 9751.0, 305.0]
15F	OK  	33	[-4506.0, 8423.0, 5599.0, 9751.0, -9906.0, 9751.0, 305.0]
18T	OK  	114	[-9624.0, 8423.0, 5599.0, 5655.0, -1715.0, 5656.0, 305.0]
18F	OK  	1	[-4506.0, 8423.0, -2592.0, 1560.0, -9906.0, 9751.0, 305.0]
20T	OK  	127	[7780.0, 9477.0, -8734.0, 9752.0, -1715.0, 9496.0, 305.0]
20F	OK  	1	[-4506.0, 8423.0, -2592.0, 1560.0, -9906.0, 9751.0, 305.0]
22T	OK  	1	[-4506.0, 8423.0, -2592.0, 1560.0, -9906.0, 9751.0, 305.0]
22F	OK  	22	[-8601.0, 8168.0, -2592.0, 1560.0, -9906.0, 9751.0, 305.0]
40T	OK  	31	[-2901.0, -3182.0, 1207.0, 9626.0, -1859.0, 5582.0, -5647.0]
40F	OK  	1	[-4506.0, 8423.0, -2592.0, 1560.0, -9906.0, 9751.0, 305.0]
42T	FAIL	100000	
42F	OK  	31	[-2901.0, -3182.0, 1207.0, 9626.0, -1859.0, 5582.0, -5647.0]
44T	FAIL	100000	
44F	OK  	31	[-2901.0, -3182.0, 1207.0, 9626.0, -1859.0, 5582.0, -5647.0]
48T	OK  	15	[3685.0, 8423.0, -2592.0, 1560.0, -9906.0, 9751.0, 305.0]
48F	OK  	1	[-4506.0, 8423.0, -2592.0, 1560.0, -9906.0, 9751.0, 305.0]
51T	OK  	1	[-4506.0, 8423.0, -2592.0, 1560.0, -9906.0, 9751.0, 305.0]
51F	OK  	49	[-8601.0, 9446.0, -2592.0, 1560.0, -8883.0, 9496.0, 305.0]
53T	OK  	49	[-8601.0, 9446.0, -2592.0, 1560.0, -8883.0, 9496.0, 305.0]
53F	OK  	81	[-8601.0, 9446.0, -6687.0, 1560.0, -8883.0, 9496.0, 8496.0]
55T	OK  	91196	[9758.0, 9313.0, -2822.0, -5672.0, -2890.0, -5753.0, 362.0]
55F	OK  	49	[-8601.0, 9446.0, -2592.0, 1560.0, -8883.0, 9496.0, 305.0]
57T	FAIL	100000	
57F	OK  	49	[-8601.0, 9446.0, -2592.0, 1560.0, -8883.0, 9496.0, 305.0]
61T	OK  	49	[-8601.0, 9446.0, -2592.0, 1560.0, -8883.0, 9496.0, 305.0]
61F	FAIL	100000	
66T	OK  	276	[-6996.0, -1135.0, 1238.0, 9633.0, -1860.0, 5582.0, 2544.0]
66F	OK  	49	[-8601.0, 9446.0, -2592.0, 1560.0, -8883.0, 9496.0, 305.0]
68T	OK  	20704	[-3342.0, 9005.0, -1156.0, -4111.0, -3346.0, 9029.0, 1042.0]
68F	OK  	276	[-6996.0, -1135.0, 1238.0, 9633.0, -1860.0, 5582.0, 2544.0]
70T	FAIL	100000	
70F	OK  	276	[-6996.0, -1135.0, 1238.0, 9633.0, -1860.0, 5582.0, 2544.0]
74T	OK  	276	[-6996.0, -1135.0, 1238.0, 9633.0, -1860.0, 5582.0, 2544.0]
74F	FAIL	100000	
79T	OK  	49	[-8601.0, 9446.0, -2592.0, 1560.0, -8883.0, 9496.0, 305.0]
79F	OK  	148	[-9968.0, 8812.0, -5615.0, -6776.0, -5590.0, -6765.0, 2152.0]
