Test object: org.iguanatool.casestudies.spice1.testobjects.clip_to_circle
7T	OK  	1	[-685.0, -1386.0, -5741.0, -5938.0, 3356.0, -3973.0, -6795.0]
7F	FAIL	100000	
10T	OK  	1	[-685.0, -1386.0, -5741.0, -5938.0, 3356.0, -3973.0, -6795.0]
10F	FAIL	100000	
13T	OK  	2	[-9412.0, -9356.0, 5663.0, -2919.0, 6116.0, 2977.0, 7838.0]
13F	OK  	1	[-685.0, -1386.0, -5741.0, -5938.0, 3356.0, -3973.0, -6795.0]
15T	OK  	1	[-685.0, -1386.0, -5741.0, -5938.0, 3356.0, -3973.0, -6795.0]
15F	OK  	5	[-4167.0, -2849.0, -7526.0, -2837.0, 2058.0, -4858.0, -8866.0]
18T	OK  	36	[1211.0, 8699.0, -826.0, -1282.0, -3693.0, -628.0, -7682.0]
18F	OK  	1	[-685.0, -1386.0, -5741.0, -5938.0, 3356.0, -3973.0, -6795.0]
20T	OK  	10	[6031.0, -8735.0, 1849.0, 2232.0, 2905.0, -5616.0, -3749.0]
20F	OK  	1	[-685.0, -1386.0, -5741.0, -5938.0, 3356.0, -3973.0, -6795.0]
22T	OK  	4	[4426.0, -8548.0, -6388.0, -3009.0, 478.0, 5517.0, -5322.0]
22F	OK  	1	[-685.0, -1386.0, -5741.0, -5938.0, 3356.0, -3973.0, -6795.0]
40T	OK  	6	[1975.0, 1266.0, -5364.0, 8830.0, -1415.0, 5108.0, -1226.0]
40F	OK  	1	[-685.0, -1386.0, -5741.0, -5938.0, 3356.0, -3973.0, -6795.0]
42T	FAIL	100000	
42F	OK  	6	[1975.0, 1266.0, -5364.0, 8830.0, -1415.0, 5108.0, -1226.0]
44T	FAIL	100000	
44F	OK  	6	[1975.0, 1266.0, -5364.0, 8830.0, -1415.0, 5108.0, -1226.0]
48T	OK  	1	[-685.0, -1386.0, -5741.0, -5938.0, 3356.0, -3973.0, -6795.0]
48F	OK  	2	[-9412.0, -9356.0, 5663.0, -2919.0, 6116.0, 2977.0, 7838.0]
51T	OK  	1	[-685.0, -1386.0, -5741.0, -5938.0, 3356.0, -3973.0, -6795.0]
51F	OK  	2	[-9412.0, -9356.0, 5663.0, -2919.0, 6116.0, 2977.0, 7838.0]
53T	OK  	2	[-9412.0, -9356.0, 5663.0, -2919.0, 6116.0, 2977.0, 7838.0]
53F	OK  	30	[8055.0, 9803.0, 3773.0, -3941.0, 7872.0, 8117.0, 8456.0]
55T	FAIL	100000	
55F	OK  	2	[-9412.0, -9356.0, 5663.0, -2919.0, 6116.0, 2977.0, 7838.0]
57T	FAIL	100000	
57F	OK  	2	[-9412.0, -9356.0, 5663.0, -2919.0, 6116.0, 2977.0, 7838.0]
61T	OK  	2	[-9412.0, -9356.0, 5663.0, -2919.0, 6116.0, 2977.0, 7838.0]
61F	FAIL	100000	
66T	OK  	30	[8055.0, 9803.0, 3773.0, -3941.0, 7872.0, 8117.0, 8456.0]
66F	OK  	2	[-9412.0, -9356.0, 5663.0, -2919.0, 6116.0, 2977.0, 7838.0]
68T	FAIL	100000	
68F	OK  	30	[8055.0, 9803.0, 3773.0, -3941.0, 7872.0, 8117.0, 8456.0]
70T	FAIL	100000	
70F	OK  	30	[8055.0, 9803.0, 3773.0, -3941.0, 7872.0, 8117.0, 8456.0]
74T	OK  	30	[8055.0, 9803.0, 3773.0, -3941.0, 7872.0, 8117.0, 8456.0]
74F	FAIL	100000	
79T	OK  	49	[-9756.0, -1602.0, 2608.0, -8378.0, -5751.0, -4083.0, 1576.0]
79F	OK  	2	[-9412.0, -9356.0, 5663.0, -2919.0, 6116.0, 2977.0, 7838.0]
