Test object: org.iguanatool.casestudies.spice1.testobjects.clip_to_circle
7T	OK  	1	[1597.0, -8597.0, -1318.0, -1661.0, -2684.0, -5052.0, 5597.0]
7F	OK  	16861	[-7528.255166015625, -1081.277587890625, -2666.725830078125, 9042.561645507812, -7528.72265625, -1081.9494018554688, 6474.21875]
10T	OK  	1	[1597.0, -8597.0, -1318.0, -1661.0, -2684.0, -5052.0, 5597.0]
10F	OK  	19027	[8693.4404296875, 929.86376953125, -2747.0, 7970.0220947265625, -2747.5438232421875, 7970.8372802734375, -2683.4873046875]
13T	OK  	1	[1597.0, -8597.0, -1318.0, -1661.0, -2684.0, -5052.0, 5597.0]
13F	OK  	2	[-246.0, 6252.0, 1296.0, 5176.0, 1675.0, 559.0, -1009.0]
15T	OK  	5	[-1973.0, -8451.0, -8042.0, -5886.0, 1862.0, 1251.0, -6398.0]
15F	OK  	1	[1597.0, -8597.0, -1318.0, -1661.0, -2684.0, -5052.0, 5597.0]
18T	OK  	11	[8990.0, 9963.0, 9713.0, 840.0, -5286.0, 6757.0, -2767.0]
18F	OK  	1	[1597.0, -8597.0, -1318.0, -1661.0, -2684.0, -5052.0, 5597.0]
20T	OK  	1	[1597.0, -8597.0, -1318.0, -1661.0, -2684.0, -5052.0, 5597.0]
20F	OK  	2	[-246.0, 6252.0, 1296.0, 5176.0, 1675.0, 559.0, -1009.0]
22T	OK  	2	[-246.0, 6252.0, 1296.0, 5176.0, 1675.0, 559.0, -1009.0]
22F	OK  	1	[1597.0, -8597.0, -1318.0, -1661.0, -2684.0, -5052.0, 5597.0]
40T	OK  	1	[1597.0, -8597.0, -1318.0, -1661.0, -2684.0, -5052.0, 5597.0]
40F	OK  	2	[-246.0, 6252.0, 1296.0, 5176.0, 1675.0, 559.0, -1009.0]
42T	FAIL	100000	
42F	OK  	1	[1597.0, -8597.0, -1318.0, -1661.0, -2684.0, -5052.0, 5597.0]
44T	FAIL	100000	
44F	OK  	1	[1597.0, -8597.0, -1318.0, -1661.0, -2684.0, -5052.0, 5597.0]
48T	OK  	2	[-246.0, 6252.0, 1296.0, 5176.0, 1675.0, 559.0, -1009.0]
48F	OK  	4	[3866.0, -9686.0, 6504.0, 1958.0, -4668.0, 1943.0, -3082.0]
51T	OK  	2	[-246.0, 6252.0, 1296.0, 5176.0, 1675.0, 559.0, -1009.0]
51F	OK  	1	[1597.0, -8597.0, -1318.0, -1661.0, -2684.0, -5052.0, 5597.0]
53T	OK  	14	[9751.0, -7983.0, -1676.0, -1799.0, 2610.0, -9893.0, 7243.0]
53F	OK  	1	[1597.0, -8597.0, -1318.0, -1661.0, -2684.0, -5052.0, 5597.0]
55T	FAIL	100000	
55F	OK  	14	[9751.0, -7983.0, -1676.0, -1799.0, 2610.0, -9893.0, 7243.0]
57T	FAIL	100000	
57F	OK  	14	[9751.0, -7983.0, -1676.0, -1799.0, 2610.0, -9893.0, 7243.0]
61T	OK  	14	[9751.0, -7983.0, -1676.0, -1799.0, 2610.0, -9893.0, 7243.0]
61F	FAIL	100000	
66T	OK  	14	[9751.0, -7983.0, -1676.0, -1799.0, 2610.0, -9893.0, 7243.0]
66F	OK  	1	[1597.0, -8597.0, -1318.0, -1661.0, -2684.0, -5052.0, 5597.0]
68T	FAIL	100000	
68F	OK  	14	[9751.0, -7983.0, -1676.0, -1799.0, 2610.0, -9893.0, 7243.0]
70T	FAIL	100000	
70F	OK  	14	[9751.0, -7983.0, -1676.0, -1799.0, 2610.0, -9893.0, 7243.0]
74T	OK  	14	[9751.0, -7983.0, -1676.0, -1799.0, 2610.0, -9893.0, 7243.0]
74F	FAIL	100000	
79T	OK  	25	[-2516.0, 1473.0, 2327.0, 4132.0, 2394.0, -545.0, 4349.0]
79F	OK  	1	[1597.0, -8597.0, -1318.0, -1661.0, -2684.0, -5052.0, 5597.0]
