Test object: org.iguanatool.casestudies.spice1.testobjects.clip_to_circle
7T	OK  	1	[-654.0, 1947.0, -4138.0, 4149.0, -5628.0, -5273.0, -9743.0]
7F	FAIL	100000	
10T	OK  	1	[-654.0, 1947.0, -4138.0, 4149.0, -5628.0, -5273.0, -9743.0]
10F	FAIL	100000	
13T	OK  	2	[-7806.0, 1937.0, 2894.0, 1777.0, 655.0, 8405.0, 9106.0]
13F	OK  	1	[-654.0, 1947.0, -4138.0, 4149.0, -5628.0, -5273.0, -9743.0]
15T	OK  	2	[-7806.0, 1937.0, 2894.0, 1777.0, 655.0, 8405.0, 9106.0]
15F	OK  	1	[-654.0, 1947.0, -4138.0, 4149.0, -5628.0, -5273.0, -9743.0]
18T	OK  	11	[1210.0, 7179.0, -294.0, 2564.0, -8127.0, 4787.0, -67.0]
18F	OK  	1	[-654.0, 1947.0, -4138.0, 4149.0, -5628.0, -5273.0, -9743.0]
20T	OK  	9	[9839.0, -4662.0, 8267.0, 8828.0, -9775.0, 8218.0, -2313.0]
20F	OK  	1	[-654.0, 1947.0, -4138.0, 4149.0, -5628.0, -5273.0, -9743.0]
22T	OK  	4	[7145.0, -6260.0, 131.0, -7902.0, 2613.0, 972.0, -3661.0]
22F	OK  	1	[-654.0, 1947.0, -4138.0, 4149.0, -5628.0, -5273.0, -9743.0]
40T	OK  	4	[7145.0, -6260.0, 131.0, -7902.0, 2613.0, 972.0, -3661.0]
40F	OK  	1	[-654.0, 1947.0, -4138.0, 4149.0, -5628.0, -5273.0, -9743.0]
42T	FAIL	100000	
42F	OK  	4	[7145.0, -6260.0, 131.0, -7902.0, 2613.0, 972.0, -3661.0]
44T	FAIL	100000	
44F	OK  	4	[7145.0, -6260.0, 131.0, -7902.0, 2613.0, 972.0, -3661.0]
48T	OK  	1	[-654.0, 1947.0, -4138.0, 4149.0, -5628.0, -5273.0, -9743.0]
48F	OK  	2	[-7806.0, 1937.0, 2894.0, 1777.0, 655.0, 8405.0, 9106.0]
51T	OK  	1	[-654.0, 1947.0, -4138.0, 4149.0, -5628.0, -5273.0, -9743.0]
51F	OK  	2	[-7806.0, 1937.0, 2894.0, 1777.0, 655.0, 8405.0, 9106.0]
53T	OK  	2	[-7806.0, 1937.0, 2894.0, 1777.0, 655.0, 8405.0, 9106.0]
53F	OK  	40	[-7042.0, 7403.0, -1287.0, 7349.0, -6429.0, 8774.0, 1503.0]
55T	FAIL	100000	
55F	OK  	2	[-7806.0, 1937.0, 2894.0, 1777.0, 655.0, 8405.0, 9106.0]
57T	FAIL	100000	
57F	OK  	2	[-7806.0, 1937.0, 2894.0, 1777.0, 655.0, 8405.0, 9106.0]
61T	OK  	2	[-7806.0, 1937.0, 2894.0, 1777.0, 655.0, 8405.0, 9106.0]
61F	FAIL	100000	
66T	OK  	24	[-5819.0, 7568.0, 1328.0, 1625.0, -2636.0, 6040.0, 2918.0]
66F	OK  	2	[-7806.0, 1937.0, 2894.0, 1777.0, 655.0, 8405.0, 9106.0]
68T	FAIL	100000	
68F	OK  	24	[-5819.0, 7568.0, 1328.0, 1625.0, -2636.0, 6040.0, 2918.0]
70T	FAIL	100000	
70F	OK  	24	[-5819.0, 7568.0, 1328.0, 1625.0, -2636.0, 6040.0, 2918.0]
74T	OK  	24	[-5819.0, 7568.0, 1328.0, 1625.0, -2636.0, 6040.0, 2918.0]
74F	FAIL	100000	
79T	OK  	28	[801.0, 4161.0, 6160.0, 7468.0, -312.0, 2512.0, 6255.0]
79F	OK  	2	[-7806.0, 1937.0, 2894.0, 1777.0, 655.0, 8405.0, 9106.0]
