Test object: org.iguanatool.casestudies.spice1.testobjects.clip_to_circle
7T	OK  	1	[5167.0, 1562.0, -9706.0, -9208.0, 2847.0, -4073.0, -4690.0]
7F	FAIL	100000	
10T	OK  	1	[5167.0, 1562.0, -9706.0, -9208.0, 2847.0, -4073.0, -4690.0]
10F	FAIL	100000	
13T	OK  	3	[7431.0, -76.0, 5738.0, 8479.0, 1538.0, 3339.0, 7594.0]
13F	OK  	1	[5167.0, 1562.0, -9706.0, -9208.0, 2847.0, -4073.0, -4690.0]
15T	OK  	1	[5167.0, 1562.0, -9706.0, -9208.0, 2847.0, -4073.0, -4690.0]
15F	OK  	2	[6255.0, 6982.0, 1391.0, 684.0, 9276.0, 676.0, -1887.0]
18T	OK  	7	[6465.0, 7273.0, 3539.0, -4465.0, -2417.0, 1066.0, -9388.0]
18F	OK  	1	[5167.0, 1562.0, -9706.0, -9208.0, 2847.0, -4073.0, -4690.0]
20T	OK  	3	[7431.0, -76.0, 5738.0, 8479.0, 1538.0, 3339.0, 7594.0]
20F	OK  	1	[5167.0, 1562.0, -9706.0, -9208.0, 2847.0, -4073.0, -4690.0]
22T	OK  	4	[1410.0, -1621.0, -507.0, 8492.0, 8715.0, -4227.0, -2083.0]
22F	OK  	1	[5167.0, 1562.0, -9706.0, -9208.0, 2847.0, -4073.0, -4690.0]
40T	OK  	1	[5167.0, 1562.0, -9706.0, -9208.0, 2847.0, -4073.0, -4690.0]
40F	OK  	4	[1410.0, -1621.0, -507.0, 8492.0, 8715.0, -4227.0, -2083.0]
42T	FAIL	100000	
42F	OK  	1	[5167.0, 1562.0, -9706.0, -9208.0, 2847.0, -4073.0, -4690.0]
44T	FAIL	100000	
44F	OK  	1	[5167.0, 1562.0, -9706.0, -9208.0, 2847.0, -4073.0, -4690.0]
48T	OK  	6	[-2397.0, -3347.0, -6708.0, -7787.0, 9730.0, 525.0, -6976.0]
48F	OK  	4	[1410.0, -1621.0, -507.0, 8492.0, 8715.0, -4227.0, -2083.0]
51T	OK  	1	[5167.0, 1562.0, -9706.0, -9208.0, 2847.0, -4073.0, -4690.0]
51F	OK  	3	[7431.0, -76.0, 5738.0, 8479.0, 1538.0, 3339.0, 7594.0]
53T	OK  	23	[-5013.0, 9572.0, -3331.0, -4113.0, -1324.0, 543.0, 6020.0]
53F	OK  	3	[7431.0, -76.0, 5738.0, 8479.0, 1538.0, 3339.0, 7594.0]
55T	FAIL	100000	
55F	OK  	23	[-5013.0, 9572.0, -3331.0, -4113.0, -1324.0, 543.0, 6020.0]
57T	FAIL	100000	
57F	OK  	23	[-5013.0, 9572.0, -3331.0, -4113.0, -1324.0, 543.0, 6020.0]
61T	OK  	23	[-5013.0, 9572.0, -3331.0, -4113.0, -1324.0, 543.0, 6020.0]
61F	FAIL	100000	
66T	OK  	28	[6141.0, -8131.0, -9405.0, 1125.0, 2191.0, -5709.0, 1110.0]
66F	OK  	3	[7431.0, -76.0, 5738.0, 8479.0, 1538.0, 3339.0, 7594.0]
68T	FAIL	100000	
68F	OK  	28	[6141.0, -8131.0, -9405.0, 1125.0, 2191.0, -5709.0, 1110.0]
70T	FAIL	100000	
70F	OK  	28	[6141.0, -8131.0, -9405.0, 1125.0, 2191.0, -5709.0, 1110.0]
74T	OK  	28	[6141.0, -8131.0, -9405.0, 1125.0, 2191.0, -5709.0, 1110.0]
74F	FAIL	100000	
79T	OK  	28	[6141.0, -8131.0, -9405.0, 1125.0, 2191.0, -5709.0, 1110.0]
79F	OK  	3	[7431.0, -76.0, 5738.0, 8479.0, 1538.0, 3339.0, 7594.0]
