Test object: org.iguanatool.casestudies.spice1.testobjects.clip_to_circle
7T	OK  	1	[1498.0, -8107.0, -8239.0, 3289.0, -4393.0, 8509.0, -7351.0]
7F	FAIL	100000	
10T	OK  	1	[1498.0, -8107.0, -8239.0, 3289.0, -4393.0, 8509.0, -7351.0]
10F	FAIL	100000	
13T	OK  	1	[1498.0, -8107.0, -8239.0, 3289.0, -4393.0, 8509.0, -7351.0]
13F	OK  	3	[-6060.0, -1255.0, -4408.0, 8976.0, -565.0, -1296.0, 7738.0]
15T	OK  	1	[1498.0, -8107.0, -8239.0, 3289.0, -4393.0, 8509.0, -7351.0]
15F	OK  	3	[-6060.0, -1255.0, -4408.0, 8976.0, -565.0, -1296.0, 7738.0]
18T	OK  	11	[5675.0, 2055.0, 9128.0, -5663.0, -7505.0, -5008.0, -8567.0]
18F	OK  	1	[1498.0, -8107.0, -8239.0, 3289.0, -4393.0, 8509.0, -7351.0]
20T	OK  	13	[-4661.0, 4332.0, -2193.0, 7357.0, -8859.0, 6786.0, 441.0]
20F	OK  	1	[1498.0, -8107.0, -8239.0, 3289.0, -4393.0, 8509.0, -7351.0]
22T	OK  	1	[1498.0, -8107.0, -8239.0, 3289.0, -4393.0, 8509.0, -7351.0]
22F	OK  	9	[-1117.0, -2330.0, -2291.0, -6423.0, -770.0, -4542.0, -5357.0]
40T	OK  	9	[-1117.0, -2330.0, -2291.0, -6423.0, -770.0, -4542.0, -5357.0]
40F	OK  	1	[1498.0, -8107.0, -8239.0, 3289.0, -4393.0, 8509.0, -7351.0]
42T	FAIL	100000	
42F	OK  	9	[-1117.0, -2330.0, -2291.0, -6423.0, -770.0, -4542.0, -5357.0]
44T	FAIL	100000	
44F	OK  	9	[-1117.0, -2330.0, -2291.0, -6423.0, -770.0, -4542.0, -5357.0]
48T	OK  	1	[1498.0, -8107.0, -8239.0, 3289.0, -4393.0, 8509.0, -7351.0]
48F	OK  	2	[3905.0, 7930.0, 1067.0, -7311.0, -6074.0, 9115.0, 8829.0]
51T	OK  	1	[1498.0, -8107.0, -8239.0, 3289.0, -4393.0, 8509.0, -7351.0]
51F	OK  	3	[-6060.0, -1255.0, -4408.0, 8976.0, -565.0, -1296.0, 7738.0]
53T	OK  	3	[-6060.0, -1255.0, -4408.0, 8976.0, -565.0, -1296.0, 7738.0]
53F	OK  	16	[-9286.0, 5142.0, 2877.0, -9797.0, -4163.0, 4577.0, 6138.0]
55T	FAIL	100000	
55F	OK  	3	[-6060.0, -1255.0, -4408.0, 8976.0, -565.0, -1296.0, 7738.0]
57T	FAIL	100000	
57F	OK  	3	[-6060.0, -1255.0, -4408.0, 8976.0, -565.0, -1296.0, 7738.0]
61T	OK  	3	[-6060.0, -1255.0, -4408.0, 8976.0, -565.0, -1296.0, 7738.0]
61F	FAIL	100000	
66T	OK  	16	[-9286.0, 5142.0, 2877.0, -9797.0, -4163.0, 4577.0, 6138.0]
66F	OK  	3	[-6060.0, -1255.0, -4408.0, 8976.0, -565.0, -1296.0, 7738.0]
68T	FAIL	100000	
68F	OK  	16	[-9286.0, 5142.0, 2877.0, -9797.0, -4163.0, 4577.0, 6138.0]
70T	FAIL	100000	
70F	OK  	16	[-9286.0, 5142.0, 2877.0, -9797.0, -4163.0, 4577.0, 6138.0]
74T	OK  	16	[-9286.0, 5142.0, 2877.0, -9797.0, -4163.0, 4577.0, 6138.0]
74F	FAIL	100000	
79T	OK  	3	[-6060.0, -1255.0, -4408.0, 8976.0, -565.0, -1296.0, 7738.0]
79F	OK  	16	[-9286.0, 5142.0, 2877.0, -9797.0, -4163.0, 4577.0, 6138.0]
