Test object: org.iguanatool.casestudies.spice1.testobjects.clip_to_circle
7T	OK  	1	[-1555.0, -4550.0, -3132.0, -9019.0, 7936.0, -796.0, -209.0]
7F	FAIL	100000	
10T	OK  	1	[-1555.0, -4550.0, -3132.0, -9019.0, 7936.0, -796.0, -209.0]
10F	FAIL	100000	
13T	OK  	1	[-1555.0, -4550.0, -3132.0, -9019.0, 7936.0, -796.0, -209.0]
13F	OK  	4	[5810.0, -5397.0, 9502.0, 695.0, 837.0, -8893.0, 3977.0]
15T	OK  	1	[-1555.0, -4550.0, -3132.0, -9019.0, 7936.0, -796.0, -209.0]
15F	OK  	4	[5810.0, -5397.0, 9502.0, 695.0, 837.0, -8893.0, 3977.0]
18T	OK  	6	[9064.0, 7959.0, 7559.0, -4459.0, -4014.0, 7676.0, 2829.0]
18F	OK  	1	[-1555.0, -4550.0, -3132.0, -9019.0, 7936.0, -796.0, -209.0]
20T	OK  	12	[-4057.0, -4723.0, -6468.0, 8670.0, -6694.0, 711.0, -603.0]
20F	OK  	1	[-1555.0, -4550.0, -3132.0, -9019.0, 7936.0, -796.0, -209.0]
22T	OK  	3	[-7645.0, -7694.0, -7962.0, -1394.0, -1958.0, 4400.0, 1789.0]
22F	OK  	1	[-1555.0, -4550.0, -3132.0, -9019.0, 7936.0, -796.0, -209.0]
40T	OK  	5	[6670.0, 8746.0, -7609.0, 8604.0, -3667.0, -2464.0, -6531.0]
40F	OK  	1	[-1555.0, -4550.0, -3132.0, -9019.0, 7936.0, -796.0, -209.0]
42T	FAIL	100000	
42F	OK  	5	[6670.0, 8746.0, -7609.0, 8604.0, -3667.0, -2464.0, -6531.0]
44T	FAIL	100000	
44F	OK  	5	[6670.0, 8746.0, -7609.0, 8604.0, -3667.0, -2464.0, -6531.0]
48T	OK  	1	[-1555.0, -4550.0, -3132.0, -9019.0, 7936.0, -796.0, -209.0]
48F	OK  	2	[-5451.0, -3297.0, 7346.0, 1698.0, 3051.0, 8909.0, -8168.0]
51T	OK  	1	[-1555.0, -4550.0, -3132.0, -9019.0, 7936.0, -796.0, -209.0]
51F	OK  	13	[650.0, 6647.0, 1795.0, 934.0, 1747.0, 5124.0, 824.0]
53T	OK  	13	[650.0, 6647.0, 1795.0, 934.0, 1747.0, 5124.0, 824.0]
53F	OK  	15	[-6150.0, 2146.0, 3242.0, -3325.0, 4473.0, -5256.0, 6870.0]
55T	FAIL	100000	
55F	OK  	13	[650.0, 6647.0, 1795.0, 934.0, 1747.0, 5124.0, 824.0]
57T	FAIL	100000	
57F	OK  	13	[650.0, 6647.0, 1795.0, 934.0, 1747.0, 5124.0, 824.0]
61T	OK  	13	[650.0, 6647.0, 1795.0, 934.0, 1747.0, 5124.0, 824.0]
61F	FAIL	100000	
66T	OK  	13	[650.0, 6647.0, 1795.0, 934.0, 1747.0, 5124.0, 824.0]
66F	OK  	27	[-9932.0, 1653.0, -395.0, -5554.0, -8871.0, -4616.0, 8276.0]
68T	FAIL	100000	
68F	OK  	13	[650.0, 6647.0, 1795.0, 934.0, 1747.0, 5124.0, 824.0]
70T	FAIL	100000	
70F	OK  	13	[650.0, 6647.0, 1795.0, 934.0, 1747.0, 5124.0, 824.0]
74T	OK  	13	[650.0, 6647.0, 1795.0, 934.0, 1747.0, 5124.0, 824.0]
74F	FAIL	100000	
79T	OK  	15	[-6150.0, 2146.0, 3242.0, -3325.0, 4473.0, -5256.0, 6870.0]
79F	OK  	13	[650.0, 6647.0, 1795.0, 934.0, 1747.0, 5124.0, 824.0]
