Test object: org.iguanatool.casestudies.spice1.testobjects.clip_to_circle
7T	OK  	1	[-2476.0, -8631.0, -1051.0, -5062.0, -9317.0, 5814.0, -6698.0]
7F	FAIL	100000	
10T	OK  	1	[-2476.0, -8631.0, -1051.0, -5062.0, -9317.0, 5814.0, -6698.0]
10F	FAIL	100000	
13T	OK  	1	[-2476.0, -8631.0, -1051.0, -5062.0, -9317.0, 5814.0, -6698.0]
13F	OK  	2	[6152.0, 8021.0, 3923.0, -1717.0, 9617.0, 5809.0, 2034.0]
15T	OK  	1	[-2476.0, -8631.0, -1051.0, -5062.0, -9317.0, 5814.0, -6698.0]
15F	OK  	3	[7285.0, 8904.0, 8068.0, -2395.0, -6454.0, -8912.0, -375.0]
18T	OK  	16	[5548.0, 4369.0, 8445.0, -9364.0, -7473.0, -3768.0, 8123.0]
18F	OK  	1	[-2476.0, -8631.0, -1051.0, -5062.0, -9317.0, 5814.0, -6698.0]
20T	OK  	17	[5882.0, -6992.0, 7037.0, 2354.0, -3727.0, -4972.0, 1438.0]
20F	OK  	1	[-2476.0, -8631.0, -1051.0, -5062.0, -9317.0, 5814.0, -6698.0]
22T	OK  	3	[7285.0, 8904.0, 8068.0, -2395.0, -6454.0, -8912.0, -375.0]
22F	OK  	1	[-2476.0, -8631.0, -1051.0, -5062.0, -9317.0, 5814.0, -6698.0]
40T	OK  	6	[-5679.0, 316.0, -9392.0, -7732.0, 1148.0, -9447.0, 7679.0]
40F	OK  	1	[-2476.0, -8631.0, -1051.0, -5062.0, -9317.0, 5814.0, -6698.0]
42T	FAIL	100000	
42F	OK  	6	[-5679.0, 316.0, -9392.0, -7732.0, 1148.0, -9447.0, 7679.0]
44T	FAIL	100000	
44F	OK  	6	[-5679.0, 316.0, -9392.0, -7732.0, 1148.0, -9447.0, 7679.0]
48T	OK  	2	[6152.0, 8021.0, 3923.0, -1717.0, 9617.0, 5809.0, 2034.0]
48F	OK  	1	[-2476.0, -8631.0, -1051.0, -5062.0, -9317.0, 5814.0, -6698.0]
51T	OK  	1	[-2476.0, -8631.0, -1051.0, -5062.0, -9317.0, 5814.0, -6698.0]
51F	OK  	9	[355.0, -3383.0, 6142.0, -8581.0, -874.0, -1213.0, 3328.0]
53T	OK  	29	[-5018.0, -2365.0, 8940.0, -2842.0, 8243.0, -2210.0, 8577.0]
53F	OK  	9	[355.0, -3383.0, 6142.0, -8581.0, -874.0, -1213.0, 3328.0]
55T	FAIL	100000	
55F	OK  	29	[-5018.0, -2365.0, 8940.0, -2842.0, 8243.0, -2210.0, 8577.0]
57T	FAIL	100000	
57F	OK  	29	[-5018.0, -2365.0, 8940.0, -2842.0, 8243.0, -2210.0, 8577.0]
61T	OK  	29	[-5018.0, -2365.0, 8940.0, -2842.0, 8243.0, -2210.0, 8577.0]
61F	FAIL	100000	
66T	OK  	9	[355.0, -3383.0, 6142.0, -8581.0, -874.0, -1213.0, 3328.0]
66F	OK  	29	[-5018.0, -2365.0, 8940.0, -2842.0, 8243.0, -2210.0, 8577.0]
68T	FAIL	100000	
68F	OK  	9	[355.0, -3383.0, 6142.0, -8581.0, -874.0, -1213.0, 3328.0]
70T	FAIL	100000	
70F	OK  	9	[355.0, -3383.0, 6142.0, -8581.0, -874.0, -1213.0, 3328.0]
74T	OK  	9	[355.0, -3383.0, 6142.0, -8581.0, -874.0, -1213.0, 3328.0]
74F	FAIL	100000	
79T	OK  	13	[-4386.0, 375.0, 5489.0, 1715.0, 6144.0, -1317.0, 7172.0]
79F	OK  	9	[355.0, -3383.0, 6142.0, -8581.0, -874.0, -1213.0, 3328.0]
