Test object: org.iguanatool.casestudies.spice1.testobjects.clip_to_circle
7T	OK  	1	[-4506.0, 8423.0, -2592.0, 1560.0, -9906.0, 9751.0, 305.0]
7F	FAIL	100000	
10T	OK  	1	[-4506.0, 8423.0, -2592.0, 1560.0, -9906.0, 9751.0, 305.0]
10F	FAIL	100000	
13T	OK  	1	[-4506.0, 8423.0, -2592.0, 1560.0, -9906.0, 9751.0, 305.0]
13F	OK  	2	[-9968.0, 8812.0, 529.0, -7799.0, -6101.0, -6317.0, -6039.0]
15T	OK  	1	[-4506.0, 8423.0, -2592.0, 1560.0, -9906.0, 9751.0, 305.0]
15F	OK  	3	[-2901.0, -3182.0, 1207.0, 9626.0, -1859.0, 5582.0, -5647.0]
18T	OK  	2	[-9968.0, 8812.0, 529.0, -7799.0, -6101.0, -6317.0, -6039.0]
18F	OK  	1	[-4506.0, 8423.0, -2592.0, 1560.0, -9906.0, 9751.0, 305.0]
20T	OK  	3	[-2901.0, -3182.0, 1207.0, 9626.0, -1859.0, 5582.0, -5647.0]
20F	OK  	1	[-4506.0, 8423.0, -2592.0, 1560.0, -9906.0, 9751.0, 305.0]
22T	OK  	1	[-4506.0, 8423.0, -2592.0, 1560.0, -9906.0, 9751.0, 305.0]
22F	OK  	3	[-2901.0, -3182.0, 1207.0, 9626.0, -1859.0, 5582.0, -5647.0]
40T	OK  	3	[-2901.0, -3182.0, 1207.0, 9626.0, -1859.0, 5582.0, -5647.0]
40F	OK  	1	[-4506.0, 8423.0, -2592.0, 1560.0, -9906.0, 9751.0, 305.0]
42T	FAIL	100000	
42F	OK  	3	[-2901.0, -3182.0, 1207.0, 9626.0, -1859.0, 5582.0, -5647.0]
44T	FAIL	100000	
44F	OK  	3	[-2901.0, -3182.0, 1207.0, 9626.0, -1859.0, 5582.0, -5647.0]
48T	OK  	2	[-9968.0, 8812.0, 529.0, -7799.0, -6101.0, -6317.0, -6039.0]
48F	OK  	1	[-4506.0, 8423.0, -2592.0, 1560.0, -9906.0, 9751.0, 305.0]
51T	OK  	1	[-4506.0, 8423.0, -2592.0, 1560.0, -9906.0, 9751.0, 305.0]
51F	OK  	8	[-6852.0, 1715.0, -9274.0, 5482.0, -3345.0, 3566.0, 4980.0]
53T	OK  	8	[-6852.0, 1715.0, -9274.0, 5482.0, -3345.0, 3566.0, 4980.0]
53F	OK  	10	[-1162.0, 8894.0, 2113.0, 5109.0, 2294.0, 3657.0, 6256.0]
55T	FAIL	100000	
55F	OK  	8	[-6852.0, 1715.0, -9274.0, 5482.0, -3345.0, 3566.0, 4980.0]
57T	FAIL	100000	
57F	OK  	8	[-6852.0, 1715.0, -9274.0, 5482.0, -3345.0, 3566.0, 4980.0]
61T	OK  	8	[-6852.0, 1715.0, -9274.0, 5482.0, -3345.0, 3566.0, 4980.0]
61F	FAIL	100000	
66T	OK  	9	[-3233.0, 3264.0, 2755.0, -5137.0, -3801.0, -6402.0, 6546.0]
66F	OK  	8	[-6852.0, 1715.0, -9274.0, 5482.0, -3345.0, 3566.0, 4980.0]
68T	FAIL	100000	
68F	OK  	9	[-3233.0, 3264.0, 2755.0, -5137.0, -3801.0, -6402.0, 6546.0]
70T	FAIL	100000	
70F	OK  	9	[-3233.0, 3264.0, 2755.0, -5137.0, -3801.0, -6402.0, 6546.0]
74T	OK  	9	[-3233.0, 3264.0, 2755.0, -5137.0, -3801.0, -6402.0, 6546.0]
74F	FAIL	100000	
79T	OK  	8	[-6852.0, 1715.0, -9274.0, 5482.0, -3345.0, 3566.0, 4980.0]
79F	OK  	27	[-2772.0, -1593.0, -983.0, -3116.0, 4683.0, -7106.0, 7508.0]
