Test object: org.iguanatool.casestudies.spice1.testobjects.clip_to_circle
7T	OK  	1	[-654.0, -7375.0, 5913.0, 7973.0, -9880.0, 3348.0, 1627.0]
7F	OK  	130	[-8857.0, 1331.0, 5913.0, 7973.0, -8857.0, 1331.0, 1627.0]
10T	OK  	1	[-654.0, -7375.0, 5913.0, 7973.0, -9880.0, 3348.0, 1627.0]
10F	OK  	135	[-654.0, -7375.0, -1752.0, 3862.0, -1752.0, 3862.0, 1627.0]
13T	OK  	1	[-654.0, -7375.0, 5913.0, 7973.0, -9880.0, 3348.0, 1627.0]
13F	OK  	30	[7537.0, 9008.0, 5913.0, 7973.0, -9880.0, 3348.0, 1627.0]
15T	OK  	30	[-654.0, -7375.0, 7960.0, -218.0, -9880.0, 3348.0, 1627.0]
15F	OK  	1	[-654.0, -7375.0, 5913.0, 7973.0, -9880.0, 3348.0, 1627.0]
18T	OK  	191	[6515.0, 6961.0, -6373.0, -7387.0, -1688.0, -493.0, 1627.0]
18F	OK  	1	[-654.0, -7375.0, 5913.0, 7973.0, -9880.0, 3348.0, 1627.0]
20T	OK  	1	[-654.0, -7375.0, 5913.0, 7973.0, -9880.0, 3348.0, 1627.0]
20F	OK  	66	[-8845.0, -9422.0, -2278.0, 8996.0, -1689.0, 3348.0, 1627.0]
22T	OK  	66	[-8845.0, -9422.0, -2278.0, 8996.0, -1689.0, 3348.0, 1627.0]
22F	OK  	1	[-654.0, -7375.0, 5913.0, 7973.0, -9880.0, 3348.0, 1627.0]
40T	OK  	1	[-654.0, -7375.0, 5913.0, 7973.0, -9880.0, 3348.0, 1627.0]
40F	OK  	16	[9168.0, 7399.0, 9282.0, -5788.0, -395.0, 7613.0, 4184.0]
42T	OK  	27877	[588.0, -1727.0, -961.0, 6018.0, -176.0, 2093.0, -6627.0]
42F	OK  	1	[-654.0, -7375.0, 5913.0, 7973.0, -9880.0, 3348.0, 1627.0]
44T	FAIL	100000	
44F	OK  	1	[-654.0, -7375.0, 5913.0, 7973.0, -9880.0, 3348.0, 1627.0]
48T	OK  	63	[9679.0, -4889.0, 8259.0, -5788.0, -395.0, 7613.0, 4184.0]
48F	OK  	16	[9168.0, 7399.0, 9282.0, -5788.0, -395.0, 7613.0, 4184.0]
51T	OK  	1	[-654.0, -7375.0, 5913.0, 7973.0, -9880.0, 3348.0, 1627.0]
51F	OK  	56	[-8845.0, 816.0, 5913.0, 7973.0, -8857.0, 2325.0, 1627.0]
53T	OK  	126	[977.0, 7399.0, 9282.0, -5788.0, -395.0, 7613.0, 4184.0]
53F	OK  	56	[-8845.0, 816.0, 5913.0, 7973.0, -8857.0, 2325.0, 1627.0]
55T	OK  	75333	[2160.0, 6524.0, -7200.0, -7516.0, 2150.0, 6509.0, 2089.0]
55F	OK  	126	[977.0, 7399.0, 9282.0, -5788.0, -395.0, 7613.0, 4184.0]
57T	FAIL	100000	
57F	OK  	126	[977.0, 7399.0, 9282.0, -5788.0, -395.0, 7613.0, 4184.0]
61T	OK  	126	[977.0, 7399.0, 9282.0, -5788.0, -395.0, 7613.0, 4184.0]
61F	FAIL	100000	
66T	OK  	56	[-8845.0, 816.0, 5913.0, 7973.0, -8857.0, 2325.0, 1627.0]
66F	OK  	95	[-8845.0, 816.0, -2278.0, 7973.0, -8857.0, 2388.0, 9818.0]
68T	OK  	20598	[4325.0, 3563.0, -6655.0, -3037.0, 4874.0, 3893.0, 4998.0]
68F	OK  	56	[-8845.0, 816.0, 5913.0, 7973.0, -8857.0, 2325.0, 1627.0]
70T	FAIL	100000	
70F	OK  	56	[-8845.0, 816.0, 5913.0, 7973.0, -8857.0, 2325.0, 1627.0]
74T	OK  	56	[-8845.0, 816.0, 5913.0, 7973.0, -8857.0, 2325.0, 1627.0]
74F	FAIL	100000	
79T	OK  	85	[977.0, 7399.0, 9282.0, -5788.0, -395.0, 7613.0, 4184.0]
79F	OK  	56	[-8845.0, 816.0, 5913.0, 7973.0, -8857.0, 2325.0, 1627.0]
