Test object: org.iguanatool.casestudies.spice1.testobjects.clip_to_circle
7T	OK  	1	[429.0, 3817.0, -7304.0, -9520.0, 9604.0, 4844.0, -534.0]
7F	OK  	8185	[7525.28125, 2663.334716796875, -4021.0, -5400.0, 7525.0, 2663.625, -4657.75078125]
10T	OK  	1	[429.0, 3817.0, -7304.0, -9520.0, 9604.0, 4844.0, -534.0]
10F	OK  	7870	[-5585.5625, -5637.125, 5734.1219482421875, 6814.718017578125, 5734.169921875, 6814.072265625, 2511.993896484375]
13T	OK  	1	[429.0, 3817.0, -7304.0, -9520.0, 9604.0, 4844.0, -534.0]
13F	OK  	2	[-7256.0, -2549.0, -467.0, 8183.0, -4960.0, -8488.0, -4714.0]
15T	OK  	1	[429.0, 3817.0, -7304.0, -9520.0, 9604.0, 4844.0, -534.0]
15F	OK  	2	[-7256.0, -2549.0, -467.0, 8183.0, -4960.0, -8488.0, -4714.0]
18T	OK  	4	[8481.0, 3187.0, 7086.0, -7694.0, 5691.0, -5281.0, -9270.0]
18F	OK  	1	[429.0, 3817.0, -7304.0, -9520.0, 9604.0, 4844.0, -534.0]
20T	OK  	7	[1541.0, -3679.0, -3218.0, 2187.0, -5607.0, 1999.0, -669.0]
20F	OK  	1	[429.0, 3817.0, -7304.0, -9520.0, 9604.0, 4844.0, -534.0]
22T	OK  	2	[-7256.0, -2549.0, -467.0, 8183.0, -4960.0, -8488.0, -4714.0]
22F	OK  	1	[429.0, 3817.0, -7304.0, -9520.0, 9604.0, 4844.0, -534.0]
40T	OK  	3	[-8127.0, -1019.0, -1862.0, -6533.0, 4047.0, 5042.0, 5873.0]
40F	OK  	1	[429.0, 3817.0, -7304.0, -9520.0, 9604.0, 4844.0, -534.0]
42T	FAIL	100000	
42F	OK  	3	[-8127.0, -1019.0, -1862.0, -6533.0, 4047.0, 5042.0, 5873.0]
44T	FAIL	100000	
44F	OK  	3	[-8127.0, -1019.0, -1862.0, -6533.0, 4047.0, 5042.0, 5873.0]
48T	OK  	1	[429.0, 3817.0, -7304.0, -9520.0, 9604.0, 4844.0, -534.0]
48F	OK  	2	[-7256.0, -2549.0, -467.0, 8183.0, -4960.0, -8488.0, -4714.0]
51T	OK  	1	[429.0, 3817.0, -7304.0, -9520.0, 9604.0, 4844.0, -534.0]
51F	OK  	9	[-9286.0, 1770.0, 4127.0, -5779.0, 8178.0, -8306.0, 9226.0]
53T	OK  	18	[1602.0, -8453.0, 6963.0, 5760.0, 8592.0, -2348.0, 7102.0]
53F	OK  	9	[-9286.0, 1770.0, 4127.0, -5779.0, 8178.0, -8306.0, 9226.0]
55T	FAIL	100000	
55F	OK  	18	[1602.0, -8453.0, 6963.0, 5760.0, 8592.0, -2348.0, 7102.0]
57T	FAIL	100000	
57F	OK  	18	[1602.0, -8453.0, 6963.0, 5760.0, 8592.0, -2348.0, 7102.0]
61T	OK  	18	[1602.0, -8453.0, 6963.0, 5760.0, 8592.0, -2348.0, 7102.0]
61F	FAIL	100000	
66T	OK  	9	[-9286.0, 1770.0, 4127.0, -5779.0, 8178.0, -8306.0, 9226.0]
66F	OK  	24	[2866.0, 4331.0, 2625.0, -5891.0, -149.0, 4186.0, 5448.0]
68T	OK  	9019	[6382.0, 5882.0, -8828.78515625, -4258.0, -611.0009765625, 1220.8560546874999, 4874.0]
68F	OK  	9	[-9286.0, 1770.0, 4127.0, -5779.0, 8178.0, -8306.0, 9226.0]
70T	FAIL	100000	
70F	OK  	9	[-9286.0, 1770.0, 4127.0, -5779.0, 8178.0, -8306.0, 9226.0]
74T	OK  	9	[-9286.0, 1770.0, 4127.0, -5779.0, 8178.0, -8306.0, 9226.0]
74F	FAIL	100000	
79T	OK  	9	[-9286.0, 1770.0, 4127.0, -5779.0, 8178.0, -8306.0, 9226.0]
79F	OK  	27	[-7865.0, 7327.0, -150.0, -2696.0, -1989.0, 3746.0, 9926.0]
