Test object: org.iguanatool.casestudies.spice1.testobjects.clip_to_circle
7T	OK  	1	[-9330.0, 3317.0, -1634.0, 6948.0, 31.0, -2062.0, -6263.0]
7F	OK  	146	[-1008.0, -1032.0, -1634.0, 6948.0, -1008.0, -1032.0, -6263.0]
10T	OK  	1	[-9330.0, 3317.0, -1634.0, 6948.0, 31.0, -2062.0, -6263.0]
10F	OK  	123	[-9330.0, 3317.0, 286.0, -973.0, 286.0, -973.0, -6263.0]
13T	OK  	29	[7053.0, -4874.0, -1634.0, 6948.0, 31.0, -2062.0, -6263.0]
13F	OK  	1	[-9330.0, 3317.0, -1634.0, 6948.0, 31.0, -2062.0, -6263.0]
15T	OK  	33	[-9330.0, 3317.0, 6557.0, -9435.0, 31.0, -2062.0, -6263.0]
15F	OK  	1	[-9330.0, 3317.0, -1634.0, 6948.0, 31.0, -2062.0, -6263.0]
18T	OK  	58	[7053.0, -778.0, -9825.0, -9435.0, 31.0, -2062.0, -6263.0]
18F	OK  	1	[-9330.0, 3317.0, -1634.0, 6948.0, 31.0, -2062.0, -6263.0]
20T	OK  	52	[-9841.0, -4874.0, 6557.0, -1243.0, 31.0, -2062.0, -6263.0]
20F	OK  	1	[-9330.0, 3317.0, -1634.0, 6948.0, 31.0, -2062.0, -6263.0]
22T	OK  	1	[-9330.0, 3317.0, -1634.0, 6948.0, 31.0, -2062.0, -6263.0]
22F	OK  	16	[7053.0, 3317.0, -1634.0, 6948.0, 31.0, -2062.0, -6263.0]
40T	OK  	1	[-9330.0, 3317.0, -1634.0, 6948.0, 31.0, -2062.0, -6263.0]
40F	OK  	16	[-479.0, -7061.0, -4060.0, -1606.0, -6863.0, 8653.0, -2255.0]
42T	OK  	89974	[4440.0, 9401.0, 4426.0, -3437.0, 4430.0, 231.0, -7491.0]
42F	OK  	1	[-9330.0, 3317.0, -1634.0, 6948.0, 31.0, -2062.0, -6263.0]
44T	FAIL	100000	
44F	OK  	1	[-9330.0, 3317.0, -1634.0, 6948.0, 31.0, -2062.0, -6263.0]
48T	OK  	16	[-479.0, -7061.0, -4060.0, -1606.0, -6863.0, 8653.0, -2255.0]
48F	OK  	28	[-4574.0, -7061.0, -4060.0, -1606.0, -6863.0, 8653.0, -2255.0]
51T	OK  	1	[-9330.0, 3317.0, -1634.0, 6948.0, 31.0, -2062.0, -6263.0]
51F	OK  	72	[-1139.0, -778.0, -1634.0, 6948.0, -992.0, -1039.0, 1928.0]
53T	OK  	72	[-1139.0, -778.0, -1634.0, 6948.0, -992.0, -1039.0, 1928.0]
53F	OK  	100	[-1139.0, -778.0, -1123.0, -1243.0, -992.0, -1039.0, 1928.0]
55T	OK  	46220	[-7349.0, -8895.0, -4442.0, 10000.0, -7355.0, -8934.0, 651.0]
55F	OK  	72	[-1139.0, -778.0, -1634.0, 6948.0, -992.0, -1039.0, 1928.0]
57T	FAIL	100000	
57F	OK  	72	[-1139.0, -778.0, -1634.0, 6948.0, -992.0, -1039.0, 1928.0]
61T	OK  	72	[-1139.0, -778.0, -1634.0, 6948.0, -992.0, -1039.0, 1928.0]
61F	FAIL	100000	
66T	OK  	315	[-55.0, 4952.0, -1433.0, 1624.0, -3649.0, -710.0, 4183.0]
66F	OK  	72	[-1139.0, -778.0, -1634.0, 6948.0, -992.0, -1039.0, 1928.0]
68T	OK  	16220	[-7646.0, -2513.0, 376.0, -2322.0, 334.0, -2323.0, 4048.0]
68F	OK  	315	[-55.0, 4952.0, -1433.0, 1624.0, -3649.0, -710.0, 4183.0]
70T	FAIL	100000	
70F	OK  	315	[-55.0, 4952.0, -1433.0, 1624.0, -3649.0, -710.0, 4183.0]
74T	OK  	315	[-55.0, 4952.0, -1433.0, 1624.0, -3649.0, -710.0, 4183.0]
74F	FAIL	100000	
79T	OK  	72	[-1139.0, -778.0, -1634.0, 6948.0, -992.0, -1039.0, 1928.0]
79F	OK  	155	[-479.0, -7061.0, -6107.0, 6585.0, -6352.0, 6606.0, 1840.0]
