Test object: org.iguanatool.casestudies.spice1.testobjects.clip_to_circle
7T	OK  	1	[-9771.0, 3713.0, -9935.0, 8861.0, 8215.0, -5099.0, -2102.0]
7F	OK  	136	[6676.0, -4589.0, -9935.0, 8861.0, 6676.0, -4589.0, -2102.0]
10T	OK  	1	[-9771.0, 3713.0, -9935.0, 8861.0, 8215.0, -5099.0, -2102.0]
10F	OK  	164	[-9771.0, 3713.0, 6424.0, 5020.0, 6424.0, 5020.0, -2102.0]
13T	OK  	89	[8659.0, -383.0, -9935.0, 8861.0, -8168.0, 3092.0, -2102.0]
13F	OK  	1	[-9771.0, 3713.0, -9935.0, 8861.0, 8215.0, -5099.0, -2102.0]
15T	OK  	91	[-9771.0, 3713.0, 8495.0, 1693.0, -8168.0, 3092.0, -2102.0]
15F	OK  	1	[-9771.0, 3713.0, -9935.0, 8861.0, 8215.0, -5099.0, -2102.0]
18T	OK  	65	[6612.0, 7808.0, -9998.0, -7522.0, -8168.0, -5099.0, -2102.0]
18F	OK  	1	[-9771.0, 3713.0, -9935.0, 8861.0, 8215.0, -5099.0, -2102.0]
20T	OK  	88	[-9898.0, -4478.0, 6448.0, 9884.0, -6121.0, -1004.0, -2102.0]
20F	OK  	1	[-9771.0, 3713.0, -9935.0, 8861.0, 8215.0, -5099.0, -2102.0]
22T	OK  	1	[-9771.0, 3713.0, -9935.0, 8861.0, 8215.0, -5099.0, -2102.0]
22F	OK  	15	[-1580.0, 3713.0, -9935.0, 8861.0, 8215.0, -5099.0, -2102.0]
40T	OK  	46	[5545.0, 5054.0, -2333.0, -9196.0, -299.0, -5216.0, 2390.0]
40F	OK  	1	[-9771.0, 3713.0, -9935.0, 8861.0, 8215.0, -5099.0, -2102.0]
42T	FAIL	100000	
42F	OK  	46	[5545.0, 5054.0, -2333.0, -9196.0, -299.0, -5216.0, 2390.0]
44T	FAIL	100000	
44F	OK  	46	[5545.0, 5054.0, -2333.0, -9196.0, -299.0, -5216.0, 2390.0]
48T	OK  	33	[-9898.0, 7808.0, -8912.0, 8861.0, 8215.0, -5099.0, -2102.0]
48F	OK  	1	[-9771.0, 3713.0, -9935.0, 8861.0, 8215.0, -5099.0, -2102.0]
51T	OK  	1	[-9771.0, 3713.0, -9935.0, 8861.0, 8215.0, -5099.0, -2102.0]
51F	OK  	80	[6612.0, -4478.0, -9935.0, 8861.0, 6679.0, -4588.0, 1993.0]
53T	OK  	88	[6485.0, -4478.0, -9935.0, 8861.0, 6679.0, -4588.0, 1993.0]
53F	OK  	80	[6612.0, -4478.0, -9935.0, 8861.0, 6679.0, -4588.0, 1993.0]
55T	OK  	21491	[9782.0, -1928.0, -8943.0, -7278.0, -8894.0, -7264.0, 138.0]
55F	OK  	88	[6485.0, -4478.0, -9935.0, 8861.0, 6679.0, -4588.0, 1993.0]
57T	FAIL	100000	
57F	OK  	88	[6485.0, -4478.0, -9935.0, 8861.0, 6679.0, -4588.0, 1993.0]
61T	OK  	88	[6485.0, -4478.0, -9935.0, 8861.0, 6679.0, -4588.0, 1993.0]
61F	FAIL	100000	
66T	OK  	80	[6612.0, -4478.0, -9935.0, 8861.0, 6679.0, -4588.0, 1993.0]
66F	OK  	100	[6612.0, -4478.0, 6448.0, 8861.0, 6679.0, -4588.0, 6089.0]
68T	OK  	8724	[-977.0, 9668.0, -1248.0, -1714.0, -1246.0, -1630.0, 4174.0]
68F	OK  	80	[6612.0, -4478.0, -9935.0, 8861.0, 6679.0, -4588.0, 1993.0]
70T	FAIL	100000	
70F	OK  	80	[6612.0, -4478.0, -9935.0, 8861.0, 6679.0, -4588.0, 1993.0]
74T	OK  	80	[6612.0, -4478.0, -9935.0, 8861.0, 6679.0, -4588.0, 1993.0]
74F	OK  	17039	[-7420.0, -1.0, -7420.0, 2416.0, -6716.0, 1750.0, 704.0]
79T	OK  	151	[-737.0, -242.0, 7281.0, -8134.0, 7282.0, -8548.0, 2898.0]
79F	OK  	80	[6612.0, -4478.0, -9935.0, 8861.0, 6679.0, -4588.0, 1993.0]
