Test object: org.iguanatool.casestudies.spice1.testobjects.clip_to_circle
7T	OK  	1	[9547.0, -3856.0, -5952.0, 9243.0, 7999.0, -958.0, 8486.0]
7F	OK  	12140	[9583.979248046875, 8498.828125, -4533.54150390625, -6322.000305175781, 9583.8173828125, 8498.5, 4977.9261474609375]
10T	OK  	1	[9547.0, -3856.0, -5952.0, 9243.0, 7999.0, -958.0, 8486.0]
10F	OK  	11931	[-2472.4462890625, 3498.91650390625, -9804.9375, 5659.2802734375, -9804.321533203125, 5659.8153076171875, 4333.293746948242]
13T	OK  	1	[9547.0, -3856.0, -5952.0, 9243.0, 7999.0, -958.0, 8486.0]
13F	OK  	4	[-2661.0, 8252.0, -9575.0, -2613.0, 8848.0, 6186.0, 2051.0]
15T	OK  	2	[-210.0, -2967.0, 93.0, 1156.0, -5185.0, 6834.0, 4378.0]
15F	OK  	1	[9547.0, -3856.0, -5952.0, 9243.0, 7999.0, -958.0, 8486.0]
18T	OK  	8	[2723.0, 3823.0, 8046.0, 480.0, 3704.0, 582.0, -6755.0]
18F	OK  	1	[9547.0, -3856.0, -5952.0, 9243.0, 7999.0, -958.0, 8486.0]
20T	OK  	3	[4885.0, -7689.0, 6080.0, 4613.0, -1821.0, -2580.0, 2663.0]
20F	OK  	1	[9547.0, -3856.0, -5952.0, 9243.0, 7999.0, -958.0, 8486.0]
22T	OK  	1	[9547.0, -3856.0, -5952.0, 9243.0, 7999.0, -958.0, 8486.0]
22F	OK  	2	[-210.0, -2967.0, 93.0, 1156.0, -5185.0, 6834.0, 4378.0]
40T	OK  	3	[4885.0, -7689.0, 6080.0, 4613.0, -1821.0, -2580.0, 2663.0]
40F	OK  	1	[9547.0, -3856.0, -5952.0, 9243.0, 7999.0, -958.0, 8486.0]
42T	FAIL	100000	
42F	OK  	3	[4885.0, -7689.0, 6080.0, 4613.0, -1821.0, -2580.0, 2663.0]
44T	FAIL	100000	
44F	OK  	3	[4885.0, -7689.0, 6080.0, 4613.0, -1821.0, -2580.0, 2663.0]
48T	OK  	4	[-2661.0, 8252.0, -9575.0, -2613.0, 8848.0, 6186.0, 2051.0]
48F	OK  	1	[9547.0, -3856.0, -5952.0, 9243.0, 7999.0, -958.0, 8486.0]
51T	OK  	2	[-210.0, -2967.0, 93.0, 1156.0, -5185.0, 6834.0, 4378.0]
51F	OK  	1	[9547.0, -3856.0, -5952.0, 9243.0, 7999.0, -958.0, 8486.0]
53T	OK  	1	[9547.0, -3856.0, -5952.0, 9243.0, 7999.0, -958.0, 8486.0]
53F	OK  	9	[-2598.0, -6190.0, -4274.0, -5947.0, -2725.0, 1123.0, 8571.0]
55T	FAIL	100000	
55F	OK  	1	[9547.0, -3856.0, -5952.0, 9243.0, 7999.0, -958.0, 8486.0]
57T	FAIL	100000	
57F	OK  	1	[9547.0, -3856.0, -5952.0, 9243.0, 7999.0, -958.0, 8486.0]
61T	OK  	1	[9547.0, -3856.0, -5952.0, 9243.0, 7999.0, -958.0, 8486.0]
61F	FAIL	100000	
66T	OK  	13	[-7835.0, 9652.0, 3894.0, -2182.0, -4695.0, 7079.0, 5823.0]
66F	OK  	1	[9547.0, -3856.0, -5952.0, 9243.0, 7999.0, -958.0, 8486.0]
68T	FAIL	100000	
68F	OK  	13	[-7835.0, 9652.0, 3894.0, -2182.0, -4695.0, 7079.0, 5823.0]
70T	FAIL	100000	
70F	OK  	13	[-7835.0, 9652.0, 3894.0, -2182.0, -4695.0, 7079.0, 5823.0]
74T	OK  	13	[-7835.0, 9652.0, 3894.0, -2182.0, -4695.0, 7079.0, 5823.0]
74F	FAIL	100000	
79T	OK  	1	[9547.0, -3856.0, -5952.0, 9243.0, 7999.0, -958.0, 8486.0]
79F	OK  	13	[-7835.0, 9652.0, 3894.0, -2182.0, -4695.0, 7079.0, 5823.0]
