Test object: org.iguanatool.casestudies.spice1.testobjects.clip_to_circle
7T	OK  	1	[3161.0, -4784.0, 5053.0, 5595.0, 6644.0, -5791.0, -8253.0]
7F	OK  	104	[7159.0, -4769.0, 5053.0, 5595.0, 7159.0, -4769.0, -8253.0]
10T	OK  	1	[3161.0, -4784.0, 5053.0, 5595.0, 6644.0, -5791.0, -8253.0]
10F	OK  	141	[3161.0, -4784.0, 7162.0, -1570.0, 7162.0, -1570.0, -8253.0]
13T	OK  	24	[7256.0, -5807.0, 5053.0, 5595.0, 6644.0, -5791.0, -8253.0]
13F	OK  	1	[3161.0, -4784.0, 5053.0, 5595.0, 6644.0, -5791.0, -8253.0]
15T	OK  	60	[3161.0, -4784.0, 9148.0, -2596.0, -9739.0, -1696.0, -8253.0]
15F	OK  	1	[3161.0, -4784.0, 5053.0, 5595.0, 6644.0, -5791.0, -8253.0]
18T	OK  	124	[9303.0, -5422.0, -7233.0, -6691.0, 4597.0, -5536.0, -8253.0]
18F	OK  	1	[3161.0, -4784.0, 5053.0, 5595.0, 6644.0, -5791.0, -8253.0]
20T	OK  	68	[-5030.0, -8879.0, 9148.0, -2596.0, -1547.0, -5791.0, -8253.0]
20F	OK  	1	[3161.0, -4784.0, 5053.0, 5595.0, 6644.0, -5791.0, -8253.0]
22T	OK  	1	[3161.0, -4784.0, 5053.0, 5595.0, 6644.0, -5791.0, -8253.0]
22F	OK  	14	[7256.0, -4784.0, 5053.0, 5595.0, 6644.0, -5791.0, -8253.0]
40T	OK  	31	[9689.0, -8653.0, 1956.0, -7330.0, 8139.0, 9835.0, 9525.0]
40F	OK  	1	[3161.0, -4784.0, 5053.0, 5595.0, 6644.0, -5791.0, -8253.0]
42T	OK  	94936	[-9808.0, -2001.0, 7877.0, -2127.0, -1948.0, -2057.0, 4536.0]
42F	OK  	31	[9689.0, -8653.0, 1956.0, -7330.0, 8139.0, 9835.0, 9525.0]
44T	FAIL	100000	
44F	OK  	31	[9689.0, -8653.0, 1956.0, -7330.0, 8139.0, 9835.0, 9525.0]
48T	OK  	89	[-858.0, 7005.0, 9774.0, 2050.0, 9780.0, -3392.0, 1652.0]
48F	OK  	1	[3161.0, -4784.0, 5053.0, 5595.0, 6644.0, -5791.0, -8253.0]
51T	OK  	1	[3161.0, -4784.0, 5053.0, 5595.0, 6644.0, -5791.0, -8253.0]
51F	OK  	63	[7256.0, -5792.0, 5053.0, 5595.0, 7155.0, -5792.0, 8130.0]
53T	OK  	118	[9303.0, -9887.0, 5053.0, 5595.0, 3060.0, -3745.0, 8130.0]
53F	OK  	63	[7256.0, -5792.0, 5053.0, 5595.0, 7155.0, -5792.0, 8130.0]
55T	FAIL	100000	
55F	OK  	118	[9303.0, -9887.0, 5053.0, 5595.0, 3060.0, -3745.0, 8130.0]
57T	FAIL	100000	
57F	OK  	118	[9303.0, -9887.0, 5053.0, 5595.0, 3060.0, -3745.0, 8130.0]
61T	OK  	118	[9303.0, -9887.0, 5053.0, 5595.0, 3060.0, -3745.0, 8130.0]
61F	FAIL	100000	
66T	OK  	63	[7256.0, -5792.0, 5053.0, 5595.0, 7155.0, -5792.0, 8130.0]
66F	OK  	92	[7256.0, -5792.0, 7100.0, 1500.0, 7155.0, -5792.0, 8130.0]
68T	OK  	31777	[643.0, -5139.0, -4679.0, 9053.0, 649.0, -5155.0, 327.0]
68F	OK  	63	[7256.0, -5792.0, 5053.0, 5595.0, 7155.0, -5792.0, 8130.0]
70T	FAIL	100000	
70F	OK  	63	[7256.0, -5792.0, 5053.0, 5595.0, 7155.0, -5792.0, 8130.0]
74T	OK  	63	[7256.0, -5792.0, 5053.0, 5595.0, 7155.0, -5792.0, 8130.0]
74F	FAIL	100000	
79T	OK  	99	[-858.0, 7005.0, 9781.0, -2045.0, 9780.0, -3392.0, 1652.0]
79F	OK  	63	[7256.0, -5792.0, 5053.0, 5595.0, 7155.0, -5792.0, 8130.0]
