Test object: org.iguanatool.casestudies.spice1.testobjects.clip_to_circle
7T	OK  	1	[-8708.0, 8461.0, 5516.0, -960.0, -1152.0, 9.0, 8726.0]
7F	FAIL	100000	
10T	OK  	1	[-8708.0, 8461.0, 5516.0, -960.0, -1152.0, 9.0, 8726.0]
10F	FAIL	100000	
13T	OK  	2	[-9769.0, -1783.0, -2413.0, -1887.0, -4881.0, 2397.0, 1680.0]
13F	OK  	1	[-8708.0, 8461.0, 5516.0, -960.0, -1152.0, 9.0, 8726.0]
15T	OK  	1	[-8708.0, 8461.0, 5516.0, -960.0, -1152.0, 9.0, 8726.0]
15F	OK  	3	[3140.0, 1669.0, -5213.0, 5377.0, 125.0, -9180.0, 9234.0]
18T	OK  	1	[-8708.0, 8461.0, 5516.0, -960.0, -1152.0, 9.0, 8726.0]
18F	OK  	2	[-9769.0, -1783.0, -2413.0, -1887.0, -4881.0, 2397.0, 1680.0]
20T	OK  	19	[9925.0, -9913.0, 950.0, 1093.0, -7476.0, -2725.0, 875.0]
20F	OK  	2	[-9769.0, -1783.0, -2413.0, -1887.0, -4881.0, 2397.0, 1680.0]
22T	OK  	1	[-8708.0, 8461.0, 5516.0, -960.0, -1152.0, 9.0, 8726.0]
22F	OK  	2	[-9769.0, -1783.0, -2413.0, -1887.0, -4881.0, 2397.0, 1680.0]
40T	OK  	1	[-8708.0, 8461.0, 5516.0, -960.0, -1152.0, 9.0, 8726.0]
40F	OK  	3	[3140.0, 1669.0, -5213.0, 5377.0, 125.0, -9180.0, 9234.0]
42T	FAIL	100000	
42F	OK  	1	[-8708.0, 8461.0, 5516.0, -960.0, -1152.0, 9.0, 8726.0]
44T	FAIL	100000	
44F	OK  	1	[-8708.0, 8461.0, 5516.0, -960.0, -1152.0, 9.0, 8726.0]
48T	OK  	3	[3140.0, 1669.0, -5213.0, 5377.0, 125.0, -9180.0, 9234.0]
48F	OK  	5	[-3172.0, 4128.0, 1444.0, 9315.0, -1901.0, -6744.0, -2955.0]
51T	OK  	2	[-9769.0, -1783.0, -2413.0, -1887.0, -4881.0, 2397.0, 1680.0]
51F	OK  	1	[-8708.0, 8461.0, 5516.0, -960.0, -1152.0, 9.0, 8726.0]
53T	OK  	21	[-4845.0, -3513.0, 6025.0, -3374.0, -9270.0, -6268.0, 6546.0]
53F	OK  	1	[-8708.0, 8461.0, 5516.0, -960.0, -1152.0, 9.0, 8726.0]
55T	FAIL	100000	
55F	OK  	21	[-4845.0, -3513.0, 6025.0, -3374.0, -9270.0, -6268.0, 6546.0]
57T	FAIL	100000	
57F	OK  	21	[-4845.0, -3513.0, 6025.0, -3374.0, -9270.0, -6268.0, 6546.0]
61T	OK  	21	[-4845.0, -3513.0, 6025.0, -3374.0, -9270.0, -6268.0, 6546.0]
61F	FAIL	100000	
66T	OK  	1	[-8708.0, 8461.0, 5516.0, -960.0, -1152.0, 9.0, 8726.0]
66F	OK  	4	[1366.0, 5230.0, 1065.0, 4831.0, 2795.0, 4452.0, 6103.0]
68T	FAIL	100000	
68F	OK  	1	[-8708.0, 8461.0, 5516.0, -960.0, -1152.0, 9.0, 8726.0]
70T	FAIL	100000	
70F	OK  	1	[-8708.0, 8461.0, 5516.0, -960.0, -1152.0, 9.0, 8726.0]
74T	OK  	1	[-8708.0, 8461.0, 5516.0, -960.0, -1152.0, 9.0, 8726.0]
74F	FAIL	100000	
79T	OK  	1	[-8708.0, 8461.0, 5516.0, -960.0, -1152.0, 9.0, 8726.0]
79F	OK  	4	[1366.0, 5230.0, 1065.0, 4831.0, 2795.0, 4452.0, 6103.0]
