Test object: org.iguanatool.casestudies.spice1.testobjects.clip_to_circle
7T	OK  	1	[3161.0, -4784.0, 5053.0, 5595.0, 6644.0, -5791.0, -8253.0]
7F	FAIL	100000	
10T	OK  	1	[3161.0, -4784.0, 5053.0, 5595.0, 6644.0, -5791.0, -8253.0]
10F	FAIL	100000	
13T	OK  	3	[9689.0, -8653.0, 1956.0, -7330.0, 8139.0, 9835.0, 9525.0]
13F	OK  	1	[3161.0, -4784.0, 5053.0, 5595.0, 6644.0, -5791.0, -8253.0]
15T	OK  	3	[9689.0, -8653.0, 1956.0, -7330.0, 8139.0, 9835.0, 9525.0]
15F	OK  	1	[3161.0, -4784.0, 5053.0, 5595.0, 6644.0, -5791.0, -8253.0]
18T	OK  	5	[-3327.0, 7970.0, -747.0, 232.0, -6298.0, 359.0, -8633.0]
18F	OK  	1	[3161.0, -4784.0, 5053.0, 5595.0, 6644.0, -5791.0, -8253.0]
20T	OK  	4	[-529.0, -9312.0, -5658.0, 9144.0, -8775.0, -4170.0, -3847.0]
20F	OK  	1	[3161.0, -4784.0, 5053.0, 5595.0, 6644.0, -5791.0, -8253.0]
22T	OK  	1	[3161.0, -4784.0, 5053.0, 5595.0, 6644.0, -5791.0, -8253.0]
22F	OK  	4	[-529.0, -9312.0, -5658.0, 9144.0, -8775.0, -4170.0, -3847.0]
40T	OK  	3	[9689.0, -8653.0, 1956.0, -7330.0, 8139.0, 9835.0, 9525.0]
40F	OK  	1	[3161.0, -4784.0, 5053.0, 5595.0, 6644.0, -5791.0, -8253.0]
42T	FAIL	100000	
42F	OK  	3	[9689.0, -8653.0, 1956.0, -7330.0, 8139.0, 9835.0, 9525.0]
44T	FAIL	100000	
44F	OK  	3	[9689.0, -8653.0, 1956.0, -7330.0, 8139.0, 9835.0, 9525.0]
48T	OK  	2	[-858.0, 7005.0, 9774.0, 2050.0, 9780.0, -3392.0, 1652.0]
48F	OK  	1	[3161.0, -4784.0, 5053.0, 5595.0, 6644.0, -5791.0, -8253.0]
51T	OK  	1	[3161.0, -4784.0, 5053.0, 5595.0, 6644.0, -5791.0, -8253.0]
51F	OK  	6	[-272.0, -2429.0, 7241.0, -2743.0, 9428.0, -932.0, 4970.0]
53T	OK  	6	[-272.0, -2429.0, 7241.0, -2743.0, 9428.0, -932.0, 4970.0]
53F	OK  	27	[-5321.0, 3949.0, -2020.0, -1693.0, -5397.0, 5971.0, 6584.0]
55T	FAIL	100000	
55F	OK  	6	[-272.0, -2429.0, 7241.0, -2743.0, 9428.0, -932.0, 4970.0]
57T	FAIL	100000	
57F	OK  	6	[-272.0, -2429.0, 7241.0, -2743.0, 9428.0, -932.0, 4970.0]
61T	OK  	6	[-272.0, -2429.0, 7241.0, -2743.0, 9428.0, -932.0, 4970.0]
61F	FAIL	100000	
66T	OK  	27	[-5321.0, 3949.0, -2020.0, -1693.0, -5397.0, 5971.0, 6584.0]
66F	OK  	6	[-272.0, -2429.0, 7241.0, -2743.0, 9428.0, -932.0, 4970.0]
68T	FAIL	100000	
68F	OK  	27	[-5321.0, 3949.0, -2020.0, -1693.0, -5397.0, 5971.0, 6584.0]
70T	FAIL	100000	
70F	OK  	27	[-5321.0, 3949.0, -2020.0, -1693.0, -5397.0, 5971.0, 6584.0]
74T	OK  	27	[-5321.0, 3949.0, -2020.0, -1693.0, -5397.0, 5971.0, 6584.0]
74F	FAIL	100000	
79T	OK  	37	[-7229.0, -3941.0, -5520.0, 9748.0, -4172.0, -6834.0, 8574.0]
79F	OK  	6	[-272.0, -2429.0, 7241.0, -2743.0, 9428.0, -932.0, 4970.0]
