Test object: org.iguanatool.casestudies.spice1.testobjects.clip_to_circle
7T	OK  	1	[1498.0, -8107.0, -8239.0, 3289.0, -4393.0, 8509.0, -7351.0]
7F	OK  	107	[-2343.0, 8269.0, -8239.0, 3289.0, -2343.0, 8269.0, -7351.0]
10T	OK  	1	[1498.0, -8107.0, -8239.0, 3289.0, -4393.0, 8509.0, -7351.0]
10F	OK  	116	[1498.0, -8107.0, -4137.0, 4319.0, -4137.0, 4319.0, -7351.0]
13T	OK  	1	[1498.0, -8107.0, -8239.0, 3289.0, -4393.0, 8509.0, -7351.0]
13F	OK  	55	[9689.0, 8276.0, -8239.0, 3289.0, -8488.0, 8254.0, -7351.0]
15T	OK  	1	[1498.0, -8107.0, -8239.0, 3289.0, -4393.0, 8509.0, -7351.0]
15F	OK  	57	[1498.0, -8107.0, 8144.0, 7384.0, -8488.0, 6462.0, -7351.0]
18T	OK  	80	[-6693.0, 8276.0, 8144.0, 7384.0, -2346.0, 7998.0, -7351.0]
18F	OK  	1	[1498.0, -8107.0, -8239.0, 3289.0, -4393.0, 8509.0, -7351.0]
20T	OK  	118	[9944.0, 8339.0, -9773.0, 9431.0, 3798.0, 8382.0, -7351.0]
20F	OK  	1	[1498.0, -8107.0, -8239.0, 3289.0, -4393.0, 8509.0, -7351.0]
22T	OK  	1	[1498.0, -8107.0, -8239.0, 3289.0, -4393.0, 8509.0, -7351.0]
22F	OK  	30	[-6693.0, 8276.0, -8239.0, 3289.0, -4393.0, 8509.0, -7351.0]
40T	OK  	121	[-1117.0, -2330.0, -2291.0, -6423.0, -770.0, -4542.0, -5357.0]
40F	OK  	1	[1498.0, -8107.0, -8239.0, 3289.0, -4393.0, 8509.0, -7351.0]
42T	OK  	47615	[923.0, -4621.0, 596.0, 3881.0, 683.0, 1619.0, 1063.0]
42F	OK  	121	[-1117.0, -2330.0, -2291.0, -6423.0, -770.0, -4542.0, -5357.0]
44T	FAIL	100000	
44F	OK  	121	[-1117.0, -2330.0, -2291.0, -6423.0, -770.0, -4542.0, -5357.0]
48T	OK  	1	[1498.0, -8107.0, -8239.0, 3289.0, -4393.0, 8509.0, -7351.0]
48F	OK  	30	[-2597.0, 8276.0, -8239.0, 3289.0, -4393.0, 8509.0, -7351.0]
51T	OK  	1	[1498.0, -8107.0, -8239.0, 3289.0, -4393.0, 8509.0, -7351.0]
51F	OK  	68	[1498.0, -8107.0, -4144.0, 7384.0, -4138.0, 7486.0, 840.0]
53T	OK  	152	[1858.0, 7930.0, 1067.0, -7311.0, -6074.0, 9115.0, 8829.0]
53F	OK  	68	[1498.0, -8107.0, -4144.0, 7384.0, -4138.0, 7486.0, 840.0]
55T	OK  	4510	[-8980.0, 9416.0, 6325.0, -5889.0, 6298.0, -5862.0, 690.0]
55F	OK  	152	[1858.0, 7930.0, 1067.0, -7311.0, -6074.0, 9115.0, 8829.0]
57T	FAIL	100000	
57F	OK  	152	[1858.0, 7930.0, 1067.0, -7311.0, -6074.0, 9115.0, 8829.0]
61T	OK  	152	[1858.0, 7930.0, 1067.0, -7311.0, -6074.0, 9115.0, 8829.0]
61F	FAIL	100000	
66T	OK  	68	[1498.0, -8107.0, -4144.0, 7384.0, -4138.0, 7486.0, 840.0]
66F	OK  	82	[-6693.0, -8107.0, -4144.0, 7384.0, -4138.0, 7486.0, 9032.0]
68T	OK  	31604	[-6139.0, -5977.0, -6417.0, 973.0, -6099.0, -6977.0, 1553.0]
68F	OK  	68	[1498.0, -8107.0, -4144.0, 7384.0, -4138.0, 7486.0, 840.0]
70T	FAIL	100000	
70F	OK  	68	[1498.0, -8107.0, -4144.0, 7384.0, -4138.0, 7486.0, 840.0]
74T	OK  	68	[1498.0, -8107.0, -4144.0, 7384.0, -4138.0, 7486.0, 840.0]
74F	FAIL	100000	
79T	OK  	68	[1498.0, -8107.0, -4144.0, 7384.0, -4138.0, 7486.0, 840.0]
79F	OK  	152	[-5539.0, 3782.0, 5667.0, -4479.0, -6927.0, 6501.0, 3281.0]
