Test object: org.iguanatool.casestudies.spice1.testobjects.clip_to_circle
7T	OK  	1	[5319.0, -2236.0, -7864.0, 4092.0, 9803.0, 7473.0, -1041.0]
7F	OK  	10664	[-612.996337890625, 6700.22265625, -7268.7021484375, 5357.0030517578125, -612.006103515625, 6700.0966796875, 5401.280029296875]
10T	OK  	1	[5319.0, -2236.0, -7864.0, 4092.0, 9803.0, 7473.0, -1041.0]
10F	OK  	13794	[-677.02333984375, 3988.11279296875, 8264.71875, 6146.522705078125, 8264.414794921875, 6146.151373291015, 6626.245849609375]
13T	OK  	1	[5319.0, -2236.0, -7864.0, 4092.0, 9803.0, 7473.0, -1041.0]
13F	OK  	4	[-271.0, 5348.0, 6299.0, -2305.0, -9516.0, 916.0, 365.0]
15T	OK  	1	[5319.0, -2236.0, -7864.0, 4092.0, 9803.0, 7473.0, -1041.0]
15F	OK  	2	[2464.0, -4908.0, 1283.0, 5725.0, -1406.0, 980.0, 3330.0]
18T	OK  	4	[-271.0, 5348.0, 6299.0, -2305.0, -9516.0, 916.0, 365.0]
18F	OK  	1	[5319.0, -2236.0, -7864.0, 4092.0, 9803.0, 7473.0, -1041.0]
20T	OK  	2	[2464.0, -4908.0, 1283.0, 5725.0, -1406.0, 980.0, 3330.0]
20F	OK  	1	[5319.0, -2236.0, -7864.0, 4092.0, 9803.0, 7473.0, -1041.0]
22T	OK  	1	[5319.0, -2236.0, -7864.0, 4092.0, 9803.0, 7473.0, -1041.0]
22F	OK  	2	[2464.0, -4908.0, 1283.0, 5725.0, -1406.0, 980.0, 3330.0]
40T	OK  	2	[2464.0, -4908.0, 1283.0, 5725.0, -1406.0, 980.0, 3330.0]
40F	OK  	1	[5319.0, -2236.0, -7864.0, 4092.0, 9803.0, 7473.0, -1041.0]
42T	FAIL	100000	
42F	OK  	2	[2464.0, -4908.0, 1283.0, 5725.0, -1406.0, 980.0, 3330.0]
44T	FAIL	100000	
44F	OK  	2	[2464.0, -4908.0, 1283.0, 5725.0, -1406.0, 980.0, 3330.0]
48T	OK  	5	[2800.0, -5843.0, 2844.0, 3943.0, 4300.0, 6953.0, -6209.0]
48F	OK  	1	[5319.0, -2236.0, -7864.0, 4092.0, 9803.0, 7473.0, -1041.0]
51T	OK  	1	[5319.0, -2236.0, -7864.0, 4092.0, 9803.0, 7473.0, -1041.0]
51F	OK  	2	[2464.0, -4908.0, 1283.0, 5725.0, -1406.0, 980.0, 3330.0]
53T	OK  	2	[2464.0, -4908.0, 1283.0, 5725.0, -1406.0, 980.0, 3330.0]
53F	OK  	3	[-6709.0, -1475.0, -1147.0, 3720.0, -1027.0, 123.0, 6643.0]
55T	FAIL	100000	
55F	OK  	2	[2464.0, -4908.0, 1283.0, 5725.0, -1406.0, 980.0, 3330.0]
57T	FAIL	100000	
57F	OK  	2	[2464.0, -4908.0, 1283.0, 5725.0, -1406.0, 980.0, 3330.0]
61T	OK  	2	[2464.0, -4908.0, 1283.0, 5725.0, -1406.0, 980.0, 3330.0]
61F	FAIL	100000	
66T	OK  	2	[2464.0, -4908.0, 1283.0, 5725.0, -1406.0, 980.0, 3330.0]
66F	OK  	3	[-6709.0, -1475.0, -1147.0, 3720.0, -1027.0, 123.0, 6643.0]
68T	FAIL	100000	
68F	OK  	2	[2464.0, -4908.0, 1283.0, 5725.0, -1406.0, 980.0, 3330.0]
70T	FAIL	100000	
70F	OK  	2	[2464.0, -4908.0, 1283.0, 5725.0, -1406.0, 980.0, 3330.0]
74T	OK  	2	[2464.0, -4908.0, 1283.0, 5725.0, -1406.0, 980.0, 3330.0]
74F	FAIL	100000	
79T	OK  	3	[-6709.0, -1475.0, -1147.0, 3720.0, -1027.0, 123.0, 6643.0]
79F	OK  	2	[2464.0, -4908.0, 1283.0, 5725.0, -1406.0, 980.0, 3330.0]
