Test object: org.iguanatool.casestudies.toms708.testobjects.bratio
7T	OK  	1	[-426.0, -66.0, 30.7, -309.6, 51.2, -10.1, 1.0, 1.0]
7F	OK  	3	[581.6, 477.1, 463.8, -444.8, 31.1, 923.3, 1.0, 1.0]
10T	FAIL	100000	
10F	OK  	3	[581.6, 477.1, 463.8, -444.8, 31.1, 923.3, 1.0, 1.0]
13T	OK  	3	[581.6, 477.1, 463.8, -444.8, 31.1, 923.3, 1.0, 1.0]
13F	OK  	7747	[706.8443603515625, 168.37469482421875, 0.5757934570312493, -500.78984375, 713.17578125, -793.3004028320313, 0.0, 1.0]
16T	OK  	7747	[706.8443603515625, 168.37469482421875, 0.5757934570312493, -500.78984375, 713.17578125, -793.3004028320313, 0.0, 1.0]
16F	OK  	20957	[625.6561004638672, 500.21337890625, 0.7347900390624993, 0.6080078124999773, -187.2413330078125, -968.2244140625, 0.953179931640625, 0.94912109375]
20T	OK  	20957	[625.6561004638672, 500.21337890625, 0.7347900390624993, 0.6080078124999773, -187.2413330078125, -968.2244140625, 0.953179931640625, 0.94912109375]
20F	FAIL	100000	
25T	FAIL	100000	
25F	FAIL	100000	
27T	FAIL	100000	
27F	FAIL	100000	
29T	FAIL	100000	
29F	FAIL	100000	
31T	FAIL	100000	
31F	FAIL	100000	
34T	FAIL	100000	
34F	FAIL	100000	
35T	FAIL	100000	
35F	FAIL	100000	
42T	FAIL	100000	
42F	FAIL	100000	
44T	FAIL	100000	
44F	FAIL	100000	
48T	FAIL	100000	
48F	FAIL	100000	
53T	FAIL	100000	
53F	FAIL	100000	
57T	FAIL	100000	
57F	FAIL	100000	
59T	FAIL	100000	
59F	FAIL	100000	
61T	FAIL	100000	
61F	FAIL	100000	
63T	FAIL	100000	
63F	FAIL	100000	
64T	FAIL	100000	
64F	FAIL	100000	
66T	FAIL	100000	
66F	FAIL	100000	
70T	FAIL	100000	
70F	FAIL	100000	
72T	FAIL	100000	
72F	FAIL	100000	
74T	FAIL	100000	
74F	FAIL	100000	
84T	FAIL	100000	
84F	FAIL	100000	
88T	FAIL	100000	
88F	FAIL	100000	
93T	FAIL	100000	
93F	FAIL	100000	
95T	FAIL	100000	
95F	FAIL	100000	
98T	FAIL	100000	
98F	FAIL	100000	
100T	FAIL	100000	
100F	FAIL	100000	
102T	FAIL	100000	
102F	FAIL	100000	
105T	FAIL	100000	
105F	FAIL	100000	
130T	FAIL	100000	
130F	FAIL	100000	
135T	FAIL	100000	
135F	FAIL	100000	
138T	FAIL	100000	
138F	FAIL	100000	
142T	FAIL	100000	
142F	FAIL	100000	
151T	FAIL	100000	
151F	FAIL	100000	
159T	FAIL	100000	
159F	FAIL	100000	
167T	FAIL	100000	
167F	FAIL	100000	
173T	FAIL	100000	
173F	FAIL	100000	
178T	FAIL	100000	
178F	FAIL	100000	
Test object: org.iguanatool.casestudies.toms708.testobjects.psi
13T	FAIL	100000	
13F	OK  	1	[-426.0]
17T	OK  	1	[-426.0]
17F	OK  	3	[30.7]
18T	OK  	11838	[3.541275345880779E-16]
18F	OK  	1	[-426.0]
19T	OK  	67842	[0.0]
19F	OK  	11838	[3.541275345880779E-16]
24T	OK  	2577	[0.27561035156250036]
24F	OK  	1	[-426.0]
27T	FAIL	100000	
27F	OK  	1	[-426.0]
34T	OK  	9	[-729.4]
34F	OK  	1	[-426.0]
38T	OK  	4	[-309.6]
38F	OK  	1	[-426.0]
43T	OK  	1	[-426.0]
43F	OK  	4	[-309.6]
44T	OK  	1	[-426.0]
44F	OK  	6	[-10.1]
49T	OK  	874	[1.6180908203125028]
49F	OK  	3	[30.7]
52T	OK  	874	[1.6180908203125028]
52F	OK  	874	[1.6180908203125028]
58T	OK  	3	[30.7]
58F	FAIL	100000	
62T	OK  	3	[30.7]
62F	OK  	3	[30.7]
