Test object: org.iguanatool.casestudies.toms708.testobjects.bratio
7T	OK  	13	[142.3, -21.1, -582.6, -121.0, 74.8, 604.1, 1.0, 1.0]
7F	OK  	1	[142.3, 81.2, -582.6, -121.0, 74.8, 604.1, 1.0, 1.0]
10T	FAIL	100000	
10F	OK  	1	[142.3, 81.2, -582.6, -121.0, 74.8, 604.1, 1.0, 1.0]
13T	OK  	1	[142.3, 81.2, -582.6, -121.0, 74.8, 604.1, 1.0, 1.0]
13F	OK  	84	[142.3, 81.2, 3.597122599785507E-14, -121.0, 74.8, 604.1, 1.0, 1.0]
16T	OK  	84	[142.3, 81.2, 3.597122599785507E-14, -121.0, 74.8, 604.1, 1.0, 1.0]
16F	OK  	162	[142.3, 81.2, 3.597122599785507E-14, 0.7999999999999976, 74.8, 604.1, 1.0, 1.0]
20T	OK  	162	[142.3, 81.2, 3.597122599785507E-14, 0.7999999999999976, 74.8, 604.1, 1.0, 1.0]
20F	OK  	18574	[9.200000000000017, 437.1, 0.09999999999999387, 0.9000000000000061, -967.7, 349.0, 0.0, 0.0]
25T	FAIL	100000	
25F	OK  	18574	[9.200000000000017, 437.1, 0.09999999999999387, 0.9000000000000061, -967.7, 349.0, 0.0, 0.0]
27T	FAIL	100000	
27F	OK  	18574	[9.200000000000017, 437.1, 0.09999999999999387, 0.9000000000000061, -967.7, 349.0, 0.0, 0.0]
29T	FAIL	100000	
29F	OK  	18574	[9.200000000000017, 437.1, 0.09999999999999387, 0.9000000000000061, -967.7, 349.0, 0.0, 0.0]
31T	FAIL	100000	
31F	OK  	18574	[9.200000000000017, 437.1, 0.09999999999999387, 0.9000000000000061, -967.7, 349.0, 0.0, 0.0]
34T	FAIL	100000	
34F	OK  	18574	[9.200000000000017, 437.1, 0.09999999999999387, 0.9000000000000061, -967.7, 349.0, 0.0, 0.0]
35T	FAIL	100000	
35F	FAIL	100000	
42T	OK  	18622	[0.7000000000000169, 437.1, 0.09999999999999387, 0.9000000000000061, -967.7, 349.0, 0.0, 0.0]
42F	OK  	18574	[9.200000000000017, 437.1, 0.09999999999999387, 0.9000000000000061, -967.7, 349.0, 0.0, 0.0]
44T	FAIL	100000	
44F	OK  	18622	[0.7000000000000169, 437.1, 0.09999999999999387, 0.9000000000000061, -967.7, 349.0, 0.0, 0.0]
48T	FAIL	100000	
48F	OK  	18622	[0.7000000000000169, 437.1, 0.09999999999999387, 0.9000000000000061, -967.7, 349.0, 0.0, 0.0]
53T	FAIL	100000	
53F	OK  	18622	[0.7000000000000169, 437.1, 0.09999999999999387, 0.9000000000000061, -967.7, 349.0, 0.0, 0.0]
57T	OK  	18622	[0.7000000000000169, 437.1, 0.09999999999999387, 0.9000000000000061, -967.7, 349.0, 0.0, 0.0]
57F	OK  	18676	[0.7000000000000169, 0.5999999999999923, 0.09999999999999387, 0.9000000000000061, -967.7, 349.0, 0.0, 0.0]
59T	FAIL	100000	
59F	OK  	18622	[0.7000000000000169, 437.1, 0.09999999999999387, 0.9000000000000061, -967.7, 349.0, 0.0, 0.0]
61T	FAIL	100000	
61F	OK  	18622	[0.7000000000000169, 437.1, 0.09999999999999387, 0.9000000000000061, -967.7, 349.0, 0.0, 0.0]
63T	OK  	18622	[0.7000000000000169, 437.1, 0.09999999999999387, 0.9000000000000061, -967.7, 349.0, 0.0, 0.0]
63F	OK  	21205	[0.4000000000000745, 734.0000000000002, 0.2000000000000106, 0.7999999999999892, 296.7, -44.6, 0.0, 1.0]
64T	FAIL	100000	
64F	OK  	18622	[0.7000000000000169, 437.1, 0.09999999999999387, 0.9000000000000061, -967.7, 349.0, 0.0, 0.0]
66T	FAIL	100000	
66F	FAIL	100000	
70T	OK  	18676	[0.7000000000000169, 0.5999999999999923, 0.09999999999999387, 0.9000000000000061, -967.7, 349.0, 0.0, 0.0]
70F	OK  	18691	[1.6930901125533637E-14, 0.5999999999999923, 0.09999999999999387, 0.9000000000000061, -967.7, 349.0, 0.0, 0.0]
72T	OK  	18693	[0.10000000000001694, 0.5999999999999923, 0.09999999999999387, 0.9000000000000061, -967.7, 349.0, 0.0, 0.0]
72F	OK  	18691	[1.6930901125533637E-14, 0.5999999999999923, 0.09999999999999387, 0.9000000000000061, -967.7, 349.0, 0.0, 0.0]
74T	FAIL	100000	
74F	OK  	18691	[1.6930901125533637E-14, 0.5999999999999923, 0.09999999999999387, 0.9000000000000061, -967.7, 349.0, 0.0, 0.0]
84T	OK  	18595	[828.3000000000001, 437.1, 0.09999999999999387, 0.9000000000000061, -967.7, 349.0, 0.0, 0.0]
84F	OK  	18574	[9.200000000000017, 437.1, 0.09999999999999387, 0.9000000000000061, -967.7, 349.0, 0.0, 0.0]
88T	OK  	18574	[9.200000000000017, 437.1, 0.09999999999999387, 0.9000000000000061, -967.7, 349.0, 0.0, 0.0]
88F	FAIL	100000	
93T	OK  	18574	[9.200000000000017, 437.1, 0.09999999999999387, 0.9000000000000061, -967.7, 349.0, 0.0, 0.0]
93F	OK  	18591	[60.30000000000002, 437.1, 0.09999999999999387, 0.9000000000000061, -967.7, 349.0, 0.0, 0.0]
95T	FAIL	100000	
95F	OK  	18574	[9.200000000000017, 437.1, 0.09999999999999387, 0.9000000000000061, -967.7, 349.0, 0.0, 0.0]
98T	OK  	18595	[828.3000000000001, 437.1, 0.09999999999999387, 0.9000000000000061, -967.7, 349.0, 0.0, 0.0]
98F	OK  	18591	[60.30000000000002, 437.1, 0.09999999999999387, 0.9000000000000061, -967.7, 349.0, 0.0, 0.0]
100T	OK  	18595	[828.3000000000001, 437.1, 0.09999999999999387, 0.9000000000000061, -967.7, 349.0, 0.0, 0.0]
100F	OK  	21247	[182.4000000000001, 734.0000000000002, 0.2000000000000106, 0.7999999999999892, 296.7, -44.6, 0.0, 1.0]
102T	OK  	18591	[60.30000000000002, 437.1, 0.09999999999999387, 0.9000000000000061, -967.7, 349.0, 0.0, 0.0]
102F	OK  	18592	[111.50000000000003, 437.1, 0.09999999999999387, 0.9000000000000061, -967.7, 349.0, 0.0, 0.0]
105T	OK  	18592	[111.50000000000003, 437.1, 0.09999999999999387, 0.9000000000000061, -967.7, 349.0, 0.0, 0.0]
105F	OK  	18650	[102.10000000000004, 897.7000000000002, 0.09999999999999387, 0.9000000000000061, -967.7, 349.0, 0.0, 0.0]
130T	FAIL	100000	
130F	OK  	18574	[9.200000000000017, 437.1, 0.09999999999999387, 0.9000000000000061, -967.7, 349.0, 0.0, 0.0]
135T	FAIL	100000	
135F	OK  	18574	[9.200000000000017, 437.1, 0.09999999999999387, 0.9000000000000061, -967.7, 349.0, 0.0, 0.0]
138T	FAIL	100000	
138F	OK  	18574	[9.200000000000017, 437.1, 0.09999999999999387, 0.9000000000000061, -967.7, 349.0, 0.0, 0.0]
142T	FAIL	100000	
142F	OK  	18574	[9.200000000000017, 437.1, 0.09999999999999387, 0.9000000000000061, -967.7, 349.0, 0.0, 0.0]
151T	FAIL	100000	
151F	FAIL	100000	
159T	FAIL	100000	
159F	FAIL	100000	
167T	OK  	18581	[9.200000000000017, 437.1, 0.09999999999999387, 0.9000000000000061, -967.7, 349.0, 0.0, 1.0]
167F	OK  	18574	[9.200000000000017, 437.1, 0.09999999999999387, 0.9000000000000061, -967.7, 349.0, 0.0, 0.0]
173T	FAIL	100000	
173F	FAIL	100000	
178T	OK  	18574	[9.200000000000017, 437.1, 0.09999999999999387, 0.9000000000000061, -967.7, 349.0, 0.0, 0.0]
178F	FAIL	100000	
Test object: org.iguanatool.casestudies.toms708.testobjects.psi
13T	FAIL	100000	
13F	OK  	1	[142.3]
17T	OK  	12	[-62.39999999999999]
17F	OK  	1	[142.3]
18T	OK  	50	[1.0075273948473296E-14]
18F	OK  	12	[-62.39999999999999]
19T	FAIL	100000	
19F	OK  	50	[1.0075273948473296E-14]
24T	OK  	48	[0.3000000000000101]
24F	OK  	12	[-62.39999999999999]
27T	FAIL	100000	
27F	OK  	12	[-62.39999999999999]
34T	OK  	12	[-62.39999999999999]
34F	OK  	13	[-267.2]
38T	OK  	27	[-123.5]
38F	OK  	12	[-62.39999999999999]
43T	OK  	13	[-267.2]
43F	OK  	12	[-62.39999999999999]
44T	OK  	34	[-21.0]
44F	OK  	13	[-267.2]
49T	OK  	30	[1.6000000000000094]
49F	OK  	1	[142.3]
52T	OK  	30	[1.6000000000000094]
52F	OK  	30	[1.6000000000000094]
58T	OK  	1	[142.3]
58F	FAIL	100000	
62T	OK  	1	[142.3]
62F	OK  	1	[142.3]
