Test object: org.iguanatool.casestudies.toms708.testobjects.bratio
7T	OK  	1	[-870.8, 846.1, 551.6, -96.0, -115.2, 0.9, 1.0, 0.0]
7F	OK  	16	[767.5000000000002, 846.1, 551.6, -96.0, -115.2, 0.9, 1.0, 0.0]
10T	FAIL	100000	
10F	OK  	16	[767.5000000000002, 846.1, 551.6, -96.0, -115.2, 0.9, 1.0, 0.0]
13T	OK  	16	[767.5000000000002, 846.1, 551.6, -96.0, -115.2, 0.9, 1.0, 0.0]
13F	OK  	114	[767.5000000000002, 846.1, 0.8999999999999649, -96.0, -115.2, 0.9, 1.0, 0.0]
16T	OK  	114	[767.5000000000002, 846.1, 0.8999999999999649, -96.0, -115.2, 0.9, 1.0, 0.0]
16F	OK  	146	[767.5000000000002, 846.1, 0.8999999999999649, 3.9968028886505635E-15, -115.2, 0.9, 1.0, 0.0]
20T	OK  	146	[767.5000000000002, 846.1, 0.8999999999999649, 3.9968028886505635E-15, -115.2, 0.9, 1.0, 0.0]
20F	OK  	17629	[38.8, 734.2, 1.0436096431476471E-13, 0.9999999999998958, -589.2, -194.6, 1.0, 1.0]
25T	FAIL	100000	
25F	OK  	17629	[38.8, 734.2, 1.0436096431476471E-13, 0.9999999999998958, -589.2, -194.6, 1.0, 1.0]
27T	FAIL	100000	
27F	OK  	17629	[38.8, 734.2, 1.0436096431476471E-13, 0.9999999999998958, -589.2, -194.6, 1.0, 1.0]
29T	FAIL	100000	
29F	OK  	17629	[38.8, 734.2, 1.0436096431476471E-13, 0.9999999999998958, -589.2, -194.6, 1.0, 1.0]
31T	FAIL	100000	
31F	OK  	17629	[38.8, 734.2, 1.0436096431476471E-13, 0.9999999999998958, -589.2, -194.6, 1.0, 1.0]
34T	FAIL	100000	
34F	OK  	17629	[38.8, 734.2, 1.0436096431476471E-13, 0.9999999999998958, -589.2, -194.6, 1.0, 1.0]
35T	FAIL	100000	
35F	FAIL	100000	
42T	OK  	17666	[0.5999999999999934, 734.2, 1.0436096431476471E-13, 0.9999999999998958, -589.2, -194.6, 1.0, 1.0]
42F	OK  	17629	[38.8, 734.2, 1.0436096431476471E-13, 0.9999999999998958, -589.2, -194.6, 1.0, 1.0]
44T	OK  	82969	[3.597122599785507E-14, 113.20000000000002, 0.6000000000000131, 0.39999999999998637, -354.7, -807.5, 1.0, 1.0]
44F	OK  	17666	[0.5999999999999934, 734.2, 1.0436096431476471E-13, 0.9999999999998958, -589.2, -194.6, 1.0, 1.0]
48T	FAIL	100000	
48F	OK  	17666	[0.5999999999999934, 734.2, 1.0436096431476471E-13, 0.9999999999998958, -589.2, -194.6, 1.0, 1.0]
53T	FAIL	100000	
53F	OK  	17666	[0.5999999999999934, 734.2, 1.0436096431476471E-13, 0.9999999999998958, -589.2, -194.6, 1.0, 1.0]
57T	OK  	17666	[0.5999999999999934, 734.2, 1.0436096431476471E-13, 0.9999999999998958, -589.2, -194.6, 1.0, 1.0]
57F	OK  	17787	[0.5999999999999934, 0.39999999999997304, 1.0436096431476471E-13, 0.9999999999998958, -589.2, -194.6, 1.0, 1.0]
59T	OK  	83337	[3.597122599785507E-14, 113.20000000000002, 0.6000000000000131, 0.39999999999998637, -354.7, -807.5, 1.0, 1.0]
59F	OK  	17666	[0.5999999999999934, 734.2, 1.0436096431476471E-13, 0.9999999999998958, -589.2, -194.6, 1.0, 1.0]
61T	OK  	23788	[0.9000000000000165, 639.7, 0.40000000000000024, 0.5999999999999992, -173.8, -168.4, 0.0, 0.0]
61F	OK  	17666	[0.5999999999999934, 734.2, 1.0436096431476471E-13, 0.9999999999998958, -589.2, -194.6, 1.0, 1.0]
63T	OK  	17666	[0.5999999999999934, 734.2, 1.0436096431476471E-13, 0.9999999999998958, -589.2, -194.6, 1.0, 1.0]
63F	FAIL	100000	
64T	OK  	17666	[0.5999999999999934, 734.2, 1.0436096431476471E-13, 0.9999999999998958, -589.2, -194.6, 1.0, 1.0]
64F	FAIL	100000	
66T	FAIL	100000	
66F	FAIL	100000	
70T	OK  	17787	[0.5999999999999934, 0.39999999999997304, 1.0436096431476471E-13, 0.9999999999998958, -589.2, -194.6, 1.0, 1.0]
70F	OK  	17816	[0.19999999999999343, 0.39999999999997304, 1.0436096431476471E-13, 0.9999999999998958, -589.2, -194.6, 1.0, 1.0]
72T	OK  	17816	[0.19999999999999343, 0.39999999999997304, 1.0436096431476471E-13, 0.9999999999998958, -589.2, -194.6, 1.0, 1.0]
72F	OK  	24066	[0.10000000000001649, 0.3999999999999846, 0.40000000000000024, 0.5999999999999992, -173.8, -168.4, 0.0, 0.0]
74T	OK  	24066	[0.10000000000001649, 0.3999999999999846, 0.40000000000000024, 0.5999999999999992, -173.8, -168.4, 0.0, 0.0]
74F	FAIL	100000	
84T	OK  	17651	[857.9000000000001, 734.2, 1.0436096431476471E-13, 0.9999999999998958, -589.2, -194.6, 1.0, 1.0]
84F	OK  	17629	[38.8, 734.2, 1.0436096431476471E-13, 0.9999999999998958, -589.2, -194.6, 1.0, 1.0]
88T	OK  	23655	[138.20000000000002, 639.7, 0.40000000000000024, 0.5999999999999992, -173.8, -168.4, 0.0, 0.0]
88F	OK  	17629	[38.8, 734.2, 1.0436096431476471E-13, 0.9999999999998958, -589.2, -194.6, 1.0, 1.0]
93T	OK  	17700	[38.8, 17.699999999999974, 1.0436096431476471E-13, 0.9999999999998958, -589.2, -194.6, 1.0, 1.0]
93F	OK  	17629	[38.8, 734.2, 1.0436096431476471E-13, 0.9999999999998958, -589.2, -194.6, 1.0, 1.0]
95T	OK  	17700	[38.8, 17.699999999999974, 1.0436096431476471E-13, 0.9999999999998958, -589.2, -194.6, 1.0, 1.0]
95F	OK  	23823	[35.90000000000002, 639.7, 0.40000000000000024, 0.5999999999999992, -173.8, -168.4, 0.0, 0.0]
98T	OK  	17651	[857.9000000000001, 734.2, 1.0436096431476471E-13, 0.9999999999998958, -589.2, -194.6, 1.0, 1.0]
98F	OK  	17629	[38.8, 734.2, 1.0436096431476471E-13, 0.9999999999998958, -589.2, -194.6, 1.0, 1.0]
100T	OK  	17651	[857.9000000000001, 734.2, 1.0436096431476471E-13, 0.9999999999998958, -589.2, -194.6, 1.0, 1.0]
100F	OK  	23781	[342.9, 537.4, 0.40000000000000024, 0.5999999999999992, -173.8, -168.4, 0.0, 0.0]
102T	OK  	17629	[38.8, 734.2, 1.0436096431476471E-13, 0.9999999999998958, -589.2, -194.6, 1.0, 1.0]
102F	OK  	17648	[141.10000000000002, 734.2, 1.0436096431476471E-13, 0.9999999999998958, -589.2, -194.6, 1.0, 1.0]
105T	OK  	17648	[141.10000000000002, 734.2, 1.0436096431476471E-13, 0.9999999999998958, -589.2, -194.6, 1.0, 1.0]
105F	OK  	23844	[496.6, 742.0000000000001, 0.40000000000000024, 0.5999999999999992, -173.8, -168.4, 0.0, 0.0]
130T	FAIL	100000	
130F	OK  	23823	[35.90000000000002, 639.7, 0.40000000000000024, 0.5999999999999992, -173.8, -168.4, 0.0, 0.0]
135T	FAIL	100000	
135F	OK  	23823	[35.90000000000002, 639.7, 0.40000000000000024, 0.5999999999999992, -173.8, -168.4, 0.0, 0.0]
138T	OK  	23823	[35.90000000000002, 639.7, 0.40000000000000024, 0.5999999999999992, -173.8, -168.4, 0.0, 0.0]
138F	FAIL	100000	
142T	FAIL	100000	
142F	FAIL	100000	
151T	FAIL	100000	
151F	FAIL	100000	
159T	FAIL	100000	
159F	FAIL	100000	
167T	OK  	23837	[35.90000000000002, 639.7, 0.40000000000000024, 0.5999999999999992, -173.8, -168.4, 0.0, 1.0]
167F	OK  	23823	[35.90000000000002, 639.7, 0.40000000000000024, 0.5999999999999992, -173.8, -168.4, 0.0, 0.0]
173T	FAIL	100000	
173F	FAIL	100000	
178T	OK  	23655	[138.20000000000002, 639.7, 0.40000000000000024, 0.5999999999999992, -173.8, -168.4, 0.0, 0.0]
178F	OK  	17629	[38.8, 734.2, 1.0436096431476471E-13, 0.9999999999998958, -589.2, -194.6, 1.0, 1.0]
Test object: org.iguanatool.casestudies.toms708.testobjects.psi
13T	FAIL	100000	
13F	OK  	1	[-870.8]
17T	OK  	1	[-870.8]
17F	OK  	16	[767.5000000000002]
18T	OK  	33	[1.3003487175922146E-13]
18F	OK  	1	[-870.8]
19T	FAIL	100000	
19F	OK  	33	[1.3003487175922146E-13]
24T	OK  	31	[0.10000000000013004]
24F	OK  	1	[-870.8]
27T	FAIL	100000	
27F	OK  	1	[-870.8]
34T	OK  	1	[-870.8]
34F	OK  	3	[-870.6999999999999]
38T	OK  	1	[-870.8]
38F	OK  	18	[-792.2]
43T	OK  	1	[-870.8]
43F	OK  	3	[-870.6999999999999]
44T	OK  	5	[-871.0]
44F	OK  	1	[-870.8]
49T	OK  	26	[-0.59999999999987]
49F	OK  	1	[-870.8]
52T	OK  	26	[-0.59999999999987]
52F	OK  	26	[-0.59999999999987]
58T	OK  	1	[-870.8]
58F	FAIL	100000	
62T	OK  	1	[-870.8]
62F	OK  	1	[-870.8]
