Test object: org.iguanatool.casestudies.toms708.testobjects.bratio
7T	OK  	1	[667.2, -775.1, 700.5, 499.2, -47.1, 901.9, 1.0, 1.0]
7F	OK  	17	[667.2, 44.00000000000006, 700.5, 499.2, -47.1, 901.9, 1.0, 1.0]
10T	FAIL	100000	
10F	OK  	17	[667.2, 44.00000000000006, 700.5, 499.2, -47.1, 901.9, 1.0, 1.0]
13T	OK  	17	[667.2, 44.00000000000006, 700.5, 499.2, -47.1, 901.9, 1.0, 1.0]
13F	OK  	139	[667.2, 44.00000000000006, 0.299999999999921, 499.2, -47.1, 901.9, 1.0, 1.0]
16T	OK  	139	[667.2, 44.00000000000006, 0.299999999999921, 499.2, -47.1, 901.9, 1.0, 1.0]
16F	OK  	219	[667.2, 44.00000000000006, 0.299999999999921, 0.3999999999999835, -47.1, 901.9, 1.0, 1.0]
20T	OK  	219	[667.2, 44.00000000000006, 0.299999999999921, 0.3999999999999835, -47.1, 901.9, 1.0, 1.0]
20F	OK  	18297	[386.0, 162.60000000000008, 0.8999999999999995, 0.1, -597.5, 820.7, 1.0, 0.0]
25T	FAIL	100000	
25F	OK  	18297	[386.0, 162.60000000000008, 0.8999999999999995, 0.1, -597.5, 820.7, 1.0, 0.0]
27T	FAIL	100000	
27F	OK  	18297	[386.0, 162.60000000000008, 0.8999999999999995, 0.1, -597.5, 820.7, 1.0, 0.0]
29T	FAIL	100000	
29F	OK  	18297	[386.0, 162.60000000000008, 0.8999999999999995, 0.1, -597.5, 820.7, 1.0, 0.0]
31T	FAIL	100000	
31F	OK  	18297	[386.0, 162.60000000000008, 0.8999999999999995, 0.1, -597.5, 820.7, 1.0, 0.0]
34T	FAIL	100000	
34F	OK  	18297	[386.0, 162.60000000000008, 0.8999999999999995, 0.1, -597.5, 820.7, 1.0, 0.0]
35T	FAIL	100000	
35F	FAIL	100000	
42T	OK  	18396	[386.0, 0.7000000000000809, 0.8999999999999995, 0.1, -597.5, 820.7, 1.0, 0.0]
42F	OK  	18297	[386.0, 162.60000000000008, 0.8999999999999995, 0.1, -597.5, 820.7, 1.0, 0.0]
44T	OK  	18396	[386.0, 0.7000000000000809, 0.8999999999999995, 0.1, -597.5, 820.7, 1.0, 0.0]
44F	OK  	68102	[795.6, 0.8999999999999202, 0.29999999999999905, 0.7000000000000005, 822.1, 419.8, 1.0, 0.0]
48T	FAIL	100000	
48F	OK  	18396	[386.0, 0.7000000000000809, 0.8999999999999995, 0.1, -597.5, 820.7, 1.0, 0.0]
53T	FAIL	100000	
53F	OK  	18396	[386.0, 0.7000000000000809, 0.8999999999999995, 0.1, -597.5, 820.7, 1.0, 0.0]
57T	OK  	18396	[386.0, 0.7000000000000809, 0.8999999999999995, 0.1, -597.5, 820.7, 1.0, 0.0]
57F	OK  	18506	[0.8999999999999824, 0.7000000000000809, 0.8999999999999995, 0.1, -597.5, 820.7, 1.0, 0.0]
59T	OK  	68418	[795.6, 0.8999999999999202, 0.29999999999999905, 0.7000000000000005, 822.1, 419.8, 1.0, 0.0]
59F	OK  	18396	[386.0, 0.7000000000000809, 0.8999999999999995, 0.1, -597.5, 820.7, 1.0, 0.0]
61T	OK  	59754	[908.8, 0.9000000000001, 0.6999999999999895, 0.3000000000000108, -79.6, -826.7, 1.0, 1.0]
61F	OK  	18396	[386.0, 0.7000000000000809, 0.8999999999999995, 0.1, -597.5, 820.7, 1.0, 0.0]
63T	FAIL	100000	
63F	OK  	18396	[386.0, 0.7000000000000809, 0.8999999999999995, 0.1, -597.5, 820.7, 1.0, 0.0]
64T	FAIL	100000	
64F	FAIL	100000	
66T	FAIL	100000	
66F	FAIL	100000	
70T	OK  	18506	[0.8999999999999824, 0.7000000000000809, 0.8999999999999995, 0.1, -597.5, 820.7, 1.0, 0.0]
70F	OK  	18511	[0.8999999999999824, 8.087974734394265E-14, 0.8999999999999995, 0.1, -597.5, 820.7, 1.0, 0.0]
72T	OK  	18513	[0.8999999999999824, 0.10000000000008089, 0.8999999999999995, 0.1, -597.5, 820.7, 1.0, 0.0]
72F	OK  	18511	[0.8999999999999824, 8.087974734394265E-14, 0.8999999999999995, 0.1, -597.5, 820.7, 1.0, 0.0]
74T	OK  	59995	[0.3999999999998698, 9.997558336749535E-14, 0.6999999999999895, 0.3000000000000108, -79.6, -826.7, 1.0, 1.0]
74F	OK  	18511	[0.8999999999999824, 8.087974734394265E-14, 0.8999999999999995, 0.1, -597.5, 820.7, 1.0, 0.0]
84T	OK  	18297	[386.0, 162.60000000000008, 0.8999999999999995, 0.1, -597.5, 820.7, 1.0, 0.0]
84F	OK  	18328	[181.29999999999998, 188.10000000000008, 0.8999999999999995, 0.1, -597.5, 820.7, 1.0, 0.0]
88T	OK  	18297	[386.0, 162.60000000000008, 0.8999999999999995, 0.1, -597.5, 820.7, 1.0, 0.0]
88F	OK  	59553	[908.8, 183.2000000000001, 0.6999999999999895, 0.3000000000000108, -79.6, -826.7, 1.0, 1.0]
93T	OK  	18364	[27.899999999999984, 162.60000000000008, 0.8999999999999995, 0.1, -597.5, 820.7, 1.0, 0.0]
93F	OK  	18297	[386.0, 162.60000000000008, 0.8999999999999995, 0.1, -597.5, 820.7, 1.0, 0.0]
95T	FAIL	100000	
95F	OK  	18364	[27.899999999999984, 162.60000000000008, 0.8999999999999995, 0.1, -597.5, 820.7, 1.0, 0.0]
98T	OK  	18328	[181.29999999999998, 188.10000000000008, 0.8999999999999995, 0.1, -597.5, 820.7, 1.0, 0.0]
98F	OK  	18297	[386.0, 162.60000000000008, 0.8999999999999995, 0.1, -597.5, 820.7, 1.0, 0.0]
100T	OK  	18328	[181.29999999999998, 188.10000000000008, 0.8999999999999995, 0.1, -597.5, 820.7, 1.0, 0.0]
100F	OK  	59654	[499.2999999999999, 208.7000000000001, 0.6999999999999895, 0.3000000000000108, -79.6, -826.7, 1.0, 1.0]
102T	OK  	18318	[386.0, 60.30000000000008, 0.8999999999999995, 0.1, -597.5, 820.7, 1.0, 0.0]
102F	OK  	18297	[386.0, 162.60000000000008, 0.8999999999999995, 0.1, -597.5, 820.7, 1.0, 0.0]
105T	OK  	18297	[386.0, 162.60000000000008, 0.8999999999999995, 0.1, -597.5, 820.7, 1.0, 0.0]
105F	OK  	18378	[923.3000000000001, 105.20000000000009, 0.8999999999999995, 0.1, -597.5, 820.7, 1.0, 0.0]
130T	FAIL	100000	
130F	OK  	18364	[27.899999999999984, 162.60000000000008, 0.8999999999999995, 0.1, -597.5, 820.7, 1.0, 0.0]
135T	OK  	67966	[795.6, 39.39999999999992, 0.29999999999999905, 0.7000000000000005, 822.1, 419.8, 1.0, 1.0]
135F	OK  	18364	[27.899999999999984, 162.60000000000008, 0.8999999999999995, 0.1, -597.5, 820.7, 1.0, 0.0]
138T	OK  	18364	[27.899999999999984, 162.60000000000008, 0.8999999999999995, 0.1, -597.5, 820.7, 1.0, 0.0]
138F	OK  	70315	[39.20000000000008, 539.2, 0.29999999999999993, 0.7000000000000003, 842.0, -349.8, 1.0, 1.0]
142T	FAIL	100000	
142F	OK  	70315	[39.20000000000008, 539.2, 0.29999999999999993, 0.7000000000000003, 842.0, -349.8, 1.0, 1.0]
151T	FAIL	100000	
151F	FAIL	100000	
159T	FAIL	100000	
159F	FAIL	100000	
167T	OK  	18378	[27.899999999999984, 162.60000000000008, 0.8999999999999995, 0.1, -597.5, 820.7, 1.0, 1.0]
167F	OK  	18364	[27.899999999999984, 162.60000000000008, 0.8999999999999995, 0.1, -597.5, 820.7, 1.0, 0.0]
173T	FAIL	100000	
173F	FAIL	100000	
178T	OK  	18297	[386.0, 162.60000000000008, 0.8999999999999995, 0.1, -597.5, 820.7, 1.0, 0.0]
178F	OK  	59553	[908.8, 183.2000000000001, 0.6999999999999895, 0.3000000000000108, -79.6, -826.7, 1.0, 1.0]
Test object: org.iguanatool.casestudies.toms708.testobjects.psi
13T	FAIL	100000	
13F	OK  	1	[667.2]
17T	OK  	14	[-151.90000000000003]
17F	OK  	1	[667.2]
18T	OK  	75	[-3.219646771412954E-14]
18F	OK  	14	[-151.90000000000003]
19T	OK  	35076	[0.0]
19F	OK  	75	[-3.219646771412954E-14]
24T	OK  	70	[0.19999999999996781]
24F	OK  	14	[-151.90000000000003]
27T	FAIL	100000	
27F	OK  	14	[-151.90000000000003]
34T	OK  	14	[-151.90000000000003]
34F	OK  	15	[-971.1000000000001]
38T	OK  	14	[-151.90000000000003]
38F	OK  	15	[-971.1000000000001]
43T	OK  	14	[-151.90000000000003]
43F	OK  	34	[-118.60000000000008]
44T	OK  	23	[-775.0]
44F	OK  	14	[-151.90000000000003]
49T	OK  	36	[1.499999999999968]
49F	OK  	1	[667.2]
52T	OK  	36	[1.499999999999968]
52F	OK  	36	[1.499999999999968]
58T	OK  	1	[667.2]
58F	FAIL	100000	
62T	OK  	1	[667.2]
62F	OK  	1	[667.2]
