Test object: org.iguanatool.casestudies.toms708.testobjects.bratio
7T	OK  	1	[-68.5, -138.6, -574.1, -593.8, 335.6, -397.3, 0.0, 0.0]
7F	OK  	25	[33.800000000000004, 66.10000000000001, -574.1, -593.8, 335.6, -397.3, 0.0, 0.0]
10T	FAIL	100000	
10F	OK  	25	[33.800000000000004, 66.10000000000001, -574.1, -593.8, 335.6, -397.3, 0.0, 0.0]
13T	OK  	25	[33.800000000000004, 66.10000000000001, -574.1, -593.8, 335.6, -397.3, 0.0, 0.0]
13F	OK  	124	[33.800000000000004, 66.10000000000001, 0.600000000000035, -593.8, 335.6, -397.3, 0.0, 0.0]
16T	OK  	124	[33.800000000000004, 66.10000000000001, 0.600000000000035, -593.8, 335.6, -397.3, 0.0, 0.0]
16F	OK  	221	[33.800000000000004, 66.10000000000001, 0.600000000000035, 0.9000000000001213, 335.6, -397.3, 0.0, 0.0]
20T	OK  	221	[33.800000000000004, 66.10000000000001, 0.600000000000035, 0.9000000000001213, 335.6, -397.3, 0.0, 0.0]
20F	OK  	13356	[442.6, 224.7, 0.6000000000000059, 0.3999999999999939, 339.4, 765.1, 0.0, 1.0]
25T	FAIL	100000	
25F	OK  	13356	[442.6, 224.7, 0.6000000000000059, 0.3999999999999939, 339.4, 765.1, 0.0, 1.0]
27T	FAIL	100000	
27F	OK  	13356	[442.6, 224.7, 0.6000000000000059, 0.3999999999999939, 339.4, 765.1, 0.0, 1.0]
29T	FAIL	100000	
29F	OK  	13356	[442.6, 224.7, 0.6000000000000059, 0.3999999999999939, 339.4, 765.1, 0.0, 1.0]
31T	FAIL	100000	
31F	OK  	13356	[442.6, 224.7, 0.6000000000000059, 0.3999999999999939, 339.4, 765.1, 0.0, 1.0]
