Test object: org.iguanatool.casestudies.toms708.testobjects.bratio
7T	OK  	1	[159.7, -859.7, -131.8, -166.1, -268.4, -505.2, 1.0, 0.0]
7F	OK  	18	[159.7, 778.6000000000001, -131.8, -166.1, -268.4, -505.2, 1.0, 0.0]
10T	FAIL	100000	
10F	OK  	18	[159.7, 778.6000000000001, -131.8, -166.1, -268.4, -505.2, 1.0, 0.0]
13T	OK  	18	[159.7, 778.6000000000001, -131.8, -166.1, -268.4, -505.2, 1.0, 0.0]
13F	OK  	127	[159.7, 778.6000000000001, 0.9999999999999889, -166.1, -268.4, -505.2, 1.0, 0.0]
16T	OK  	127	[159.7, 778.6000000000001, 0.9999999999999889, -166.1, -268.4, -505.2, 1.0, 0.0]
16F	OK  	183	[159.7, 778.6000000000001, 0.9999999999999889, 0.4000000000000048, -268.4, -505.2, 1.0, 0.0]
20T	OK  	183	[159.7, 778.6000000000001, 0.9999999999999889, 0.4000000000000048, -268.4, -505.2, 1.0, 0.0]
20F	OK  	20140	[915.7, 15.000000000000057, 0.8999999999999909, 0.10000000000000839, 150.9, -731.5, 1.0, 1.0]
25T	FAIL	100000	
25F	OK  	20140	[915.7, 15.000000000000057, 0.8999999999999909, 0.10000000000000839, 150.9, -731.5, 1.0, 1.0]
27T	FAIL	100000	
27F	OK  	20140	[915.7, 15.000000000000057, 0.8999999999999909, 0.10000000000000839, 150.9, -731.5, 1.0, 1.0]
29T	FAIL	100000	
29F	OK  	20140	[915.7, 15.000000000000057, 0.8999999999999909, 0.10000000000000839, 150.9, -731.5, 1.0, 1.0]
31T	FAIL	100000	
31F	OK  	20140	[915.7, 15.000000000000057, 0.8999999999999909, 0.10000000000000839, 150.9, -731.5, 1.0, 1.0]
