Test object: org.iguanatool.casestudies.toms708.testobjects.bratio
7T	OK  	1	[616.4, -567.6, -367.3, 249.7, 218.3, 573.1, 1.0, 1.0]
7F	OK  	17	[616.4, 251.50000000000006, -367.3, 249.7, 218.3, 573.1, 1.0, 1.0]
10T	FAIL	100000	
10F	OK  	17	[616.4, 251.50000000000006, -367.3, 249.7, 218.3, 573.1, 1.0, 1.0]
13T	OK  	17	[616.4, 251.50000000000006, -367.3, 249.7, 218.3, 573.1, 1.0, 1.0]
13F	OK  	91	[616.4, 251.50000000000006, 0.9000000000000123, 249.7, 218.3, 573.1, 1.0, 1.0]
16T	OK  	91	[616.4, 251.50000000000006, 0.9000000000000123, 249.7, 218.3, 573.1, 1.0, 1.0]
16F	OK  	167	[616.4, 251.50000000000006, 0.9000000000000123, 0.4999999999999667, 218.3, 573.1, 1.0, 1.0]
20T	OK  	167	[616.4, 251.50000000000006, 0.9000000000000123, 0.4999999999999667, 218.3, 573.1, 1.0, 1.0]
20F	OK  	17050	[205.1, 117.4, 0.20000000000005683, 0.7999999999999435, 805.8, 589.5, 0.0, 1.0]
25T	FAIL	100000	
25F	OK  	17050	[205.1, 117.4, 0.20000000000005683, 0.7999999999999435, 805.8, 589.5, 0.0, 1.0]
27T	FAIL	100000	
27F	OK  	17050	[205.1, 117.4, 0.20000000000005683, 0.7999999999999435, 805.8, 589.5, 0.0, 1.0]
29T	FAIL	100000	
29F	OK  	17050	[205.1, 117.4, 0.20000000000005683, 0.7999999999999435, 805.8, 589.5, 0.0, 1.0]
31T	FAIL	100000	
31F	OK  	17050	[205.1, 117.4, 0.20000000000005683, 0.7999999999999435, 805.8, 589.5, 0.0, 1.0]
