Test object: org.iguanatool.casestudies.toms708.testobjects.bratio
7T	OK  	1	[-247.6, -863.1, -105.1, -506.2, -931.7, 581.4, 0.0, 1.0]
7F	OK  	30	[161.9, 775.2, -105.1, -506.2, -931.7, 581.4, 0.0, 1.0]
10T	FAIL	100000	
10F	OK  	30	[161.9, 775.2, -105.1, -506.2, -931.7, 581.4, 0.0, 1.0]
13T	OK  	30	[161.9, 775.2, -105.1, -506.2, -931.7, 581.4, 0.0, 1.0]
13F	OK  	146	[161.9, 775.2, 0.9000000000000168, -506.2, -931.7, 581.4, 0.0, 1.0]
16T	OK  	146	[161.9, 775.2, 0.9000000000000168, -506.2, -931.7, 581.4, 0.0, 1.0]
16F	OK  	263	[161.9, 775.2, 0.9000000000000168, 0.6000000000000124, -931.7, 581.4, 0.0, 1.0]
20T	OK  	263	[161.9, 775.2, 0.9000000000000168, 0.6000000000000124, -931.7, 581.4, 0.0, 1.0]
20F	OK  	1225	[288.5, 693.2000000000002, 0.5999999999999194, 0.4000000000000806, 31.6, -939.2, 0.0, 1.0]
25T	FAIL	100000	
25F	OK  	1225	[288.5, 693.2000000000002, 0.5999999999999194, 0.4000000000000806, 31.6, -939.2, 0.0, 1.0]
27T	FAIL	100000	
27F	OK  	1225	[288.5, 693.2000000000002, 0.5999999999999194, 0.4000000000000806, 31.6, -939.2, 0.0, 1.0]
29T	FAIL	100000	
29F	OK  	1225	[288.5, 693.2000000000002, 0.5999999999999194, 0.4000000000000806, 31.6, -939.2, 0.0, 1.0]
31T	FAIL	100000	
31F	OK  	1225	[288.5, 693.2000000000002, 0.5999999999999194, 0.4000000000000806, 31.6, -939.2, 0.0, 1.0]
34T	FAIL	100000	
34F	OK  	1225	[288.5, 693.2000000000002, 0.5999999999999194, 0.4000000000000806, 31.6, -939.2, 0.0, 1.0]
35T	FAIL	100000	
35F	FAIL	100000	
42T	OK  	1311	[0.8999999999999782, 693.2000000000002, 0.5999999999999194, 0.4000000000000806, 31.6, -939.2, 0.0, 1.0]
42F	OK  	1225	[288.5, 693.2000000000002, 0.5999999999999194, 0.4000000000000806, 31.6, -939.2, 0.0, 1.0]
44T	OK  	1311	[0.8999999999999782, 693.2000000000002, 0.5999999999999194, 0.4000000000000806, 31.6, -939.2, 0.0, 1.0]
44F	OK  	22413	[0.7000000000000071, 473.2, 0.1000000000000037, 0.8999999999999969, -728.3, -159.4, 0.0, 1.0]
48T	FAIL	100000	
48F	OK  	1311	[0.8999999999999782, 693.2000000000002, 0.5999999999999194, 0.4000000000000806, 31.6, -939.2, 0.0, 1.0]
53T	FAIL	100000	
53F	OK  	1311	[0.8999999999999782, 693.2000000000002, 0.5999999999999194, 0.4000000000000806, 31.6, -939.2, 0.0, 1.0]
57T	OK  	1311	[0.8999999999999782, 693.2000000000002, 0.5999999999999194, 0.4000000000000806, 31.6, -939.2, 0.0, 1.0]
57F	OK  	1413	[0.8999999999999782, 0.9000000000000818, 0.5999999999999194, 0.4000000000000806, 31.6, -939.2, 0.0, 1.0]
59T	OK  	1311	[0.8999999999999782, 693.2000000000002, 0.5999999999999194, 0.4000000000000806, 31.6, -939.2, 0.0, 1.0]
59F	OK  	22415	[0.7000000000000071, 473.2, 0.1000000000000037, 0.8999999999999969, -728.3, -159.4, 0.0, 1.0]
61T	OK  	76766	[0.10000000000001141, 765.4, 0.3000000000000773, 0.699999999999922, -91.1, 430.8, 0.0, 0.0]
61F	OK  	22415	[0.7000000000000071, 473.2, 0.1000000000000037, 0.8999999999999969, -728.3, -159.4, 0.0, 1.0]
63T	FAIL	100000	
63F	OK  	22415	[0.7000000000000071, 473.2, 0.1000000000000037, 0.8999999999999969, -728.3, -159.4, 0.0, 1.0]
64T	FAIL	100000	
64F	FAIL	100000	
66T	FAIL	100000	
66F	FAIL	100000	
70T	OK  	1413	[0.8999999999999782, 0.9000000000000818, 0.5999999999999194, 0.4000000000000806, 31.6, -939.2, 0.0, 1.0]
70F	OK  	1445	[0.8999999999999782, 0.10000000000008177, 0.5999999999999194, 0.4000000000000806, 31.6, -939.2, 0.0, 1.0]
72T	OK  	22661	[0.10000000000000706, 0.39999999999998703, 0.1000000000000037, 0.8999999999999969, -728.3, -159.4, 0.0, 1.0]
72F	OK  	1445	[0.8999999999999782, 0.10000000000008177, 0.5999999999999194, 0.4000000000000806, 31.6, -939.2, 0.0, 1.0]
74T	OK  	1445	[0.8999999999999782, 0.10000000000008177, 0.5999999999999194, 0.4000000000000806, 31.6, -939.2, 0.0, 1.0]
74F	OK  	22659	[7.049916206369744E-15, 0.39999999999998703, 0.1000000000000037, 0.8999999999999969, -728.3, -159.4, 0.0, 1.0]
84T	OK  	1248	[698.0, 693.2000000000002, 0.5999999999999194, 0.4000000000000806, 31.6, -939.2, 0.0, 1.0]
84F	OK  	1225	[288.5, 693.2000000000002, 0.5999999999999194, 0.4000000000000806, 31.6, -939.2, 0.0, 1.0]
88T	OK  	1225	[288.5, 693.2000000000002, 0.5999999999999194, 0.4000000000000806, 31.6, -939.2, 0.0, 1.0]
88F	OK  	22221	[366.6, 473.2, 0.1000000000000037, 0.8999999999999969, -728.3, -159.4, 0.0, 1.0]
93T	OK  	1269	[32.69999999999998, 693.2000000000002, 0.5999999999999194, 0.4000000000000806, 31.6, -939.2, 0.0, 1.0]
93F	OK  	1225	[288.5, 693.2000000000002, 0.5999999999999194, 0.4000000000000806, 31.6, -939.2, 0.0, 1.0]
95T	FAIL	100000	
95F	OK  	1269	[32.69999999999998, 693.2000000000002, 0.5999999999999194, 0.4000000000000806, 31.6, -939.2, 0.0, 1.0]
98T	OK  	1225	[288.5, 693.2000000000002, 0.5999999999999194, 0.4000000000000806, 31.6, -939.2, 0.0, 1.0]
98F	OK  	1248	[698.0, 693.2000000000002, 0.5999999999999194, 0.4000000000000806, 31.6, -939.2, 0.0, 1.0]
100T	OK  	1225	[288.5, 693.2000000000002, 0.5999999999999194, 0.4000000000000806, 31.6, -939.2, 0.0, 1.0]
100F	OK  	76781	[273.1, 663.0999999999999, 0.3000000000000773, 0.699999999999922, -91.1, 430.8, 0.0, 0.0]
102T	OK  	22393	[59.60000000000001, 473.2, 0.1000000000000037, 0.8999999999999969, -728.3, -159.4, 0.0, 1.0]
102F	OK  	1248	[698.0, 693.2000000000002, 0.5999999999999194, 0.4000000000000806, 31.6, -939.2, 0.0, 1.0]
105T	OK  	1248	[698.0, 693.2000000000002, 0.5999999999999194, 0.4000000000000806, 31.6, -939.2, 0.0, 1.0]
105F	OK  	1259	[698.0, 488.5000000000001, 0.5999999999999194, 0.4000000000000806, 31.6, -939.2, 0.0, 1.0]
130T	FAIL	100000	
130F	OK  	1269	[32.69999999999998, 693.2000000000002, 0.5999999999999194, 0.4000000000000806, 31.6, -939.2, 0.0, 1.0]
135T	OK  	22311	[366.6, 38.19999999999999, 0.1000000000000037, 0.8999999999999969, -728.3, -159.4, 0.0, 1.0]
135F	OK  	1269	[32.69999999999998, 693.2000000000002, 0.5999999999999194, 0.4000000000000806, 31.6, -939.2, 0.0, 1.0]
138T	OK  	1269	[32.69999999999998, 693.2000000000002, 0.5999999999999194, 0.4000000000000806, 31.6, -939.2, 0.0, 1.0]
138F	FAIL	100000	
142T	FAIL	100000	
142F	FAIL	100000	
151T	FAIL	100000	
151F	FAIL	100000	
159T	FAIL	100000	
159F	FAIL	100000	
167T	OK  	1269	[32.69999999999998, 693.2000000000002, 0.5999999999999194, 0.4000000000000806, 31.6, -939.2, 0.0, 1.0]
167F	OK  	1283	[32.69999999999998, 693.2000000000002, 0.5999999999999194, 0.4000000000000806, 31.6, -939.2, 0.0, 0.0]
173T	FAIL	100000	
173F	FAIL	100000	
178T	OK  	1225	[288.5, 693.2000000000002, 0.5999999999999194, 0.4000000000000806, 31.6, -939.2, 0.0, 1.0]
178F	OK  	22221	[366.6, 473.2, 0.1000000000000037, 0.8999999999999969, -728.3, -159.4, 0.0, 1.0]
Test object: org.iguanatool.casestudies.toms708.testobjects.psi
13T	FAIL	100000	
13F	OK  	1	[-247.6]
17T	OK  	1	[-247.6]
17F	OK  	14	[161.9]
18T	OK  	48	[-8.604228440844963E-16]
18F	OK  	1	[-247.6]
19T	FAIL	100000	
19F	OK  	48	[-8.604228440844963E-16]
24T	OK  	96	[0.40000000000006186]
24F	OK  	1	[-247.6]
27T	FAIL	100000	
27F	OK  	1	[-247.6]
34T	OK  	11	[-506.3]
34F	OK  	1	[-247.6]
38T	OK  	1	[-247.6]
38F	OK  	4	[-863.1]
43T	OK  	4	[-863.1]
43F	OK  	1	[-247.6]
44T	OK  	6	[-863.0]
44F	OK  	4	[-863.1]
49T	OK  	31	[1.8999999999999995]
49F	OK  	1	[-247.6]
52T	OK  	31	[1.8999999999999995]
52F	OK  	31	[1.8999999999999995]
58T	OK  	1	[-247.6]
58F	FAIL	100000	
62T	OK  	1	[-247.6]
62F	OK  	1	[-247.6]
