Test object: org.iguanatool.casestudies.toms708.testobjects.bratio
7T	OK  	1	[-65.4, 194.7, -413.8, 414.9, -562.8, -527.3, 0.0, 0.0]
7F	OK  	12	[36.9, 194.7, -413.8, 414.9, -562.8, -527.3, 0.0, 0.0]
10T	FAIL	100000	
10F	OK  	12	[36.9, 194.7, -413.8, 414.9, -562.8, -527.3, 0.0, 0.0]
13T	OK  	12	[36.9, 194.7, -413.8, 414.9, -562.8, -527.3, 0.0, 0.0]
13F	OK  	196	[36.9, 194.7, 0.9000000000000479, 414.9, -562.8, -527.3, 0.0, 0.0]
16T	OK  	196	[36.9, 194.7, 0.9000000000000479, 414.9, -562.8, -527.3, 0.0, 0.0]
16F	OK  	247	[36.9, 194.7, 0.9000000000000479, 0.7999999999999485, -562.8, -527.3, 0.0, 0.0]
20T	OK  	247	[36.9, 194.7, 0.9000000000000479, 0.7999999999999485, -562.8, -527.3, 0.0, 0.0]
20F	OK  	9934	[614.0, 719.2, 0.5000000000000049, 0.4999999999999948, -398.1, 865.5, 1.0, 1.0]
25T	FAIL	100000	
25F	OK  	9934	[614.0, 719.2, 0.5000000000000049, 0.4999999999999948, -398.1, 865.5, 1.0, 1.0]
27T	FAIL	100000	
27F	OK  	9934	[614.0, 719.2, 0.5000000000000049, 0.4999999999999948, -398.1, 865.5, 1.0, 1.0]
29T	FAIL	100000	
29F	OK  	9934	[614.0, 719.2, 0.5000000000000049, 0.4999999999999948, -398.1, 865.5, 1.0, 1.0]
31T	FAIL	100000	
31F	OK  	9934	[614.0, 719.2, 0.5000000000000049, 0.4999999999999948, -398.1, 865.5, 1.0, 1.0]
34T	FAIL	100000	
34F	OK  	9934	[614.0, 719.2, 0.5000000000000049, 0.4999999999999948, -398.1, 865.5, 1.0, 1.0]
35T	FAIL	100000	
35F	FAIL	100000	
42T	OK  	10047	[0.09999999999993925, 719.2, 0.5000000000000049, 0.4999999999999948, -398.1, 865.5, 1.0, 1.0]
42F	OK  	9934	[614.0, 719.2, 0.5000000000000049, 0.4999999999999948, -398.1, 865.5, 1.0, 1.0]
44T	OK  	10047	[0.09999999999993925, 719.2, 0.5000000000000049, 0.4999999999999948, -398.1, 865.5, 1.0, 1.0]
44F	OK  	57475	[0.09999999999999187, 204.7, 0.3999999999999704, 0.600000000000029, -971.8, 299.2, 0.0, 1.0]
48T	FAIL	100000	
48F	OK  	10047	[0.09999999999993925, 719.2, 0.5000000000000049, 0.4999999999999948, -398.1, 865.5, 1.0, 1.0]
53T	FAIL	100000	
53F	OK  	10047	[0.09999999999993925, 719.2, 0.5000000000000049, 0.4999999999999948, -398.1, 865.5, 1.0, 1.0]
57T	OK  	10047	[0.09999999999993925, 719.2, 0.5000000000000049, 0.4999999999999948, -398.1, 865.5, 1.0, 1.0]
57F	OK  	10144	[0.09999999999993925, 0.899999999999967, 0.5000000000000049, 0.4999999999999948, -398.1, 865.5, 1.0, 1.0]
59T	OK  	10047	[0.09999999999993925, 719.2, 0.5000000000000049, 0.4999999999999948, -398.1, 865.5, 1.0, 1.0]
59F	OK  	26029	[712.3000000000001, 0.9999999999999668, 0.699999999999998, 0.3000000000000014, 111.7, -221.4, 0.0, 1.0]
61T	OK  	26029	[712.3000000000001, 0.9999999999999668, 0.699999999999998, 0.3000000000000014, 111.7, -221.4, 0.0, 1.0]
61F	OK  	71453	[0.8999999999999906, 345.1, 0.20000000000012372, 0.7999999999998761, -956.1, -539.2, 1.0, 1.0]
63T	FAIL	100000	
63F	OK  	71453	[0.8999999999999906, 345.1, 0.20000000000012372, 0.7999999999998761, -956.1, -539.2, 1.0, 1.0]
64T	FAIL	100000	
64F	FAIL	100000	
66T	FAIL	100000	
66F	FAIL	100000	
70T	OK  	10144	[0.09999999999993925, 0.899999999999967, 0.5000000000000049, 0.4999999999999948, -398.1, 865.5, 1.0, 1.0]
70F	OK  	10163	[0.3999999999999393, 0.19999999999996704, 0.5000000000000049, 0.4999999999999948, -398.1, 865.5, 1.0, 1.0]
72T	OK  	10163	[0.3999999999999393, 0.19999999999996704, 0.5000000000000049, 0.4999999999999948, -398.1, 865.5, 1.0, 1.0]
72F	OK  	10178	[0.3999999999999393, 0.09999999999996703, 0.5000000000000049, 0.4999999999999948, -398.1, 865.5, 1.0, 1.0]
74T	OK  	10178	[0.3999999999999393, 0.09999999999996703, 0.5000000000000049, 0.4999999999999948, -398.1, 865.5, 1.0, 1.0]
74F	FAIL	100000	
84T	OK  	9956	[818.7, 719.2, 0.5000000000000049, 0.4999999999999948, -398.1, 865.5, 1.0, 1.0]
84F	OK  	9934	[614.0, 719.2, 0.5000000000000049, 0.4999999999999948, -398.1, 865.5, 1.0, 1.0]
88T	OK  	9934	[614.0, 719.2, 0.5000000000000049, 0.4999999999999948, -398.1, 865.5, 1.0, 1.0]
88F	OK  	25780	[712.3000000000001, 247.7, 0.699999999999998, 0.3000000000000014, 111.7, -221.4, 0.0, 1.0]
93T	OK  	10024	[38.39999999999994, 719.2, 0.5000000000000049, 0.4999999999999948, -398.1, 865.5, 1.0, 1.0]
93F	OK  	9934	[614.0, 719.2, 0.5000000000000049, 0.4999999999999948, -398.1, 865.5, 1.0, 1.0]
95T	FAIL	100000	
95F	OK  	10024	[38.39999999999994, 719.2, 0.5000000000000049, 0.4999999999999948, -398.1, 865.5, 1.0, 1.0]
98T	OK  	9934	[614.0, 719.2, 0.5000000000000049, 0.4999999999999948, -398.1, 865.5, 1.0, 1.0]
98F	OK  	9975	[716.2, 716.2, 0.5000000000000049, 0.4999999999999948, -398.1, 865.5, 1.0, 1.0]
100T	OK  	9934	[614.0, 719.2, 0.5000000000000049, 0.4999999999999948, -398.1, 865.5, 1.0, 1.0]
100F	OK  	9955	[716.3000000000001, 719.2, 0.5000000000000049, 0.4999999999999948, -398.1, 865.5, 1.0, 1.0]
102T	OK  	71263	[88.9, 345.1, 0.20000000000012372, 0.7999999999998761, -956.1, -539.2, 1.0, 1.0]
102F	OK  	9975	[716.2, 716.2, 0.5000000000000049, 0.4999999999999948, -398.1, 865.5, 1.0, 1.0]
105T	OK  	25842	[507.6, 247.7, 0.699999999999998, 0.3000000000000014, 111.7, -221.4, 0.0, 1.0]
105F	OK  	9975	[716.2, 716.2, 0.5000000000000049, 0.4999999999999948, -398.1, 865.5, 1.0, 1.0]
130T	FAIL	100000	
130F	OK  	10024	[38.39999999999994, 719.2, 0.5000000000000049, 0.4999999999999948, -398.1, 865.5, 1.0, 1.0]
135T	FAIL	100000	
135F	OK  	10024	[38.39999999999994, 719.2, 0.5000000000000049, 0.4999999999999948, -398.1, 865.5, 1.0, 1.0]
138T	OK  	10024	[38.39999999999994, 719.2, 0.5000000000000049, 0.4999999999999948, -398.1, 865.5, 1.0, 1.0]
138F	FAIL	100000	
142T	FAIL	100000	
142F	FAIL	100000	
151T	FAIL	100000	
151F	FAIL	100000	
159T	FAIL	100000	
159F	FAIL	100000	
167T	OK  	10024	[38.39999999999994, 719.2, 0.5000000000000049, 0.4999999999999948, -398.1, 865.5, 1.0, 1.0]
167F	OK  	10038	[38.39999999999994, 719.2, 0.5000000000000049, 0.4999999999999948, -398.1, 865.5, 1.0, 0.0]
173T	FAIL	100000	
173F	FAIL	100000	
178T	OK  	9934	[614.0, 719.2, 0.5000000000000049, 0.4999999999999948, -398.1, 865.5, 1.0, 1.0]
178F	OK  	25780	[712.3000000000001, 247.7, 0.699999999999998, 0.3000000000000014, 111.7, -221.4, 0.0, 1.0]
Test object: org.iguanatool.casestudies.toms708.testobjects.psi
13T	FAIL	100000	
13F	OK  	1	[-65.4]
17T	OK  	1	[-65.4]
17F	OK  	12	[36.9]
18T	OK  	29	[-3.0808688933348094E-15]
18F	OK  	1	[-65.4]
19T	OK  	31883	[0.0]
19F	OK  	29	[-3.0808688933348094E-15]
24T	OK  	60	[0.09999999999998571]
24F	OK  	1	[-65.4]
27T	FAIL	100000	
27F	OK  	1	[-65.4]
34T	OK  	1	[-65.4]
34F	OK  	2	[-65.5]
38T	OK  	2	[-65.5]
38F	OK  	1	[-65.4]
43T	OK  	15	[-10.000000000000014]
43F	OK  	1	[-65.4]
44T	OK  	52	[-563.0]
44F	OK  	15	[-10.000000000000014]
49T	OK  	20	[-1.6000000000000032]
49F	OK  	1	[-65.4]
52T	OK  	20	[-1.6000000000000032]
52F	OK  	20	[-1.6000000000000032]
58T	OK  	1	[-65.4]
58F	FAIL	100000	
62T	OK  	1	[-65.4]
62F	OK  	1	[-65.4]
