Test object: org.iguanatool.casestudies.unity.testobjects.cephes_exp
2T	FAIL	100000	
2F	OK  	1	[-426.0]
4T	FAIL	100000	
4F	OK  	1	[-426.0]
6T	OK  	1	[-426.0]
6F	OK  	2250	[0.23154296875000036]
Test object: org.iguanatool.casestudies.unity.testobjects.cephes_log
2T	OK  	1	[-426.0]
2F	OK  	2250	[0.23154296875000036]
Test object: org.iguanatool.casestudies.unity.testobjects.cosm1
2T	OK  	1	[-426.0]
2F	OK  	2250	[0.23154296875000036]
