Test object: org.iguanatool.casestudies.unity.testobjects.cephes_exp
2T	FAIL	100000	
2F	OK  	1	[-192.4]
4T	FAIL	100000	
4F	OK  	1	[-192.4]
6T	OK  	1	[-192.4]
6F	OK  	21	[-0.400000000000003]
Test object: org.iguanatool.casestudies.unity.testobjects.cephes_log
2T	OK  	1	[-192.4]
2F	OK  	34	[-0.20000000000000306]
Test object: org.iguanatool.casestudies.unity.testobjects.cosm1
2T	OK  	1	[-192.4]
2F	OK  	21	[-0.400000000000003]
