Test object: org.iguanatool.casestudies.unity.testobjects.cephes_exp
2T	FAIL	100000	
2F	OK  	1	[-774.1]
4T	FAIL	100000	
4F	OK  	1	[-774.1]
6T	OK  	1	[-774.1]
6F	OK  	2779	[0.4918945312499998]
Test object: org.iguanatool.casestudies.unity.testobjects.cephes_log
2T	OK  	1	[-774.1]
2F	OK  	2787	[0.04755859374999982]
Test object: org.iguanatool.casestudies.unity.testobjects.cosm1
2T	OK  	1	[-774.1]
2F	OK  	1941	[0.7412597656250002]
