Test object: org.iguanatool.casestudies.unity.testobjects.cephes_exp
2T	FAIL	100000	
2F	OK  	1	[-967.7]
4T	FAIL	100000	
4F	OK  	1	[-967.7]
6T	OK  	1	[-967.7]
6F	OK  	239	[0.2]
Test object: org.iguanatool.casestudies.unity.testobjects.cephes_log
2T	OK  	1	[-967.7]
2F	OK  	239	[0.2]
Test object: org.iguanatool.casestudies.unity.testobjects.cosm1
2T	OK  	1	[-967.7]
2F	OK  	232	[0.6]
