Test object: org.iguanatool.casestudies.unity.testobjects.cephes_exp
2T	FAIL	100000	
2F	OK  	1	[-247.6]
4T	FAIL	100000	
4F	OK  	1	[-247.6]
6T	OK  	1	[-247.6]
6F	OK  	2210	[0.3343505859375]
Test object: org.iguanatool.casestudies.unity.testobjects.cephes_log
2T	OK  	1	[-247.6]
2F	OK  	2210	[0.3343505859375]
Test object: org.iguanatool.casestudies.unity.testobjects.cosm1
2T	OK  	1	[-247.6]
2F	OK  	2210	[0.3343505859375]
