Test object: org.iguanatool.casestudies.unity.testobjects.cephes_exp
2T	FAIL	100000	
2F	OK  	1	[531.9]
4T	FAIL	100000	
4F	OK  	1	[531.9]
6T	OK  	1	[531.9]
6F	OK  	883	[-0.1999999999999993]
Test object: org.iguanatool.casestudies.unity.testobjects.cephes_log
2T	OK  	1	[531.9]
2F	OK  	883	[-0.1999999999999993]
Test object: org.iguanatool.casestudies.unity.testobjects.cosm1
2T	OK  	1	[531.9]
2F	OK  	253	[-0.7]
