Test object: org.iguanatool.casestudies.unity.testobjects.cephes_exp
2T	FAIL	100000	
2F	OK  	1	[-450.6]
4T	FAIL	100000	
4F	OK  	1	[-450.6]
6T	OK  	1	[-450.6]
6F	OK  	69	[0.2999999999999844]
Test object: org.iguanatool.casestudies.unity.testobjects.cephes_log
2T	OK  	1	[-450.6]
2F	OK  	69	[0.2999999999999844]
Test object: org.iguanatool.casestudies.unity.testobjects.cosm1
2T	OK  	1	[-450.6]
2F	OK  	68	[0.6999999999999844]
