Test object: org.iguanatool.casestudies.unity.testobjects.cephes_exp
2T	FAIL	100000	
2F	OK  	1	[-65.4]
4T	FAIL	100000	
4F	OK  	1	[-65.4]
6T	OK  	1	[-65.4]
6F	OK  	2477	[0.49013671874999964]
Test object: org.iguanatool.casestudies.unity.testobjects.cephes_log
2T	OK  	1	[-65.4]
2F	OK  	2747	[0.39248046874999964]
Test object: org.iguanatool.casestudies.unity.testobjects.cosm1
2T	OK  	1	[-65.4]
2F	OK  	876	[0.5999999999999996]
