Test object: org.iguanatool.casestudies.unity.testobjects.cephes_exp
2T	FAIL	100000	
2F	OK  	1	[616.4]
4T	FAIL	100000	
4F	OK  	1	[616.4]
6T	OK  	1	[616.4]
6F	OK  	36	[0.39999999999991737]
Test object: org.iguanatool.casestudies.unity.testobjects.cephes_log
2T	OK  	1	[616.4]
2F	OK  	36	[0.39999999999991737]
Test object: org.iguanatool.casestudies.unity.testobjects.cosm1
2T	OK  	1	[616.4]
2F	OK  	32	[0.6999999999999174]
