Test object: org.iguanatool.casestudies.unity.testobjects.cephes_exp
2T	FAIL	100000	
2F	OK  	1	[-933.0]
4T	FAIL	100000	
4F	OK  	1	[-933.0]
6T	OK  	1	[-933.0]
6F	OK  	171	[-0.3]
Test object: org.iguanatool.casestudies.unity.testobjects.cephes_log
2T	OK  	1	[-933.0]
2F	OK  	728	[-0.2748046875]
Test object: org.iguanatool.casestudies.unity.testobjects.cosm1
2T	OK  	1	[-933.0]
2F	OK  	171	[-0.3]
