Test object: org.iguanatool.casestudies.unity.testobjects.cephes_exp
2T	FAIL	100000	
2F	OK  	1	[-774.1]
4T	FAIL	100000	
4F	OK  	1	[-774.1]
6T	OK  	1	[-774.1]
6F	OK  	44	[0.400000000000052]
Test object: org.iguanatool.casestudies.unity.testobjects.cephes_log
2T	OK  	1	[-774.1]
2F	OK  	44	[0.400000000000052]
Test object: org.iguanatool.casestudies.unity.testobjects.cosm1
2T	OK  	1	[-774.1]
2F	OK  	41	[0.500000000000052]
