1.93"/local/scratch/R-2.15.3-as-built/nmath""current""external""gcc"()((build-pa . "af")(build-compression . "compressed")(build-expmalloc . "not-expanded")(build-strings . "one-string")(build-cfg-sets . "yes")(build-cfg-edges . "both")(build-basic-blocks . "no")(mmap-base-address . "default (0x51000000)")(user-library-path . "")(include-libc . "no")(build-remove-temp . "yes")(build-comp-trees . "yes")(build-compute-gmod . "yes")(build-data-dependence . "yes")(build-control-dependence . "yes")(build-compute-summaries . "yes")(retain-pdg-vertex-to-ast-mapping . "no")(build-pa-inline . "yes")(build-pa-inline-file . "input.pa_inline")(build-parameter-evaluation-order . "right-to-left")(build-invoke-compiler . "yes")(include-libgccbuiltin . "no")(build-pa-inline-mask . 513)(build-pa-inline-level . 1)(build-pa-inline-max-size . 100)(build-pa-inline-percent-growth . 0)(build-pa-inline-percent-calls . 0)(build-compute-ssa . "no")(pa-analyzer . "gt_pa")(build-pa-hint-mask . 75)(libcsmodels . "normal")(build-pa-mem-fns . "default")(build-pa-mem-fns-file . "input.pa_mem_fns")(build-astdb . "yes")(build-pi-nodes . "no"))()""("CSURF.FILES" "CSURF.FILES" "standalone/CSURF.FILES" "../../../../usr/local/codesurfer-1.9p3/libmodels/CodeSurfer/libcsmodels/normal/CSURF.FILES")""(
(O "/local/scratch/R-2.15.3-as-built/nmath/dwb-pnorm.o"#f
(C "/local/scratch/R-2.15.3-as-built/nmath/dwb-pnorm.c" ( (build-compression . "compressed") (build-expmalloc . "expanded") (build-strings . "one-string")       (build-remove-temp . "yes") (build-comp-trees . "yes")        (build-parameter-evaluation-order . "right-to-left") (build-invoke-compiler . "yes")           (build-pa-mem-fns . "default") (build-pa-mem-fns-file . "input.pa_mem_fns")  ) "gcc" ("-I." "-I../include" "-I/usr/local/include" "-DHAVE_CONFIG_H") () () "7c959eb2" #t #f)
)
(O "/local/scratch/R-2.15.3-as-built/nmath/dwb.o"#f
(C "/local/scratch/R-2.15.3-as-built/nmath/dwb.c" ( (build-compression . "compressed") (build-expmalloc . "expanded") (build-strings . "one-string")       (build-remove-temp . "yes") (build-comp-trees . "yes")        (build-parameter-evaluation-order . "right-to-left") (build-invoke-compiler . "yes")           (build-pa-mem-fns . "default") (build-pa-mem-fns-file . "input.pa_mem_fns")  ) "gcc" ("-I." "-I../include" "-I/usr/local/include" "-DHAVE_CONFIG_H") () () "7c94f33b" #t #f)
)
(O "/local/scratch/R-2.15.3-as-built/nmath/mlutils.o"#f
(C "/local/scratch/R-2.15.3-as-built/nmath/mlutils.c" ( (build-compression . "compressed") (build-expmalloc . "expanded") (build-strings . "one-string")       (build-remove-temp . "yes") (build-comp-trees . "yes")        (build-parameter-evaluation-order . "right-to-left") (build-invoke-compiler . "yes")           (build-pa-mem-fns . "default") (build-pa-mem-fns-file . "input.pa_mem_fns")  ) "gcc" ("-I." "-I../include" "-I/usr/local/include" "-DHAVE_CONFIG_H") () () "7c94f568" #t #f)
)
(O "/local/scratch/R-2.15.3-as-built/nmath/d1mach.o"#f
(C "/local/scratch/R-2.15.3-as-built/nmath/d1mach.c" ( (build-compression . "compressed") (build-expmalloc . "expanded") (build-strings . "one-string")       (build-remove-temp . "yes") (build-comp-trees . "yes")        (build-parameter-evaluation-order . "right-to-left") (build-invoke-compiler . "yes")           (build-pa-mem-fns . "default") (build-pa-mem-fns-file . "input.pa_mem_fns")  ) "gcc" ("-I." "-I../include" "-I/usr/local/include" "-DHAVE_CONFIG_H") () () "7c94f7e2" #t #f)
)
(O "/local/scratch/R-2.15.3-as-built/nmath/i1mach.o"#f
(C "/local/scratch/R-2.15.3-as-built/nmath/i1mach.c" ( (build-compression . "compressed") (build-expmalloc . "expanded") (build-strings . "one-string")       (build-remove-temp . "yes") (build-comp-trees . "yes")        (build-parameter-evaluation-order . "right-to-left") (build-invoke-compiler . "yes")           (build-pa-mem-fns . "default") (build-pa-mem-fns-file . "input.pa_mem_fns")  ) "gcc" ("-I." "-I../include" "-I/usr/local/include" "-DHAVE_CONFIG_H") () () "7c94fa39" #t #f)
)
(O "/local/scratch/R-2.15.3-as-built/nmath/imax2.o"#f
(C "/local/scratch/R-2.15.3-as-built/nmath/imax2.c" ( (build-compression . "compressed") (build-expmalloc . "expanded") (build-strings . "one-string")       (build-remove-temp . "yes") (build-comp-trees . "yes")        (build-parameter-evaluation-order . "right-to-left") (build-invoke-compiler . "yes")           (build-pa-mem-fns . "default") (build-pa-mem-fns-file . "input.pa_mem_fns")  ) "gcc" ("-I." "-I../include" "-I/usr/local/include" "-DHAVE_CONFIG_H") () () "7c94fd6a" #t #f)
)
(O "/local/scratch/R-2.15.3-as-built/nmath/pnorm.o"#f
(C "/local/scratch/R-2.15.3-as-built/nmath/pnorm.c" ( (build-compression . "compressed") (build-expmalloc . "expanded") (build-strings . "one-string")       (build-remove-temp . "yes") (build-comp-trees . "yes")        (build-parameter-evaluation-order . "right-to-left") (build-invoke-compiler . "yes")           (build-pa-mem-fns . "default") (build-pa-mem-fns-file . "input.pa_mem_fns")  ) "gcc" ("-I." "-I../include" "-I/usr/local/include" "-DHAVE_CONFIG_H") () () "7c94ff8c" #t #f)
)
(O "/local/scratch/R-2.15.3-as-built/nmath/dnorm.o"#f
(C "/local/scratch/R-2.15.3-as-built/nmath/dnorm.c" ( (build-compression . "compressed") (build-expmalloc . "expanded") (build-strings . "one-string")       (build-remove-temp . "yes") (build-comp-trees . "yes")        (build-parameter-evaluation-order . "right-to-left") (build-invoke-compiler . "yes")           (build-pa-mem-fns . "default") (build-pa-mem-fns-file . "input.pa_mem_fns")  ) "gcc" ("-I." "-I../include" "-I/usr/local/include" "-DHAVE_CONFIG_H") () () "7c9501fa" #t #f)
)
(O "/local/scratch/R-2.15.3-as-built/nmath/lgamma.o"#f
(C "/local/scratch/R-2.15.3-as-built/nmath/lgamma.c" ( (build-compression . "compressed") (build-expmalloc . "expanded") (build-strings . "one-string")       (build-remove-temp . "yes") (build-comp-trees . "yes")        (build-parameter-evaluation-order . "right-to-left") (build-invoke-compiler . "yes")           (build-pa-mem-fns . "default") (build-pa-mem-fns-file . "input.pa_mem_fns")  ) "gcc" ("-I." "-I../include" "-I/usr/local/include" "-DHAVE_CONFIG_H") () () "7c95046f" #t #f)
)
(O "/local/scratch/R-2.15.3-as-built/nmath/ftrunc.o"#f
(C "/local/scratch/R-2.15.3-as-built/nmath/ftrunc.c" ( (build-compression . "compressed") (build-expmalloc . "expanded") (build-strings . "one-string")       (build-remove-temp . "yes") (build-comp-trees . "yes")        (build-parameter-evaluation-order . "right-to-left") (build-invoke-compiler . "yes")           (build-pa-mem-fns . "default") (build-pa-mem-fns-file . "input.pa_mem_fns")  ) "gcc" ("-I." "-I../include" "-I/usr/local/include" "-DHAVE_CONFIG_H") () () "7c9506d2" #t #f)
)
(O "/local/scratch/R-2.15.3-as-built/nmath/imin2.o"#f
(C "/local/scratch/R-2.15.3-as-built/nmath/imin2.c" ( (build-compression . "compressed") (build-expmalloc . "expanded") (build-strings . "one-string")       (build-remove-temp . "yes") (build-comp-trees . "yes")        (build-parameter-evaluation-order . "right-to-left") (build-invoke-compiler . "yes")           (build-pa-mem-fns . "default") (build-pa-mem-fns-file . "input.pa_mem_fns")  ) "gcc" ("-I." "-I../include" "-I/usr/local/include" "-DHAVE_CONFIG_H") () () "7c950971" #t #f)
)
(O "/local/scratch/R-2.15.3-as-built/nmath/fmax2.o"#f
(C "/local/scratch/R-2.15.3-as-built/nmath/fmax2.c" ( (build-compression . "compressed") (build-expmalloc . "expanded") (build-strings . "one-string")       (build-remove-temp . "yes") (build-comp-trees . "yes")        (build-parameter-evaluation-order . "right-to-left") (build-invoke-compiler . "yes")           (build-pa-mem-fns . "default") (build-pa-mem-fns-file . "input.pa_mem_fns")  ) "gcc" ("-I." "-I../include" "-I/usr/local/include" "-DHAVE_CONFIG_H") () () "7c950ba2" #t #f)
)
(O "/local/scratch/R-2.15.3-as-built/nmath/dgamma.o"#f
(C "/local/scratch/R-2.15.3-as-built/nmath/dgamma.c" ( (build-compression . "compressed") (build-expmalloc . "expanded") (build-strings . "one-string")       (build-remove-temp . "yes") (build-comp-trees . "yes")        (build-parameter-evaluation-order . "right-to-left") (build-invoke-compiler . "yes")           (build-pa-mem-fns . "default") (build-pa-mem-fns-file . "input.pa_mem_fns")  ) "gcc" ("-I." "-I../include" "-I/usr/local/include" "-DHAVE_CONFIG_H") () () "7c950e2e" #t #f)
)
(O "/local/scratch/R-2.15.3-as-built/nmath/qnorm.o"#f
(C "/local/scratch/R-2.15.3-as-built/nmath/qnorm.c" ( (build-compression . "compressed") (build-expmalloc . "expanded") (build-strings . "one-string")       (build-remove-temp . "yes") (build-comp-trees . "yes")        (build-parameter-evaluation-order . "right-to-left") (build-invoke-compiler . "yes")           (build-pa-mem-fns . "default") (build-pa-mem-fns-file . "input.pa_mem_fns")  ) "gcc" ("-I." "-I../include" "-I/usr/local/include" "-DHAVE_CONFIG_H") () () "7c9510a1" #t #f)
)
(O "/local/scratch/R-2.15.3-as-built/nmath/chebyshev.o"#f
(C "/local/scratch/R-2.15.3-as-built/nmath/chebyshev.c" ( (build-compression . "compressed") (build-expmalloc . "expanded") (build-strings . "one-string")       (build-remove-temp . "yes") (build-comp-trees . "yes")        (build-parameter-evaluation-order . "right-to-left") (build-invoke-compiler . "yes")           (build-pa-mem-fns . "default") (build-pa-mem-fns-file . "input.pa_mem_fns")  ) "gcc" ("-I." "-I../include" "-I/usr/local/include" "-DHAVE_CONFIG_H") () () "7c9512ee" #t #f)
)
(O "/local/scratch/R-2.15.3-as-built/nmath/lgammacor.o"#f
(C "/local/scratch/R-2.15.3-as-built/nmath/lgammacor.c" ( (build-compression . "compressed") (build-expmalloc . "expanded") (build-strings . "one-string")       (build-remove-temp . "yes") (build-comp-trees . "yes")        (build-parameter-evaluation-order . "right-to-left") (build-invoke-compiler . "yes")           (build-pa-mem-fns . "default") (build-pa-mem-fns-file . "input.pa_mem_fns")  ) "gcc" ("-I." "-I../include" "-I/usr/local/include" "-DHAVE_CONFIG_H") () () "7c951534" #t #f)
)
(O "/local/scratch/R-2.15.3-as-built/nmath/toms708.o"#f
(C "/local/scratch/R-2.15.3-as-built/nmath/toms708.c" ( (build-compression . "compressed") (build-expmalloc . "expanded") (build-strings . "one-string")       (build-remove-temp . "yes") (build-comp-trees . "yes")        (build-parameter-evaluation-order . "right-to-left") (build-invoke-compiler . "yes")           (build-pa-mem-fns . "default") (build-pa-mem-fns-file . "input.pa_mem_fns")  ) "gcc" ("-I." "-I../include" "-I/usr/local/include" "-DHAVE_CONFIG_H") () () "7c951773" #t #f)
)
(O "/local/scratch/R-2.15.3-as-built/nmath/rhyper.o"#f
(C "/local/scratch/R-2.15.3-as-built/nmath/rhyper.c" ( (build-compression . "compressed") (build-expmalloc . "expanded") (build-strings . "one-string")       (build-remove-temp . "yes") (build-comp-trees . "yes")        (build-parameter-evaluation-order . "right-to-left") (build-invoke-compiler . "yes")           (build-pa-mem-fns . "default") (build-pa-mem-fns-file . "input.pa_mem_fns")  ) "gcc" ("-I." "-I../include" "-I/usr/local/include" "-DHAVE_CONFIG_H") () () "7c951b29" #t #f)
)
(O "/local/scratch/R-2.15.3-as-built/nmath/standalone/sunif.o"#f
(C "/local/scratch/R-2.15.3-as-built/nmath/standalone/sunif.c" ( (build-compression . "compressed") (build-expmalloc . "expanded") (build-strings . "one-string")       (build-remove-temp . "yes") (build-comp-trees . "yes")        (build-parameter-evaluation-order . "right-to-left") (build-invoke-compiler . "yes")           (build-pa-mem-fns . "default") (build-pa-mem-fns-file . "input.pa_mem_fns")  ) "gcc" ("-I." "-I../include" "-I/usr/local/include" "-DHAVE_CONFIG_H") () () "7c951e14" #t #f)
)
(O "/local/scratch/R-2.15.3-as-built/nmath/gamma_cody.o"#f
(C "/local/scratch/R-2.15.3-as-built/nmath/gamma_cody.c" ( (build-compression . "compressed") (build-expmalloc . "expanded") (build-strings . "one-string")       (build-remove-temp . "yes") (build-comp-trees . "yes")        (build-parameter-evaluation-order . "right-to-left") (build-invoke-compiler . "yes")           (build-pa-mem-fns . "default") (build-pa-mem-fns-file . "input.pa_mem_fns")  ) "gcc" ("-I." "-I../include" "-I/usr/local/include" "-DHAVE_CONFIG_H") () () "7c95203a" #t #f)
)
(O "/local/scratch/R-2.15.3-as-built/nmath/ptukey.o"#f
(C "/local/scratch/R-2.15.3-as-built/nmath/ptukey.c" ( (build-compression . "compressed") (build-expmalloc . "expanded") (build-strings . "one-string")       (build-remove-temp . "yes") (build-comp-trees . "yes")        (build-parameter-evaluation-order . "right-to-left") (build-invoke-compiler . "yes")           (build-pa-mem-fns . "default") (build-pa-mem-fns-file . "input.pa_mem_fns")  ) "gcc" ("-I." "-I../include" "-I/usr/local/include" "-DHAVE_CONFIG_H") () () "7c952286" #t #f)
)
(O "/local/scratch/R-2.15.3-as-built/nmath/qgamma.o"#f
(C "/local/scratch/R-2.15.3-as-built/nmath/qgamma.c" ( (build-compression . "compressed") (build-expmalloc . "expanded") (build-strings . "one-string")       (build-remove-temp . "yes") (build-comp-trees . "yes")        (build-parameter-evaluation-order . "right-to-left") (build-invoke-compiler . "yes")           (build-pa-mem-fns . "default") (build-pa-mem-fns-file . "input.pa_mem_fns")  ) "gcc" ("-I." "-I../include" "-I/usr/local/include" "-DHAVE_CONFIG_H") () () "7c9524f5" #t #f)
)
(O "/local/scratch/R-2.15.3-as-built/nmath/pgamma.o"#f
(C "/local/scratch/R-2.15.3-as-built/nmath/pgamma.c" ( (build-compression . "compressed") (build-expmalloc . "expanded") (build-strings . "one-string")       (build-remove-temp . "yes") (build-comp-trees . "yes")        (build-parameter-evaluation-order . "right-to-left") (build-invoke-compiler . "yes")           (build-pa-mem-fns . "default") (build-pa-mem-fns-file . "input.pa_mem_fns")  ) "gcc" ("-I." "-I../include" "-I/usr/local/include" "-DHAVE_CONFIG_H") () () "7c952765" #t #f)
)
(O "/local/scratch/R-2.15.3-as-built/nmath/dpois.o"#f
(C "/local/scratch/R-2.15.3-as-built/nmath/dpois.c" ( (build-compression . "compressed") (build-expmalloc . "expanded") (build-strings . "one-string")       (build-remove-temp . "yes") (build-comp-trees . "yes")        (build-parameter-evaluation-order . "right-to-left") (build-invoke-compiler . "yes")           (build-pa-mem-fns . "default") (build-pa-mem-fns-file . "input.pa_mem_fns")  ) "gcc" ("-I." "-I../include" "-I/usr/local/include" "-DHAVE_CONFIG_H") () () "7c952a0c" #t #f)
)
(O "/local/scratch/R-2.15.3-as-built/nmath/bd0.o"#f
(C "/local/scratch/R-2.15.3-as-built/nmath/bd0.c" ( (build-compression . "compressed") (build-expmalloc . "expanded") (build-strings . "one-string")       (build-remove-temp . "yes") (build-comp-trees . "yes")        (build-parameter-evaluation-order . "right-to-left") (build-invoke-compiler . "yes")           (build-pa-mem-fns . "default") (build-pa-mem-fns-file . "input.pa_mem_fns")  ) "gcc" ("-I." "-I../include" "-I/usr/local/include" "-DHAVE_CONFIG_H") () () "7c952c67" #t #f)
)
(O "/local/scratch/R-2.15.3-as-built/nmath/stirlerr.o"#f
(C "/local/scratch/R-2.15.3-as-built/nmath/stirlerr.c" ( (build-compression . "compressed") (build-expmalloc . "expanded") (build-strings . "one-string")       (build-remove-temp . "yes") (build-comp-trees . "yes")        (build-parameter-evaluation-order . "right-to-left") (build-invoke-compiler . "yes")           (build-pa-mem-fns . "default") (build-pa-mem-fns-file . "input.pa_mem_fns")  ) "gcc" ("-I." "-I../include" "-I/usr/local/include" "-DHAVE_CONFIG_H") () () "7c952eac" #t #f)
)
(O "/local/scratch/R-2.15.3-as-built/nmath/pnchisq.o"#f
(C "/local/scratch/R-2.15.3-as-built/nmath/pnchisq.c" ( (build-compression . "compressed") (build-expmalloc . "expanded") (build-strings . "one-string")       (build-remove-temp . "yes") (build-comp-trees . "yes")        (build-parameter-evaluation-order . "right-to-left") (build-invoke-compiler . "yes")           (build-pa-mem-fns . "default") (build-pa-mem-fns-file . "input.pa_mem_fns")  ) "gcc" ("-I." "-I../include" "-I/usr/local/include" "-DHAVE_CONFIG_H") () () "7c953104" #t #f)
)
(O "/local/scratch/R-2.15.3-as-built/nmath/gamma.o"#f
(C "/local/scratch/R-2.15.3-as-built/nmath/gamma.c" ( (build-compression . "compressed") (build-expmalloc . "expanded") (build-strings . "one-string")       (build-remove-temp . "yes") (build-comp-trees . "yes")        (build-parameter-evaluation-order . "right-to-left") (build-invoke-compiler . "yes")           (build-pa-mem-fns . "default") (build-pa-mem-fns-file . "input.pa_mem_fns")  ) "gcc" ("-I." "-I../include" "-I/usr/local/include" "-DHAVE_CONFIG_H") () () "7c953386" #t #f)
)
(O "/local/scratch/R-2.15.3-as-built/nmath/qt.o"#f
(C "/local/scratch/R-2.15.3-as-built/nmath/qt.c" ( (build-compression . "compressed") (build-expmalloc . "expanded") (build-strings . "one-string")       (build-remove-temp . "yes") (build-comp-trees . "yes")        (build-parameter-evaluation-order . "right-to-left") (build-invoke-compiler . "yes")           (build-pa-mem-fns . "default") (build-pa-mem-fns-file . "input.pa_mem_fns")  ) "gcc" ("-I." "-I../include" "-I/usr/local/include" "-DHAVE_CONFIG_H") () () "7c9535f2" #t #f)
)
(O "/local/scratch/R-2.15.3-as-built/nmath/fmin2.o"#f
(C "/local/scratch/R-2.15.3-as-built/nmath/fmin2.c" ( (build-compression . "compressed") (build-expmalloc . "expanded") (build-strings . "one-string")       (build-remove-temp . "yes") (build-comp-trees . "yes")        (build-parameter-evaluation-order . "right-to-left") (build-invoke-compiler . "yes")           (build-pa-mem-fns . "default") (build-pa-mem-fns-file . "input.pa_mem_fns")  ) "gcc" ("-I." "-I../include" "-I/usr/local/include" "-DHAVE_CONFIG_H") () () "7c95386b" #t #f)
)
(O "/local/scratch/R-2.15.3-as-built/nmath/pt.o"#f
(C "/local/scratch/R-2.15.3-as-built/nmath/pt.c" ( (build-compression . "compressed") (build-expmalloc . "expanded") (build-strings . "one-string")       (build-remove-temp . "yes") (build-comp-trees . "yes")        (build-parameter-evaluation-order . "right-to-left") (build-invoke-compiler . "yes")           (build-pa-mem-fns . "default") (build-pa-mem-fns-file . "input.pa_mem_fns")  ) "gcc" ("-I." "-I../include" "-I/usr/local/include" "-DHAVE_CONFIG_H") () () "7c953aac" #t #f)
)
(O "/local/scratch/R-2.15.3-as-built/nmath/dt.o"#f
(C "/local/scratch/R-2.15.3-as-built/nmath/dt.c" ( (build-compression . "compressed") (build-expmalloc . "expanded") (build-strings . "one-string")       (build-remove-temp . "yes") (build-comp-trees . "yes")        (build-parameter-evaluation-order . "right-to-left") (build-invoke-compiler . "yes")           (build-pa-mem-fns . "default") (build-pa-mem-fns-file . "input.pa_mem_fns")  ) "gcc" ("-I." "-I../include" "-I/usr/local/include" "-DHAVE_CONFIG_H") () () "7c953df5" #t #f)
)
(O "/local/scratch/R-2.15.3-as-built/nmath/pf.o"#f
(C "/local/scratch/R-2.15.3-as-built/nmath/pf.c" ( (build-compression . "compressed") (build-expmalloc . "expanded") (build-strings . "one-string")       (build-remove-temp . "yes") (build-comp-trees . "yes")        (build-parameter-evaluation-order . "right-to-left") (build-invoke-compiler . "yes")           (build-pa-mem-fns . "default") (build-pa-mem-fns-file . "input.pa_mem_fns")  ) "gcc" ("-I." "-I../include" "-I/usr/local/include" "-DHAVE_CONFIG_H") () () "7c95407c" #t #f)
)
(O "/local/scratch/R-2.15.3-as-built/nmath/pbeta.o"#f
(C "/local/scratch/R-2.15.3-as-built/nmath/pbeta.c" ( (build-compression . "compressed") (build-expmalloc . "expanded") (build-strings . "one-string")       (build-remove-temp . "yes") (build-comp-trees . "yes")        (build-parameter-evaluation-order . "right-to-left") (build-invoke-compiler . "yes")           (build-pa-mem-fns . "default") (build-pa-mem-fns-file . "input.pa_mem_fns")  ) "gcc" ("-I." "-I../include" "-I/usr/local/include" "-DHAVE_CONFIG_H") () () "7c9542c2" #t #f)
)
(O "/local/scratch/R-2.15.3-as-built/nmath/lbeta.o"#f
(C "/local/scratch/R-2.15.3-as-built/nmath/lbeta.c" ( (build-compression . "compressed") (build-expmalloc . "expanded") (build-strings . "one-string")       (build-remove-temp . "yes") (build-comp-trees . "yes")        (build-parameter-evaluation-order . "right-to-left") (build-invoke-compiler . "yes")           (build-pa-mem-fns . "default") (build-pa-mem-fns-file . "input.pa_mem_fns")  ) "gcc" ("-I." "-I../include" "-I/usr/local/include" "-DHAVE_CONFIG_H") () () "7c954530" #t #f)
)
(O "/local/scratch/R-2.15.3-as-built/nmath/pchisq.o"#f
(C "/local/scratch/R-2.15.3-as-built/nmath/pchisq.c" ( (build-compression . "compressed") (build-expmalloc . "expanded") (build-strings . "one-string")       (build-remove-temp . "yes") (build-comp-trees . "yes")        (build-parameter-evaluation-order . "right-to-left") (build-invoke-compiler . "yes")           (build-pa-mem-fns . "default") (build-pa-mem-fns-file . "input.pa_mem_fns")  ) "gcc" ("-I." "-I../include" "-I/usr/local/include" "-DHAVE_CONFIG_H") () () "7c95487b" #t #f)
)
(O "/usr/local/codesurfer-1.9p3/libmodels/CodeSurfer/libcsmodels/normal/fabs.o"#t
(C "/usr/local/codesurfer-1.9p3/libmodels/CodeSurfer/libcsmodels/fabs.c" ( (build-compression . "compressed") (build-expmalloc . "expanded") (build-strings . "many-strings")       (build-remove-temp . "yes") (build-comp-trees . "yes")        (build-parameter-evaluation-order . "right-to-left") (build-invoke-compiler . "no")           (build-pa-mem-fns . "default") (build-pa-mem-fns-file . "input.pa_mem_fns")  ) "xcc" ("-D__CSURF_MARKER_LIBRARY_FUNCTION__=1") ("-noconfig") ("--diag_error" "implicit_func_decl" "--allow_ellipsis_only_param" "--diag_remark" "174,177,550") "2ab43c28" #t #t)
)
(O "/usr/local/codesurfer-1.9p3/libmodels/CodeSurfer/libcsmodels/normal/ceil.o"#t
(C "/usr/local/codesurfer-1.9p3/libmodels/CodeSurfer/libcsmodels/ceil.c" ( (build-compression . "compressed") (build-expmalloc . "expanded") (build-strings . "many-strings")       (build-remove-temp . "yes") (build-comp-trees . "yes")        (build-parameter-evaluation-order . "right-to-left") (build-invoke-compiler . "no")           (build-pa-mem-fns . "default") (build-pa-mem-fns-file . "input.pa_mem_fns")  ) "xcc" ("-D__CSURF_MARKER_LIBRARY_FUNCTION__=1") ("-noconfig") ("--diag_error" "implicit_func_decl" "--allow_ellipsis_only_param" "--diag_remark" "174,177,550") "2ab427b9" #t #t)
)
(O "/usr/local/codesurfer-1.9p3/libmodels/CodeSurfer/libcsmodels/normal/log1p.o"#t
(C "/usr/local/codesurfer-1.9p3/libmodels/CodeSurfer/libcsmodels/log1p.c" ( (build-compression . "compressed") (build-expmalloc . "expanded") (build-strings . "many-strings")       (build-remove-temp . "yes") (build-comp-trees . "yes")        (build-parameter-evaluation-order . "right-to-left") (build-invoke-compiler . "no")           (build-pa-mem-fns . "default") (build-pa-mem-fns-file . "input.pa_mem_fns")  ) "xcc" ("-D__CSURF_MARKER_LIBRARY_FUNCTION__=1") ("-noconfig") ("--diag_error" "implicit_func_decl" "--allow_ellipsis_only_param" "--diag_remark" "174,177,550") "2ab4650c" #t #t)
)
(O "/usr/local/codesurfer-1.9p3/libmodels/CodeSurfer/libcsmodels/normal/pow.o"#t
(C "/usr/local/codesurfer-1.9p3/libmodels/CodeSurfer/libcsmodels/pow.c" ( (build-compression . "compressed") (build-expmalloc . "expanded") (build-strings . "many-strings")       (build-remove-temp . "yes") (build-comp-trees . "yes")        (build-parameter-evaluation-order . "right-to-left") (build-invoke-compiler . "no")           (build-pa-mem-fns . "default") (build-pa-mem-fns-file . "input.pa_mem_fns")  ) "xcc" ("-D__CSURF_MARKER_LIBRARY_FUNCTION__=1") ("-noconfig") ("--diag_error" "implicit_func_decl" "--allow_ellipsis_only_param" "--diag_remark" "174,177,550") "2ab474b1" #t #t)
)
(O "/usr/local/codesurfer-1.9p3/libmodels/CodeSurfer/libcsmodels/normal/sin.o"#t
(C "/usr/local/codesurfer-1.9p3/libmodels/CodeSurfer/libcsmodels/sin.c" ( (build-compression . "compressed") (build-expmalloc . "expanded") (build-strings . "many-strings")       (build-remove-temp . "yes") (build-comp-trees . "yes")        (build-parameter-evaluation-order . "right-to-left") (build-invoke-compiler . "no")           (build-pa-mem-fns . "default") (build-pa-mem-fns-file . "input.pa_mem_fns")  ) "xcc" ("-D__CSURF_MARKER_LIBRARY_FUNCTION__=1") ("-noconfig") ("--diag_error" "implicit_func_decl" "--allow_ellipsis_only_param" "--diag_remark" "174,177,550") "2ab48412" #t #t)
)
(O "/usr/local/codesurfer-1.9p3/libmodels/CodeSurfer/libcsmodels/normal/fmod.o"#t
(C "/usr/local/codesurfer-1.9p3/libmodels/CodeSurfer/libcsmodels/fmod.c" ( (build-compression . "compressed") (build-expmalloc . "expanded") (build-strings . "many-strings")       (build-remove-temp . "yes") (build-comp-trees . "yes")        (build-parameter-evaluation-order . "right-to-left") (build-invoke-compiler . "no")           (build-pa-mem-fns . "default") (build-pa-mem-fns-file . "input.pa_mem_fns")  ) "xcc" ("-D__CSURF_MARKER_LIBRARY_FUNCTION__=1") ("-noconfig") ("--diag_error" "implicit_func_decl" "--allow_ellipsis_only_param" "--diag_remark" "174,177,550") "2ab44135" #t #t)
)
(O "/usr/local/codesurfer-1.9p3/libmodels/CodeSurfer/libcsmodels/normal/expm1.o"#t
(C "/usr/local/codesurfer-1.9p3/libmodels/CodeSurfer/libcsmodels/expm1.c" ( (build-compression . "compressed") (build-expmalloc . "expanded") (build-strings . "many-strings")       (build-remove-temp . "yes") (build-comp-trees . "yes")        (build-parameter-evaluation-order . "right-to-left") (build-invoke-compiler . "no")           (build-pa-mem-fns . "default") (build-pa-mem-fns-file . "input.pa_mem_fns")  ) "xcc" ("-D__CSURF_MARKER_LIBRARY_FUNCTION__=1") ("-noconfig") ("--diag_error" "implicit_func_decl" "--allow_ellipsis_only_param" "--diag_remark" "174,177,550") "2ab439a5" #t #t)
)
(O "/usr/local/codesurfer-1.9p3/libmodels/CodeSurfer/libcsmodels/normal/floor.o"#t
(C "/usr/local/codesurfer-1.9p3/libmodels/CodeSurfer/libcsmodels/floor.c" ( (build-compression . "compressed") (build-expmalloc . "expanded") (build-strings . "many-strings")       (build-remove-temp . "yes") (build-comp-trees . "yes")        (build-parameter-evaluation-order . "right-to-left") (build-invoke-compiler . "no")           (build-pa-mem-fns . "default") (build-pa-mem-fns-file . "input.pa_mem_fns")  ) "xcc" ("-D__CSURF_MARKER_LIBRARY_FUNCTION__=1") ("-noconfig") ("--diag_error" "implicit_func_decl" "--allow_ellipsis_only_param" "--diag_remark" "174,177,550") "2ab43e9e" #t #t)
)
(O "/usr/local/codesurfer-1.9p3/libmodels/CodeSurfer/libcsmodels/normal/sqrt.o"#t
(C "/usr/local/codesurfer-1.9p3/libmodels/CodeSurfer/libcsmodels/sqrt.c" ( (build-compression . "compressed") (build-expmalloc . "expanded") (build-strings . "many-strings")       (build-remove-temp . "yes") (build-comp-trees . "yes")        (build-parameter-evaluation-order . "right-to-left") (build-invoke-compiler . "no")           (build-pa-mem-fns . "default") (build-pa-mem-fns-file . "input.pa_mem_fns")  ) "xcc" ("-D__CSURF_MARKER_LIBRARY_FUNCTION__=1") ("-noconfig") ("--diag_error" "implicit_func_decl" "--allow_ellipsis_only_param" "--diag_remark" "174,177,550") "2ab489aa" #t #t)
)
(O "/usr/local/codesurfer-1.9p3/libmodels/CodeSurfer/libcsmodels/normal/variables.o"#t
(C "/usr/local/codesurfer-1.9p3/libmodels/CodeSurfer/libcsmodels/variables.c" ( (build-compression . "compressed") (build-expmalloc . "expanded") (build-strings . "many-strings")       (build-remove-temp . "yes") (build-comp-trees . "yes")        (build-parameter-evaluation-order . "right-to-left") (build-invoke-compiler . "no")           (build-pa-mem-fns . "default") (build-pa-mem-fns-file . "input.pa_mem_fns")  ) "xcc" ("-D__CSURF_MARKER_LIBRARY_FUNCTION__=1") ("-noconfig") ("--diag_error" "implicit_func_decl" "--allow_ellipsis_only_param" "--diag_remark" "174,177,550") "2aaff711" #t #t)
)
(O "/usr/local/codesurfer-1.9p3/libmodels/CodeSurfer/libcsmodels/normal/exp.o"#t
(C "/usr/local/codesurfer-1.9p3/libmodels/CodeSurfer/libcsmodels/exp.c" ( (build-compression . "compressed") (build-expmalloc . "expanded") (build-strings . "many-strings")       (build-remove-temp . "yes") (build-comp-trees . "yes")        (build-parameter-evaluation-order . "right-to-left") (build-invoke-compiler . "no")           (build-pa-mem-fns . "default") (build-pa-mem-fns-file . "input.pa_mem_fns")  ) "xcc" ("-D__CSURF_MARKER_LIBRARY_FUNCTION__=1") ("-noconfig") ("--diag_error" "implicit_func_decl" "--allow_ellipsis_only_param" "--diag_remark" "174,177,550") "2ab43711" #t #t)
)
(O "/usr/local/codesurfer-1.9p3/libmodels/CodeSurfer/libcsmodels/normal/tan.o"#t
(C "/usr/local/codesurfer-1.9p3/libmodels/CodeSurfer/libcsmodels/tan.c" ( (build-compression . "compressed") (build-expmalloc . "expanded") (build-strings . "many-strings")       (build-remove-temp . "yes") (build-comp-trees . "yes")        (build-parameter-evaluation-order . "right-to-left") (build-invoke-compiler . "no")           (build-pa-mem-fns . "default") (build-pa-mem-fns-file . "input.pa_mem_fns")  ) "xcc" ("-D__CSURF_MARKER_LIBRARY_FUNCTION__=1") ("-noconfig") ("--diag_error" "implicit_func_decl" "--allow_ellipsis_only_param" "--diag_remark" "174,177,550") "2ab48c4d" #t #t)
)
(O "/usr/local/codesurfer-1.9p3/libmodels/CodeSurfer/libcsmodels/normal/lgamma.o"#t
(C "/usr/local/codesurfer-1.9p3/libmodels/CodeSurfer/libcsmodels/lgamma.c" ( (build-compression . "compressed") (build-expmalloc . "expanded") (build-strings . "many-strings")       (build-remove-temp . "yes") (build-comp-trees . "yes")        (build-parameter-evaluation-order . "right-to-left") (build-invoke-compiler . "no")           (build-pa-mem-fns . "default") (build-pa-mem-fns-file . "input.pa_mem_fns")  ) "xcc" ("-D__CSURF_MARKER_LIBRARY_FUNCTION__=1") ("-noconfig") ("--diag_error" "implicit_func_decl" "--allow_ellipsis_only_param" "--diag_remark" "174,177,550") "2ab45d75" #t #t)
)
(O "/usr/local/codesurfer-1.9p3/libmodels/CodeSurfer/libcsmodels/normal/cos.o"#t
(C "/usr/local/codesurfer-1.9p3/libmodels/CodeSurfer/libcsmodels/cos.c" ( (build-compression . "compressed") (build-expmalloc . "expanded") (build-strings . "many-strings")       (build-remove-temp . "yes") (build-comp-trees . "yes")        (build-parameter-evaluation-order . "right-to-left") (build-invoke-compiler . "no")           (build-pa-mem-fns . "default") (build-pa-mem-fns-file . "input.pa_mem_fns")  ) "xcc" ("-D__CSURF_MARKER_LIBRARY_FUNCTION__=1") ("-noconfig") ("--diag_error" "implicit_func_decl" "--allow_ellipsis_only_param" "--diag_remark" "174,177,550") "2ab42d24" #t #t)
)
(O "/usr/local/codesurfer-1.9p3/libmodels/CodeSurfer/libcsmodels/normal/log.o"#t
(C "/usr/local/codesurfer-1.9p3/libmodels/CodeSurfer/libcsmodels/log.c" ( (build-compression . "compressed") (build-expmalloc . "expanded") (build-strings . "many-strings")       (build-remove-temp . "yes") (build-comp-trees . "yes")        (build-parameter-evaluation-order . "right-to-left") (build-invoke-compiler . "no")           (build-pa-mem-fns . "default") (build-pa-mem-fns-file . "input.pa_mem_fns")  ) "xcc" ("-D__CSURF_MARKER_LIBRARY_FUNCTION__=1") ("-noconfig") ("--diag_error" "implicit_func_decl" "--allow_ellipsis_only_param" "--diag_remark" "174,177,550") "2ab46a18" #t #t)
)
)

"CSURF.FILES/pnorm.sdg"
""
"None"