MStart,MEnd,MFile,MFunction,MTestObject,MConditionNo,Mnode
31792,31799,pnorm.c,pnorm5(),pnorm5,0,2
31804,31812,pnorm.c,pnorm5(),pnorm5,1,2
31817,31828,pnorm.c,pnorm5(),pnorm5,2,2
31870,31880,pnorm.c,pnorm5(),pnorm5,3,4
31930,31944,pnorm.c,pnorm5(),pnorm5,5,6
31949,31961,pnorm.c,pnorm5(),pnorm5,6,7
32009,32016,pnorm.c,pnorm5(),pnorm5,7,11
33796,33803,pnorm.c,pnorm_both(),pnorm_both,0,10
34035,34514,pnorm.c,pnorm_both(),pnorm_both,1,17
34111,34289,pnorm.c,pnorm_both(),pnorm_both,2,18
34202,34206,pnorm.c,pnorm_both(),pnorm_both,3,22
34355,34363,pnorm.c,pnorm_both(),pnorm_both,4,27
34386,34394,pnorm.c,pnorm_both(),pnorm_both,5,29
34417,34425,pnorm.c,pnorm_both(),pnorm_both,6,31
34434,34442,pnorm.c,pnorm_both(),pnorm_both,7,32
34468,34476,pnorm.c,pnorm_both(),pnorm_both,8,34
34516,35667,pnorm.c,pnorm_both(),pnorm_both,9,36
34656,34660,pnorm.c,pnorm_both(),pnorm_both,10,39
35673,35677,pnorm.c,pnorm_both(),pnorm_both,11,45
36418,36422,pnorm.c,pnorm_both(),pnorm_both,14,49
36661,36710,pnorm.c,pnorm_both(),pnorm_both,15,56
