MStart,MEnd,MFile,MFunction,MTestObject,MConditionNo,Mnode
30800,30807,qt.c,qt(),qt,0,4
30812,30821,qt.c,qt(),qt,1,4
30903,30915,qt.c,qt(),qt,2,7
30941,30952,qt.c,qt(),qt,3,9
31189,31211,qt.c,qt(),qt,4,15
31290,31301,qt.c,qt(),qt,5,18
31382,31394,qt.c,qt(),qt,7,21
31557,31603,qt.c,qt(),qt,9,25
31624,31650,qt.c,qt(),qt,10,28
31673,31688,qt.c,qt(),qt,12,29
32189,32203,qt.c,qt(),qt,13,32
32458,32536,qt.c,qt(),qt,14,36
32667,33101,qt.c,qt(),qt,15,39
32709,32942,qt.c,qt(),qt,16,40
32732,32795,qt.c,qt(),qt,17,41
32797,32874,qt.c,qt(),qt,18,43
32985,33066,qt.c,qt(),qt,19,46
33103,33449,qt.c,qt(),qt,20,49
33172,33267,qt.c,qt(),qt,21,50
33312,33414,qt.c,qt(),qt,22,52
33772,33780,qt.c,qt(),qt,23,57
33850,33858,qt.c,qt(),qt,24,60
34065,34073,qt.c,qt(),qt,25,64
34181,34265,qt.c,qt(),qt,27,65
34384,34395,qt.c,qt(),qt,28,69
34640,34644,qt.c,qt(),qt,29,75
35285,35293,qt.c,qt(),qt,31,79
35323,35331,qt.c,qt(),qt,32,81
35594,35600,qt.c,qt(),qt,36,83
