MStart,MEnd,MFile,MFunction,MTestObject,MConditionNo,Mnode
26827,26978,rhyper.c,afc(),afc,0,3
26980,27023,rhyper.c,afc(),afc,1,6
27956,27970,rhyper.c,rhyper(),rhyper,0,17
27976,27990,rhyper.c,rhyper(),rhyper,1,17
27996,28009,rhyper.c,rhyper(),rhyper,2,17
28143,28149,rhyper.c,rhyper(),rhyper,3,22
28285,28294,rhyper.c,rhyper(),rhyper,7,25
28355,28412,rhyper.c,rhyper(),rhyper,9,28
28459,28469,rhyper.c,rhyper(),rhyper,10,33
28515,28569,rhyper.c,rhyper(),rhyper,11,37
28616,28626,rhyper.c,rhyper(),rhyper,12,42
28641,28693,rhyper.c,rhyper(),rhyper,13,44
28727,28732,rhyper.c,rhyper(),rhyper,14,47
28914,29258,rhyper.c,rhyper(),rhyper,16,51
29083,29192,rhyper.c,rhyper(),rhyper,17,53
29107,29157,rhyper.c,rhyper(),rhyper,18,54
29199,29212,rhyper.c,rhyper(),rhyper,19,57
29260,29770,rhyper.c,rhyper(),rhyper,20,60
29331,29336,rhyper.c,rhyper(),rhyper,21,61
29356,29457,rhyper.c,rhyper(),rhyper,23,62
29608,29617,rhyper.c,rhyper(),rhyper,24,70
29715,29729,rhyper.c,rhyper(),rhyper,25,75
29843,29848,rhyper.c,rhyper(),rhyper,26,78
30715,30787,rhyper.c,rhyper(),rhyper,28,94
30789,30929,rhyper.c,rhyper(),rhyper,29,96
30864,30878,rhyper.c,rhyper(),rhyper,30,98
30995,31009,rhyper.c,rhyper(),rhyper,31,102
31097,31103,rhyper.c,rhyper(),rhyper,32,105
31405,31522,rhyper.c,rhyper(),rhyper,34,107
31437,31443,rhyper.c,rhyper(),rhyper,35,108
31524,31534,rhyper.c,rhyper(),rhyper,36,110
31557,31562,rhyper.c,rhyper(),rhyper,37,111
31643,31653,rhyper.c,rhyper(),rhyper,38,113
31989,32000,rhyper.c,rhyper(),rhyper,39,127
32454,32497,rhyper.c,rhyper(),rhyper,40,137
32567,32578,rhyper.c,rhyper(),rhyper,41,140
32634,32645,rhyper.c,rhyper(),rhyper,42,143
32701,32712,rhyper.c,rhyper(),rhyper,43,146
32768,32779,rhyper.c,rhyper(),rhyper,44,149
32806,32919,rhyper.c,rhyper(),rhyper,45,151
32989,33099,rhyper.c,rhyper(),rhyper,46,153
33144,33154,rhyper.c,rhyper(),rhyper,47,156
33220,33326,rhyper.c,rhyper(),rhyper,48,158
33242,33290,rhyper.c,rhyper(),rhyper,49,159
33331,33344,rhyper.c,rhyper(),rhyper,50,162
