MStart,MEnd,MFile,MFunction,MTestObject,MConditionNo,Mnode
42123,42131,unity.c,cephes_log (),cephes_log,0,2
42695,42702,unity.c,cephes_exp (),cephes_exp,0,2
42734,42744,unity.c,cephes_exp (),cephes_exp,1,4
42791,42798,unity.c,cephes_exp (),cephes_exp,2,6
43271,43279,unity.c,cosm1 (),cosm1,0,2
