Test Object, Condition No, node, True Evaluations, False Evaluations, Code
gamma_cody, 0, 13, 1, 2, "if (y <= 0) { /* ------------------------------------------------------------- Argument is negative ------------------------------------------------------------- */ y = -x; yi = ftrunc(y); res = y - yi; if (res != 0) { if (yi != ftrunc(yi * .5) * 2.) parity = (1); fact = -M_PI / sin(M_PI * res); y += 1.; } else { return(ML_POSINF); } }"
gamma_cody, 1, 17, 1, 42, "if (res != 0) { if (yi != ftrunc(yi * .5) * 2.) parity = (1); fact = -M_PI / sin(M_PI * res); y += 1.; } else { return(ML_POSINF); }"
gamma_cody, 2, 18, 3, 1, "if (yi != ftrunc(yi * .5) * 2.) parity = (1);"
gamma_cody, 3, 23, 17756, 1, "/* ----------------------------------------------------------------- Argument is positive -----------------------------------------------------------------*/ if (y < DBL_EPSILON) { /* -------------------------------------------------------------- Argument < EPS -------------------------------------------------------------- */ if (y >= DBL_MIN) { res = 1. / y; } else { return(ML_POSINF); } } else if (y < 12.) { yi = y; if (y < 1.) { /* --------------------------------------------------------- EPS < argument < 1 --------------------------------------------------------- */ z = y; y += 1.; } else { /* ----------------------------------------------------------- 1 <= argument < 12, reduce argument if necessary ----------------------------------------------------------- */ n = (long) y - 1; y -= (double) n; z = y - 1.; } /* --------------------------------------------------------- Evaluate approximation for 1. < argument < 2. ---------------------------------------------------------*/ xnum = 0.; xden = 1.; for (i = 0; i < 8; ++i) { xnum = (xnum + p[i]) * z; xden = xden * z + q[i]; } res = xnum / xden + 1.; if (yi < y) { /* -------------------------------------------------------- Adjust result for case 0. < argument < 1. -------------------------------------------------------- */ res /= yi; } else if (yi > y) { /* ---------------------------------------------------------- Adjust result for case 2. < argument < 12. ---------------------------------------------------------- */ for (i = 0; i < n; ++i) { res *= y; y += 1.; } } } else { /* ------------------------------------------------------------- Evaluate for argument >= 12., ------------------------------------------------------------- */ if (y <= xbig) { ysq = y * y; sum = c[6]; for (i = 0; i < 6; ++i) { sum = sum / ysq + c[i]; } sum = sum / y - y + sqrtpi; sum += (y - .5) * log(y); res = exp(sum); } else { return(ML_POSINF); } }"
gamma_cody, 4, 24, 17756, -1, "/* -------------------------------------------------------------- Argument < EPS -------------------------------------------------------------- */ if (y >= DBL_MIN) { res = 1. / y; } else { return(ML_POSINF); }"
gamma_cody, 5, 27, 1, 2, "if (y < 12.) { yi = y; if (y < 1.) { /* --------------------------------------------------------- EPS < argument < 1 --------------------------------------------------------- */ z = y; y += 1.; } else { /* ----------------------------------------------------------- 1 <= argument < 12, reduce argument if necessary ----------------------------------------------------------- */ n = (long) y - 1; y -= (double) n; z = y - 1.; } /* --------------------------------------------------------- Evaluate approximation for 1. < argument < 2. ---------------------------------------------------------*/ xnum = 0.; xden = 1.; for (i = 0; i < 8; ++i) { xnum = (xnum + p[i]) * z; xden = xden * z + q[i]; } res = xnum / xden + 1.; if (yi < y) { /* -------------------------------------------------------- Adjust result for case 0. < argument < 1. -------------------------------------------------------- */ res /= yi; } else if (yi > y) { /* ---------------------------------------------------------- Adjust result for case 2. < argument < 12. ---------------------------------------------------------- */ for (i = 0; i < n; ++i) { res *= y; y += 1.; } } } else { /* ------------------------------------------------------------- Evaluate for argument >= 12., ------------------------------------------------------------- */ if (y <= xbig) { ysq = y * y; sum = c[6]; for (i = 0; i < 6; ++i) { sum = sum / ysq + c[i]; } sum = sum / y - y + sqrtpi; sum += (y - .5) * log(y); res = exp(sum); } else { return(ML_POSINF); } }"
gamma_cody, 6, 29, 224, 1, "if (y < 1.) { /* --------------------------------------------------------- EPS < argument < 1 --------------------------------------------------------- */ z = y; y += 1.; } else { /* ----------------------------------------------------------- 1 <= argument < 12, reduce argument if necessary ----------------------------------------------------------- */ n = (long) y - 1; y -= (double) n; z = y - 1.; }"
gamma_cody, 7, 37, 1, 1, "for (i = 0; i < 8; ++i) { xnum = (xnum + p[i]) * z; xden = xden * z + q[i]; }"
gamma_cody, 8, 41, 224, 1, "if (yi < y) { /* -------------------------------------------------------- Adjust result for case 0. < argument < 1. -------------------------------------------------------- */ res /= yi; } else if (yi > y) { /* ---------------------------------------------------------- Adjust result for case 2. < argument < 12. ---------------------------------------------------------- */ for (i = 0; i < n; ++i) { res *= y; y += 1.; } }"
gamma_cody, 9, 43, 1, 24, "if (yi > y) { /* ---------------------------------------------------------- Adjust result for case 2. < argument < 12. ---------------------------------------------------------- */ for (i = 0; i < n; ++i) { res *= y; y += 1.; } }"
gamma_cody, 10, 44, 1, 1, "/* ---------------------------------------------------------- Adjust result for case 2. < argument < 12. ---------------------------------------------------------- */ for (i = 0; i < n; ++i) { res *= y; y += 1.; }"
gamma_cody, 11, 47, 2, -1, "/* ------------------------------------------------------------- Evaluate for argument >= 12., ------------------------------------------------------------- */ if (y <= xbig) { ysq = y * y; sum = c[6]; for (i = 0; i < 6; ++i) { sum = sum / ysq + c[i]; } sum = sum / y - y + sqrtpi; sum += (y - .5) * log(y); res = exp(sum); } else { return(ML_POSINF); }"
gamma_cody, 12, 50, 2, 2, "for (i = 0; i < 6; ++i) { sum = sum / ysq + c[i]; }"
gamma_cody, 13, 56, 3, 1, "/* ---------------------------------------------------------------------- Final adjustments and return ----------------------------------------------------------------------*/ if (parity) res = -res;"
gamma_cody, 14, 58, 1, 2, "if (fact != 1.) res = fact / res;"
