Test Object, Condition No, node, True Evaluations, False Evaluations, Code
gamma_cody, 0, 13, 1, 5, "if (y <= 0) { /* ------------------------------------------------------------- Argument is negative ------------------------------------------------------------- */ y = -x; yi = ftrunc(y); res = y - yi; if (res != 0) { if (yi != ftrunc(yi * .5) * 2.) parity = (1); fact = -M_PI / sin(M_PI * res); y += 1.; } else { return(ML_POSINF); } }"
gamma_cody, 1, 17, 1, 7, "if (res != 0) { if (yi != ftrunc(yi * .5) * 2.) parity = (1); fact = -M_PI / sin(M_PI * res); y += 1.; } else { return(ML_POSINF); }"
gamma_cody, 2, 18, 2, 1, "if (yi != ftrunc(yi * .5) * 2.) parity = (1);"
