Test Object, Condition No, node, True Evaluations, False Evaluations, Code
gradient_calc_bilinear_factor, 0, 5, -1, 1, "if (dist == 0.0) { rat = 0.0; } else { offset /= 100.0; r = *(vec + 0) * x + *(vec + 1) * y; rat = r / dist; tmp___0 = fabs(rat); if (tmp___0 < offset) { rat = 0.0; } else { if (offset == 1.0) { if (rat == 1.0) { rat = 1.0; } else { rat = 0.0; } } else { tmp = fabs(rat); rat = (tmp - offset) / (1.0 - offset); } } }"
gradient_calc_bilinear_factor, 1, 11, 41, 1, "if (tmp___0 < offset) { rat = 0.0; } else { if (offset == 1.0) { if (rat == 1.0) { rat = 1.0; } else { rat = 0.0; } } else { tmp = fabs(rat); rat = (tmp - offset) / (1.0 - offset); } }"
gradient_calc_bilinear_factor, 2, 13, 57, 1, "if (offset == 1.0) { if (rat == 1.0) { rat = 1.0; } else { rat = 0.0; } } else { tmp = fabs(rat); rat = (tmp - offset) / (1.0 - offset); }"
gradient_calc_bilinear_factor, 3, 14, -1, 57, "if (rat == 1.0) { rat = 1.0; } else { rat = 0.0; }"
gradient_calc_conical_asym_factor, 0, 8, -1, 1, "if (dist == 0.0) { rat = 0.0; } else { if (x != (gdouble )0) { goto _L; } else { if (y != (gdouble )0) { _L: tmp = atan2(*(axis + 0), *(axis + 1)); ang0 = tmp + 3.1412; tmp___0 = atan2(x, y); ang1 = tmp___0 + 3.1412; ang = ang1 - ang0; if (ang < 0.0) { ang += 2.0 * 3.1412; } rat = ang / (2.0 * 3.1412); rat = pow(rat, offset / 10.0 + 1.0); if (rat > 1.0) { rat = 1.0; } else { if (rat < 0.0) { tmp___1 = 0.0; } else { tmp___1 = rat; } rat = tmp___1; } } else { rat = 0.5; } } }"
gradient_calc_conical_asym_factor, 1, 10, 1, -1, "if (x != (gdouble )0) { goto _L; } else { if (y != (gdouble )0) { _L: tmp = atan2(*(axis + 0), *(axis + 1)); ang0 = tmp + 3.1412; tmp___0 = atan2(x, y); ang1 = tmp___0 + 3.1412; ang = ang1 - ang0; if (ang < 0.0) { ang += 2.0 * 3.1412; } rat = ang / (2.0 * 3.1412); rat = pow(rat, offset / 10.0 + 1.0); if (rat > 1.0) { rat = 1.0; } else { if (rat < 0.0) { tmp___1 = 0.0; } else { tmp___1 = rat; } rat = tmp___1; } } else { rat = 0.5; } }"
gradient_calc_conical_asym_factor, 2, 12, -1, -1, "if (y != (gdouble )0) { _L: tmp = atan2(*(axis + 0), *(axis + 1)); ang0 = tmp + 3.1412; tmp___0 = atan2(x, y); ang1 = tmp___0 + 3.1412; ang = ang1 - ang0; if (ang < 0.0) { ang += 2.0 * 3.1412; } rat = ang / (2.0 * 3.1412); rat = pow(rat, offset / 10.0 + 1.0); if (rat > 1.0) { rat = 1.0; } else { if (rat < 0.0) { tmp___1 = 0.0; } else { tmp___1 = rat; } rat = tmp___1; } } else { rat = 0.5; }"
gradient_calc_conical_asym_factor, 3, 19, 1, 57, "if (ang < 0.0) { ang += 2.0 * 3.1412; }"
gradient_calc_conical_asym_factor, 4, 23, 29, 1, "if (rat > 1.0) { rat = 1.0; } else { if (rat < 0.0) { tmp___1 = 0.0; } else { tmp___1 = rat; } rat = tmp___1; }"
gradient_calc_conical_asym_factor, 5, 25, -1, 1, "if (rat < 0.0) { tmp___1 = 0.0; } else { tmp___1 = rat; }"
gradient_calc_conical_sym_factor, 0, 6, -1, 1, "if (dist == 0.0) { rat = 0.0; } else { if (x != (gdouble )0) { goto _L; } else { if (y != (gdouble )0) { _L: r = sqrt(x * x + y * y); vec[0] = x / r; vec[1] = y / r; rat = *(axis + 0) * vec[0] + *(axis + 1) * vec[1]; if (rat > 1.0) { rat = 1.0; } else { if (rat < - 1.0) { rat = - 1.0; } } tmp = acos(rat); rat = tmp / 3.1412; rat = pow(rat, offset / 10.0 + 1.0); if (rat > 1.0) { rat = 1.0; } else { if (rat < 0.0) { tmp___0 = 0.0; } else { tmp___0 = rat; } rat = tmp___0; } } else { rat = 0.5; } } }"
gradient_calc_conical_sym_factor, 1, 8, 1, -1, "if (x != (gdouble )0) { goto _L; } else { if (y != (gdouble )0) { _L: r = sqrt(x * x + y * y); vec[0] = x / r; vec[1] = y / r; rat = *(axis + 0) * vec[0] + *(axis + 1) * vec[1]; if (rat > 1.0) { rat = 1.0; } else { if (rat < - 1.0) { rat = - 1.0; } } tmp = acos(rat); rat = tmp / 3.1412; rat = pow(rat, offset / 10.0 + 1.0); if (rat > 1.0) { rat = 1.0; } else { if (rat < 0.0) { tmp___0 = 0.0; } else { tmp___0 = rat; } rat = tmp___0; } } else { rat = 0.5; } }"
gradient_calc_conical_sym_factor, 2, 10, -1, -1, "if (y != (gdouble )0) { _L: r = sqrt(x * x + y * y); vec[0] = x / r; vec[1] = y / r; rat = *(axis + 0) * vec[0] + *(axis + 1) * vec[1]; if (rat > 1.0) { rat = 1.0; } else { if (rat < - 1.0) { rat = - 1.0; } } tmp = acos(rat); rat = tmp / 3.1412; rat = pow(rat, offset / 10.0 + 1.0); if (rat > 1.0) { rat = 1.0; } else { if (rat < 0.0) { tmp___0 = 0.0; } else { tmp___0 = rat; } rat = tmp___0; } } else { rat = 0.5; }"
gradient_calc_conical_sym_factor, 3, 16, 16, 1, "if (rat > 1.0) { rat = 1.0; } else { if (rat < - 1.0) { rat = - 1.0; } }"
gradient_calc_conical_sym_factor, 4, 18, 1, 35, "if (rat < - 1.0) { rat = - 1.0; }"
gradient_calc_conical_sym_factor, 5, 23, 1, 16, "if (rat > 1.0) { rat = 1.0; } else { if (rat < 0.0) { tmp___0 = 0.0; } else { tmp___0 = rat; } rat = tmp___0; }"
gradient_calc_conical_sym_factor, 6, 25, -1, 16, "if (rat < 0.0) { tmp___0 = 0.0; } else { tmp___0 = rat; }"
gradient_calc_linear_factor, 0, 3, -1, 1, "if (dist == 0.0) { rat = 0.0; } else { offset /= 100.0; r = *(vec + 0) * x + *(vec + 1) * y; rat = r / dist; if (rat >= 0.0) { if (rat < offset) { rat = 0.0; } else { goto _L; } } else { _L: if (offset == 1.0) { if (rat >= 1.0) { rat = 1.0; } else { rat = 0.0; } } else { if (rat < 0.0) { rat /= 1.0 - offset; } else { rat = (rat - offset) / (1.0 - offset); } } } }"
gradient_calc_linear_factor, 1, 8, 1, 27, "if (rat >= 0.0) { if (rat < offset) { rat = 0.0; } else { goto _L; } } else { _L: if (offset == 1.0) { if (rat >= 1.0) { rat = 1.0; } else { rat = 0.0; } } else { if (rat < 0.0) { rat /= 1.0 - offset; } else { rat = (rat - offset) / (1.0 - offset); } } }"
gradient_calc_linear_factor, 2, 9, 46, 1, "if (rat < offset) { rat = 0.0; } else { goto _L; }"
gradient_calc_linear_factor, 3, 13, 57, 1, "if (offset == 1.0) { if (rat >= 1.0) { rat = 1.0; } else { rat = 0.0; } } else { if (rat < 0.0) { rat /= 1.0 - offset; } else { rat = (rat - offset) / (1.0 - offset); } }"
gradient_calc_linear_factor, 4, 14, 57, 71, "if (rat >= 1.0) { rat = 1.0; } else { rat = 0.0; }"
gradient_calc_linear_factor, 5, 17, 27, 1, "if (rat < 0.0) { rat /= 1.0 - offset; } else { rat = (rat - offset) / (1.0 - offset); }"
gradient_calc_radial_factor, 0, 3, -1, 1, "if (dist == 0.0) { rat = 0.0; } else { offset /= 100.0; r = sqrt(x * x + y * y); rat = r / dist; if (rat < offset) { rat = 0.0; } else { if (offset == 1.0) { if (rat >= 1.0) { rat = 1.0; } else { rat = 0.0; } } else { rat = (rat - offset) / (1.0 - offset); } } }"
gradient_calc_radial_factor, 1, 8, 14, 1, "if (rat < offset) { rat = 0.0; } else { if (offset == 1.0) { if (rat >= 1.0) { rat = 1.0; } else { rat = 0.0; } } else { rat = (rat - offset) / (1.0 - offset); } }"
gradient_calc_radial_factor, 2, 10, 417, 1, "if (offset == 1.0) { if (rat >= 1.0) { rat = 1.0; } else { rat = 0.0; } } else { rat = (rat - offset) / (1.0 - offset); }"
gradient_calc_radial_factor, 3, 11, 417, -1, "if (rat >= 1.0) { rat = 1.0; } else { rat = 0.0; }"
gradient_calc_spiral_factor, 0, 9, 89733, 1, "if (dist == 0.0) { rat = 0.0; } else { if (x != 0.0) { goto _L; } else { if (y != 0.0) { _L: tmp = atan2(*(axis + 0), *(axis + 1)); ang0 = tmp + 3.1412; tmp___0 = atan2(x, y); ang1 = tmp___0 + 3.1412; if (clockwise) { ang = ang1 - ang0; } else { ang = ang0 - ang1; } if (ang < 0.0) { ang += 2.0 * 3.1412; } tmp___1 = sqrt(x * x + y * y); r = tmp___1 / dist; rat = (ang / (2.0 * 3.1412) + r) + offset; rat = fmod(rat, 1.0); } else { rat = 0.5; } } }"
gradient_calc_spiral_factor, 1, 11, 1, -1, "if (x != 0.0) { goto _L; } else { if (y != 0.0) { _L: tmp = atan2(*(axis + 0), *(axis + 1)); ang0 = tmp + 3.1412; tmp___0 = atan2(x, y); ang1 = tmp___0 + 3.1412; if (clockwise) { ang = ang1 - ang0; } else { ang = ang0 - ang1; } if (ang < 0.0) { ang += 2.0 * 3.1412; } tmp___1 = sqrt(x * x + y * y); r = tmp___1 / dist; rat = (ang / (2.0 * 3.1412) + r) + offset; rat = fmod(rat, 1.0); } else { rat = 0.5; } }"
gradient_calc_spiral_factor, 2, 13, -1, -1, "if (y != 0.0) { _L: tmp = atan2(*(axis + 0), *(axis + 1)); ang0 = tmp + 3.1412; tmp___0 = atan2(x, y); ang1 = tmp___0 + 3.1412; if (clockwise) { ang = ang1 - ang0; } else { ang = ang0 - ang1; } if (ang < 0.0) { ang += 2.0 * 3.1412; } tmp___1 = sqrt(x * x + y * y); r = tmp___1 / dist; rat = (ang / (2.0 * 3.1412) + r) + offset; rat = fmod(rat, 1.0); } else { rat = 0.5; }"
gradient_calc_spiral_factor, 3, 19, 1, 72172, "if (clockwise) { ang = ang1 - ang0; } else { ang = ang0 - ang1; }"
gradient_calc_spiral_factor, 4, 22, 1, 57, "if (ang < 0.0) { ang += 2.0 * 3.1412; }"
gradient_calc_square_factor, 0, 9, -1, 1, "if (dist == 0.0) { rat = 0.0; } else { offset /= 100.0; tmp___3 = abs(x); tmp___4 = abs(y); if (tmp___3 > tmp___4) { tmp___1 = abs(x); r = (double )tmp___1; } else { tmp___2 = abs(y); r = (double )tmp___2; } rat = r / dist; if (rat < offset) { rat = 0.0; } else { if (offset == 1.0) { if (rat >= 1.0) { rat = 1.0; } else { rat = 0.0; } } else { rat = (rat - offset) / (1.0 - offset); } } }"
gradient_calc_square_factor, 1, 14, -1, 1, "if (tmp___3 > tmp___4) { tmp___1 = abs(x); r = (double )tmp___1; } else { tmp___2 = abs(y); r = (double )tmp___2; }"
gradient_calc_square_factor, 2, 20, 1, 272, "if (rat < offset) { rat = 0.0; } else { if (offset == 1.0) { if (rat >= 1.0) { rat = 1.0; } else { rat = 0.0; } } else { rat = (rat - offset) / (1.0 - offset); } }"
gradient_calc_square_factor, 3, 22, 480, 272, "if (offset == 1.0) { if (rat >= 1.0) { rat = 1.0; } else { rat = 0.0; } } else { rat = (rat - offset) / (1.0 - offset); }"
gradient_calc_square_factor, 4, 23, 480, -1, "if (rat >= 1.0) { rat = 1.0; } else { rat = 0.0; }"
