Test Object, Condition No, node, True Evaluations, False Evaluations, Code
gradient_calc_bilinear_factor, 0, 5, 11644, 1, "if (dist == 0.0) { rat = 0.0; } else { offset /= 100.0; r = *(vec + 0) * x + *(vec + 1) * y; rat = r / dist; tmp___0 = fabs(rat); if (tmp___0 < offset) { rat = 0.0; } else { if (offset == 1.0) { if (rat == 1.0) { rat = 1.0; } else { rat = 0.0; } } else { tmp = fabs(rat); rat = (tmp - offset) / (1.0 - offset); } } }"
gradient_calc_bilinear_factor, 1, 11, 559, 1, "if (tmp___0 < offset) { rat = 0.0; } else { if (offset == 1.0) { if (rat == 1.0) { rat = 1.0; } else { rat = 0.0; } } else { tmp = fabs(rat); rat = (tmp - offset) / (1.0 - offset); } }"
gradient_calc_bilinear_factor, 2, 13, 8328, 1, "if (offset == 1.0) { if (rat == 1.0) { rat = 1.0; } else { rat = 0.0; } } else { tmp = fabs(rat); rat = (tmp - offset) / (1.0 - offset); }"
gradient_calc_bilinear_factor, 3, 14, -1, 8328, "if (rat == 1.0) { rat = 1.0; } else { rat = 0.0; }"
gradient_calc_conical_asym_factor, 0, 8, 11644, 1, "if (dist == 0.0) { rat = 0.0; } else { if (x != (gdouble )0) { goto _L; } else { if (y != (gdouble )0) { _L: tmp = atan2(*(axis + 0), *(axis + 1)); ang0 = tmp + 3.1412; tmp___0 = atan2(x, y); ang1 = tmp___0 + 3.1412; ang = ang1 - ang0; if (ang < 0.0) { ang += 2.0 * 3.1412; } rat = ang / (2.0 * 3.1412); rat = pow(rat, offset / 10.0 + 1.0); if (rat > 1.0) { rat = 1.0; } else { if (rat < 0.0) { tmp___1 = 0.0; } else { tmp___1 = rat; } rat = tmp___1; } } else { rat = 0.5; } } }"
gradient_calc_conical_asym_factor, 1, 10, 1, 17119, "if (x != (gdouble )0) { goto _L; } else { if (y != (gdouble )0) { _L: tmp = atan2(*(axis + 0), *(axis + 1)); ang0 = tmp + 3.1412; tmp___0 = atan2(x, y); ang1 = tmp___0 + 3.1412; ang = ang1 - ang0; if (ang < 0.0) { ang += 2.0 * 3.1412; } rat = ang / (2.0 * 3.1412); rat = pow(rat, offset / 10.0 + 1.0); if (rat > 1.0) { rat = 1.0; } else { if (rat < 0.0) { tmp___1 = 0.0; } else { tmp___1 = rat; } rat = tmp___1; } } else { rat = 0.5; } }"
gradient_calc_conical_asym_factor, 2, 12, 17119, -1, "if (y != (gdouble )0) { _L: tmp = atan2(*(axis + 0), *(axis + 1)); ang0 = tmp + 3.1412; tmp___0 = atan2(x, y); ang1 = tmp___0 + 3.1412; ang = ang1 - ang0; if (ang < 0.0) { ang += 2.0 * 3.1412; } rat = ang / (2.0 * 3.1412); rat = pow(rat, offset / 10.0 + 1.0); if (rat > 1.0) { rat = 1.0; } else { if (rat < 0.0) { tmp___1 = 0.0; } else { tmp___1 = rat; } rat = tmp___1; } } else { rat = 0.5; }"
gradient_calc_conical_asym_factor, 3, 19, 1, 3, "if (ang < 0.0) { ang += 2.0 * 3.1412; }"
gradient_calc_conical_asym_factor, 4, 23, 2, 1, "if (rat > 1.0) { rat = 1.0; } else { if (rat < 0.0) { tmp___1 = 0.0; } else { tmp___1 = rat; } rat = tmp___1; }"
gradient_calc_conical_asym_factor, 5, 25, -1, 1, "if (rat < 0.0) { tmp___1 = 0.0; } else { tmp___1 = rat; }"
gradient_calc_conical_sym_factor, 0, 6, 11644, 1, "if (dist == 0.0) { rat = 0.0; } else { if (x != (gdouble )0) { goto _L; } else { if (y != (gdouble )0) { _L: r = sqrt(x * x + y * y); vec[0] = x / r; vec[1] = y / r; rat = *(axis + 0) * vec[0] + *(axis + 1) * vec[1]; if (rat > 1.0) { rat = 1.0; } else { if (rat < - 1.0) { rat = - 1.0; } } tmp = acos(rat); rat = tmp / 3.1412; rat = pow(rat, offset / 10.0 + 1.0); if (rat > 1.0) { rat = 1.0; } else { if (rat < 0.0) { tmp___0 = 0.0; } else { tmp___0 = rat; } rat = tmp___0; } } else { rat = 0.5; } } }"
gradient_calc_conical_sym_factor, 1, 8, 1, 17119, "if (x != (gdouble )0) { goto _L; } else { if (y != (gdouble )0) { _L: r = sqrt(x * x + y * y); vec[0] = x / r; vec[1] = y / r; rat = *(axis + 0) * vec[0] + *(axis + 1) * vec[1]; if (rat > 1.0) { rat = 1.0; } else { if (rat < - 1.0) { rat = - 1.0; } } tmp = acos(rat); rat = tmp / 3.1412; rat = pow(rat, offset / 10.0 + 1.0); if (rat > 1.0) { rat = 1.0; } else { if (rat < 0.0) { tmp___0 = 0.0; } else { tmp___0 = rat; } rat = tmp___0; } } else { rat = 0.5; } }"
gradient_calc_conical_sym_factor, 2, 10, 17119, -1, "if (y != (gdouble )0) { _L: r = sqrt(x * x + y * y); vec[0] = x / r; vec[1] = y / r; rat = *(axis + 0) * vec[0] + *(axis + 1) * vec[1]; if (rat > 1.0) { rat = 1.0; } else { if (rat < - 1.0) { rat = - 1.0; } } tmp = acos(rat); rat = tmp / 3.1412; rat = pow(rat, offset / 10.0 + 1.0); if (rat > 1.0) { rat = 1.0; } else { if (rat < 0.0) { tmp___0 = 0.0; } else { tmp___0 = rat; } rat = tmp___0; } } else { rat = 0.5; }"
gradient_calc_conical_sym_factor, 3, 16, 2, 1, "if (rat > 1.0) { rat = 1.0; } else { if (rat < - 1.0) { rat = - 1.0; } }"
gradient_calc_conical_sym_factor, 4, 18, 1, 574, "if (rat < - 1.0) { rat = - 1.0; }"
gradient_calc_conical_sym_factor, 5, 23, 1, 5, "if (rat > 1.0) { rat = 1.0; } else { if (rat < 0.0) { tmp___0 = 0.0; } else { tmp___0 = rat; } rat = tmp___0; }"
gradient_calc_conical_sym_factor, 6, 25, -1, 5, "if (rat < 0.0) { tmp___0 = 0.0; } else { tmp___0 = rat; }"
gradient_calc_linear_factor, 0, 3, 11644, 1, "if (dist == 0.0) { rat = 0.0; } else { offset /= 100.0; r = *(vec + 0) * x + *(vec + 1) * y; rat = r / dist; if (rat >= 0.0) { if (rat < offset) { rat = 0.0; } else { goto _L; } } else { _L: if (offset == 1.0) { if (rat >= 1.0) { rat = 1.0; } else { rat = 0.0; } } else { if (rat < 0.0) { rat /= 1.0 - offset; } else { rat = (rat - offset) / (1.0 - offset); } } } }"
gradient_calc_linear_factor, 1, 8, 1, 4, "if (rat >= 0.0) { if (rat < offset) { rat = 0.0; } else { goto _L; } } else { _L: if (offset == 1.0) { if (rat >= 1.0) { rat = 1.0; } else { rat = 0.0; } } else { if (rat < 0.0) { rat /= 1.0 - offset; } else { rat = (rat - offset) / (1.0 - offset); } } }"
gradient_calc_linear_factor, 2, 9, 2665, 1, "if (rat < offset) { rat = 0.0; } else { goto _L; }"
gradient_calc_linear_factor, 3, 13, 8328, 1, "if (offset == 1.0) { if (rat >= 1.0) { rat = 1.0; } else { rat = 0.0; } } else { if (rat < 0.0) { rat /= 1.0 - offset; } else { rat = (rat - offset) / (1.0 - offset); } }"
gradient_calc_linear_factor, 4, 14, 51320, 8328, "if (rat >= 1.0) { rat = 1.0; } else { rat = 0.0; }"
gradient_calc_linear_factor, 5, 17, 4, 1, "if (rat < 0.0) { rat /= 1.0 - offset; } else { rat = (rat - offset) / (1.0 - offset); }"
gradient_calc_radial_factor, 0, 3, 12440, 1, "if (dist == 0.0) { rat = 0.0; } else { offset /= 100.0; r = sqrt(x * x + y * y); rat = r / dist; if (rat < offset) { rat = 0.0; } else { if (offset == 1.0) { if (rat >= 1.0) { rat = 1.0; } else { rat = 0.0; } } else { rat = (rat - offset) / (1.0 - offset); } } }"
gradient_calc_radial_factor, 1, 8, 1, 9, "if (rat < offset) { rat = 0.0; } else { if (offset == 1.0) { if (rat >= 1.0) { rat = 1.0; } else { rat = 0.0; } } else { rat = (rat - offset) / (1.0 - offset); } }"
gradient_calc_radial_factor, 2, 10, 10410, 9, "if (offset == 1.0) { if (rat >= 1.0) { rat = 1.0; } else { rat = 0.0; } } else { rat = (rat - offset) / (1.0 - offset); }"
gradient_calc_radial_factor, 3, 11, 10410, -1, "if (rat >= 1.0) { rat = 1.0; } else { rat = 0.0; }"
gradient_calc_spiral_factor, 0, 9, 54725, 1, "if (dist == 0.0) { rat = 0.0; } else { if (x != 0.0) { goto _L; } else { if (y != 0.0) { _L: tmp = atan2(*(axis + 0), *(axis + 1)); ang0 = tmp + 3.1412; tmp___0 = atan2(x, y); ang1 = tmp___0 + 3.1412; if (clockwise) { ang = ang1 - ang0; } else { ang = ang0 - ang1; } if (ang < 0.0) { ang += 2.0 * 3.1412; } tmp___1 = sqrt(x * x + y * y); r = tmp___1 / dist; rat = (ang / (2.0 * 3.1412) + r) + offset; rat = fmod(rat, 1.0); } else { rat = 0.5; } } }"
gradient_calc_spiral_factor, 1, 11, 1, 2287, "if (x != 0.0) { goto _L; } else { if (y != 0.0) { _L: tmp = atan2(*(axis + 0), *(axis + 1)); ang0 = tmp + 3.1412; tmp___0 = atan2(x, y); ang1 = tmp___0 + 3.1412; if (clockwise) { ang = ang1 - ang0; } else { ang = ang0 - ang1; } if (ang < 0.0) { ang += 2.0 * 3.1412; } tmp___1 = sqrt(x * x + y * y); r = tmp___1 / dist; rat = (ang / (2.0 * 3.1412) + r) + offset; rat = fmod(rat, 1.0); } else { rat = 0.5; } }"
gradient_calc_spiral_factor, 2, 13, 2287, -1, "if (y != 0.0) { _L: tmp = atan2(*(axis + 0), *(axis + 1)); ang0 = tmp + 3.1412; tmp___0 = atan2(x, y); ang1 = tmp___0 + 3.1412; if (clockwise) { ang = ang1 - ang0; } else { ang = ang0 - ang1; } if (ang < 0.0) { ang += 2.0 * 3.1412; } tmp___1 = sqrt(x * x + y * y); r = tmp___1 / dist; rat = (ang / (2.0 * 3.1412) + r) + offset; rat = fmod(rat, 1.0); } else { rat = 0.5; }"
gradient_calc_spiral_factor, 3, 19, 2, 1, "if (clockwise) { ang = ang1 - ang0; } else { ang = ang0 - ang1; }"
gradient_calc_spiral_factor, 4, 22, 2, 1, "if (ang < 0.0) { ang += 2.0 * 3.1412; }"
gradient_calc_square_factor, 0, 9, 12440, 1, "if (dist == 0.0) { rat = 0.0; } else { offset /= 100.0; tmp___3 = abs(x); tmp___4 = abs(y); if (tmp___3 > tmp___4) { tmp___1 = abs(x); r = (double )tmp___1; } else { tmp___2 = abs(y); r = (double )tmp___2; } rat = r / dist; if (rat < offset) { rat = 0.0; } else { if (offset == 1.0) { if (rat >= 1.0) { rat = 1.0; } else { rat = 0.0; } } else { rat = (rat - offset) / (1.0 - offset); } } }"
gradient_calc_square_factor, 1, 14, -1, 1, "if (tmp___3 > tmp___4) { tmp___1 = abs(x); r = (double )tmp___1; } else { tmp___2 = abs(y); r = (double )tmp___2; }"
gradient_calc_square_factor, 2, 20, 1, 4, "if (rat < offset) { rat = 0.0; } else { if (offset == 1.0) { if (rat >= 1.0) { rat = 1.0; } else { rat = 0.0; } } else { rat = (rat - offset) / (1.0 - offset); } }"
gradient_calc_square_factor, 3, 22, 10410, 4, "if (offset == 1.0) { if (rat >= 1.0) { rat = 1.0; } else { rat = 0.0; } } else { rat = (rat - offset) / (1.0 - offset); }"
gradient_calc_square_factor, 4, 23, 10410, -1, "if (rat >= 1.0) { rat = 1.0; } else { rat = 0.0; }"
