Test Object, Condition No, node, True Evaluations, False Evaluations, Code
cephes_bessel_I0, 0, 2, 2, 1, "if (x < 0) x = -x;"
cephes_bessel_I0, 1, 4, 183, 1, "if (x <= 8.0) { y = (x/2.0) - 2.0; return exp(x) * chbevl(y, A, 30); }"
i0e, 0, 2, 2, 1, "if (x < 0) x = -x;"
i0e, 1, 4, 183, 1, "if (x <= 8.0) { y = (x/2.0) - 2.0; return chbevl(y, A, 30); }"
