Test Object, Condition No, node, True Evaluations, False Evaluations, Code
cephes_bessel_K0, 0, 2, 1, 2, "if (x <= 0.0) { mtherr("k0", CEPHES_DOMAIN); return MAXNUM; }"
cephes_bessel_K0, 1, 5, 230, 2, "if (x <= 2.0) { y = x * x - 2.0; y = chbevl(y, A, 10) - log(0.5 * x) * cephes_bessel_I0(x); return y; }"
k0e, 0, 2, 1, 2, "if (x <= 0.0) { mtherr("k0e", CEPHES_DOMAIN); return MAXNUM; }"
k0e, 1, 5, 230, 2, "if (x <= 2.0) { y = x * x - 2.0; y = chbevl(y, A, 10) - log(0.5 * x) * cephes_bessel_I0(x); return y * exp(x); }"
