Test Object, Condition No, node, True Evaluations, False Evaluations, Code
pnorm5, 0, 2, -1, 1, "/* Note: The structure of these checks has been carefully thought through. * For example, if x == mu and sigma == 0, we get the correct answer 1. */ #ifdef IEEE_754 if(ISNAN(x) || ISNAN(mu) || ISNAN(sigma)) return x + mu + sigma;"
pnorm5, 1, 2, -1, 1, "/* Note: The structure of these checks has been carefully thought through. * For example, if x == mu and sigma == 0, we get the correct answer 1. */ #ifdef IEEE_754 if(ISNAN(x) || ISNAN(mu) || ISNAN(sigma)) return x + mu + sigma;"
pnorm5, 2, 2, -1, 1, "/* Note: The structure of these checks has been carefully thought through. * For example, if x == mu and sigma == 0, we get the correct answer 1. */ #ifdef IEEE_754 if(ISNAN(x) || ISNAN(mu) || ISNAN(sigma)) return x + mu + sigma;"
pnorm5, 3, 4, 446, 1, "#endif if(!R_FINITE(x) && mu == x) return ML_NAN;"
pnorm5, 4, 4, 446, 1, "#endif if(!R_FINITE(x) && mu == x) return ML_NAN;"
pnorm5, 5, 6, 1, 17, "if (sigma <= 0) { if(sigma < 0) ML_ERR_return_NAN; return (x < mu) ? R_DT_0 : R_DT_1; }"
pnorm5, 6, 7, 1, 24192, "if(sigma < 0) ML_ERR_return_NAN;"
pnorm5, 7, 11, 17, -1, "if(!R_FINITE(p)) return (x < mu) ? R_DT_0 : R_DT_1;"
pnorm_both, 0, 10, -1, 1, "#ifdef IEEE_754 if(ISNAN(x)) { *cum = *ccum = x; return; }"
pnorm_both, 1, 17, 35, 1, "if (y <= 0.67448975) { if (y > eps) { xsq = x * x; xnum = a[4] * xsq; xden = xsq; for (i = 0; i < 3; ++i) { xnum = (xnum + a[i]) * xsq; xden = (xden + b[i]) * xsq; } } else xnum = xden = 0.0; temp = x * (xnum + a[3]) / (xden + b[3]); if(lower) *cum = 0.5 + temp; if(upper) *ccum = 0.5 - temp; if(log_p) { if(lower) *cum = log(*cum); if(upper) *ccum = log(*ccum); } } else if (y <= M_SQRT_32) { xnum = c[8] * y; xden = y; for (i = 0; i < 7; ++i) { xnum = (xnum + c[i]) * y; xden = (xden + d[i]) * y; } temp = (xnum + c[7]) / (xden + d[7]); #define do_del(X) \ xsq = trunc(X * SIXTEN) / SIXTEN; \ del = (X - xsq) * (X + xsq); \ if(log_p) { \ *cum = (-xsq * xsq * 0.5) + (-del * 0.5) + log(temp); \ if((lower && x > 0.) || (upper && x <= 0.)) \ *ccum = log1p(-exp(-xsq * xsq * 0.5) * \ exp(-del * 0.5) * temp); \ } \ else { \ *cum = exp(-xsq * xsq * 0.5) * exp(-del * 0.5) * temp; \ *ccum = 1.0 - *cum; \ } #define swap_tail \ if (x > 0.) { \ temp = *cum; if(lower) *cum = *ccum; *ccum = temp; \ } do_del(y); swap_tail; } /* else |x| > sqrt(32) = 5.657 : * the next two case differentiations were really for lower=T, log=F * Particularly *not* for log_p ! * Cody had (-37.5193 < x && x < 8.2924) ; R originally had y < 50 * * Note that we do want symmetry(0), lower/upper -> hence use y */ else if((log_p && y < 1e170) /* ^^^^^ MM FIXME: can speedup for log_p and much larger |x| ! * Then, make use of Abramowitz & Stegun, 26.2.13, something like xsq = x*x; if(xsq * DBL_EPSILON < 1.) del = (1. - (1. - 5./(xsq+6.)) / (xsq+4.)) / (xsq+2.); else del = 0.; *cum = -.5*xsq - M_LN_SQRT_2PI - log(x) + log1p(-del); *ccum = log1p(-exp(*cum)); /.* ~ log(1) = 0 *./ swap_tail; [Yes, but xsq might be infinite.] */ || (lower && -37.5193 < x && x < 8.2924) || (upper && -8.2924 < x && x < 37.5193) ) { xsq = 1.0 / (x * x); xnum = p[5] * xsq; xden = xsq; for (i = 0; i < 4; ++i) { xnum = (xnum + p[i]) * xsq; xden = (xden + q[i]) * xsq; } temp = xsq * (xnum + p[4]) / (xden + q[4]); temp = (M_1_SQRT_2PI - temp) / y; do_del(x); swap_tail; } else { if(x > 0) { *cum = R_D__1; *ccum = R_D__0; } else { *cum = R_D__0; *ccum = R_D__1; } }"
pnorm_both, 2, 18, 35, 11497, "if (y > eps) { xsq = x * x; xnum = a[4] * xsq; xden = xsq; for (i = 0; i < 3; ++i) { xnum = (xnum + a[i]) * xsq; xden = (xden + b[i]) * xsq; } } else xnum = xden = 0.0;"
pnorm_both, 3, 22, 1549, 1549, "for (i = 0; i < 3; ++i) { xnum = (xnum + a[i]) * xsq; xden = (xden + b[i]) * xsq; }"
pnorm_both, 4, 27, 35, 42, "if(lower) *cum = 0.5 + temp;"
pnorm_both, 5, 29, 42, 35, "if(upper) *ccum = 0.5 - temp;"
pnorm_both, 6, 31, 43, 35, "if(log_p) { if(lower) *cum = log(*cum); if(upper) *ccum = log(*ccum); }"
pnorm_both, 7, 32, 43, 50, "if(lower) *cum = log(*cum);"
pnorm_both, 8, 34, 50, 43, "if(upper) *ccum = log(*ccum);"
pnorm_both, 9, 36, 32, 1, "if (y <= M_SQRT_32) { xnum = c[8] * y; xden = y; for (i = 0; i < 7; ++i) { xnum = (xnum + c[i]) * y; xden = (xden + d[i]) * y; } temp = (xnum + c[7]) / (xden + d[7]); #define do_del(X) \ xsq = trunc(X * SIXTEN) / SIXTEN; \ del = (X - xsq) * (X + xsq); \ if(log_p) { \ *cum = (-xsq * xsq * 0.5) + (-del * 0.5) + log(temp); \ if((lower && x > 0.) || (upper && x <= 0.)) \ *ccum = log1p(-exp(-xsq * xsq * 0.5) * \ exp(-del * 0.5) * temp); \ } \ else { \ *cum = exp(-xsq * xsq * 0.5) * exp(-del * 0.5) * temp; \ *ccum = 1.0 - *cum; \ } #define swap_tail \ if (x > 0.) { \ temp = *cum; if(lower) *cum = *ccum; *ccum = temp; \ } do_del(y); swap_tail; } /* else |x| > sqrt(32) = 5.657 : * the next two case differentiations were really for lower=T, log=F * Particularly *not* for log_p ! * Cody had (-37.5193 < x && x < 8.2924) ; R originally had y < 50 * * Note that we do want symmetry(0), lower/upper -> hence use y */ else if((log_p && y < 1e170) /* ^^^^^ MM FIXME: can speedup for log_p and much larger |x| ! * Then, make use of Abramowitz & Stegun, 26.2.13, something like xsq = x*x; if(xsq * DBL_EPSILON < 1.) del = (1. - (1. - 5./(xsq+6.)) / (xsq+4.)) / (xsq+2.); else del = 0.; *cum = -.5*xsq - M_LN_SQRT_2PI - log(x) + log1p(-del); *ccum = log1p(-exp(*cum)); /.* ~ log(1) = 0 *./ swap_tail; [Yes, but xsq might be infinite.] */ || (lower && -37.5193 < x && x < 8.2924) || (upper && -8.2924 < x && x < 37.5193) ) { xsq = 1.0 / (x * x); xnum = p[5] * xsq; xden = xsq; for (i = 0; i < 4; ++i) { xnum = (xnum + p[i]) * xsq; xden = (xden + q[i]) * xsq; } temp = xsq * (xnum + p[4]) / (xden + q[4]); temp = (M_1_SQRT_2PI - temp) / y; do_del(x); swap_tail; } else { if(x > 0) { *cum = R_D__1; *ccum = R_D__0; } else { *cum = R_D__0; *ccum = R_D__1; } }"
pnorm_both, 10, 39, 32, 32, "for (i = 0; i < 7; ++i) { xnum = (xnum + c[i]) * y; xden = (xden + d[i]) * y; }"
pnorm_both, 11, 45, 9, 1, "if((log_p && y < 1e170) /* ^^^^^ MM FIXME: can speedup for log_p and much larger |x| ! * Then, make use of Abramowitz & Stegun, 26.2.13, something like xsq = x*x; if(xsq * DBL_EPSILON < 1.) del = (1. - (1. - 5./(xsq+6.)) / (xsq+4.)) / (xsq+2.); else del = 0.; *cum = -.5*xsq - M_LN_SQRT_2PI - log(x) + log1p(-del); *ccum = log1p(-exp(*cum)); /.* ~ log(1) = 0 *./ swap_tail; [Yes, but xsq might be infinite.] */ || (lower && -37.5193 < x && x < 8.2924) || (upper && -8.2924 < x && x < 37.5193) ) { xsq = 1.0 / (x * x); xnum = p[5] * xsq; xden = xsq; for (i = 0; i < 4; ++i) { xnum = (xnum + p[i]) * xsq; xden = (xden + q[i]) * xsq; } temp = xsq * (xnum + p[4]) / (xden + q[4]); temp = (M_1_SQRT_2PI - temp) / y; do_del(x); swap_tail; } else { if(x > 0) { *cum = R_D__1; *ccum = R_D__0; } else { *cum = R_D__0; *ccum = R_D__1; } }"
pnorm_both, 12, 45, 9, 1, "if((log_p && y < 1e170) /* ^^^^^ MM FIXME: can speedup for log_p and much larger |x| ! * Then, make use of Abramowitz & Stegun, 26.2.13, something like xsq = x*x; if(xsq * DBL_EPSILON < 1.) del = (1. - (1. - 5./(xsq+6.)) / (xsq+4.)) / (xsq+2.); else del = 0.; *cum = -.5*xsq - M_LN_SQRT_2PI - log(x) + log1p(-del); *ccum = log1p(-exp(*cum)); /.* ~ log(1) = 0 *./ swap_tail; [Yes, but xsq might be infinite.] */ || (lower && -37.5193 < x && x < 8.2924) || (upper && -8.2924 < x && x < 37.5193) ) { xsq = 1.0 / (x * x); xnum = p[5] * xsq; xden = xsq; for (i = 0; i < 4; ++i) { xnum = (xnum + p[i]) * xsq; xden = (xden + q[i]) * xsq; } temp = xsq * (xnum + p[4]) / (xden + q[4]); temp = (M_1_SQRT_2PI - temp) / y; do_del(x); swap_tail; } else { if(x > 0) { *cum = R_D__1; *ccum = R_D__0; } else { *cum = R_D__0; *ccum = R_D__1; } }"
pnorm_both, 13, 45, 9, 1, "if((log_p && y < 1e170) /* ^^^^^ MM FIXME: can speedup for log_p and much larger |x| ! * Then, make use of Abramowitz & Stegun, 26.2.13, something like xsq = x*x; if(xsq * DBL_EPSILON < 1.) del = (1. - (1. - 5./(xsq+6.)) / (xsq+4.)) / (xsq+2.); else del = 0.; *cum = -.5*xsq - M_LN_SQRT_2PI - log(x) + log1p(-del); *ccum = log1p(-exp(*cum)); /.* ~ log(1) = 0 *./ swap_tail; [Yes, but xsq might be infinite.] */ || (lower && -37.5193 < x && x < 8.2924) || (upper && -8.2924 < x && x < 37.5193) ) { xsq = 1.0 / (x * x); xnum = p[5] * xsq; xden = xsq; for (i = 0; i < 4; ++i) { xnum = (xnum + p[i]) * xsq; xden = (xden + q[i]) * xsq; } temp = xsq * (xnum + p[4]) / (xden + q[4]); temp = (M_1_SQRT_2PI - temp) / y; do_del(x); swap_tail; } else { if(x > 0) { *cum = R_D__1; *ccum = R_D__0; } else { *cum = R_D__0; *ccum = R_D__1; } }"
pnorm_both, 14, 49, 9, 9, "for (i = 0; i < 4; ++i) { xnum = (xnum + p[i]) * xsq; xden = (xden + q[i]) * xsq; }"
pnorm_both, 15, 56, 1, 12, "if(x > 0) { *cum = R_D__1; *ccum = R_D__0; } else { *cum = R_D__0; *ccum = R_D__1; }"
pnorm_both, 16, 61, -1, -1, "#ifdef NO_DENORMS if(log_p) { if(*cum > -min) *cum = -0.; if(*ccum > -min)*ccum = -0.; } else { if(*cum < min) *cum = 0.; if(*ccum < min) *ccum = 0.; }"
pnorm_both, 17, 62, -1, -1, "if(*cum > -min) *cum = -0.;"
pnorm_both, 18, 64, -1, -1, "if(*ccum > -min)*ccum = -0.;"
pnorm_both, 19, 66, -1, -1, "if(*cum < min) *cum = 0.;"
pnorm_both, 20, 68, -1, -1, "if(*ccum < min) *ccum = 0.;"
