Test Object, Condition No, node, True Evaluations, False Evaluations, Code
ptukey, 0, 15, -1, 1, "#ifdef IEEE_754 if (ISNAN(q) || ISNAN(rr) || ISNAN(cc) || ISNAN(df)) ML_ERR_return_NAN;"
ptukey, 1, 15, -1, 1, "#ifdef IEEE_754 if (ISNAN(q) || ISNAN(rr) || ISNAN(cc) || ISNAN(df)) ML_ERR_return_NAN;"
ptukey, 2, 15, -1, 1, "#ifdef IEEE_754 if (ISNAN(q) || ISNAN(rr) || ISNAN(cc) || ISNAN(df)) ML_ERR_return_NAN;"
ptukey, 3, 15, -1, 1, "#ifdef IEEE_754 if (ISNAN(q) || ISNAN(rr) || ISNAN(cc) || ISNAN(df)) ML_ERR_return_NAN;"
ptukey, 4, 17, 1, 2, "#endif if (q <= 0) return R_DT_0;"
ptukey, 5, 19, 2, 12, "if (df < 2 || rr < 1 || cc < 2) ML_ERR_return_NAN;"
ptukey, 6, 19, 2, 12, "if (df < 2 || rr < 1 || cc < 2) ML_ERR_return_NAN;"
ptukey, 7, 19, 2, 12, "if (df < 2 || rr < 1 || cc < 2) ML_ERR_return_NAN;"
ptukey, 8, 21, 12, -1, "if(!R_FINITE(q)) return R_DT_1;"
ptukey, 9, 23, -1, -1, "if (df > dlarg) return R_DT_val(wprob(q, rr, cc));"
ptukey, 10, 29, -1, -1, "if (df <= dhaf) ulen = ulen1; else if (df <= dquar) ulen = ulen2; else if (df <= deigh) ulen = ulen3; else ulen = ulen4;"
ptukey, 11, 31, -1, -1, "if (df <= dquar) ulen = ulen2; else if (df <= deigh) ulen = ulen3; else ulen = ulen4;"
ptukey, 12, 33, -1, -1, "if (df <= deigh) ulen = ulen3; else ulen = ulen4;"
ptukey, 13, 38, -1, -1, "for (i = 1; i <= 50; i++) { otsum = 0.0; twa1 = (2 * i - 1) * ulen; for (jj = 1; jj <= nlegq; jj++) { if (ihalfq < jj) { j = jj - ihalfq - 1; t1 = (f2lf + (f21 * log(twa1 + (xlegq[j] * ulen)))) - (((xlegq[j] * ulen) + twa1) * ff4); } else { j = jj - 1; t1 = (f2lf + (f21 * log(twa1 - (xlegq[j] * ulen)))) + (((xlegq[j] * ulen) - twa1) * ff4); } if (t1 >= eps1) { if (ihalfq < jj) { qsqz = q * sqrt(((xlegq[j] * ulen) + twa1) * 0.5); } else { qsqz = q * sqrt(((-(xlegq[j] * ulen)) + twa1) * 0.5); } wprb = wprob(qsqz, rr, cc); rotsum = (wprb * alegq[j]) * exp(t1); otsum += rotsum; } } /* if integral for interval i < 1e-14, then stop. * However, in order to avoid small area under left tail, * at least 1 / ulen intervals are calculated. */ if (i * ulen >= 1.0 && otsum <= eps2) break; ans += otsum; }"
ptukey, 14, 41, -1, -1, "for (jj = 1; jj <= nlegq; jj++) { if (ihalfq < jj) { j = jj - ihalfq - 1; t1 = (f2lf + (f21 * log(twa1 + (xlegq[j] * ulen)))) - (((xlegq[j] * ulen) + twa1) * ff4); } else { j = jj - 1; t1 = (f2lf + (f21 * log(twa1 - (xlegq[j] * ulen)))) + (((xlegq[j] * ulen) - twa1) * ff4); } if (t1 >= eps1) { if (ihalfq < jj) { qsqz = q * sqrt(((xlegq[j] * ulen) + twa1) * 0.5); } else { qsqz = q * sqrt(((-(xlegq[j] * ulen)) + twa1) * 0.5); } wprb = wprob(qsqz, rr, cc); rotsum = (wprb * alegq[j]) * exp(t1); otsum += rotsum; } }"
ptukey, 15, 42, -1, -1, "if (ihalfq < jj) { j = jj - ihalfq - 1; t1 = (f2lf + (f21 * log(twa1 + (xlegq[j] * ulen)))) - (((xlegq[j] * ulen) + twa1) * ff4); } else { j = jj - 1; t1 = (f2lf + (f21 * log(twa1 - (xlegq[j] * ulen)))) + (((xlegq[j] * ulen) - twa1) * ff4); }"
ptukey, 16, 47, -1, -1, "if (t1 >= eps1) { if (ihalfq < jj) { qsqz = q * sqrt(((xlegq[j] * ulen) + twa1) * 0.5); } else { qsqz = q * sqrt(((-(xlegq[j] * ulen)) + twa1) * 0.5); } wprb = wprob(qsqz, rr, cc); rotsum = (wprb * alegq[j]) * exp(t1); otsum += rotsum; }"
ptukey, 17, 48, -1, -1, "if (ihalfq < jj) { qsqz = q * sqrt(((xlegq[j] * ulen) + twa1) * 0.5); } else { qsqz = q * sqrt(((-(xlegq[j] * ulen)) + twa1) * 0.5); }"
ptukey, 18, 54, -1, -1, "/* if integral for interval i < 1e-14, then stop. * However, in order to avoid small area under left tail, * at least 1 / ulen intervals are calculated. */ if (i * ulen >= 1.0 && otsum <= eps2) break;"
ptukey, 19, 54, -1, -1, "/* if integral for interval i < 1e-14, then stop. * However, in order to avoid small area under left tail, * at least 1 / ulen intervals are calculated. */ if (i * ulen >= 1.0 && otsum <= eps2) break;"
ptukey, 20, 57, -1, -1, "if(otsum > eps2) { ML_ERROR(ME_PRECISION, "ptukey"); }"
ptukey, 21, 59, -1, -1, "if (ans > 1.) ans = 1.;"
wprob, 0, 14, 2, 1, "if (qsqz >= bb) return 1.0;"
wprob, 1, 17, 159, 1, "if (pr_w >= exp(C2 / cc)) pr_w = pow(pr_w, cc); else pr_w = 0.0;"
wprob, 2, 20, 159, 1, "if (w > wlar) wincr = wincr1; else wincr = wincr2;"
wprob, 3, 28, 1, 1, "for (wi = 1; wi <= wincr; wi++) { elsum = 0.0; a = 0.5 * (bub + blb); b = 0.5 * (bub - blb); for (jj = 1; jj <= nleg; jj++) { if (ihalf < jj) { j = (nleg - jj) + 1; xx = xleg[j-1]; } else { j = jj; xx = -xleg[j-1]; } c = b * xx; ac = a + c; qexpo = ac * ac; if (qexpo > C3) break; pplus = 2 * pnorm(ac, 0., 1., 1,0); pminus= 2 * pnorm(ac, w, 1., 1,0); rinsum = (pplus * 0.5) - (pminus * 0.5); if (rinsum >= exp(C1 / cc1)) { rinsum = (aleg[j-1] * exp(-(0.5 * qexpo))) * pow(rinsum, cc1); elsum += rinsum; } } elsum *= (((2.0 * b) * cc) * M_1_SQRT_2PI); einsum += elsum; blb = bub; bub += binc; }"
wprob, 4, 32, 1, 40, "for (jj = 1; jj <= nleg; jj++) { if (ihalf < jj) { j = (nleg - jj) + 1; xx = xleg[j-1]; } else { j = jj; xx = -xleg[j-1]; } c = b * xx; ac = a + c; qexpo = ac * ac; if (qexpo > C3) break; pplus = 2 * pnorm(ac, 0., 1., 1,0); pminus= 2 * pnorm(ac, w, 1., 1,0); rinsum = (pplus * 0.5) - (pminus * 0.5); if (rinsum >= exp(C1 / cc1)) { rinsum = (aleg[j-1] * exp(-(0.5 * qexpo))) * pow(rinsum, cc1); elsum += rinsum; } }"
wprob, 5, 33, 40, 1, "if (ihalf < jj) { j = (nleg - jj) + 1; xx = xleg[j-1]; } else { j = jj; xx = -xleg[j-1]; }"
wprob, 6, 41, 1, 40, "if (qexpo > C3) break;"
wprob, 7, 46, 159, 40, "if (rinsum >= exp(C1 / cc1)) { rinsum = (aleg[j-1] * exp(-(0.5 * qexpo))) * pow(rinsum, cc1); elsum += rinsum; }"
wprob, 8, 54, 1, 741, "if (pr_w <= exp(C1 / rr)) return 0.;"
wprob, 9, 57, 741, 30554, "if (pr_w >= 1.) return 1.;"
