Test Object, Condition No, node, True Evaluations, False Evaluations, Code
clip_to_circle, 0, 7, 1, 9039, "if ((*x1-cx) || (*y1-cy)) theta1 = atan2((double) *y1 - cy, (double) *x1 - cx); else theta1 = M_PI;"
clip_to_circle, 1, 7, 1, 9039, "if ((*x1-cx) || (*y1-cy)) theta1 = atan2((double) *y1 - cy, (double) *x1 - cx); else theta1 = M_PI;"
clip_to_circle, 2, 10, 1, 10896, "if ((*x2-cx) || (*y2-cy)) theta2 = atan2((double) *y2 - cy, (double) *x2 - cx); else theta2 = M_PI;"
clip_to_circle, 3, 10, 1, 10896, "if ((*x2-cx) || (*y2-cy)) theta2 = atan2((double) *y2 - cy, (double) *x2 - cx); else theta2 = M_PI;"
clip_to_circle, 4, 13, 5, 1, "if (theta1 < 0.0) theta1 = 2 * M_PI + theta1;"
clip_to_circle, 5, 15, 4, 1, "if (theta2 < 0.0) theta2 = 2 * M_PI + theta2;"
clip_to_circle, 6, 18, 4, 1, "if (dtheta > M_PI) dtheta = dtheta - 2 * M_PI; else if (dtheta < - M_PI) dtheta = 2 * M_PI - dtheta;"
clip_to_circle, 7, 20, 95, 1, "if (dtheta < - M_PI) dtheta = 2 * M_PI - dtheta;"
clip_to_circle, 8, 22, 1, 3, "if (dtheta < 0) { tt = theta1; theta1 = theta2; theta2 = tt; i = *x1; *x1 = *x2; *x2 = i; i = *y1; *y1 = *y2; *y2 = i; flip = true; dtheta = -dtheta; }"
clip_to_circle, 9, 40, 4, 1, "if ((dt < a) && (dt < b)) { tt = (a * a + c * c - b * b) / (2 * a * c); if (tt > 1.0) tt = 1.0; else if (tt < -1.0) tt = -1.0; alpha = acos(tt); perplen = a * sin(alpha); } else if (a < b) { perplen = a; } else { perplen = b; }"
clip_to_circle, 10, 40, 4, 1, "if ((dt < a) && (dt < b)) { tt = (a * a + c * c - b * b) / (2 * a * c); if (tt > 1.0) tt = 1.0; else if (tt < -1.0) tt = -1.0; alpha = acos(tt); perplen = a * sin(alpha); } else if (a < b) { perplen = a; } else { perplen = b; }"
clip_to_circle, 11, 42, -1, 4, "if (tt > 1.0) tt = 1.0; else if (tt < -1.0) tt = -1.0;"
clip_to_circle, 12, 44, -1, 4, "if (tt < -1.0) tt = -1.0;"
clip_to_circle, 13, 48, 2, 1, "if (a < b) { perplen = a; } else { perplen = b; }"
clip_to_circle, 14, 51, 1, 3, "if (perplen >= rad) return (true);"
clip_to_circle, 15, 53, 4, 3, "if (a > rad) { tt = (a * a + c * c - b * b) / (2 * a * c); if (tt > 1.0) tt = 1.0; else if (tt < -1.0) tt = -1.0; alpha = acos(tt); gamma = asin(sin(alpha) * a / rad); if (gamma < M_PI / 2) gamma = M_PI - gamma; beta = M_PI - alpha - gamma; *x1 = (int) (cx + rad * cos(theta1 + beta) + 0.5); *y1 = (int) (cy + rad * sin(theta1 + beta) + 0.5); }"
clip_to_circle, 16, 55, -1, 4, "if (tt > 1.0) tt = 1.0; else if (tt < -1.0) tt = -1.0;"
clip_to_circle, 17, 57, -1, 4, "if (tt < -1.0) tt = -1.0;"
clip_to_circle, 18, 61, 4, -1, "if (gamma < M_PI / 2) gamma = M_PI - gamma;"
clip_to_circle, 19, 66, 4, 3, "if (b > rad) { tt = (c * c + b * b - a * a) / (2 * b * c); if (tt > 1.0) tt = 1.0; else if (tt < -1.0) tt = -1.0; alpha = acos(tt); gamma = asin(sin(alpha) * b / rad); if (gamma < M_PI / 2) gamma = M_PI - gamma; beta = M_PI - alpha - gamma; *x2 = (int) (cx + rad * cos(theta2 - beta) + 0.5); *y2 = (int) (cy + rad * sin(theta2 - beta) + 0.5); }"
clip_to_circle, 20, 68, -1, 4, "if (tt > 1.0) tt = 1.0; else if (tt < -1.0) tt = -1.0;"
clip_to_circle, 21, 70, -1, 4, "if (tt < -1.0) tt = -1.0;"
clip_to_circle, 22, 74, 4, -1, "if (gamma < M_PI / 2) gamma = M_PI - gamma;"
clip_to_circle, 23, 79, 4, 3, "if (flip) { i = *x1; *x1 = *x2; *x2 = i; i = *y1; *y1 = *y2; *y2 = i; }"
