Test Object, Condition No, node, True Evaluations, False Evaluations, Code
bratio, 0, 7, 1, 14, "if (a < 0.0 || b < 0.0) { *ierr = 1; return; }"
bratio, 1, 7, 1, 14, "if (a < 0.0 || b < 0.0) { *ierr = 1; return; }"
bratio, 2, 10, -1, 14, "if (a == 0.0 && b == 0.0) { *ierr = 2; return; }"
bratio, 3, 10, -1, 14, "if (a == 0.0 && b == 0.0) { *ierr = 2; return; }"
bratio, 4, 13, 14, 8908, "if (x < 0.0 || x > 1.0) { *ierr = 3; return; }"
bratio, 5, 13, 14, 8908, "if (x < 0.0 || x > 1.0) { *ierr = 3; return; }"
bratio, 6, 16, 8908, 17154, "if (y < 0.0 || y > 1.0) { *ierr = 4; return; }"
bratio, 7, 16, 8908, 17154, "if (y < 0.0 || y > 1.0) { *ierr = 4; return; }"
bratio, 8, 20, 17154, -1, "if (fabs(z) > eps * 3.0) { *ierr = 5; return; }"
bratio, 9, 25, -1, -1, "if (x == 0.0) goto L200;"
bratio, 10, 27, -1, -1, "if (y == 0.0) goto L210;"
bratio, 11, 29, -1, -1, "if (a == 0.0) goto L211;"
bratio, 12, 31, -1, -1, "if (b == 0.0) goto L201;"
bratio, 13, 34, -1, -1, "if (max(a,b) < eps * .001) { if(log_p) { z = log(a + b); *w = log(b) - z; *w1 = log(a) - z; } else { *w = b / (a + b); *w1 = a / (a + b); } return; }"
bratio, 14, 35, -1, -1, "if(log_p) { z = log(a + b); *w = log(b) - z; *w1 = log(a) - z; } else { *w = b / (a + b); *w1 = a / (a + b); }"
bratio, 15, 42, -1, -1, "#define SET_0_noswap \ a0 = a; x0 = x; \ b0 = b; y0 = y; #define SET_0_swap \ a0 = b; x0 = y; \ b0 = a; y0 = x; if (min(a,b) <= 1.) { do_swap = (x > 0.5); if (do_swap) { SET_0_swap; } else { SET_0_noswap; } #ifdef DEBUG_bratio REprintf(" min(a,b) <= 1 : do_swap = %d; ", do_swap); #endif if (b0 < min(eps, eps * a0)) { *w = fpser(a0, b0, x0, eps, log_p); *w1 = log_p ? R_Log1_Exp(*w) : 0.5 - *w + 0.5; #ifdef DEBUG_bratio REprintf(" b0 small -> w := fpser(*) = %15g\n", *w); #endif goto L_end_after_log; } if (a0 < min(eps, eps * b0) && b0 * x0 <= 1.0) { *w1 = apser(a0, b0, x0, eps); #ifdef DEBUG_bratio REprintf(" a0 small -> w1 := apser(*) = %15g\n", *w1); #endif goto L_end_from_w1; } if (max(a0,b0) > 1.0) { #ifdef DEBUG_bratio REprintf(" L20: min(a,b) <= 1 < max(a,b); "); #endif if (b0 <= 1.0) goto L100; if (x0 >= 0.29) goto L110; if (x0 < 0.1) { if (pow(x0*b0, a0) <= 0.7) { goto L100; } } if (b0 > 15.0) { *w1 = 0.; goto L131; } } else { #ifdef DEBUG_bratio REprintf(" both a,b <= 1; "); #endif if (a0 >= min(0.2, b0)) goto L100; if (pow(x0, a0) <= 0.9) goto L100; if (x0 >= 0.3) goto L110; } n = 20; *w1 = bup(b0, a0, y0, x0, n, eps); #ifdef DEBUG_bratio REprintf(" ... n=20 and *w1 := bup(*) = %15g; "); #endif b0 += n; L131: bgrat(b0, a0, y0, x0, w1, 15*eps, &ierr1); #ifdef DEBUG_bratio REprintf(" L131: bgrat(*, w1) ==> w1 = %15g\n", *w1); #endif goto L_end_from_w1; } else { if (a > b) lambda = (a + b) * y - b; else lambda = a - (a + b) * x; do_swap = (lambda < 0.0); if (do_swap) { lambda = -lambda; SET_0_swap; } else { SET_0_noswap; } #ifdef DEBUG_bratio REprintf(" L30: both a, b > 1; |lambda| = %#g, do_swap = %d\n", lambda, do_swap); #endif if (b0 < 40.0) { #ifdef DEBUG_bratio REprintf(" b0 < 40; "); #endif if (b0 * x0 <= 0.7 || (log_p && lambda > 650.)) goto L100; else goto L140; } else if (a0 > b0) { #ifdef DEBUG_bratio REprintf(" a0 > b0 >= 40; "); #endif if (b0 <= 100.0 || lambda > b0 * 0.03) goto L120; } else if (a0 <= 100.0) { #ifdef DEBUG_bratio REprintf(" a0 <= 100; a0 <= b0 >= 40; "); #endif goto L120; } else if (lambda > a0 * 0.03) { #ifdef DEBUG_bratio REprintf(" b0 >= a0 > 100; lambda > a0 * 0.03 "); #endif goto L120; } *w = basym(a0, b0, lambda, eps * 100.0, log_p); *w1 = log_p ? R_Log1_Exp(*w) : 0.5 - *w + 0.5; #ifdef DEBUG_bratio REprintf(" b0 >= a0 > 100; lambda <= a0 * 0.03: *w := basym(*) = %15g\n", *w); #endif goto L_end_after_log; }"
bratio, 16, 44, -1, -1, "if (do_swap) { SET_0_swap; } else { SET_0_noswap; }"
bratio, 17, 48, -1, -1, "#endif if (b0 < min(eps, eps * a0)) { *w = fpser(a0, b0, x0, eps, log_p); *w1 = log_p ? R_Log1_Exp(*w) : 0.5 - *w + 0.5; #ifdef DEBUG_bratio REprintf(" b0 small -> w := fpser(*) = %15g\n", *w); #endif goto L_end_after_log; }"
bratio, 18, 53, -1, -1, "if (a0 < min(eps, eps * b0) && b0 * x0 <= 1.0) { *w1 = apser(a0, b0, x0, eps); #ifdef DEBUG_bratio REprintf(" a0 small -> w1 := apser(*) = %15g\n", *w1); #endif goto L_end_from_w1; }"
bratio, 19, 53, -1, -1, "if (a0 < min(eps, eps * b0) && b0 * x0 <= 1.0) { *w1 = apser(a0, b0, x0, eps); #ifdef DEBUG_bratio REprintf(" a0 small -> w1 := apser(*) = %15g\n", *w1); #endif goto L_end_from_w1; }"
bratio, 20, 57, -1, -1, "if (max(a0,b0) > 1.0) { #ifdef DEBUG_bratio REprintf(" L20: min(a,b) <= 1 < max(a,b); "); #endif if (b0 <= 1.0) goto L100; if (x0 >= 0.29) goto L110; if (x0 < 0.1) { if (pow(x0*b0, a0) <= 0.7) { goto L100; } } if (b0 > 15.0) { *w1 = 0.; goto L131; } } else { #ifdef DEBUG_bratio REprintf(" both a,b <= 1; "); #endif if (a0 >= min(0.2, b0)) goto L100; if (pow(x0, a0) <= 0.9) goto L100; if (x0 >= 0.3) goto L110; }"
bratio, 21, 59, -1, -1, "#endif if (b0 <= 1.0) goto L100;"
bratio, 22, 61, -1, -1, "if (x0 >= 0.29) goto L110;"
bratio, 23, 63, -1, -1, "if (x0 < 0.1) { if (pow(x0*b0, a0) <= 0.7) { goto L100; } }"
bratio, 24, 64, -1, -1, "if (pow(x0*b0, a0) <= 0.7) { goto L100; }"
bratio, 25, 66, -1, -1, "if (b0 > 15.0) { *w1 = 0.; goto L131; }"
bratio, 26, 70, -1, -1, "#endif if (a0 >= min(0.2, b0)) goto L100;"
bratio, 27, 72, -1, -1, "if (pow(x0, a0) <= 0.9) goto L100;"
bratio, 28, 74, -1, -1, "if (x0 >= 0.3) goto L110;"
bratio, 29, 84, -1, -1, "if (a > b) lambda = (a + b) * y - b; else lambda = a - (a + b) * x;"
bratio, 30, 88, -1, -1, "if (do_swap) { lambda = -lambda; SET_0_swap; } else { SET_0_noswap; }"
bratio, 31, 93, -1, -1, "#endif if (b0 < 40.0) { #ifdef DEBUG_bratio REprintf(" b0 < 40; "); #endif if (b0 * x0 <= 0.7 || (log_p && lambda > 650.)) goto L100; else goto L140; } else if (a0 > b0) { #ifdef DEBUG_bratio REprintf(" a0 > b0 >= 40; "); #endif if (b0 <= 100.0 || lambda > b0 * 0.03) goto L120; } else if (a0 <= 100.0) { #ifdef DEBUG_bratio REprintf(" a0 <= 100; a0 <= b0 >= 40; "); #endif goto L120; } else if (lambda > a0 * 0.03) { #ifdef DEBUG_bratio REprintf(" b0 >= a0 > 100; lambda > a0 * 0.03 "); #endif goto L120; }"
bratio, 32, 95, -1, -1, "#endif if (b0 * x0 <= 0.7 || (log_p && lambda > 650.)) goto L100; else goto L140;"
bratio, 33, 95, -1, -1, "#endif if (b0 * x0 <= 0.7 || (log_p && lambda > 650.)) goto L100; else goto L140;"
bratio, 34, 98, -1, -1, "if (a0 > b0) { #ifdef DEBUG_bratio REprintf(" a0 > b0 >= 40; "); #endif if (b0 <= 100.0 || lambda > b0 * 0.03) goto L120; } else if (a0 <= 100.0) { #ifdef DEBUG_bratio REprintf(" a0 <= 100; a0 <= b0 >= 40; "); #endif goto L120; } else if (lambda > a0 * 0.03) { #ifdef DEBUG_bratio REprintf(" b0 >= a0 > 100; lambda > a0 * 0.03 "); #endif goto L120; }"
bratio, 35, 100, -1, -1, "#endif if (b0 <= 100.0 || lambda > b0 * 0.03) goto L120;"
bratio, 36, 100, -1, -1, "#endif if (b0 <= 100.0 || lambda > b0 * 0.03) goto L120;"
bratio, 37, 102, -1, -1, "if (a0 <= 100.0) { #ifdef DEBUG_bratio REprintf(" a0 <= 100; a0 <= b0 >= 40; "); #endif goto L120; } else if (lambda > a0 * 0.03) { #ifdef DEBUG_bratio REprintf(" b0 >= a0 > 100; lambda > a0 * 0.03 "); #endif goto L120; }"
bratio, 38, 105, -1, -1, "if (lambda > a0 * 0.03) { #ifdef DEBUG_bratio REprintf(" b0 >= a0 > 100; lambda > a0 * 0.03 "); #endif goto L120; }"
bratio, 39, 130, -1, -1, "if (b0 == 0.) { --n; b0 = 1.; }"
bratio, 40, 135, -1, -1, "#endif if(*w < DBL_MIN && log_p) { b0 += n; goto L100; }"
bratio, 41, 135, -1, -1, "#endif if(*w < DBL_MIN && log_p) { b0 += n; goto L100; }"
bratio, 42, 138, -1, -1, "if (x0 <= 0.7) { *w += bpser(a0, b0, x0, eps, FALSE); #ifdef DEBUG_bratio REprintf(" x0 <= 0.7: *w := *w + bpser(*) = %15g\n", *w); #endif goto L_end_from_w; }"
bratio, 43, 142, -1, -1, "if (a0 <= 15.0) { n = 20; *w += bup(a0, b0, x0, y0, n, eps); #ifdef DEBUG_bratio REprintf("\n a0 <= 15: *w := *w + bup(*) = %15g;", *w); #endif a0 += n; }"
bratio, 44, 151, -1, -1, "if (a == 0.0) { *ierr = 6; return; }"
bratio, 45, 159, -1, -1, "if (b == 0.0) { *ierr = 7; return; }"
bratio, 46, 167, -1, -1, "if(log_p) { *w1 = log1p(-*w); *w = log(*w); } else { *w1 = 0.5 - *w + 0.5; }"
bratio, 47, 173, -1, -1, "if(log_p) { *w = log1p(-*w1); *w1 = log(*w1); } else { *w = 0.5 - *w1 + 0.5; }"
bratio, 48, 178, -1, -1, "if (do_swap) { double t = *w; *w = *w1; *w1 = t; }"
psi, 0, 13, -1, 1, "if(xmax1 > d2) xmax1 = d2;"
psi, 1, 17, 1, 2, "if (x < 0.5) { if (fabs(x) <= xsmall) { if (x == 0.0) { goto L_err; } aug = -1.0 / x; } else { w = -x; sgn = piov4; if (w <= 0.0) { w = -w; sgn = -sgn; } if (w >= xmax1) { goto L_err; } nq = (int) w; w -= (double) nq; nq = (int) (w * 4.0); w = (w - (double) nq * 0.25) * 4.0; n = nq / 2; if (n + n != nq) { w = 1.0 - w; } z = piov4 * w; m = n / 2; if (m + m != n) { sgn = -sgn; } n = (nq + 1) / 2; m = n / 2; m += m; if (m == n) { if (z == 0.0) { goto L_err; } aug = sgn * (cos(z) / sin(z) * 4.0); } else { aug = sgn * (sin(z) / cos(z) * 4.0); } } x = 1.0 - x; }"
psi, 2, 18, 8763, 1, "if (fabs(x) <= xsmall) { if (x == 0.0) { goto L_err; } aug = -1.0 / x; } else { w = -x; sgn = piov4; if (w <= 0.0) { w = -w; sgn = -sgn; } if (w >= xmax1) { goto L_err; } nq = (int) w; w -= (double) nq; nq = (int) (w * 4.0); w = (w - (double) nq * 0.25) * 4.0; n = nq / 2; if (n + n != nq) { w = 1.0 - w; } z = piov4 * w; m = n / 2; if (m + m != n) { sgn = -sgn; } n = (nq + 1) / 2; m = n / 2; m += m; if (m == n) { if (z == 0.0) { goto L_err; } aug = sgn * (cos(z) / sin(z) * 4.0); } else { aug = sgn * (sin(z) / cos(z) * 4.0); } }"
psi, 3, 19, 8763, 10199, "if (x == 0.0) { goto L_err; }"
psi, 4, 24, 2287, 1, "if (w <= 0.0) { w = -w; sgn = -sgn; }"
psi, 5, 27, -1, 1, "if (w >= xmax1) { goto L_err; }"
psi, 6, 34, 7, 1, "if (n + n != nq) { w = 1.0 - w; }"
psi, 7, 38, 1, 8, "if (m + m != n) { sgn = -sgn; }"
psi, 8, 43, 7, 1, "if (m == n) { if (z == 0.0) { goto L_err; } aug = sgn * (cos(z) / sin(z) * 4.0); } else { aug = sgn * (sin(z) / cos(z) * 4.0); }"
psi, 9, 44, 8, 7, "if (z == 0.0) { goto L_err; }"
psi, 10, 49, 125, 1, "if (x <= 3.0) { den = x; upper = p1[0] * x; for (i = 1; i <= 5; ++i) { den = (den + q1[i - 1]) * x; upper = (upper + p1[i]) * x; } den = (upper + p1[6]) / (den + q1[5]); xmx0 = x - dx0; return den * xmx0 + aug; }"
psi, 11, 52, 125, 125, "for (i = 1; i <= 5; ++i) { den = (den + q1[i - 1]) * x; upper = (upper + p1[i]) * x; }"
psi, 12, 58, 1, -1, "if (x < xmax1) { w = 1.0 / (x * x); den = w; upper = p2[0] * w; for (i = 1; i <= 3; ++i) { den = (den + q2[i - 1]) * w; upper = (upper + p2[i]) * w; } aug = upper / (den + q2[3]) - 0.5 / x + aug; }"
psi, 13, 62, 1, 1, "for (i = 1; i <= 3; ++i) { den = (den + q2[i - 1]) * w; upper = (upper + p2[i]) * w; }"
