File,Function,Start,End,ConditionNo,node,EdgeType,Estimate,Min,Max,Count,Mean,TrueEvaluations,FalseEvaluations,MinEvals,Method
gamma_cody.c,gamma_cody(),30127,30138,0,13,BO,N,2,3,4.0,2.5,1.0,2.0,1.0,random
gamma_cody.c,gamma_cody(),30344,30471,1,17,BO,N,3,9,34.0,5.971,1.0,19.0,1.0,random
gamma_cody.c,gamma_cody(),30366,30396,2,18,BO,N,2,13,144.0,8.125,3.0,3.0,3.0,random
