File,Function,Start,End,ConditionNo,node,EdgeType,Estimate,Min,Max,Count,Mean,TrueEvaluations,FalseEvaluations,MinEvals,Method
gamma_cody.c,gamma_cody(),30127,30138,0,13,BO,N,2,3,4.0,2.5,1.0,2.0,1.0,dcEvolve
gamma_cody.c,gamma_cody(),30344,30471,1,17,BO,N,3,9,34.0,5.971,1.0,19.0,1.0,dcEvolve
gamma_cody.c,gamma_cody(),30366,30396,2,18,BO,N,2,13,144.0,8.125,3.0,3.0,3.0,dcEvolve
gamma_cody.c,gamma_cody(),30688,30953,3,23,BO,N,2,11,115.0,7.217,15490.0,1.0,1.0,dcEvolve
gamma_cody.c,gamma_cody(),30868,30913,4,24,BO,N,2,12,158.0,7.93,15490.0,-1.0,15490.0,dcEvolve
gamma_cody.c,gamma_cody(),30955,32267,5,27,BO,N,2,12,158.0,7.93,6.0,1.0,1.0,dcEvolve
gamma_cody.c,gamma_cody(),30980,31188,6,29,BO,N,2,13,201.0,8.552,119.5,6.5,6.5,dcEvolve
gamma_cody.c,gamma_cody(),31666,31670,7,37,BO,N,3,15,474.0,9.93,6.0,6.0,6.0,dcEvolve
gamma_cody.c,gamma_cody(),31769,31989,8,41,BO,N,3,16,1091.0,10.074,119.5,6.5,6.5,dcEvolve
gamma_cody.c,gamma_cody(),31991,32001,9,43,BO,N,3,17,2024.0,10.703,6.5,69.0,6.5,dcEvolve
gamma_cody.c,gamma_cody(),32211,32215,10,44,BO,N,3,20,6317.0,12.602,6.5,6.5,6.5,dcEvolve
gamma_cody.c,gamma_cody(),32441,32648,11,47,BO,N,1,13,203.0,8.483,1.0,-1.0,1.0,dcEvolve
gamma_cody.c,gamma_cody(),32510,32514,12,50,BO,N,2,16,609.0,10.483,1.0,1.0,1.0,dcEvolve
gamma_cody.c,gamma_cody(),32883,32893,13,56,BO,N,2,15,1025.0,9.663,3.0,1.0,1.0,dcEvolve
gamma_cody.c,gamma_cody(),32912,32926,14,58,BO,N,2,15,1015.0,9.572,1.0,2.0,1.0,dcEvolve
