File,Function,Start,End,ConditionNo,node,EdgeType,Estimate,Min,Max,Count,Mean,TrueEvaluations,FalseEvaluations,MinEvals,Method
gamma.c,gammafn(),28822,28833,1,12,BO,N,2,9,29.0,4.966,-1.0,1.0,1.0,dcEvolve
gamma.c,gammafn(),28938,28975,2,14,BO,N,1,13,64.0,7.906,11.5,1.0,1.0,dcEvolve
gamma.c,gammafn(),28942,28947,3,14,BO,N,1,11,60.0,6.3,11.5,1.0,1.0,dcEvolve
gamma.c,gammafn(),29057,30127,4,18,BO,N,2,19,1004.0,10.793,79.0,1.0,1.0,dcEvolve
gamma.c,gammafn(),29205,29213,5,20,BO,N,1,20,1006.0,11.772,126.5,119.5,119.5,dcEvolve
gamma.c,gammafn(),29333,29343,6,25,BO,N,3,23,5026.0,13.582,1299.0,79.0,79.0,dcEvolve
gamma.c,gammafn(),29388,29991,7,27,BO,N,3,25,14074.0,14.781,118.5,127.5,118.5,dcEvolve
gamma.c,gammafn(),29602,29654,8,28,BO,N,2,30,42232.0,18.444,-1.0,118.5,118.5,dcEvolve
gamma.c,gammafn(),29781,29793,10,30,BO,N,2,26,18098.0,15.39,-1.0,118.5,118.5,dcEvolve
gamma.c,gammafn(),29832,29865,11,32,BO,N,1,27,18100.0,16.388,-1.0,-1.0,-1.0,dcEvolve
gamma.c,gammafn(),29924,29928,12,36,BO,N,3,31,221214.0,18.655,118.5,118.5,118.5,dcEvolve
gamma.c,gammafn(),30050,30055,13,39,BO,N,3,28,46244.0,16.541,127.5,127.5,127.5,dcEvolve
gamma.c,gammafn(),30168,30180,14,42,BO,N,1,20,1006.0,11.772,2.0,1.0,1.0,dcEvolve
gamma.c,gammafn(),30265,30277,15,45,BO,N,1,22,2014.0,13.261,2.0,3.0,2.0,dcEvolve
gamma.c,gammafn(),30360,30477,16,48,BO,N,3,25,5536.0,14.722,3523.5,3.0,3.0,dcEvolve
gamma.c,gammafn(),30446,30450,18,50,BO,N,3,28,17362.0,16.493,1277.0,1277.0,1277.0,dcEvolve
gamma.c,gammafn(),30614,30623,19,53,BO,N,1,24,4030.0,14.754,8.5,6.0,6.0,dcEvolve
gamma.c,gammafn(),30646,30686,20,55,BO,N,2,29,24184.0,17.918,5943.5,6.0,6.0,dcEvolve
gamma.c,gammafn(),30875,30890,21,58,BO,N,2,30,32996.0,18.166,-1.0,6.0,6.0,dcEvolve
