File,Function,Start,End,ConditionNo,node,EdgeType,Estimate,Min,Max,Count,Mean,TrueEvaluations,FalseEvaluations,MinEvals,Method
gamma_cody.c,gamma_cody(),30127,30138,0,13,CO,N,2,2,1.0,2.0,1.0,2.0,1.0,random
gamma_cody.c,gamma_cody(),30344,30471,1,17,CO,N,3,3,1.0,3.0,1.0,19.0,1.0,random
gamma_cody.c,gamma_cody(),30366,30396,2,18,CO,N,4,4,1.0,4.0,3.0,3.0,3.0,random
