File,Function,Start,End,ConditionNo,node,EdgeType,Estimate,Min,Max,Count,Mean,TrueEvaluations,FalseEvaluations,MinEvals,Method
pnchisq.c,pnchisq(),30129,30136,0,2,DO,N,4,5,3.0,4.667,-1.0,1.0,1.0,dcEvolve
pnchisq.c,pnchisq(),30261,30284,6,6,DO,N,1,1,1.0,1.0,-1.0,-1.0,-1.0,dcEvolve
pnchisq.c,pnchisq(),30388,30400,7,9,DO,N,1,1,1.0,1.0,-1.0,-1.0,-1.0,dcEvolve
pnchisq.c,pnchisq(),30405,30497,8,10,DO,N,1,1,1.0,1.0,-1.0,-1.0,-1.0,dcEvolve
pnchisq.c,pnchisq(),30591,30605,9,12,DO,N,5,5,25.0,5.0,-1.0,-1.0,-1.0,dcEvolve
pnchisq.c,pnchisq(),30709,30719,10,15,DO,N,1,1,1.0,1.0,-1.0,-1.0,-1.0,dcEvolve
pnchisq.c,pnchisq(),30809,30817,11,17,DO,N,1,1,1.0,1.0,-1.0,-1.0,-1.0,dcEvolve
pnchisq.c,pnchisq_raw(),31427,31438,0,7,DO,N,1,1,1.0,1.0,1.0,2.0,1.0,dcEvolve
pnchisq.c,pnchisq_raw(),31446,31452,1,8,DO,N,1,1,1.0,1.0,-1.0,1.0,1.0,dcEvolve
pnchisq.c,pnchisq_raw(),31765,31778,4,14,DO,N,1,1,1.0,1.0,-1.0,-1.0,-1.0,dcEvolve
pnchisq.c,pnchisq_raw(),32134,32153,6,21,DO,N,4,7,3.0,5.667,-1.0,-1.0,-1.0,dcEvolve
pnchisq.c,pnchisq_raw(),32360,32560,7,28,DO,N,2,3,2.0,2.5,-1.0,-1.0,-1.0,dcEvolve
pnchisq.c,pnchisq_raw(),32784,32807,8,38,DO,N,2,2,1.0,2.0,-1.0,-1.0,-1.0,dcEvolve
pnchisq.c,pnchisq_raw(),33381,33625,10,44,DO,N,2,7,15.0,5.267,-1.0,-1.0,-1.0,dcEvolve
pnchisq.c,pnchisq_raw(),33393,33439,11,45,DO,N,1,3,5.0,1.8,-1.0,-1.0,-1.0,dcEvolve
pnchisq.c,pnchisq_raw(),34031,34045,13,57,DO,N,3,4,4.0,3.5,-1.0,-1.0,-1.0,dcEvolve
pnchisq.c,pnchisq_raw(),34347,34372,14,61,DO,N,2,13,71.0,9.789,-1.0,-1.0,-1.0,dcEvolve
pnchisq.c,pnchisq_raw(),34818,35201,16,64,DO,N,2,3,2.0,2.5,-1.0,-1.0,-1.0,dcEvolve
pnchisq.c,pnchisq_raw(),34898,34919,17,66,DO,N,1,6,3.0,3.667,-1.0,-1.0,-1.0,dcEvolve
pnchisq.c,pnchisq_raw(),35241,35621,18,72,DO,N,2,7,15.0,5.267,-1.0,-1.0,-1.0,dcEvolve
pnchisq.c,pnchisq_raw(),35323,35344,19,74,DO,N,1,7,18.0,5.222,-1.0,-1.0,-1.0,dcEvolve
pnchisq.c,pnchisq_raw(),35659,35665,20,79,DO,N,2,3,2.0,2.5,-1.0,-1.0,-1.0,dcEvolve
pnchisq.c,pnchisq_raw(),35759,35768,22,82,DO,N,2,2,1.0,2.0,-1.0,-1.0,-1.0,dcEvolve
