File,Function,Start,End,ConditionNo,node,EdgeType,Estimate,Min,Max,Count,Mean,TrueEvaluations,FalseEvaluations,MinEvals,Method
ptukey.c,wprob(),32888,32902,0,14,CO,N,2,2,1.0,2.0,2.0,1.0,1.0,dcEvolve
ptukey.c,wprob(),33130,33186,1,17,CO,N,3,4,2.0,3.5,156.5,1.0,1.0,dcEvolve
ptukey.c,wprob(),33324,33362,2,20,CO,N,3,4,2.0,3.5,121.5,1.0,1.0,dcEvolve
ptukey.c,wprob(),33889,33899,3,28,CO,N,3,4,2.0,3.5,1.0,1.0,1.0,dcEvolve
ptukey.c,wprob(),34034,34043,4,32,CO,N,4,5,2.0,4.5,1.0,25.5,1.0,dcEvolve
ptukey.c,wprob(),34059,34128,5,33,CO,N,5,6,2.0,5.5,8.0,1.0,1.0,dcEvolve
ptukey.c,wprob(),34315,34329,6,41,CO,N,5,6,2.0,5.5,1.0,8.0,1.0,dcEvolve
ptukey.c,wprob(),34562,34589,7,46,CO,N,6,8,4.0,7.0,160.5,9.5,9.5,dcEvolve
ptukey.c,wprob(),34859,34883,8,54,CO,N,3,4,2.0,3.5,1.0,199.5,1.0,dcEvolve
ptukey.c,wprob(),34928,34942,9,57,CO,N,4,6,4.0,5.0,272.0,918.5,272.0,dcEvolve
ptukey.c,ptukey(),38216,38223,0,15,CO,N,2,2,1.0,2.0,-1.0,1.0,1.0,dcEvolve
ptukey.c,ptukey(),38228,38236,1,15,CO,N,3,3,1.0,3.0,-1.0,1.0,1.0,dcEvolve
ptukey.c,ptukey(),38241,38249,2,15,CO,N,5,5,1.0,5.0,-1.0,1.0,1.0,dcEvolve
ptukey.c,ptukey(),38254,38262,3,15,CO,N,6,6,1.0,6.0,-1.0,1.0,1.0,dcEvolve
ptukey.c,ptukey(),38297,38307,4,17,CO,N,4,7,5.0,5.6,1.0,2.0,1.0,dcEvolve
ptukey.c,ptukey(),38404,38409,5,19,CO,N,5,9,10.0,7.1,2.0,12.0,2.0,dcEvolve
ptukey.c,ptukey(),38460,38470,8,21,CO,N,8,14,40.0,11.1,12.0,-1.0,12.0,dcEvolve
ptukey.c,ptukey(),38494,38508,9,23,CO,N,8,15,80.0,11.6,-1.0,-1.0,-1.0,dcEvolve
ptukey.c,ptukey(),38916,38957,10,29,CO,N,9,17,160.0,13.1,-1.0,-1.0,-1.0,dcEvolve
ptukey.c,ptukey(),38959,38997,11,31,CO,N,10,18,160.0,14.1,-1.0,-1.0,-1.0,dcEvolve
ptukey.c,ptukey(),38999,39037,12,33,CO,N,11,19,160.0,15.1,-1.0,-1.0,-1.0,dcEvolve
ptukey.c,ptukey(),39155,39161,13,38,CO,N,9,17,160.0,13.1,-1.0,-1.0,-1.0,dcEvolve
ptukey.c,ptukey(),39334,39344,14,41,CO,N,10,18,160.0,14.1,-1.0,-1.0,-1.0,dcEvolve
ptukey.c,ptukey(),39360,39510,15,42,CO,N,11,19,160.0,15.1,-1.0,-1.0,-1.0,dcEvolve
ptukey.c,ptukey(),39707,39721,16,47,CO,N,11,19,160.0,15.1,-1.0,-1.0,-1.0,dcEvolve
ptukey.c,ptukey(),39727,39810,17,48,CO,N,12,20,160.0,16.1,-1.0,-1.0,-1.0,dcEvolve
ptukey.c,ptukey(),40268,40282,18,54,CO,N,10,18,160.0,14.1,-1.0,-1.0,-1.0,dcEvolve
ptukey.c,ptukey(),40380,40395,20,57,CO,N,9,17,160.0,13.1,-1.0,-1.0,-1.0,dcEvolve
ptukey.c,ptukey(),40464,40476,21,59,CO,N,9,17,160.0,13.1,-1.0,-1.0,-1.0,dcEvolve
