File,Function,Start,End,ConditionNo,node,EdgeType,Estimate,Min,Max,Count,Mean,TrueEvaluations,FalseEvaluations,MinEvals,Method
rhyper.c,afc(),26827,26978,0,3,CO,N,2,2,1.0,2.0,1.0,2.0,1.0,random
rhyper.c,afc(),26980,27023,1,6,CO,N,3,3,1.0,3.0,1430.0,2.0,2.0,random
rhyper.c,rhyper(),27956,27970,0,17,CO,N,2,2,1.0,2.0,1.0,-1.0,1.0,random
rhyper.c,rhyper(),27976,27990,1,17,CO,N,3,3,1.0,3.0,1.0,-1.0,1.0,random
rhyper.c,rhyper(),27996,28009,2,17,CO,N,5,5,1.0,5.0,1.0,-1.0,1.0,random
rhyper.c,rhyper(),28143,28149,3,22,CO,N,4,6,4.0,5.0,-1.0,-1.0,-1.0,random
rhyper.c,rhyper(),28285,28294,7,25,CO,N,6,11,20.0,8.6,-1.0,-1.0,-1.0,random
rhyper.c,rhyper(),28355,28412,9,28,CO,N,8,13,20.0,10.6,-1.0,-1.0,-1.0,random
rhyper.c,rhyper(),28459,28469,10,33,CO,N,6,11,20.0,8.6,-1.0,-1.0,-1.0,random
rhyper.c,rhyper(),28515,28569,11,37,CO,N,7,12,20.0,9.6,-1.0,-1.0,-1.0,random
rhyper.c,rhyper(),28616,28626,12,42,CO,N,6,11,20.0,8.6,-1.0,-1.0,-1.0,random
rhyper.c,rhyper(),28641,28693,13,44,CO,N,7,12,20.0,9.6,-1.0,-1.0,-1.0,random
rhyper.c,rhyper(),28727,28732,14,47,CO,N,6,11,20.0,8.6,-1.0,-1.0,-1.0,random
rhyper.c,rhyper(),28914,29258,16,51,CO,N,6,11,20.0,8.6,-1.0,-1.0,-1.0,random
rhyper.c,rhyper(),29083,29192,17,53,CO,N,7,12,20.0,9.6,-1.0,-1.0,-1.0,random
rhyper.c,rhyper(),29107,29157,18,54,CO,N,8,13,20.0,10.6,-1.0,-1.0,-1.0,random
rhyper.c,rhyper(),29199,29212,19,57,CO,N,8,13,20.0,10.6,-1.0,-1.0,-1.0,random
rhyper.c,rhyper(),29260,29770,20,60,CO,N,7,12,20.0,9.6,-1.0,-1.0,-1.0,random
rhyper.c,rhyper(),29331,29336,21,61,CO,N,8,13,20.0,10.6,-1.0,-1.0,-1.0,random
rhyper.c,rhyper(),29356,29457,23,62,CO,N,9,15,40.0,12.1,-1.0,-1.0,-1.0,random
rhyper.c,rhyper(),29608,29617,24,70,CO,N,8,13,20.0,10.6,-1.0,-1.0,-1.0,random
rhyper.c,rhyper(),29715,29729,25,75,CO,N,9,14,20.0,11.6,-1.0,-1.0,-1.0,random
rhyper.c,rhyper(),29843,29848,26,78,CO,N,8,13,20.0,10.6,-1.0,-1.0,-1.0,random
rhyper.c,rhyper(),30715,30787,28,94,CO,N,8,15,60.0,11.6,-1.0,-1.0,-1.0,random
rhyper.c,rhyper(),30789,30929,29,96,CO,N,9,16,60.0,12.6,-1.0,-1.0,-1.0,random
rhyper.c,rhyper(),30864,30878,30,98,CO,N,10,17,60.0,13.6,-1.0,-1.0,-1.0,random
rhyper.c,rhyper(),30995,31009,31,102,CO,N,10,17,60.0,13.6,-1.0,-1.0,-1.0,random
rhyper.c,rhyper(),31097,31103,32,105,CO,N,8,15,60.0,11.6,-1.0,-1.0,-1.0,random
rhyper.c,rhyper(),31405,31522,34,107,CO,N,9,17,120.0,13.1,-1.0,-1.0,-1.0,random
rhyper.c,rhyper(),31437,31443,35,108,CO,N,10,18,120.0,14.1,-1.0,-1.0,-1.0,random
rhyper.c,rhyper(),31524,31534,36,110,CO,N,10,18,120.0,14.1,-1.0,-1.0,-1.0,random
rhyper.c,rhyper(),31557,31562,37,111,CO,N,11,19,120.0,15.1,-1.0,-1.0,-1.0,random
rhyper.c,rhyper(),31643,31653,38,113,CO,N,9,17,120.0,13.1,-1.0,-1.0,-1.0,random
rhyper.c,rhyper(),31989,32000,39,127,CO,N,10,17,60.0,13.6,-1.0,-1.0,-1.0,random
rhyper.c,rhyper(),32454,32497,40,137,CO,N,10,17,60.0,13.6,-1.0,-1.0,-1.0,random
rhyper.c,rhyper(),32567,32578,41,140,CO,N,11,18,60.0,14.6,-1.0,-1.0,-1.0,random
rhyper.c,rhyper(),32634,32645,42,143,CO,N,11,18,60.0,14.6,-1.0,-1.0,-1.0,random
rhyper.c,rhyper(),32701,32712,43,146,CO,N,11,18,60.0,14.6,-1.0,-1.0,-1.0,random
rhyper.c,rhyper(),32768,32779,44,149,CO,N,11,18,60.0,14.6,-1.0,-1.0,-1.0,random
rhyper.c,rhyper(),32806,32919,45,151,CO,N,11,18,60.0,14.6,-1.0,-1.0,-1.0,random
rhyper.c,rhyper(),32989,33099,46,153,CO,N,12,19,60.0,15.6,-1.0,-1.0,-1.0,random
rhyper.c,rhyper(),33144,33154,47,156,CO,N,8,13,20.0,10.6,-1.0,-1.0,-1.0,random
rhyper.c,rhyper(),33220,33326,48,158,CO,N,7,13,40.0,10.1,-1.0,-1.0,-1.0,random
rhyper.c,rhyper(),33242,33290,49,159,CO,N,8,14,40.0,11.1,-1.0,-1.0,-1.0,random
rhyper.c,rhyper(),33331,33344,50,162,CO,N,8,14,40.0,11.1,-1.0,-1.0,-1.0,random
