File,Function,Start,End,ConditionNo,node,EdgeType,Estimate,Min,Max,Count,Mean,TrueEvaluations,FalseEvaluations,MinEvals,Method
rhyper.c,afc(),26827,26978,0,3,DO,N,1,1,1.0,1.0,1.0,2.0,1.0,dcEvolve
rhyper.c,afc(),26980,27023,1,6,DO,N,1,1,1.0,1.0,1825.0,2.0,2.0,dcEvolve
rhyper.c,rhyper(),28143,28149,3,22,DO,N,4,4,1.0,4.0,-1.0,-1.0,-1.0,dcEvolve
rhyper.c,rhyper(),28285,28294,7,25,DO,N,1,4,2.0,2.5,-1.0,-1.0,-1.0,dcEvolve
rhyper.c,rhyper(),28355,28412,9,28,DO,N,1,4,2.0,2.5,-1.0,-1.0,-1.0,dcEvolve
rhyper.c,rhyper(),28515,28569,11,37,DO,N,4,4,2.0,4.0,-1.0,-1.0,-1.0,dcEvolve
rhyper.c,rhyper(),28641,28693,13,44,DO,N,1,5,4.0,3.75,-1.0,-1.0,-1.0,dcEvolve
rhyper.c,rhyper(),28914,29258,16,51,DO,N,1,9,20.0,6.4,-1.0,-1.0,-1.0,dcEvolve
rhyper.c,rhyper(),29083,29192,17,53,DO,N,1,5,4.0,3.75,-1.0,-1.0,-1.0,dcEvolve
rhyper.c,rhyper(),29107,29157,18,54,DO,N,4,4,2.0,4.0,-1.0,-1.0,-1.0,dcEvolve
rhyper.c,rhyper(),29199,29212,19,57,DO,N,4,4,2.0,4.0,-1.0,-1.0,-1.0,dcEvolve
rhyper.c,rhyper(),29260,29770,20,60,DO,N,1,9,23.0,5.391,-1.0,-1.0,-1.0,dcEvolve
rhyper.c,rhyper(),29356,29457,23,62,DO,N,1,6,9.0,4.0,-1.0,-1.0,-1.0,dcEvolve
rhyper.c,rhyper(),29608,29617,24,70,DO,N,2,16,362.0,10.793,-1.0,-1.0,-1.0,dcEvolve
rhyper.c,rhyper(),29715,29729,25,75,DO,N,1,11,20.0,7.4,-1.0,-1.0,-1.0,dcEvolve
rhyper.c,rhyper(),30715,30787,28,94,DO,N,1,20,530.0,13.932,-1.0,-1.0,-1.0,dcEvolve
rhyper.c,rhyper(),30789,30929,29,96,DO,N,1,20,778.0,13.571,-1.0,-1.0,-1.0,dcEvolve
rhyper.c,rhyper(),30864,30878,30,98,DO,N,1,15,82.0,8.939,-1.0,-1.0,-1.0,dcEvolve
rhyper.c,rhyper(),30995,31009,31,102,DO,N,1,15,82.0,8.939,-1.0,-1.0,-1.0,dcEvolve
rhyper.c,rhyper(),31097,31103,32,105,DO,N,1,7,13.0,4.615,-1.0,-1.0,-1.0,dcEvolve
rhyper.c,rhyper(),31405,31522,34,107,DO,N,1,21,700.0,13.426,-1.0,-1.0,-1.0,dcEvolve
rhyper.c,rhyper(),31437,31443,35,108,DO,N,2,21,713.0,13.32,-1.0,-1.0,-1.0,dcEvolve
rhyper.c,rhyper(),31524,31534,36,110,DO,N,1,21,700.0,13.426,-1.0,-1.0,-1.0,dcEvolve
rhyper.c,rhyper(),31557,31562,37,111,DO,N,1,23,1387.0,14.994,-1.0,-1.0,-1.0,dcEvolve
rhyper.c,rhyper(),31643,31653,38,113,DO,N,2,24,2820.0,15.083,-1.0,-1.0,-1.0,dcEvolve
rhyper.c,rhyper(),31989,32000,39,127,DO,N,3,25,2766.0,16.772,-1.0,-1.0,-1.0,dcEvolve
rhyper.c,rhyper(),32454,32497,40,137,DO,N,2,28,18797.0,18.443,-1.0,-1.0,-1.0,dcEvolve
rhyper.c,rhyper(),32567,32578,41,140,DO,N,3,24,1387.0,16.499,-1.0,-1.0,-1.0,dcEvolve
rhyper.c,rhyper(),32634,32645,42,143,DO,N,3,24,1390.0,16.476,-1.0,-1.0,-1.0,dcEvolve
rhyper.c,rhyper(),32701,32712,43,146,DO,N,3,24,1393.0,16.454,-1.0,-1.0,-1.0,dcEvolve
rhyper.c,rhyper(),32768,32779,44,149,DO,N,3,25,1396.0,16.923,-1.0,-1.0,-1.0,dcEvolve
rhyper.c,rhyper(),32806,32919,45,151,DO,N,1,28,47400.0,18.126,-1.0,-1.0,-1.0,dcEvolve
rhyper.c,rhyper(),32989,33099,46,153,DO,N,1,24,4241.0,15.99,-1.0,-1.0,-1.0,dcEvolve
rhyper.c,rhyper(),33220,33326,48,158,DO,N,1,5,4.0,3.75,-1.0,-1.0,-1.0,dcEvolve
rhyper.c,rhyper(),33242,33290,49,159,DO,N,4,4,2.0,4.0,-1.0,-1.0,-1.0,dcEvolve
rhyper.c,rhyper(),33331,33344,50,162,DO,N,4,4,2.0,4.0,-1.0,-1.0,-1.0,dcEvolve
