File,Function,Start,End,ConditionNo,node,EdgeType,Estimate,Min,Max,Count,Mean,TrueEvaluations,FalseEvaluations,MinEvals,Method
rhyper.c,afc(),26827,26978,0,3,BO,N,1,2,3.0,1.667,1.0,12.0,1.0,nhc
rhyper.c,afc(),26980,27023,1,6,BO,N,1,3,5.0,2.2,45.0,12.0,12.0,nhc
rhyper.c,rhyper(),27956,27970,0,17,BO,N,2,2,1.0,2.0,1.0,-1.0,1.0,nhc
rhyper.c,rhyper(),27976,27990,1,17,BO,N,3,10,29.0,5.966,1.0,-1.0,1.0,nhc
rhyper.c,rhyper(),27996,28009,2,17,BO,N,4,19,337.0,11.914,1.0,-1.0,1.0,nhc
rhyper.c,rhyper(),28143,28149,3,22,BO,N,3,31,31268.0,18.392,-1.0,-1.0,-1.0,nhc
rhyper.c,rhyper(),28285,28294,7,25,BO,N,1,36,484670.0,21.359,-1.0,-1.0,-1.0,nhc
rhyper.c,rhyper(),28355,28412,9,28,BO,N,1,38,531578.0,23.024,-1.0,-1.0,-1.0,nhc
rhyper.c,rhyper(),28459,28469,10,33,BO,N,3,40,2517166.0,23.888,-1.0,-1.0,-1.0,nhc
rhyper.c,rhyper(),28515,28569,11,37,BO,N,3,41,2564070.0,24.782,-1.0,-1.0,-1.0,nhc
rhyper.c,rhyper(),28616,28626,12,42,BO,N,3,40,2517166.0,23.888,-1.0,-1.0,-1.0,nhc
rhyper.c,rhyper(),28641,28693,13,44,BO,N,1,42,5104690.0,25.31,-1.0,-1.0,-1.0,nhc
rhyper.c,rhyper(),28727,28732,14,47,BO,N,3,40,2517166.0,23.888,-1.0,-1.0,-1.0,nhc
rhyper.c,rhyper(),28914,29258,16,51,BO,N,1,47,93200000.0,29.0,-1.0,-1.0,-1.0,nhc
rhyper.c,rhyper(),29083,29192,17,53,BO,N,1,48,95800000.0,29.89,-1.0,-1.0,-1.0,nhc
rhyper.c,rhyper(),29107,29157,18,54,BO,N,2,49,95800000.0,30.88,-1.0,-1.0,-1.0,nhc
rhyper.c,rhyper(),29199,29212,19,57,BO,N,2,49,95800000.0,30.88,-1.0,-1.0,-1.0,nhc
rhyper.c,rhyper(),29260,29770,20,60,BO,N,1,48,167000000.0,29.32,-1.0,-1.0,-1.0,nhc
rhyper.c,rhyper(),29331,29336,21,61,BO,N,2,49,169000000.0,30.25,-1.0,-1.0,-1.0,nhc
rhyper.c,rhyper(),29356,29457,23,62,BO,N,1,51,359000000.0,31.48,-1.0,-1.0,-1.0,nhc
rhyper.c,rhyper(),29608,29617,24,70,BO,N,2,63,59900000000.0,39.54,-1.0,-1.0,-1.0,nhc
rhyper.c,rhyper(),29715,29729,25,75,BO,N,1,65,1e+11,41.63,-1.0,-1.0,-1.0,nhc
rhyper.c,rhyper(),29843,29848,26,78,BO,N,2,49,169000000.0,30.25,-1.0,-1.0,-1.0,nhc
rhyper.c,rhyper(),30715,30787,28,94,BO,Y,1,111,1.52e+19,69.26,-1.0,-1.0,-1.0,nhc
rhyper.c,rhyper(),30789,30929,29,96,BO,Y,1,104,1.47e+18,65.25,-1.0,-1.0,-1.0,nhc
rhyper.c,rhyper(),30864,30878,30,98,BO,Y,1,103,4.77e+18,68.46,-1.0,-1.0,-1.0,nhc
rhyper.c,rhyper(),30995,31009,31,102,BO,Y,1,104,4.35e+18,68.3,-1.0,-1.0,-1.0,nhc
rhyper.c,rhyper(),31097,31103,32,105,BO,Y,1,111,1.38e+19,69.82,-1.0,-1.0,-1.0,nhc
rhyper.c,rhyper(),31405,31522,34,107,BO,Y,1,112,4.52e+19,69.76,-1.0,-1.0,-1.0,nhc
rhyper.c,rhyper(),31437,31443,35,108,BO,Y,2,111,1.53e+20,71.48,-1.0,-1.0,-1.0,nhc
rhyper.c,rhyper(),31524,31534,36,110,BO,Y,1,112,6.56e+19,69.96,-1.0,-1.0,-1.0,nhc
rhyper.c,rhyper(),31557,31562,37,111,BO,Y,1,108,2.19e+20,70.89,-1.0,-1.0,-1.0,nhc
rhyper.c,rhyper(),31643,31653,38,113,BO,Y,2,117,1.2e+21,73.59,-1.0,-1.0,-1.0,nhc
rhyper.c,rhyper(),31989,32000,39,127,BO,Y,3,109,5.81e+19,70.82,-1.0,-1.0,-1.0,nhc
rhyper.c,rhyper(),32454,32497,40,137,BO,Y,2,107,9.27e+19,70.86,-1.0,-1.0,-1.0,nhc
rhyper.c,rhyper(),32567,32578,41,140,BO,Y,3,108,1.25e+20,71.64,-1.0,-1.0,-1.0,nhc
rhyper.c,rhyper(),32634,32645,42,143,BO,Y,3,107,1.3e+20,72.09,-1.0,-1.0,-1.0,nhc
rhyper.c,rhyper(),32701,32712,43,146,BO,Y,3,107,1.15e+20,71.24,-1.0,-1.0,-1.0,nhc
rhyper.c,rhyper(),32768,32779,44,149,BO,Y,3,108,1.39e+20,72.27,-1.0,-1.0,-1.0,nhc
rhyper.c,rhyper(),32806,32919,45,151,BO,Y,1,109,6.28e+19,69.24,-1.0,-1.0,-1.0,nhc
rhyper.c,rhyper(),32989,33099,46,153,BO,Y,1,112,5.64e+20,72.63,-1.0,-1.0,-1.0,nhc
rhyper.c,rhyper(),33144,33154,47,156,BO,Y,2,110,6.89e+18,68.21,-1.0,-1.0,-1.0,nhc
rhyper.c,rhyper(),33220,33326,48,158,BO,N,1,49,189000000.0,30.44,-1.0,-1.0,-1.0,nhc
rhyper.c,rhyper(),33242,33290,49,159,BO,N,2,50,189000000.0,31.43,-1.0,-1.0,-1.0,nhc
rhyper.c,rhyper(),33331,33344,50,162,BO,N,2,50,189000000.0,31.43,-1.0,-1.0,-1.0,nhc
