File,Function,Start,End,ConditionNo,node,EdgeType,Estimate,Min,Max,Count,Mean,TrueEvaluations,FalseEvaluations,MinEvals,Method
toms708.c,bratio(),965,971,0,7,CO,N,2,2,1.0,2.0,1.0,16.0,1.0,nhc
toms708.c,bratio(),1018,1025,2,10,CO,N,4,5,3.0,4.333,-1.0,16.0,16.0,nhc
toms708.c,bratio(),1071,1077,4,13,CO,N,5,8,9.0,6.333,16.0,125.0,16.0,nhc
toms708.c,bratio(),1124,1130,6,16,CO,N,7,11,27.0,8.667,125.0,214.5,125.0,nhc
toms708.c,bratio(),1239,1262,8,20,CO,N,9,14,81.0,11.0,214.5,17963.0,214.5,nhc
toms708.c,bratio(),1417,1429,9,25,CO,N,10,16,162.0,12.5,-1.0,17963.0,17963.0,nhc
toms708.c,bratio(),1446,1458,10,27,CO,N,11,18,324.0,14.0,-1.0,17963.0,17963.0,nhc
toms708.c,bratio(),1476,1488,11,29,CO,N,12,20,648.0,15.5,-1.0,18435.5,18435.5,nhc
toms708.c,bratio(),1505,1517,12,31,CO,N,13,22,1296.0,17.0,-1.0,19357.0,19357.0,nhc
toms708.c,bratio(),1562,1587,13,34,CO,N,14,24,2592.0,18.5,-1.0,25892.5,25892.5,nhc
toms708.c,bratio(),1647,1731,14,35,CO,N,15,25,2592.0,19.5,-1.0,-1.0,-1.0,nhc
toms708.c,bratio(),1941,3605,15,42,CO,N,15,26,5184.0,20.0,25990.0,25892.5,25892.5,nhc
toms708.c,bratio(),2041,2079,16,44,CO,N,16,27,5184.0,21.0,58755.5,31151.5,31151.5,nhc
toms708.c,bratio(),2245,2272,17,48,CO,N,16,27,5184.0,21.0,-1.0,25990.0,25990.0,nhc
toms708.c,bratio(),2502,2524,18,53,CO,N,17,29,10368.0,22.5,-1.0,25990.0,25990.0,nhc
toms708.c,bratio(),2711,3082,20,57,CO,N,18,32,31104.0,24.5,25990.0,26094.0,25990.0,nhc
toms708.c,bratio(),2858,2871,21,59,CO,N,19,33,31104.0,25.5,57203.5,30227.5,30227.5,nhc
toms708.c,bratio(),2890,2904,22,61,CO,N,20,35,62208.0,27.0,66574.0,-1.0,66574.0,nhc
toms708.c,bratio(),2947,2959,23,63,CO,N,21,37,124416.0,28.5,-1.0,-1.0,-1.0,nhc
toms708.c,bratio(),2965,2990,24,64,CO,N,22,38,124416.0,29.5,-1.0,-1.0,-1.0,nhc
toms708.c,bratio(),3027,3040,25,66,CO,N,22,40,373248.0,30.5,-1.0,-1.0,-1.0,nhc
toms708.c,bratio(),3171,3193,26,70,CO,N,19,33,31104.0,25.5,26094.0,26117.5,26094.0,nhc
toms708.c,bratio(),3212,3234,27,72,CO,N,20,35,62208.0,27.0,27534.0,28956.5,27534.0,nhc
toms708.c,bratio(),3253,3266,28,74,CO,N,21,37,124416.0,28.5,46276.5,-1.0,46276.5,nhc
toms708.c,bratio(),3682,3728,29,84,CO,N,16,27,5184.0,21.0,25904.0,25903.5,25903.5,nhc
toms708.c,bratio(),3790,3851,30,88,CO,N,16,27,5184.0,21.0,38410.5,36527.5,36527.5,nhc
toms708.c,bratio(),3996,4194,31,93,CO,N,16,27,5184.0,21.0,25939.5,25892.5,25892.5,nhc
toms708.c,bratio(),4079,4092,32,95,CO,N,17,28,5184.0,22.0,-1.0,25939.5,25939.5,nhc
toms708.c,bratio(),4196,4370,34,98,CO,N,17,28,5184.0,22.0,25892.5,25914.5,25892.5,nhc
toms708.c,bratio(),4315,4325,35,100,CO,N,18,29,5184.0,23.0,25892.5,64107.0,25892.5,nhc
toms708.c,bratio(),4372,4489,37,102,CO,N,18,29,5184.0,23.0,54636.5,25914.5,25914.5,nhc
toms708.c,bratio(),4491,4513,38,105,CO,N,19,30,5184.0,24.0,26222.5,25981.0,25981.0,nhc
toms708.c,bratio(),5702,5714,39,130,CO,N,19,44,1669248.0,32.444,-1.0,26630.0,26630.0,nhc
toms708.c,bratio(),5874,5885,40,135,CO,N,19,44,1627776.0,32.494,-1.0,26630.0,26630.0,nhc
toms708.c,bratio(),6037,6050,42,138,CO,N,20,47,4883328.0,34.494,28069.0,-1.0,28069.0,nhc
toms708.c,bratio(),6316,6330,43,142,CO,N,21,49,9766656.0,35.994,-1.0,-1.0,-1.0,nhc
toms708.c,bratio(),6668,6680,44,151,CO,N,11,50,9766980.0,36.993,-1.0,-1.0,-1.0,nhc
toms708.c,bratio(),6773,6785,45,159,CO,N,12,53,19500000.0,39.49,-1.0,-1.0,-1.0,nhc
toms708.c,bratio(),6886,6942,46,167,CO,N,14,56,53700000.0,40.4,32269.0,26630.0,26630.0,nhc
toms708.c,bratio(),7021,7079,47,173,CO,N,15,57,55000000.0,41.15,-1.0,-1.0,-1.0,nhc
toms708.c,bratio(),7134,7145,48,178,CO,N,14,56,48800000.0,40.99,44595.0,38163.0,38163.0,nhc
toms708.c,psi(),43707,43720,0,13,CO,N,2,2,1.0,2.0,-1.0,1.0,1.0,nhc
toms708.c,psi(),44041,44052,1,17,CO,N,2,2,1.0,2.0,1.0,12.0,1.0,nhc
toms708.c,psi(),44299,44633,2,18,CO,N,3,3,1.0,3.0,48.0,1.0,1.0,nhc
toms708.c,psi(),44330,44342,3,19,CO,N,4,4,1.0,4.0,-1.0,48.0,48.0,nhc
toms708.c,psi(),44903,44915,4,24,CO,N,4,4,1.0,4.0,59.0,1.0,1.0,nhc
toms708.c,psi(),45152,45166,5,27,CO,N,4,4,1.0,4.0,-1.0,1.0,1.0,nhc
toms708.c,psi(),45635,45650,6,34,CO,N,5,6,2.0,5.5,11.0,3.0,3.0,nhc
toms708.c,psi(),45717,45731,7,38,CO,N,5,6,2.0,5.5,6.0,13.0,6.0,nhc
toms708.c,psi(),46018,46553,8,43,CO,N,5,6,2.0,5.5,12.0,12.0,12.0,nhc
toms708.c,psi(),46218,46230,9,44,CO,N,6,7,2.0,6.5,23.0,12.0,12.0,nhc
toms708.c,psi(),46660,46672,10,49,CO,N,3,9,9.0,6.556,26.0,1.0,1.0,nhc
toms708.c,psi(),46898,46903,11,52,CO,N,4,10,9.0,7.556,26.0,26.0,26.0,nhc
toms708.c,psi(),47268,47281,12,58,CO,N,4,11,18.0,8.056,1.0,-1.0,1.0,nhc
toms708.c,psi(),47527,47532,13,62,CO,N,5,12,18.0,9.056,1.0,1.0,1.0,nhc
