File,Function,Start,End,ConditionNo,node,EdgeType,Estimate,Min,Max,Count,Mean,TrueEvaluations,FalseEvaluations,MinEvals,Method
unity.c,cephes_log (),42123,42131,0,2,DO,N,2,2,1.0,2.0,1.0,44.0,1.0,nhc
unity.c,cephes_exp (),42791,42798,2,6,DO,N,1,1,1.0,1.0,1.0,44.5,1.0,nhc
unity.c,cosm1 (),43271,43279,0,2,DO,N,1,1,2.0,1.0,1.0,44.0,1.0,nhc
