File,Function,Start,End,ConditionNo,node,EdgeType,Estimate,Min,Max,Count,Mean,TrueEvaluations,FalseEvaluations,MinEvals,Method
unity.c,cephes_log (),42123,42131,0,2,CO,N,2,2,1.0,2.0,1.0,44.0,1.0,nhc
unity.c,cephes_exp (),42695,42702,0,2,CO,N,3,3,1.0,3.0,-1.0,44.0,44.0,nhc
unity.c,cephes_exp (),42734,42744,1,4,CO,N,3,4,2.0,3.5,-1.0,1.0,1.0,nhc
unity.c,cephes_exp (),42791,42798,2,6,CO,N,4,6,4.0,5.0,1.0,44.5,1.0,nhc
unity.c,cosm1 (),43271,43279,0,2,CO,N,2,2,1.0,2.0,1.0,44.0,1.0,nhc
