File,Function,Start,End,ConditionNo,node,EdgeType,Estimate,Min,Max,Count,Mean,TrueEvaluations,FalseEvaluations,MinEvals,Method
cil__true__gimpdraw.c,gradient_calc_conical_sym_factor(),51768,51822,0,6,DO,N,1,1,1.0,1.0,-1.0,1.0,1.0,dcEvolve
cil__true__gimpdraw.c,gradient_calc_conical_sym_factor(),51847,51862,1,8,DO,N,1,1,1.0,1.0,1.0,-1.0,1.0,dcEvolve
cil__true__gimpdraw.c,gradient_calc_conical_sym_factor(),52090,52150,3,16,DO,N,2,6,7.0,4.571,2.23333333333,1.6,1.6,dcEvolve
cil__true__gimpdraw.c,gradient_calc_conical_sym_factor(),52175,52190,4,18,DO,N,2,6,7.0,4.571,1.6,833.333333333,1.6,dcEvolve
cil__true__gimpdraw.c,gradient_calc_conical_sym_factor(),52372,52419,5,23,DO,N,4,13,8.0,10.625,2.03333333333,1.93333333333,1.93333333333,dcEvolve
cil__true__gimpdraw.c,gradient_calc_conical_sym_factor(),52431,52486,6,25,DO,N,4,13,8.0,10.625,-1.0,1.93333333333,1.93333333333,dcEvolve
cil__true__gimpdraw.c,gradient_calc_conical_asym_factor(),52991,53045,0,8,DO,N,1,1,1.0,1.0,-1.0,1.0,1.0,dcEvolve
cil__true__gimpdraw.c,gradient_calc_conical_asym_factor(),53070,53085,1,10,DO,N,1,1,1.0,1.0,1.0,-1.0,1.0,dcEvolve
cil__true__gimpdraw.c,gradient_calc_conical_asym_factor(),53325,53338,3,19,DO,N,6,6,4.0,6.0,2.13333333333,1.76666666667,1.76666666667,dcEvolve
cil__true__gimpdraw.c,gradient_calc_conical_asym_factor(),53501,53548,4,23,DO,N,4,11,9.0,9.778,1.83333333333,2.16666666667,1.83333333333,dcEvolve
cil__true__gimpdraw.c,gradient_calc_conical_asym_factor(),53560,53615,5,25,DO,N,4,11,9.0,9.778,-1.0,2.16666666667,2.16666666667,dcEvolve
cil__true__gimpdraw.c,gradient_calc_square_factor(),54151,54205,0,9,DO,N,1,1,1.0,1.0,-1.0,1.0,1.0,dcEvolve
cil__true__gimpdraw.c,gradient_calc_square_factor(),54304,54390,1,14,DO,N,4,4,2.0,4.0,-1.0,1.0,1.0,dcEvolve
cil__true__gimpdraw.c,gradient_calc_square_factor(),54502,54561,2,20,DO,N,2,6,4.0,4.0,2.1,1.9,1.9,dcEvolve
cil__true__gimpdraw.c,gradient_calc_square_factor(),54584,54724,3,22,DO,N,2,2,1.0,2.0,-1.0,1.9,1.9,dcEvolve
cil__true__gimpdraw.c,gradient_calc_square_factor(),54613,54665,4,23,DO,N,2,6,3.0,4.667,-1.0,-1.0,-1.0,dcEvolve
cil__true__gimpdraw.c,gradient_calc_radial_factor(),55058,55112,0,3,DO,N,1,1,1.0,1.0,-1.0,1.0,1.0,dcEvolve
cil__true__gimpdraw.c,gradient_calc_radial_factor(),55242,55301,1,8,DO,N,2,5,4.0,3.5,1.76666666667,2.2,1.76666666667,dcEvolve
cil__true__gimpdraw.c,gradient_calc_radial_factor(),55324,55464,2,10,DO,N,2,2,1.0,2.0,-1.0,2.2,2.2,dcEvolve
cil__true__gimpdraw.c,gradient_calc_radial_factor(),55353,55405,3,11,DO,N,2,5,3.0,4.0,-1.0,-1.0,-1.0,dcEvolve
cil__true__gimpdraw.c,gradient_calc_linear_factor(),55813,55867,0,3,DO,N,1,1,1.0,1.0,-1.0,1.0,1.0,dcEvolve
cil__true__gimpdraw.c,gradient_calc_linear_factor(),56013,56022,1,8,DO,N,2,3,4.0,2.75,2.16666666667,1.83333333333,1.83333333333,dcEvolve
cil__true__gimpdraw.c,gradient_calc_linear_factor(),56105,56245,3,13,DO,N,2,2,1.0,2.0,-1.0,1.0,1.0,dcEvolve
cil__true__gimpdraw.c,gradient_calc_linear_factor(),56134,56186,4,14,DO,N,2,3,4.0,2.75,-1.0,-1.0,-1.0,dcEvolve
cil__true__gimpdraw.c,gradient_calc_linear_factor(),56270,56344,5,17,DO,N,2,3,4.0,2.75,1.83333333333,2.16666666667,1.83333333333,dcEvolve
cil__true__gimpdraw.c,gradient_calc_bilinear_factor(),56743,56797,0,5,DO,N,1,1,1.0,1.0,-1.0,1.0,1.0,dcEvolve
cil__true__gimpdraw.c,gradient_calc_bilinear_factor(),56977,57040,1,11,DO,N,2,6,5.0,5.0,550.833333333,1.0,1.0,dcEvolve
cil__true__gimpdraw.c,gradient_calc_bilinear_factor(),57063,57203,2,13,DO,N,2,2,1.0,2.0,-1.0,1.0,1.0,dcEvolve
cil__true__gimpdraw.c,gradient_calc_bilinear_factor(),57092,57144,3,14,DO,N,2,3,4.0,2.75,-1.0,-1.0,-1.0,dcEvolve
cil__true__gimpdraw.c,gradient_calc_spiral_factor(),57702,57756,0,9,DO,N,1,1,1.0,1.0,-1.0,1.0,1.0,dcEvolve
cil__true__gimpdraw.c,gradient_calc_spiral_factor(),57781,57788,1,11,DO,N,1,1,1.0,1.0,1.0,-1.0,1.0,dcEvolve
cil__true__gimpdraw.c,gradient_calc_spiral_factor(),57982,58050,3,19,DO,N,1,1,1.0,1.0,1.03333333333,1915.36666667,1.03333333333,dcEvolve
cil__true__gimpdraw.c,gradient_calc_spiral_factor(),58121,58134,4,22,DO,N,6,6,8.0,6.0,2.2,1.53333333333,1.53333333333,dcEvolve
