File,Function,Start,End,ConditionNo,node,EdgeType,Estimate,Min,Max,Count,Mean,TrueEvaluations,FalseEvaluations,MinEvals,Method
gamma_cody.c,gamma_cody(),30127,30138,0,13,CO,N,2,2,1.0,2.0,1.76666666667,2.03333333333,1.76666666667,dcEvolve
gamma_cody.c,gamma_cody(),30344,30471,1,17,CO,N,3,3,1.0,3.0,1.8,22.7,1.8,dcEvolve
gamma_cody.c,gamma_cody(),30366,30396,2,18,CO,N,4,4,1.0,4.0,4.36666666667,4.36666666667,4.36666666667,dcEvolve
gamma_cody.c,gamma_cody(),30688,30953,3,23,CO,N,3,5,3.0,4.0,-1.0,1.0,1.0,dcEvolve
gamma_cody.c,gamma_cody(),30868,30913,4,24,CO,N,4,6,3.0,5.0,-1.0,-1.0,-1.0,dcEvolve
gamma_cody.c,gamma_cody(),30955,32267,5,27,CO,N,4,6,3.0,5.0,6.26666666667,1.16666666667,1.16666666667,dcEvolve
gamma_cody.c,gamma_cody(),30980,31188,6,29,CO,N,5,7,3.0,6.0,317.5,6.36666666667,6.36666666667,dcEvolve
gamma_cody.c,gamma_cody(),31666,31670,7,37,CO,N,5,7,3.0,6.0,6.26666666667,6.26666666667,6.26666666667,dcEvolve
gamma_cody.c,gamma_cody(),31769,31989,8,41,CO,N,5,7,3.0,6.0,309.433333333,6.36666666667,6.36666666667,dcEvolve
gamma_cody.c,gamma_cody(),31991,32001,9,43,CO,N,6,8,3.0,7.0,6.36666666667,113.566666667,6.36666666667,dcEvolve
gamma_cody.c,gamma_cody(),32211,32215,10,44,CO,N,7,9,3.0,8.0,6.36666666667,6.36666666667,6.36666666667,dcEvolve
gamma_cody.c,gamma_cody(),32441,32648,11,47,CO,N,5,7,3.0,6.0,1.16666666667,-1.0,1.16666666667,dcEvolve
gamma_cody.c,gamma_cody(),32510,32514,12,50,CO,N,6,8,3.0,7.0,1.16666666667,1.16666666667,1.16666666667,dcEvolve
gamma_cody.c,gamma_cody(),32883,32893,13,56,CO,N,5,9,15.0,6.8,4.36666666667,1.3,1.3,dcEvolve
gamma_cody.c,gamma_cody(),32912,32926,14,58,CO,N,5,9,15.0,6.8,1.8,2.03333333333,1.8,dcEvolve
