File,Function,Start,End,ConditionNo,node,EdgeType,Estimate,Min,Max,Count,Mean,TrueEvaluations,FalseEvaluations,MinEvals,Method
gamma.c,gammafn(),28822,28833,1,12,DO,N,4,5,3.0,4.667,-1.0,1.0,1.0,nhc
gamma.c,gammafn(),28938,28975,2,14,DO,N,1,1,1.0,1.0,15.8666666667,1.06666666667,1.06666666667,nhc
gamma.c,gammafn(),28942,28947,3,14,DO,N,1,1,1.0,1.0,15.8666666667,1.06666666667,1.06666666667,nhc
gamma.c,gammafn(),29057,30127,4,18,DO,N,4,4,1.0,4.0,25.4333333333,1.06666666667,1.06666666667,nhc
gamma.c,gammafn(),29205,29213,5,20,DO,N,1,1,1.0,1.0,28.5333333333,28.1333333333,28.1333333333,nhc
gamma.c,gammafn(),29333,29343,6,25,DO,N,3,4,2.0,3.5,290.1,26.9333333333,26.9333333333,nhc
gamma.c,gammafn(),29388,29991,7,27,DO,N,3,4,2.0,3.5,42.9666666667,59.8,42.9666666667,nhc
gamma.c,gammafn(),29602,29654,8,28,DO,N,3,3,1.0,3.0,-1.0,42.9666666667,42.9666666667,nhc
gamma.c,gammafn(),29781,29793,10,30,DO,N,2,4,3.0,3.0,-1.0,42.9666666667,42.9666666667,nhc
gamma.c,gammafn(),29832,29865,11,32,DO,N,1,1,1.0,1.0,-1.0,-1.0,-1.0,nhc
gamma.c,gammafn(),29924,29928,12,36,DO,N,4,5,2.0,4.5,474.7,474.7,474.7,nhc
gamma.c,gammafn(),30050,30055,13,39,DO,N,3,4,2.0,3.5,604.633333333,604.633333333,604.633333333,nhc
gamma.c,gammafn(),30168,30180,14,42,DO,N,1,1,1.0,1.0,9.93333333333,4.7,4.7,nhc
gamma.c,gammafn(),30265,30277,15,45,DO,N,1,1,1.0,1.0,12.6,9.46666666667,9.46666666667,nhc
gamma.c,gammafn(),30360,30477,16,48,DO,N,4,4,1.0,4.0,667.766666667,9.46666666667,9.46666666667,nhc
gamma.c,gammafn(),30446,30450,18,50,DO,N,4,4,1.0,4.0,255.066666667,255.066666667,255.066666667,nhc
gamma.c,gammafn(),30614,30623,19,53,DO,N,1,1,1.0,1.0,19.0666666667,21.1333333333,19.0666666667,nhc
gamma.c,gammafn(),30646,30686,20,55,DO,N,3,3,1.0,3.0,40.2666666667,21.2,21.2,nhc
gamma.c,gammafn(),30875,30890,21,58,DO,N,7,7,1.0,7.0,-1.0,21.1333333333,21.1333333333,nhc
