File,Function,Start,End,ConditionNo,node,EdgeType,Estimate,Min,Max,Count,Mean,TrueEvaluations,FalseEvaluations,MinEvals,Method
gamma_cody.c,gamma_cody(),30127,30138,0,13,CO,N,2,2,1.0,2.0,5.1,6.13333333333,5.1,nhc
gamma_cody.c,gamma_cody(),30344,30471,1,17,CO,N,3,3,1.0,3.0,5.1,31.4333333333,5.1,nhc
gamma_cody.c,gamma_cody(),30366,30396,2,18,CO,N,4,4,1.0,4.0,11.8666666667,9.86666666667,9.86666666667,nhc
gamma_cody.c,gamma_cody(),30688,30953,3,23,CO,N,3,5,3.0,4.0,722.533333333,1.0,1.0,nhc
gamma_cody.c,gamma_cody(),30868,30913,4,24,CO,N,4,6,3.0,5.0,722.533333333,-1.0,722.533333333,nhc
gamma_cody.c,gamma_cody(),30955,32267,5,27,CO,N,4,6,3.0,5.0,9.96666666667,2.33333333333,2.33333333333,nhc
gamma_cody.c,gamma_cody(),30980,31188,6,29,CO,N,5,7,3.0,6.0,18.1666666667,10.4,10.4,nhc
gamma_cody.c,gamma_cody(),31666,31670,7,37,CO,N,5,7,3.0,6.0,9.96666666667,9.96666666667,9.96666666667,nhc
gamma_cody.c,gamma_cody(),31769,31989,8,41,CO,N,5,7,3.0,6.0,149.6,11.4333333333,11.4333333333,nhc
gamma_cody.c,gamma_cody(),31991,32001,9,43,CO,N,6,8,3.0,7.0,11.8,132.033333333,11.8,nhc
gamma_cody.c,gamma_cody(),32211,32215,10,44,CO,N,7,9,3.0,8.0,17.0,17.0,17.0,nhc
gamma_cody.c,gamma_cody(),32441,32648,11,47,CO,N,5,7,3.0,6.0,2.33333333333,-1.0,2.33333333333,nhc
gamma_cody.c,gamma_cody(),32510,32514,12,50,CO,N,6,8,3.0,7.0,1.5,1.5,1.5,nhc
gamma_cody.c,gamma_cody(),32883,32893,13,56,CO,N,5,9,15.0,6.8,9.73333333333,1.9,1.9,nhc
gamma_cody.c,gamma_cody(),32912,32926,14,58,CO,N,5,9,15.0,6.8,3.33333333333,7.56666666667,3.33333333333,nhc
