File,Function,Start,End,ConditionNo,node,EdgeType,Estimate,Min,Max,Count,Mean,TrueEvaluations,FalseEvaluations,MinEvals,Method
pnorm.c,pnorm5(),31792,31799,0,2,BO,N,3,3,1.0,3.0,-1.0,1.0,1.0,dcEvolve
pnorm.c,pnorm5(),31804,31812,1,2,BO,N,3,10,29.0,5.966,-1.0,1.0,1.0,dcEvolve
pnorm.c,pnorm5(),31817,31828,2,2,BO,N,3,18,337.0,10.914,-1.0,1.0,1.0,dcEvolve
pnorm.c,pnorm5(),31870,31880,3,4,BO,N,4,28,7816.0,17.394,-1.0,1.0,1.0,dcEvolve
pnorm.c,pnorm5(),31930,31944,5,6,BO,N,1,37,257992.0,22.663,1.83333333333,2.16666666667,1.83333333333,dcEvolve
pnorm.c,pnorm5(),31949,31961,6,7,BO,N,1,38,257994.0,23.662,1.83333333333,-1.0,1.83333333333,dcEvolve
pnorm.c,pnorm5(),32009,32016,7,11,BO,N,1,40,515992.0,25.162,2.16666666667,-1.0,2.16666666667,dcEvolve
pnorm.c,pnorm_both(),33796,33803,0,10,BO,N,2,2,1.0,2.0,-1.0,1.0,1.0,dcEvolve
pnorm.c,pnorm_both(),34035,34514,1,17,BO,N,3,15,236.0,8.39,1742.06666667,1.0,1.0,dcEvolve
pnorm.c,pnorm_both(),34111,34289,2,18,BO,N,3,16,472.0,9.013,1752.46666667,-1.0,1752.46666667,dcEvolve
pnorm.c,pnorm_both(),34202,34206,3,22,BO,N,4,19,1416.0,11.013,-1.0,-1.0,-1.0,dcEvolve
pnorm.c,pnorm_both(),34355,34363,4,27,BO,N,2,16,296.0,8.966,1848.96666667,2329.03333333,1848.96666667,dcEvolve
pnorm.c,pnorm_both(),34386,34394,5,29,BO,N,2,16,296.0,8.966,2329.03333333,1848.96666667,1848.96666667,dcEvolve
pnorm.c,pnorm_both(),34417,34425,6,31,BO,N,1,16,238.0,9.324,2105.66666667,1988.96666667,1988.96666667,dcEvolve
pnorm.c,pnorm_both(),34434,34442,7,32,BO,N,2,17,298.0,9.715,2207.6,2828.73333333,2207.6,dcEvolve
pnorm.c,pnorm_both(),34468,34476,8,34,BO,N,2,17,298.0,9.715,2828.73333333,2207.6,2207.6,dcEvolve
pnorm.c,pnorm_both(),34516,35667,9,36,BO,N,3,16,414.0,9.229,636.233333333,1.0,1.0,dcEvolve
pnorm.c,pnorm_both(),34656,34660,10,39,BO,N,4,19,1242.0,11.229,636.233333333,636.233333333,636.233333333,dcEvolve
pnorm.c,pnorm_both(),35673,35677,11,45,BO,N,1,17,416.0,10.188,1.66666666667,2.66666666667,1.66666666667,dcEvolve
pnorm.c,pnorm_both(),36418,36422,14,49,BO,N,2,27,14844.0,16.071,1.66666666667,1.66666666667,1.66666666667,dcEvolve
pnorm.c,pnorm_both(),36661,36710,15,56,BO,N,1,25,9836.0,15.027,5.46666666667,5.26666666667,5.26666666667,dcEvolve
