File,Function,Start,End,ConditionNo,node,EdgeType,Estimate,Min,Max,Count,Mean,TrueEvaluations,FalseEvaluations,MinEvals,Method
toms708.c,bratio(),965,971,0,7,BO,N,1,2,3.0,1.667,1.3,3.8,1.3,dcEvolve
toms708.c,bratio(),1018,1025,2,10,BO,N,1,5,15.0,3.4,-1.0,3.8,3.8,dcEvolve
toms708.c,bratio(),1071,1077,4,13,BO,N,1,8,51.0,5.059,3.8,6318.7,3.8,dcEvolve
toms708.c,bratio(),1124,1130,6,16,BO,N,1,11,159.0,7.208,6318.7,17340.1333333,6318.7,dcEvolve
toms708.c,bratio(),1239,1262,8,20,BO,N,2,17,1935.0,11.444,17340.1333333,-1.0,17340.1333333,dcEvolve
toms708.c,bratio(),1417,1429,9,25,BO,N,1,19,3872.0,12.938,-1.0,-1.0,-1.0,dcEvolve
toms708.c,bratio(),1446,1458,10,27,BO,N,1,21,7746.0,14.435,-1.0,-1.0,-1.0,dcEvolve
toms708.c,bratio(),1476,1488,11,29,BO,N,1,23,15494.0,15.933,-1.0,-1.0,-1.0,dcEvolve
toms708.c,bratio(),1505,1517,12,31,BO,N,1,25,30990.0,17.432,-1.0,-1.0,-1.0,dcEvolve
toms708.c,bratio(),1562,1587,13,34,BO,N,2,30,371913.0,20.764,-1.0,-1.0,-1.0,dcEvolve
toms708.c,bratio(),1647,1731,14,35,BO,N,1,31,371915.0,21.764,-1.0,-1.0,-1.0,dcEvolve
toms708.c,bratio(),1941,3605,15,42,BO,N,2,34,2231493.0,23.597,-1.0,-1.0,-1.0,dcEvolve
toms708.c,bratio(),2041,2079,16,44,BO,N,2,36,4462988.0,25.097,-1.0,-1.0,-1.0,dcEvolve
toms708.c,bratio(),2245,2272,17,48,BO,N,2,40,43100000.0,27.88,-1.0,-1.0,-1.0,dcEvolve
toms708.c,bratio(),2502,2524,18,53,BO,N,2,44,295000000.0,30.4,-1.0,-1.0,-1.0,dcEvolve
toms708.c,bratio(),2711,3082,20,57,BO,N,2,49,2820000000.0,33.5,-1.0,-1.0,-1.0,dcEvolve
toms708.c,bratio(),2858,2871,21,59,BO,N,2,50,2830000000.0,34.47,-1.0,-1.0,-1.0,dcEvolve
toms708.c,bratio(),2890,2904,22,61,BO,N,2,52,5660000000.0,35.96,-1.0,-1.0,-1.0,dcEvolve
toms708.c,bratio(),2947,2959,23,63,BO,N,2,54,11300000000.0,37.45,-1.0,-1.0,-1.0,dcEvolve
toms708.c,bratio(),2965,2990,24,64,BO,N,2,58,45400000000.0,40.45,-1.0,-1.0,-1.0,dcEvolve
toms708.c,bratio(),3027,3040,25,66,BO,N,2,60,1.02e+11,41.56,-1.0,-1.0,-1.0,dcEvolve
toms708.c,bratio(),3171,3193,26,70,BO,N,2,52,8490000000.0,35.8,-1.0,-1.0,-1.0,dcEvolve
toms708.c,bratio(),3212,3234,27,72,BO,N,2,57,67900000000.0,39.3,-1.0,-1.0,-1.0,dcEvolve
toms708.c,bratio(),3253,3266,28,74,BO,N,2,59,1.36e+11,40.8,-1.0,-1.0,-1.0,dcEvolve
toms708.c,bratio(),3682,3728,29,84,BO,N,1,35,2231497.0,24.597,-1.0,-1.0,-1.0,dcEvolve
toms708.c,bratio(),3790,3851,30,88,BO,N,3,38,8925992.0,26.347,-1.0,-1.0,-1.0,dcEvolve
toms708.c,bratio(),3996,4194,31,93,BO,N,2,40,20100000.0,27.93,-1.0,-1.0,-1.0,dcEvolve
toms708.c,bratio(),4079,4092,32,95,BO,N,2,41,55800000.0,28.56,-1.0,-1.0,-1.0,dcEvolve
toms708.c,bratio(),4196,4370,34,98,BO,N,2,41,55800000.0,28.56,-1.0,-1.0,-1.0,dcEvolve
toms708.c,bratio(),4315,4325,35,100,BO,N,2,42,73600000.0,29.26,-1.0,-1.0,-1.0,dcEvolve
toms708.c,bratio(),4372,4489,37,102,BO,N,2,42,73600000.0,29.26,-1.0,-1.0,-1.0,dcEvolve
toms708.c,bratio(),4491,4513,38,105,BO,N,2,43,109000000.0,29.54,-1.0,-1.0,-1.0,dcEvolve
toms708.c,bratio(),5702,5714,39,130,BO,N,2,67,2.77e+12,45.76,-1.0,-1.0,-1.0,dcEvolve
toms708.c,bratio(),5874,5885,40,135,BO,N,1,72,3.27e+13,49.0,-1.0,-1.0,-1.0,dcEvolve
toms708.c,bratio(),6037,6050,42,138,BO,N,2,75,9.81e+13,51.0,-1.0,-1.0,-1.0,dcEvolve
toms708.c,bratio(),6316,6330,43,142,BO,N,2,77,1.96e+14,52.5,-1.0,-1.0,-1.0,dcEvolve
toms708.c,bratio(),6668,6680,44,151,BO,N,1,78,1.96e+14,53.5,-1.0,-1.0,-1.0,dcEvolve
toms708.c,bratio(),6773,6785,45,159,BO,N,1,81,3.92e+14,56.0,-1.0,-1.0,-1.0,dcEvolve
toms708.c,bratio(),6886,6942,46,167,BO,N,1,84,1.08e+15,56.91,-1.0,-1.0,-1.0,dcEvolve
toms708.c,bratio(),7021,7079,47,173,BO,N,1,85,1.08e+15,57.9,-1.0,-1.0,-1.0,dcEvolve
toms708.c,bratio(),7134,7145,48,178,BO,N,2,84,9.81e+14,57.5,-1.0,-1.0,-1.0,dcEvolve
toms708.c,psi(),43707,43720,0,13,BO,N,2,6,7.0,3.714,-1.0,1.0,1.0,dcEvolve
toms708.c,psi(),44041,44052,1,17,BO,N,1,2,3.0,1.667,1.78571428571,2.07142857143,1.78571428571,dcEvolve
toms708.c,psi(),44299,44633,2,18,BO,N,2,6,14.0,3.857,10357.2857143,1.78571428571,1.78571428571,dcEvolve
toms708.c,psi(),44330,44342,3,19,BO,N,1,7,16.0,4.438,-1.0,11989.3214286,11989.3214286,dcEvolve
toms708.c,psi(),44903,44915,4,24,BO,N,2,8,30.0,5.167,2326.71428571,1.78571428571,1.78571428571,dcEvolve
toms708.c,psi(),45152,45166,5,27,BO,N,2,10,89.0,6.09,-1.0,1.78571428571,1.78571428571,dcEvolve
toms708.c,psi(),45635,45650,6,34,BO,N,3,16,1672.0,9.581,4.5,2.53571428571,2.53571428571,dcEvolve
toms708.c,psi(),45717,45731,7,38,BO,N,3,17,2028.0,10.144,4.10714285714,2.92857142857,2.92857142857,dcEvolve
toms708.c,psi(),46018,46553,8,43,BO,N,3,18,2206.0,10.478,3.60714285714,3.32142857143,3.32142857143,dcEvolve
toms708.c,psi(),46218,46230,9,44,BO,N,2,19,6690.0,11.677,16.7857142857,4.92857142857,4.92857142857,dcEvolve
toms708.c,psi(),46660,46672,10,49,BO,N,1,22,31243.0,13.42,548.107142857,1.10714285714,1.10714285714,dcEvolve
toms708.c,psi(),46898,46903,11,52,BO,N,2,25,93729.0,15.42,548.107142857,548.107142857,548.107142857,dcEvolve
toms708.c,psi(),47268,47281,12,58,BO,N,1,24,78121.0,14.718,1.10714285714,-1.0,1.10714285714,dcEvolve
toms708.c,psi(),47527,47532,13,62,BO,N,2,27,234363.0,16.718,1.10714285714,1.10714285714,1.10714285714,dcEvolve
