PATH-CSV,BO,51214b60,42757,42763,"unity.c","cephes_exp ()",ENTRY,N,2,19,588,11.585,"(x < 0)"
PATH-CSV,BO,51215fa0,63067,63075,"mtherr.c","real_mtherr ()",ENTRY,N,2,6,11,4.455,"code <= 0"
PATH-CSV,BO,51217c08,44461,44473,"i0.c","cephes_bessel_I0 ()",BODY,N,1,3,2,2.000,"if (x <= 8.0)"
PATH-CSV,BO,51214f98,42695,42702,"unity.c","cephes_exp ()",ENTRY,N,2,2,1,2.000,"isnan(x)"
PATH-CSV,BO,51216078,62937,62953,"mtherr.c","real_mtherr ()",ENTRY,N,2,2,2,2.000,"if (name == NULL)"
PATH-CSV,BO,512149f8,42791,42798,"unity.c","cephes_exp ()",ENTRY,N,2,20,1175,12.093,"x < -0.5"
PATH-CSV,BO,51215fa0,63067,63075,"mtherr.c","real_mtherr ()",FORML,N,3,5,4,4.000,"code <= 0",51026e40,"char *name"
PATH-CSV,BO,51215f58,63063,63101,"mtherr.c","real_mtherr ()",ENTRY,N,2,7,12,5.167,"if (code <= 0 || code > CEPHES_UNKNOWN)"
PATH-CSV,BO,512144a0,43267,43292,"unity.c","cosm1 ()",FORML,N,1,2,2,1.500,"if (x < -PIO4 || x > PIO4)",510267c0,"double x"
PATH-CSV,BO,51216e88,44469,44481,"k0.c","k0e ()",BODY,N,1,1,1,1.000,"if (x <= 0.0)"
PATH-CSV,BO,512178f0,44644,44653,"i0.c","i0e ()",FORML,N,1,1,1,1.000,"if (x < 0)",51027300,"double x"
PATH-CSV,BO,51216078,62937,62953,"mtherr.c","real_mtherr ()",FORML,N,1,1,1,1.000,"if (name == NULL)",51026e40,"char *name"
PATH-CSV,BO,51215f58,63063,63101,"mtherr.c","real_mtherr ()",FORML,N,4,6,4,5.000,"if (code <= 0 || code > CEPHES_UNKNOWN)",51026e40,"char *name"
PATH-CSV,BO,51217860,44668,44680,"i0.c","i0e ()",ENTRY,N,2,4,5,3.000,"if (x <= 8.0)"
PATH-CSV,BO,512152f8,42123,42131,"unity.c","cephes_log ()",BODY,N,1,2,2,1.500,"z < SQRTH"
PATH-CSV,BO,51216e40,44543,44555,"k0.c","k0e ()",BODY,N,2,3,2,2.500,"if (x <= 2.0)"
PATH-CSV,BO,512178f0,44644,44653,"i0.c","i0e ()",BODY,N,1,1,1,1.000,"if (x < 0)"
PATH-CSV,BO,51214f08,42695,42702,"unity.c","cephes_exp ()",BODY,N,2,2,1,2.000,"isnan(x)"
PATH-CSV,BO,51214ba8,42729,42745,"unity.c","cephes_exp ()",FORML,N,4,14,69,10.188,"if (!isfinite(x))",51026880,"double x"
PATH-CSV,BO,51214ba8,42729,42745,"unity.c","cephes_exp ()",BODY,N,2,17,242,11.045,"if (!isfinite(x))"
PATH-CSV,BO,51216e88,44469,44481,"k0.c","k0e ()",FORML,N,1,1,1,1.000,"if (x <= 0.0)",51027440,"double x"
PATH-CSV,BO,51214530,43271,43279,"unity.c","cosm1 ()",ENTRY,N,2,2,3,2.000,"x < -PIO4"
PATH-CSV,BO,51214b60,42757,42763,"unity.c","cephes_exp ()",FORML,N,1,15,70,11.043,"(x < 0)",51026880,"double x"
PATH-CSV,BO,51214b60,42757,42763,"unity.c","cephes_exp ()",BODY,N,3,18,242,12.045,"(x < 0)"
PATH-CSV,BO,51216e40,44543,44555,"k0.c","k0e ()",FORML,N,1,3,3,2.000,"if (x <= 2.0)",51027440,"double x"
PATH-CSV,BO,51214f98,42695,42702,"unity.c","cephes_exp ()",BODY,N,1,1,1,1.000,"isnan(x)"
PATH-CSV,BO,51214530,43271,43279,"unity.c","cosm1 ()",BODY,N,1,1,1,1.000,"x < -PIO4"
PATH-CSV,BO,512149f8,42791,42798,"unity.c","cephes_exp ()",FORML,N,1,16,139,11.612,"x < -0.5",51026880,"double x"
PATH-CSV,BO,51213b58,1523,1567,"polevl.c","p1evl ()",BODY,N,1,3,3,2.000,"dowhile (--i)"
PATH-CSV,BO,512149f8,42791,42798,"unity.c","cephes_exp ()",BODY,N,3,19,484,12.545,"x < -0.5"
PATH-CSV,BO,51213b58,1523,1567,"polevl.c","p1evl ()",ENTRY,N,2,4,4,3.250,"dowhile (--i)"
PATH-CSV,BO,512149b0,42787,42810,"unity.c","cephes_exp ()",ENTRY,N,2,21,1176,13.083,"if (x < -0.5 || x > 0.5)"
PATH-CSV,BO,51216030,62994,63002,"mtherr.c","real_mtherr ()",BODY,N,2,3,2,2.500,"if (hush)"
PATH-CSV,BO,51214cc8,42734,42744,"unity.c","cephes_exp ()",ENTRY,N,4,12,52,7.500,"isfinite(x)"
PATH-CSV,BO,51215ec8,63158,63244,"mtherr.c","real_mtherr ()",FORML,N,2,3,2,2.500,"if (have_arg)else",51065820,""
PATH-CSV,BO,51213f00,1222,1266,"polevl.c","polevl ()",FORML,N,3,3,1,3.000,"dowhile (--i)",51026600,"int N"
PATH-CSV,BO,51214d10,42734,42744,"unity.c","cephes_exp ()",ENTRY,N,3,11,52,6.500,"isfinite(x)"
PATH-CSV,BO,51216030,62994,63002,"mtherr.c","real_mtherr ()",ENTRY,N,2,4,5,3.200,"if (hush)"
PATH-CSV,BO,512144a0,43267,43292,"unity.c","cosm1 ()",ENTRY,N,2,3,5,2.600,"if (x < -PIO4 || x > PIO4)"
PATH-CSV,BO,51213f00,1222,1266,"polevl.c","polevl ()",ENTRY,N,2,4,4,3.250,"dowhile (--i)"
PATH-CSV,BO,51216618,1503,1570,"chbevl.c","chbevl ()",FORML,N,3,3,1,3.000,"dowhile (--i)",51027000,"int n"
PATH-CSV,BO,512149b0,42787,42810,"unity.c","cephes_exp ()",BODY,N,4,20,484,13.545,"if (x < -0.5 || x > 0.5)"
PATH-CSV,BO,512149b0,42787,42810,"unity.c","cephes_exp ()",FORML,N,1,17,140,12.529,"if (x < -0.5 || x > 0.5)",51026880,"double x"
PATH-CSV,BO,51216030,62994,63002,"mtherr.c","real_mtherr ()",FORML,N,2,3,2,2.500,"if (hush)",51026e40,"char *name"
PATH-CSV,BO,512152f8,42123,42131,"unity.c","cephes_log ()",ENTRY,N,2,3,3,2.667,"z < SQRTH"
PATH-CSV,BO,51214cc8,42734,42744,"unity.c","cephes_exp ()",BODY,N,3,11,22,7.773,"isfinite(x)"
PATH-CSV,BO,51214cc8,42734,42744,"unity.c","cephes_exp ()",FORML,N,6,8,6,7.167,"isfinite(x)",51026880,"double x"
PATH-CSV,BO,51213f00,1222,1266,"polevl.c","polevl ()",BODY,N,1,3,3,2.000,"dowhile (--i)"
PATH-CSV,BO,512144a0,43267,43292,"unity.c","cosm1 ()",BODY,N,2,2,1,2.000,"if (x < -PIO4 || x > PIO4)"
PATH-CSV,BO,512152f8,42123,42131,"unity.c","cephes_log ()",FORML,N,2,2,1,2.000,"z < SQRTH",51026980,"double x"
PATH-CSV,BO,51217860,44668,44680,"i0.c","i0e ()",FORML,N,1,3,3,2.000,"if (x <= 8.0)",51027300,"double x"
PATH-CSV,BO,512152b0,42119,42145,"unity.c","cephes_log ()",BODY,N,2,3,3,2.333,"if (z < SQRTH || z > SQRT2)"
PATH-CSV,BO,51214d58,42691,42703,"unity.c","cephes_exp ()",ENTRY,N,2,9,26,5.000,"if (isnan(x))"
PATH-CSV,BO,51217860,44668,44680,"i0.c","i0e ()",BODY,N,1,3,2,2.000,"if (x <= 8.0)"
PATH-CSV,BO,51215fa0,63067,63075,"mtherr.c","real_mtherr ()",FORML,N,2,3,2,2.500,"code <= 0",51065820,""
PATH-CSV,BO,51216e88,44469,44481,"k0.c","k0e ()",ENTRY,N,2,2,2,2.000,"if (x <= 0.0)"
PATH-CSV,BO,51214530,43271,43279,"unity.c","cosm1 ()",FORML,N,1,1,1,1.000,"x < -PIO4",51064a70,""
PATH-CSV,BO,51215f58,63063,63101,"mtherr.c","real_mtherr ()",FORML,N,3,4,2,3.500,"if (code <= 0 || code > CEPHES_UNKNOWN)",51065820,""
PATH-CSV,BO,51214d10,42734,42744,"unity.c","cephes_exp ()",BODY,N,2,10,22,6.773,"isfinite(x)"
PATH-CSV,BO,51214d10,42734,42744,"unity.c","cephes_exp ()",FORML,N,5,7,6,6.167,"isfinite(x)",51026880,"double x"
PATH-CSV,BO,51216618,1503,1570,"chbevl.c","chbevl ()",ENTRY,N,2,4,4,3.250,"dowhile (--i)"
PATH-CSV,BO,51216e40,44543,44555,"k0.c","k0e ()",ENTRY,N,2,4,5,3.200,"if (x <= 2.0)"
PATH-CSV,BO,51217308,44229,44241,"k0.c","cephes_bessel_K0 ()",ENTRY,N,2,4,5,3.200,"if (x <= 2.0)"
PATH-CSV,BO,51217c50,44437,44446,"i0.c","cephes_bessel_I0 ()",ENTRY,N,2,2,2,2.000,"if (x < 0)"
PATH-CSV,BO,51215ec8,63158,63244,"mtherr.c","real_mtherr ()",BODY,N,3,5,4,4.000,"if (have_arg)else"
PATH-CSV,BO,51213b58,1523,1567,"polevl.c","p1evl ()",FORML,N,3,3,1,3.000,"dowhile (--i)",510264c0,"int N"
PATH-CSV,BO,51217c50,44437,44446,"i0.c","cephes_bessel_I0 ()",FORML,N,1,1,1,1.000,"if (x < 0)",510273c0,"double x"
PATH-CSV,BO,512178f0,44644,44653,"i0.c","i0e ()",ENTRY,N,2,2,2,2.000,"if (x < 0)"
PATH-CSV,BO,51217308,44229,44241,"k0.c","cephes_bessel_K0 ()",FORML,N,1,3,3,2.000,"if (x <= 2.0)",51027280,"double x"
PATH-CSV,BO,51214d58,42691,42703,"unity.c","cephes_exp ()",BODY,N,1,8,11,5.273,"if (isnan(x))"
PATH-CSV,BO,51214d58,42691,42703,"unity.c","cephes_exp ()",FORML,N,4,5,3,4.667,"if (isnan(x))",51026880,"double x"
PATH-CSV,BO,51217308,44229,44241,"k0.c","cephes_bessel_K0 ()",BODY,N,2,3,2,2.500,"if (x <= 2.0)"
PATH-CSV,BO,51217350,44156,44168,"k0.c","cephes_bessel_K0 ()",ENTRY,N,2,2,2,2.000,"if (x <= 0.0)"
PATH-CSV,BO,51215fa0,63067,63075,"mtherr.c","real_mtherr ()",FORML,N,1,1,1,1.000,"code <= 0",51026e00,"int code"
PATH-CSV,BO,51217350,44156,44168,"k0.c","cephes_bessel_K0 ()",FORML,N,1,1,1,1.000,"if (x <= 0.0)",51027280,"double x"
PATH-CSV,BO,51214530,43271,43279,"unity.c","cosm1 ()",FORML,N,1,1,1,1.000,"x < -PIO4",510267c0,"double x"
PATH-CSV,BO,51215ec8,63158,63244,"mtherr.c","real_mtherr ()",ENTRY,N,2,6,11,4.455,"if (have_arg)else"
PATH-CSV,BO,51217c50,44437,44446,"i0.c","cephes_bessel_I0 ()",BODY,N,1,1,1,1.000,"if (x < 0)"
PATH-CSV,BO,51215f58,63063,63101,"mtherr.c","real_mtherr ()",FORML,N,1,2,2,1.500,"if (code <= 0 || code > CEPHES_UNKNOWN)",51026e00,"int code"
PATH-CSV,BO,51215ec8,63158,63244,"mtherr.c","real_mtherr ()",FORML,N,1,1,1,1.000,"if (have_arg)else",51026d80,"int have_arg"
PATH-CSV,BO,512144a0,43267,43292,"unity.c","cosm1 ()",FORML,N,1,2,2,1.500,"if (x < -PIO4 || x > PIO4)",51064a70,""
PATH-CSV,BO,51215ec8,63158,63244,"mtherr.c","real_mtherr ()",FORML,N,3,5,4,4.000,"if (have_arg)else",51026e40,"char *name"
PATH-CSV,BO,51217350,44156,44168,"k0.c","cephes_bessel_K0 ()",BODY,N,1,1,1,1.000,"if (x <= 0.0)"
PATH-CSV,BO,51215fa0,63067,63075,"mtherr.c","real_mtherr ()",BODY,N,3,5,4,4.000,"code <= 0"
PATH-CSV,BO,51217c08,44461,44473,"i0.c","cephes_bessel_I0 ()",ENTRY,N,2,4,5,3.000,"if (x <= 8.0)"
PATH-CSV,BO,512152b0,42119,42145,"unity.c","cephes_log ()",ENTRY,N,3,4,5,3.400,"if (z < SQRTH || z > SQRT2)"
PATH-CSV,BO,51216618,1503,1570,"chbevl.c","chbevl ()",BODY,N,1,3,3,2.000,"dowhile (--i)"
PATH-CSV,BO,512152b0,42119,42145,"unity.c","cephes_log ()",FORML,N,2,3,2,2.500,"if (z < SQRTH || z > SQRT2)",51026980,"double x"
PATH-CSV,BO,51217c08,44461,44473,"i0.c","cephes_bessel_I0 ()",FORML,N,1,3,3,2.000,"if (x <= 8.0)",510273c0,"double x"
PATH-CSV,BO,51216078,62937,62953,"mtherr.c","real_mtherr ()",BODY,N,1,1,1,1.000,"if (name == NULL)"
PATH-CSV,BO,51215f58,63063,63101,"mtherr.c","real_mtherr ()",BODY,N,4,6,4,5.000,"if (code <= 0 || code > CEPHES_UNKNOWN)"
PATH-CSV,BO,51214f08,42695,42702,"unity.c","cephes_exp ()",ENTRY,N,3,3,1,3.000,"isnan(x)"
PATH-CSV,BO,51214ba8,42729,42745,"unity.c","cephes_exp ()",ENTRY,N,2,18,587,10.601,"if (!isfinite(x))"
PATH-CSV,BO,51216030,62994,63002,"mtherr.c","real_mtherr ()",FORML,N,1,1,1,1.000,"if (hush)",51065820,""
PATH-CSV,BO,51213f00,1222,1266,"polevl.c","polevl ()",ALLFI,N,3,3,1,3.000,"dowhile (--i)"
PATH-CSV,BO,51214d10,42734,42744,"unity.c","cephes_exp ()",ALLFI,N,5,7,6,6.167,"isfinite(x)"
PATH-CSV,BO,512152b0,42119,42145,"unity.c","cephes_log ()",ALLFI,N,2,3,2,2.500,"if (z < SQRTH || z > SQRT2)"
PATH-CSV,BO,51217860,44668,44680,"i0.c","i0e ()",ALLFI,N,1,3,3,2.000,"if (x <= 8.0)"
PATH-CSV,BO,51213b58,1523,1567,"polevl.c","p1evl ()",ALLFI,N,3,3,1,3.000,"dowhile (--i)"
PATH-CSV,BO,51217308,44229,44241,"k0.c","cephes_bessel_K0 ()",ALLFI,N,1,3,3,2.000,"if (x <= 2.0)"
PATH-CSV,BO,51216030,62994,63002,"mtherr.c","real_mtherr ()",ALLFI,N,1,3,3,2.000,"if (hush)"
PATH-CSV,BO,51217c50,44437,44446,"i0.c","cephes_bessel_I0 ()",ALLFI,N,1,1,1,1.000,"if (x < 0)"
PATH-CSV,BO,512149f8,42791,42798,"unity.c","cephes_exp ()",ALLFI,N,1,16,139,11.612,"x < -0.5"
PATH-CSV,BO,51217c08,44461,44473,"i0.c","cephes_bessel_I0 ()",ALLFI,N,1,3,3,2.000,"if (x <= 8.0)"
PATH-CSV,BO,51214cc8,42734,42744,"unity.c","cephes_exp ()",ALLFI,N,6,8,6,7.167,"isfinite(x)"
PATH-CSV,BO,51214d58,42691,42703,"unity.c","cephes_exp ()",ALLFI,N,4,5,3,4.667,"if (isnan(x))"
PATH-CSV,BO,51216e40,44543,44555,"k0.c","k0e ()",ALLFI,N,1,3,3,2.000,"if (x <= 2.0)"
PATH-CSV,BO,512144a0,43267,43292,"unity.c","cosm1 ()",ALLFI,N,1,2,4,1.500,"if (x < -PIO4 || x > PIO4)"
PATH-CSV,BO,51214530,43271,43279,"unity.c","cosm1 ()",ALLFI,N,1,1,2,1.000,"x < -PIO4"
PATH-CSV,BO,512149b0,42787,42810,"unity.c","cephes_exp ()",ALLFI,N,1,17,140,12.529,"if (x < -0.5 || x > 0.5)"
PATH-CSV,BO,512152f8,42123,42131,"unity.c","cephes_log ()",ALLFI,N,2,2,1,2.000,"z < SQRTH"
PATH-CSV,BO,51214b60,42757,42763,"unity.c","cephes_exp ()",ALLFI,N,1,15,70,11.043,"(x < 0)"
PATH-CSV,BO,51215ec8,63158,63244,"mtherr.c","real_mtherr ()",ALLFI,N,1,5,7,3.143,"if (have_arg)else"
PATH-CSV,BO,51217350,44156,44168,"k0.c","cephes_bessel_K0 ()",ALLFI,N,1,1,1,1.000,"if (x <= 0.0)"
PATH-CSV,BO,51215f58,63063,63101,"mtherr.c","real_mtherr ()",ALLFI,N,1,6,8,3.750,"if (code <= 0 || code > CEPHES_UNKNOWN)"
PATH-CSV,BO,51216618,1503,1570,"chbevl.c","chbevl ()",ALLFI,N,3,3,1,3.000,"dowhile (--i)"
PATH-CSV,BO,51216e88,44469,44481,"k0.c","k0e ()",ALLFI,N,1,1,1,1.000,"if (x <= 0.0)"
PATH-CSV,BO,51216078,62937,62953,"mtherr.c","real_mtherr ()",ALLFI,N,1,1,1,1.000,"if (name == NULL)"
PATH-CSV,BO,512178f0,44644,44653,"i0.c","i0e ()",ALLFI,N,1,1,1,1.000,"if (x < 0)"
PATH-CSV,BO,51214ba8,42729,42745,"unity.c","cephes_exp ()",ALLFI,N,4,14,69,10.188,"if (!isfinite(x))"
PATH-CSV,BO,51215fa0,63067,63075,"mtherr.c","real_mtherr ()",ALLFI,N,1,5,7,3.143,"code <= 0"
PATH-CSV,BO,51214f08,42695,42702,"unity.c","cephes_exp ()",ALLVX,N,3,3,1,3.000,"isnan(x)"
PATH-CSV,BO,51213f00,1222,1266,"polevl.c","polevl ()",ALLVX,N,2,4,5,3.200,"dowhile (--i)"
PATH-CSV,BO,51214d10,42734,42744,"unity.c","cephes_exp ()",ALLVX,N,3,11,58,6.466,"isfinite(x)"
PATH-CSV,BO,512152b0,42119,42145,"unity.c","cephes_log ()",ALLVX,N,2,4,7,3.143,"if (z < SQRTH || z > SQRT2)"
PATH-CSV,BO,51217860,44668,44680,"i0.c","i0e ()",ALLVX,N,1,4,8,2.625,"if (x <= 8.0)"
PATH-CSV,BO,51217308,44229,44241,"k0.c","cephes_bessel_K0 ()",ALLVX,N,1,4,8,2.750,"if (x <= 2.0)"
PATH-CSV,BO,51213b58,1523,1567,"polevl.c","p1evl ()",ALLVX,N,2,4,5,3.200,"dowhile (--i)"
PATH-CSV,BO,51216030,62994,63002,"mtherr.c","real_mtherr ()",ALLVX,N,1,4,8,2.750,"if (hush)"
PATH-CSV,BO,51217c50,44437,44446,"i0.c","cephes_bessel_I0 ()",ALLVX,N,1,2,3,1.667,"if (x < 0)"
PATH-CSV,BO,512149f8,42791,42798,"unity.c","cephes_exp ()",ALLVX,N,1,20,1314,12.042,"x < -0.5"
PATH-CSV,BO,51217c08,44461,44473,"i0.c","cephes_bessel_I0 ()",ALLVX,N,1,4,8,2.625,"if (x <= 8.0)"
PATH-CSV,BO,51214cc8,42734,42744,"unity.c","cephes_exp ()",ALLVX,N,4,12,58,7.466,"isfinite(x)"
PATH-CSV,BO,51216e40,44543,44555,"k0.c","k0e ()",ALLVX,N,1,4,8,2.750,"if (x <= 2.0)"
PATH-CSV,BO,51214d58,42691,42703,"unity.c","cephes_exp ()",ALLVX,N,2,9,29,4.966,"if (isnan(x))"
PATH-CSV,BO,512144a0,43267,43292,"unity.c","cosm1 ()",ALLVX,N,1,3,9,2.111,"if (x < -PIO4 || x > PIO4)"
PATH-CSV,BO,51214530,43271,43279,"unity.c","cosm1 ()",ALLVX,N,1,2,5,1.600,"x < -PIO4"
PATH-CSV,BO,512149b0,42787,42810,"unity.c","cephes_exp ()",ALLVX,N,1,21,1316,13.024,"if (x < -0.5 || x > 0.5)"
PATH-CSV,BO,51214f98,42695,42702,"unity.c","cephes_exp ()",ALLVX,N,2,2,1,2.000,"isnan(x)"
PATH-CSV,BO,512152f8,42123,42131,"unity.c","cephes_log ()",ALLVX,N,2,3,4,2.500,"z < SQRTH"
PATH-CSV,BO,51214b60,42757,42763,"unity.c","cephes_exp ()",ALLVX,N,1,19,658,11.527,"(x < 0)"
PATH-CSV,BO,51215ec8,63158,63244,"mtherr.c","real_mtherr ()",ALLVX,N,1,6,18,3.944,"if (have_arg)else"
PATH-CSV,BO,51217350,44156,44168,"k0.c","cephes_bessel_K0 ()",ALLVX,N,1,2,3,1.667,"if (x <= 0.0)"
PATH-CSV,BO,51215f58,63063,63101,"mtherr.c","real_mtherr ()",ALLVX,N,1,7,20,4.600,"if (code <= 0 || code > CEPHES_UNKNOWN)"
PATH-CSV,BO,51216618,1503,1570,"chbevl.c","chbevl ()",ALLVX,N,2,4,5,3.200,"dowhile (--i)"
PATH-CSV,BO,51216e88,44469,44481,"k0.c","k0e ()",ALLVX,N,1,2,3,1.667,"if (x <= 0.0)"
PATH-CSV,BO,51216078,62937,62953,"mtherr.c","real_mtherr ()",ALLVX,N,1,2,3,1.667,"if (name == NULL)"
PATH-CSV,BO,512178f0,44644,44653,"i0.c","i0e ()",ALLVX,N,1,2,3,1.667,"if (x < 0)"
PATH-CSV,BO,51214ba8,42729,42745,"unity.c","cephes_exp ()",ALLVX,N,2,18,656,10.558,"if (!isfinite(x))"
PATH-CSV,BO,51215fa0,63067,63075,"mtherr.c","real_mtherr ()",ALLVX,N,1,6,18,3.944,"code <= 0"
PATH-CSV,CO,51214b60,42757,42763,"unity.c","cephes_exp ()",ENTRY,N,4,5,2,4.500,"(x < 0)"
PATH-CSV,CO,51215fa0,63067,63075,"mtherr.c","real_mtherr ()",ENTRY,N,4,6,4,5.000,"code <= 0"
PATH-CSV,CO,51217c08,44461,44473,"i0.c","cephes_bessel_I0 ()",BODY,N,1,1,1,1.000,"if (x <= 8.0)"
PATH-CSV,CO,51214f98,42695,42702,"unity.c","cephes_exp ()",ENTRY,N,2,2,1,2.000,"isnan(x)"
PATH-CSV,CO,51216078,62937,62953,"mtherr.c","real_mtherr ()",ENTRY,N,2,2,1,2.000,"if (name == NULL)"
PATH-CSV,CO,512149f8,42791,42798,"unity.c","cephes_exp ()",ENTRY,N,4,6,4,5.000,"x < -0.5"
PATH-CSV,CO,51215f58,63063,63101,"mtherr.c","real_mtherr ()",ENTRY,N,5,7,4,6.000,"if (code <= 0 || code > CEPHES_UNKNOWN)"
PATH-CSV,CO,51216e88,44469,44481,"k0.c","k0e ()",BODY,N,1,1,1,1.000,"if (x <= 0.0)"
PATH-CSV,CO,51217860,44668,44680,"i0.c","i0e ()",ENTRY,N,2,2,1,2.000,"if (x <= 8.0)"
PATH-CSV,CO,51216e40,44543,44555,"k0.c","k0e ()",BODY,N,2,3,2,2.500,"if (x <= 2.0)"
PATH-CSV,CO,512152f8,42123,42131,"unity.c","cephes_log ()",BODY,N,1,1,1,1.000,"z < SQRTH"
PATH-CSV,CO,512178f0,44644,44653,"i0.c","i0e ()",BODY,N,1,1,1,1.000,"if (x < 0)"
PATH-CSV,CO,51214f08,42695,42702,"unity.c","cephes_exp ()",BODY,N,2,2,1,2.000,"isnan(x)"
PATH-CSV,CO,51214ba8,42729,42745,"unity.c","cephes_exp ()",BODY,N,2,3,2,2.500,"if (!isfinite(x))"
PATH-CSV,CO,51214530,43271,43279,"unity.c","cosm1 ()",ENTRY,N,2,2,1,2.000,"x < -PIO4"
PATH-CSV,CO,51214b60,42757,42763,"unity.c","cephes_exp ()",BODY,N,3,4,2,3.500,"(x < 0)"
PATH-CSV,CO,51214f98,42695,42702,"unity.c","cephes_exp ()",BODY,N,1,1,1,1.000,"isnan(x)"
PATH-CSV,CO,51213b58,1523,1567,"polevl.c","p1evl ()",BODY,N,1,1,1,1.000,"dowhile (--i)"
PATH-CSV,CO,512149f8,42791,42798,"unity.c","cephes_exp ()",BODY,N,3,5,4,4.000,"x < -0.5"
PATH-CSV,CO,51214530,43271,43279,"unity.c","cosm1 ()",BODY,N,1,1,1,1.000,"x < -PIO4"
PATH-CSV,CO,51213b58,1523,1567,"polevl.c","p1evl ()",ENTRY,N,2,2,1,2.000,"dowhile (--i)"
PATH-CSV,CO,512149b0,42787,42810,"unity.c","cephes_exp ()",ENTRY,N,5,7,4,6.000,"if (x < -0.5 || x > 0.5)"
PATH-CSV,CO,51216030,62994,63002,"mtherr.c","real_mtherr ()",BODY,N,2,3,2,2.500,"if (hush)"
PATH-CSV,CO,51214cc8,42734,42744,"unity.c","cephes_exp ()",ENTRY,N,4,5,2,4.500,"isfinite(x)"
PATH-CSV,CO,51214d10,42734,42744,"unity.c","cephes_exp ()",ENTRY,N,3,4,2,3.500,"isfinite(x)"
PATH-CSV,CO,51216030,62994,63002,"mtherr.c","real_mtherr ()",ENTRY,N,3,4,2,3.500,"if (hush)"
PATH-CSV,CO,512144a0,43267,43292,"unity.c","cosm1 ()",ENTRY,N,3,3,1,3.000,"if (x < -PIO4 || x > PIO4)"
PATH-CSV,CO,51213f00,1222,1266,"polevl.c","polevl ()",ENTRY,N,2,2,1,2.000,"dowhile (--i)"
PATH-CSV,CO,512149b0,42787,42810,"unity.c","cephes_exp ()",BODY,N,4,6,4,5.000,"if (x < -0.5 || x > 0.5)"
PATH-CSV,CO,512152f8,42123,42131,"unity.c","cephes_log ()",ENTRY,N,2,2,1,2.000,"z < SQRTH"
PATH-CSV,CO,51214cc8,42734,42744,"unity.c","cephes_exp ()",BODY,N,3,4,2,3.500,"isfinite(x)"
PATH-CSV,CO,51213f00,1222,1266,"polevl.c","polevl ()",BODY,N,1,1,1,1.000,"dowhile (--i)"
PATH-CSV,CO,512144a0,43267,43292,"unity.c","cosm1 ()",BODY,N,2,2,1,2.000,"if (x < -PIO4 || x > PIO4)"
PATH-CSV,CO,512152b0,42119,42145,"unity.c","cephes_log ()",BODY,N,2,2,1,2.000,"if (z < SQRTH || z > SQRT2)"
PATH-CSV,CO,51214d58,42691,42703,"unity.c","cephes_exp ()",ENTRY,N,2,2,1,2.000,"if (isnan(x))"
PATH-CSV,CO,51217860,44668,44680,"i0.c","i0e ()",BODY,N,1,1,1,1.000,"if (x <= 8.0)"
PATH-CSV,CO,51216e88,44469,44481,"k0.c","k0e ()",ENTRY,N,2,2,1,2.000,"if (x <= 0.0)"
PATH-CSV,CO,51214d10,42734,42744,"unity.c","cephes_exp ()",BODY,N,2,3,2,2.500,"isfinite(x)"
PATH-CSV,CO,51216618,1503,1570,"chbevl.c","chbevl ()",ENTRY,N,2,2,1,2.000,"dowhile (--i)"
PATH-CSV,CO,51216e40,44543,44555,"k0.c","k0e ()",ENTRY,N,3,4,2,3.500,"if (x <= 2.0)"
PATH-CSV,CO,51217308,44229,44241,"k0.c","cephes_bessel_K0 ()",ENTRY,N,3,4,2,3.500,"if (x <= 2.0)"
PATH-CSV,CO,51217c50,44437,44446,"i0.c","cephes_bessel_I0 ()",ENTRY,N,2,2,1,2.000,"if (x < 0)"
PATH-CSV,CO,51215ec8,63158,63244,"mtherr.c","real_mtherr ()",BODY,N,3,5,4,4.000,"if (have_arg)else"
PATH-CSV,CO,512178f0,44644,44653,"i0.c","i0e ()",ENTRY,N,2,2,1,2.000,"if (x < 0)"
PATH-CSV,CO,51214d58,42691,42703,"unity.c","cephes_exp ()",BODY,N,1,1,1,1.000,"if (isnan(x))"
PATH-CSV,CO,51217308,44229,44241,"k0.c","cephes_bessel_K0 ()",BODY,N,2,3,2,2.500,"if (x <= 2.0)"
PATH-CSV,CO,51217350,44156,44168,"k0.c","cephes_bessel_K0 ()",ENTRY,N,2,2,1,2.000,"if (x <= 0.0)"
PATH-CSV,CO,51215ec8,63158,63244,"mtherr.c","real_mtherr ()",ENTRY,N,4,6,4,5.000,"if (have_arg)else"
PATH-CSV,CO,51217c50,44437,44446,"i0.c","cephes_bessel_I0 ()",BODY,N,1,1,1,1.000,"if (x < 0)"
PATH-CSV,CO,51217350,44156,44168,"k0.c","cephes_bessel_K0 ()",BODY,N,1,1,1,1.000,"if (x <= 0.0)"
PATH-CSV,CO,51215fa0,63067,63075,"mtherr.c","real_mtherr ()",BODY,N,3,5,4,4.000,"code <= 0"
PATH-CSV,CO,51217c08,44461,44473,"i0.c","cephes_bessel_I0 ()",ENTRY,N,2,2,1,2.000,"if (x <= 8.0)"
PATH-CSV,CO,512152b0,42119,42145,"unity.c","cephes_log ()",ENTRY,N,3,3,1,3.000,"if (z < SQRTH || z > SQRT2)"
PATH-CSV,CO,51216618,1503,1570,"chbevl.c","chbevl ()",BODY,N,1,1,1,1.000,"dowhile (--i)"
PATH-CSV,CO,51216078,62937,62953,"mtherr.c","real_mtherr ()",BODY,N,1,1,1,1.000,"if (name == NULL)"
PATH-CSV,CO,51215f58,63063,63101,"mtherr.c","real_mtherr ()",BODY,N,4,6,4,5.000,"if (code <= 0 || code > CEPHES_UNKNOWN)"
PATH-CSV,CO,51214f08,42695,42702,"unity.c","cephes_exp ()",ENTRY,N,3,3,1,3.000,"isnan(x)"
PATH-CSV,CO,51214ba8,42729,42745,"unity.c","cephes_exp ()",ENTRY,N,3,4,2,3.500,"if (!isfinite(x))"
PATH-CSV,CO,51214f08,42695,42702,"unity.c","cephes_exp ()",ALLVX,N,3,3,1,3.000,"isnan(x)"
PATH-CSV,CO,51213f00,1222,1266,"polevl.c","polevl ()",ALLVX,N,2,2,1,2.000,"dowhile (--i)"
PATH-CSV,CO,51214d10,42734,42744,"unity.c","cephes_exp ()",ALLVX,N,3,4,2,3.500,"isfinite(x)"
PATH-CSV,CO,512152b0,42119,42145,"unity.c","cephes_log ()",ALLVX,N,3,3,1,3.000,"if (z < SQRTH || z > SQRT2)"
PATH-CSV,CO,51217860,44668,44680,"i0.c","i0e ()",ALLVX,N,2,2,1,2.000,"if (x <= 8.0)"
PATH-CSV,CO,51213b58,1523,1567,"polevl.c","p1evl ()",ALLVX,N,2,2,1,2.000,"dowhile (--i)"
PATH-CSV,CO,51217308,44229,44241,"k0.c","cephes_bessel_K0 ()",ALLVX,N,3,4,2,3.500,"if (x <= 2.0)"
PATH-CSV,CO,51216030,62994,63002,"mtherr.c","real_mtherr ()",ALLVX,N,3,4,2,3.500,"if (hush)"
PATH-CSV,CO,51217c50,44437,44446,"i0.c","cephes_bessel_I0 ()",ALLVX,N,2,2,1,2.000,"if (x < 0)"
PATH-CSV,CO,512149f8,42791,42798,"unity.c","cephes_exp ()",ALLVX,N,4,6,4,5.000,"x < -0.5"
PATH-CSV,CO,51217c08,44461,44473,"i0.c","cephes_bessel_I0 ()",ALLVX,N,2,2,1,2.000,"if (x <= 8.0)"
PATH-CSV,CO,51214cc8,42734,42744,"unity.c","cephes_exp ()",ALLVX,N,4,5,2,4.500,"isfinite(x)"
PATH-CSV,CO,51216e40,44543,44555,"k0.c","k0e ()",ALLVX,N,3,4,2,3.500,"if (x <= 2.0)"
PATH-CSV,CO,51214d58,42691,42703,"unity.c","cephes_exp ()",ALLVX,N,2,2,1,2.000,"if (isnan(x))"
PATH-CSV,CO,512144a0,43267,43292,"unity.c","cosm1 ()",ALLVX,N,3,3,1,3.000,"if (x < -PIO4 || x > PIO4)"
PATH-CSV,CO,51214530,43271,43279,"unity.c","cosm1 ()",ALLVX,N,2,2,1,2.000,"x < -PIO4"
PATH-CSV,CO,512149b0,42787,42810,"unity.c","cephes_exp ()",ALLVX,N,5,7,4,6.000,"if (x < -0.5 || x > 0.5)"
PATH-CSV,CO,51214f98,42695,42702,"unity.c","cephes_exp ()",ALLVX,N,2,2,1,2.000,"isnan(x)"
PATH-CSV,CO,512152f8,42123,42131,"unity.c","cephes_log ()",ALLVX,N,2,2,1,2.000,"z < SQRTH"
PATH-CSV,CO,51214b60,42757,42763,"unity.c","cephes_exp ()",ALLVX,N,4,5,2,4.500,"(x < 0)"
PATH-CSV,CO,51215ec8,63158,63244,"mtherr.c","real_mtherr ()",ALLVX,N,4,6,4,5.000,"if (have_arg)else"
PATH-CSV,CO,51217350,44156,44168,"k0.c","cephes_bessel_K0 ()",ALLVX,N,2,2,1,2.000,"if (x <= 0.0)"
PATH-CSV,CO,51215f58,63063,63101,"mtherr.c","real_mtherr ()",ALLVX,N,5,7,4,6.000,"if (code <= 0 || code > CEPHES_UNKNOWN)"
PATH-CSV,CO,51216618,1503,1570,"chbevl.c","chbevl ()",ALLVX,N,2,2,1,2.000,"dowhile (--i)"
PATH-CSV,CO,51216e88,44469,44481,"k0.c","k0e ()",ALLVX,N,2,2,1,2.000,"if (x <= 0.0)"
PATH-CSV,CO,51216078,62937,62953,"mtherr.c","real_mtherr ()",ALLVX,N,2,2,1,2.000,"if (name == NULL)"
PATH-CSV,CO,512178f0,44644,44653,"i0.c","i0e ()",ALLVX,N,2,2,1,2.000,"if (x < 0)"
PATH-CSV,CO,51214ba8,42729,42745,"unity.c","cephes_exp ()",ALLVX,N,3,4,2,3.500,"if (!isfinite(x))"
PATH-CSV,CO,51215fa0,63067,63075,"mtherr.c","real_mtherr ()",ALLVX,N,4,6,4,5.000,"code <= 0"
PATH-CSV,DO,51215fa0,63067,63075,"mtherr.c","real_mtherr ()",FORML,N,1,1,1,1.000,"code <= 0",51026e00,"int code"
PATH-CSV,DO,512144a0,43267,43292,"unity.c","cosm1 ()",FORML,N,1,1,1,1.000,"if (x < -PIO4 || x > PIO4)",510267c0,"double x"
PATH-CSV,DO,51214d58,42691,42703,"unity.c","cephes_exp ()",FORML,N,4,5,3,4.667,"if (isnan(x))",51026880,"double x"
PATH-CSV,DO,51216e88,44469,44481,"k0.c","k0e ()",FORML,N,1,1,1,1.000,"if (x <= 0.0)",51027440,"double x"
PATH-CSV,DO,512149b0,42787,42810,"unity.c","cephes_exp ()",FORML,N,1,1,1,1.000,"if (x < -0.5 || x > 0.5)",51026880,"double x"
PATH-CSV,DO,51214530,43271,43279,"unity.c","cosm1 ()",FORML,N,1,1,1,1.000,"x < -PIO4",510267c0,"double x"
PATH-CSV,DO,51214b60,42757,42763,"unity.c","cephes_exp ()",FORML,N,1,1,1,1.000,"(x < 0)",51026880,"double x"
PATH-CSV,DO,51214ba8,42729,42745,"unity.c","cephes_exp ()",FORML,N,4,5,3,4.667,"if (!isfinite(x))",51026880,"double x"
PATH-CSV,DO,51216078,62937,62953,"mtherr.c","real_mtherr ()",FORML,N,1,1,1,1.000,"if (name == NULL)",51026e40,"char *name"
PATH-CSV,DO,51215ec8,63158,63244,"mtherr.c","real_mtherr ()",FORML,N,1,1,1,1.000,"if (have_arg)else",51026d80,"int have_arg"
PATH-CSV,DO,51213f00,1222,1266,"polevl.c","polevl ()",FORML,N,3,3,1,3.000,"dowhile (--i)",51026600,"int N"
PATH-CSV,DO,51217c50,44437,44446,"i0.c","cephes_bessel_I0 ()",FORML,N,1,1,1,1.000,"if (x < 0)",510273c0,"double x"
PATH-CSV,DO,512152f8,42123,42131,"unity.c","cephes_log ()",FORML,N,2,2,1,2.000,"z < SQRTH",51026980,"double x"
PATH-CSV,DO,51216618,1503,1570,"chbevl.c","chbevl ()",FORML,N,3,3,1,3.000,"dowhile (--i)",51027000,"int n"
PATH-CSV,DO,51217350,44156,44168,"k0.c","cephes_bessel_K0 ()",FORML,N,1,1,1,1.000,"if (x <= 0.0)",51027280,"double x"
PATH-CSV,DO,512144a0,43267,43292,"unity.c","cosm1 ()",FORML,N,1,1,1,1.000,"if (x < -PIO4 || x > PIO4)",51064a70,""
PATH-CSV,DO,51217c08,44461,44473,"i0.c","cephes_bessel_I0 ()",FORML,N,1,2,2,1.500,"if (x <= 8.0)",510273c0,"double x"
PATH-CSV,DO,51214530,43271,43279,"unity.c","cosm1 ()",FORML,N,1,1,1,1.000,"x < -PIO4",51064a70,""
PATH-CSV,DO,512178f0,44644,44653,"i0.c","i0e ()",FORML,N,1,1,1,1.000,"if (x < 0)",51027300,"double x"
PATH-CSV,DO,51213b58,1523,1567,"polevl.c","p1evl ()",FORML,N,3,3,1,3.000,"dowhile (--i)",510264c0,"int N"
PATH-CSV,DO,51216e40,44543,44555,"k0.c","k0e ()",FORML,N,1,1,1,1.000,"if (x <= 2.0)",51027440,"double x"
PATH-CSV,DO,51215f58,63063,63101,"mtherr.c","real_mtherr ()",FORML,N,1,1,1,1.000,"if (code <= 0 || code > CEPHES_UNKNOWN)",51026e00,"int code"
PATH-CSV,DO,51216030,62994,63002,"mtherr.c","real_mtherr ()",FORML,N,1,1,1,1.000,"if (hush)",51065820,""
PATH-CSV,DO,512152b0,42119,42145,"unity.c","cephes_log ()",FORML,N,2,2,1,2.000,"if (z < SQRTH || z > SQRT2)",51026980,"double x"
PATH-CSV,DO,51217860,44668,44680,"i0.c","i0e ()",FORML,N,1,2,2,1.500,"if (x <= 8.0)",51027300,"double x"
PATH-CSV,DO,51217308,44229,44241,"k0.c","cephes_bessel_K0 ()",FORML,N,1,1,1,1.000,"if (x <= 2.0)",51027280,"double x"
PATH-CSV,DO,512149f8,42791,42798,"unity.c","cephes_exp ()",FORML,N,1,1,1,1.000,"x < -0.5",51026880,"double x"
PATH-CSV,DO,51213f00,1222,1266,"polevl.c","polevl ()",ALLFI,N,3,3,1,3.000,"dowhile (--i)"
PATH-CSV,DO,51217860,44668,44680,"i0.c","i0e ()",ALLFI,N,1,2,2,1.500,"if (x <= 8.0)"
PATH-CSV,DO,512152b0,42119,42145,"unity.c","cephes_log ()",ALLFI,N,2,2,1,2.000,"if (z < SQRTH || z > SQRT2)"
PATH-CSV,DO,51217308,44229,44241,"k0.c","cephes_bessel_K0 ()",ALLFI,N,1,1,1,1.000,"if (x <= 2.0)"
PATH-CSV,DO,51213b58,1523,1567,"polevl.c","p1evl ()",ALLFI,N,3,3,1,3.000,"dowhile (--i)"
PATH-CSV,DO,51216030,62994,63002,"mtherr.c","real_mtherr ()",ALLFI,N,1,1,1,1.000,"if (hush)"
PATH-CSV,DO,51217c50,44437,44446,"i0.c","cephes_bessel_I0 ()",ALLFI,N,1,1,1,1.000,"if (x < 0)"
PATH-CSV,DO,512149f8,42791,42798,"unity.c","cephes_exp ()",ALLFI,N,1,1,1,1.000,"x < -0.5"
PATH-CSV,DO,51217c08,44461,44473,"i0.c","cephes_bessel_I0 ()",ALLFI,N,1,2,2,1.500,"if (x <= 8.0)"
PATH-CSV,DO,51216e40,44543,44555,"k0.c","k0e ()",ALLFI,N,1,1,1,1.000,"if (x <= 2.0)"
PATH-CSV,DO,51214d58,42691,42703,"unity.c","cephes_exp ()",ALLFI,N,4,5,3,4.667,"if (isnan(x))"
PATH-CSV,DO,512144a0,43267,43292,"unity.c","cosm1 ()",ALLFI,N,1,1,2,1.000,"if (x < -PIO4 || x > PIO4)"
PATH-CSV,DO,51214530,43271,43279,"unity.c","cosm1 ()",ALLFI,N,1,1,2,1.000,"x < -PIO4"
PATH-CSV,DO,512149b0,42787,42810,"unity.c","cephes_exp ()",ALLFI,N,1,1,1,1.000,"if (x < -0.5 || x > 0.5)"
PATH-CSV,DO,512152f8,42123,42131,"unity.c","cephes_log ()",ALLFI,N,2,2,1,2.000,"z < SQRTH"
PATH-CSV,DO,51214b60,42757,42763,"unity.c","cephes_exp ()",ALLFI,N,1,1,1,1.000,"(x < 0)"
PATH-CSV,DO,51215ec8,63158,63244,"mtherr.c","real_mtherr ()",ALLFI,N,1,1,1,1.000,"if (have_arg)else"
PATH-CSV,DO,51217350,44156,44168,"k0.c","cephes_bessel_K0 ()",ALLFI,N,1,1,1,1.000,"if (x <= 0.0)"
PATH-CSV,DO,51216618,1503,1570,"chbevl.c","chbevl ()",ALLFI,N,3,3,1,3.000,"dowhile (--i)"
PATH-CSV,DO,51215f58,63063,63101,"mtherr.c","real_mtherr ()",ALLFI,N,1,1,1,1.000,"if (code <= 0 || code > CEPHES_UNKNOWN)"
PATH-CSV,DO,51216e88,44469,44481,"k0.c","k0e ()",ALLFI,N,1,1,1,1.000,"if (x <= 0.0)"
PATH-CSV,DO,51216078,62937,62953,"mtherr.c","real_mtherr ()",ALLFI,N,1,1,1,1.000,"if (name == NULL)"
PATH-CSV,DO,512178f0,44644,44653,"i0.c","i0e ()",ALLFI,N,1,1,1,1.000,"if (x < 0)"
PATH-CSV,DO,51214ba8,42729,42745,"unity.c","cephes_exp ()",ALLFI,N,4,5,3,4.667,"if (!isfinite(x))"
PATH-CSV,DO,51215fa0,63067,63075,"mtherr.c","real_mtherr ()",ALLFI,N,1,1,1,1.000,"code <= 0"
PATH-CSV,DO,51213f00,1222,1266,"polevl.c","polevl ()",ALLVX,N,3,3,1,3.000,"dowhile (--i)"
PATH-CSV,DO,51217860,44668,44680,"i0.c","i0e ()",ALLVX,N,1,2,2,1.500,"if (x <= 8.0)"
PATH-CSV,DO,512152b0,42119,42145,"unity.c","cephes_log ()",ALLVX,N,2,2,1,2.000,"if (z < SQRTH || z > SQRT2)"
PATH-CSV,DO,51217308,44229,44241,"k0.c","cephes_bessel_K0 ()",ALLVX,N,1,1,1,1.000,"if (x <= 2.0)"
PATH-CSV,DO,51213b58,1523,1567,"polevl.c","p1evl ()",ALLVX,N,3,3,1,3.000,"dowhile (--i)"
PATH-CSV,DO,51216030,62994,63002,"mtherr.c","real_mtherr ()",ALLVX,N,1,1,1,1.000,"if (hush)"
PATH-CSV,DO,51217c50,44437,44446,"i0.c","cephes_bessel_I0 ()",ALLVX,N,1,1,1,1.000,"if (x < 0)"
PATH-CSV,DO,512149f8,42791,42798,"unity.c","cephes_exp ()",ALLVX,N,1,1,1,1.000,"x < -0.5"
PATH-CSV,DO,51217c08,44461,44473,"i0.c","cephes_bessel_I0 ()",ALLVX,N,1,2,2,1.500,"if (x <= 8.0)"
PATH-CSV,DO,51216e40,44543,44555,"k0.c","k0e ()",ALLVX,N,1,1,1,1.000,"if (x <= 2.0)"
PATH-CSV,DO,51214d58,42691,42703,"unity.c","cephes_exp ()",ALLVX,N,4,5,3,4.667,"if (isnan(x))"
PATH-CSV,DO,512144a0,43267,43292,"unity.c","cosm1 ()",ALLVX,N,1,1,2,1.000,"if (x < -PIO4 || x > PIO4)"
PATH-CSV,DO,51214530,43271,43279,"unity.c","cosm1 ()",ALLVX,N,1,1,2,1.000,"x < -PIO4"
PATH-CSV,DO,512149b0,42787,42810,"unity.c","cephes_exp ()",ALLVX,N,1,1,1,1.000,"if (x < -0.5 || x > 0.5)"
PATH-CSV,DO,512152f8,42123,42131,"unity.c","cephes_log ()",ALLVX,N,2,2,1,2.000,"z < SQRTH"
PATH-CSV,DO,51214b60,42757,42763,"unity.c","cephes_exp ()",ALLVX,N,1,1,1,1.000,"(x < 0)"
PATH-CSV,DO,51215ec8,63158,63244,"mtherr.c","real_mtherr ()",ALLVX,N,1,1,1,1.000,"if (have_arg)else"
PATH-CSV,DO,51217350,44156,44168,"k0.c","cephes_bessel_K0 ()",ALLVX,N,1,1,1,1.000,"if (x <= 0.0)"
PATH-CSV,DO,51216618,1503,1570,"chbevl.c","chbevl ()",ALLVX,N,3,3,1,3.000,"dowhile (--i)"
PATH-CSV,DO,51215f58,63063,63101,"mtherr.c","real_mtherr ()",ALLVX,N,1,1,1,1.000,"if (code <= 0 || code > CEPHES_UNKNOWN)"
PATH-CSV,DO,51216e88,44469,44481,"k0.c","k0e ()",ALLVX,N,1,1,1,1.000,"if (x <= 0.0)"
PATH-CSV,DO,51216078,62937,62953,"mtherr.c","real_mtherr ()",ALLVX,N,1,1,1,1.000,"if (name == NULL)"
PATH-CSV,DO,512178f0,44644,44653,"i0.c","i0e ()",ALLVX,N,1,1,1,1.000,"if (x < 0)"
PATH-CSV,DO,51214ba8,42729,42745,"unity.c","cephes_exp ()",ALLVX,N,4,5,3,4.667,"if (!isfinite(x))"
PATH-CSV,DO,51215fa0,63067,63075,"mtherr.c","real_mtherr ()",ALLVX,N,1,1,1,1.000,"code <= 0"
