Test Object, Condition No, node, True Evaluations, False Evaluations, Code
gammafn, 0, 7, -1, -1, "/* Initialize machine dependent constants, the first time gamma() is called. FIXME for threads ! */ if (ngam == 0) { ngam = chebyshev_init(gamcs, 42, DBL_EPSILON/20); gammalims(&xmin, &xmax); xsml = exp(fmax2(log(DBL_MIN), -log(DBL_MAX)) + 0.01); dxrel = sqrt(DBL_EPSILON); }"
gammafn, 1, 12, -1, 1, "#else /* For IEEE double precision DBL_EPSILON = 2^-52 = 2.220446049250313e-16 : * (xmin, xmax) are non-trivial, see ./gammalims.c * xsml = exp(.01)*DBL_MIN * dxrel = sqrt(DBL_EPSILON) = 2 ^ -26 */ # define ngam 22 # define xmin -170.5674972726612 # define xmax 171.61447887182298 # define xsml 2.2474362225598545e-308 # define dxrel 1.490116119384765696e-8 #endif if(ISNAN(x)) return x;"
gammafn, 2, 14, 57, 1, "/* If the argument is exactly zero or a negative integer * then return NaN. */ if (x == 0 || (x < 0 && x == (long)x)) { ML_ERROR(ME_DOMAIN, "gammafn"); return ML_NAN; }"
gammafn, 3, 14, 57, 1, "/* If the argument is exactly zero or a negative integer * then return NaN. */ if (x == 0 || (x < 0 && x == (long)x)) { ML_ERROR(ME_DOMAIN, "gammafn"); return ML_NAN; }"
gammafn, 4, 18, 16, 1, "if (y <= 10) { /* Compute gamma(x) for -10 <= x <= 10 * Reduce the interval and find gamma(1 + y) for 0 <= y < 1 * first of all. */ n = x; if(x < 0) --n; y = x - n; --n; value = chebyshev_eval(y * 2 - 1, gamcs, ngam) + .9375; if (n == 0) return value; if (n < 0) { if (x < -0.5 && fabs(x - (int)(x - 0.5) / x) < dxrel) { ML_ERROR(ME_PRECISION, "gammafn"); } if (y < xsml) { ML_ERROR(ME_RANGE, "gammafn"); if(x > 0) return ML_POSINF; else return ML_NEGINF; } n = -n; for (i = 0; i < n; i++) { value /= (x + i); } return value; } else { for (i = 1; i <= n; i++) { value *= (y + i); } return value; } } else { if (x > xmax) { ML_ERROR(ME_RANGE, "gammafn"); return ML_POSINF; } if (x < xmin) { ML_ERROR(ME_UNDERFLOW, "gammafn"); return 0.; } if(y <= 50 && y == (int)y) { value = 1.; for (i = 2; i < y; i++) value *= i; } else { value = exp((y - 0.5) * log(y) - y + M_LN_SQRT_2PI + ((2*y == (int)2*y)? stirlerr(y) : lgammacor(y))); } if (x > 0) return value; if (fabs((x - (int)(x - 0.5))/x) < dxrel){ ML_ERROR(ME_PRECISION, "gammafn"); } sinpiy = sin(M_PI * y); if (sinpiy == 0) { ML_ERROR(ME_RANGE, "gammafn"); return ML_POSINF; } return -M_PI / (y * sinpiy * value); }"
gammafn, 5, 20, 21, 16, "if(x < 0) --n;"
gammafn, 6, 25, 55, 16, "if (n == 0) return value;"
gammafn, 7, 27, 18, 16, "if (n < 0) { if (x < -0.5 && fabs(x - (int)(x - 0.5) / x) < dxrel) { ML_ERROR(ME_PRECISION, "gammafn"); } if (y < xsml) { ML_ERROR(ME_RANGE, "gammafn"); if(x > 0) return ML_POSINF; else return ML_NEGINF; } n = -n; for (i = 0; i < n; i++) { value /= (x + i); } return value; } else { for (i = 1; i <= n; i++) { value *= (y + i); } return value; }"
gammafn, 8, 28, -1, 18, "if (x < -0.5 && fabs(x - (int)(x - 0.5) / x) < dxrel) { ML_ERROR(ME_PRECISION, "gammafn"); }"
gammafn, 9, 28, -1, 18, "if (x < -0.5 && fabs(x - (int)(x - 0.5) / x) < dxrel) { ML_ERROR(ME_PRECISION, "gammafn"); }"
gammafn, 10, 30, -1, 18, "if (y < xsml) { ML_ERROR(ME_RANGE, "gammafn"); if(x > 0) return ML_POSINF; else return ML_NEGINF; }"
gammafn, 11, 32, -1, -1, "if(x > 0) return ML_POSINF; else return ML_NEGINF;"
gammafn, 12, 36, 64, 64, "for (i = 0; i < n; i++) { value /= (x + i); }"
gammafn, 13, 39, 4, 4, "for (i = 1; i <= n; i++) { value *= (y + i); }"
gammafn, 14, 42, -1, 1, "if (x > xmax) { ML_ERROR(ME_RANGE, "gammafn"); return ML_POSINF; }"
gammafn, 15, 45, -1, 1, "if (x < xmin) { ML_ERROR(ME_UNDERFLOW, "gammafn"); return 0.; }"
gammafn, 16, 48, 28, 1, "if(y <= 50 && y == (int)y) { value = 1.; for (i = 2; i < y; i++) value *= i; } else { value = exp((y - 0.5) * log(y) - y + M_LN_SQRT_2PI + ((2*y == (int)2*y)? stirlerr(y) : lgammacor(y))); }"
gammafn, 17, 48, 28, 1, "if(y <= 50 && y == (int)y) { value = 1.; for (i = 2; i < y; i++) value *= i; } else { value = exp((y - 0.5) * log(y) - y + M_LN_SQRT_2PI + ((2*y == (int)2*y)? stirlerr(y) : lgammacor(y))); }"
gammafn, 18, 50, 19, 19, "for (i = 2; i < y; i++) value *= i;"
gammafn, 19, 53, 1, 10, "if (x > 0) return value;"
gammafn, 20, 55, 11, 10, "if (fabs((x - (int)(x - 0.5))/x) < dxrel){ ML_ERROR(ME_PRECISION, "gammafn"); }"
gammafn, 21, 58, -1, 10, "if (sinpiy == 0) { ML_ERROR(ME_RANGE, "gammafn"); return ML_POSINF; }"
