Test Object, Condition No, node, True Evaluations, False Evaluations, Code
pnchisq, 0, 2, -1, 1, "#ifdef IEEE_754 if (ISNAN(x) || ISNAN(df) || ISNAN(ncp)) return x + df + ncp;"
pnchisq, 1, 2, -1, 1, "#ifdef IEEE_754 if (ISNAN(x) || ISNAN(df) || ISNAN(ncp)) return x + df + ncp;"
pnchisq, 2, 2, -1, 1, "#ifdef IEEE_754 if (ISNAN(x) || ISNAN(df) || ISNAN(ncp)) return x + df + ncp;"
pnchisq, 3, 4, 1, -1, "if (!R_FINITE(df) || !R_FINITE(ncp)) ML_ERR_return_NAN;"
pnchisq, 4, 4, 1, -1, "if (!R_FINITE(df) || !R_FINITE(ncp)) ML_ERR_return_NAN;"
pnchisq, 5, 6, -1, -1, "#endif if (df < 0. || ncp < 0.) ML_ERR_return_NAN;"
pnchisq, 6, 6, -1, -1, "#endif if (df < 0. || ncp < 0.) ML_ERR_return_NAN;"
pnchisq, 7, 9, -1, -1, "if(ncp >= 80) { if(lower_tail) { ans = fmin2(ans, 1.0); } else { if(ans < 1e-10) ML_ERROR(ME_PRECISION, "pnchisq"); ans = fmax2(ans, 0.0); } }"
pnchisq, 8, 10, -1, -1, "if(lower_tail) { ans = fmin2(ans, 1.0); } else { if(ans < 1e-10) ML_ERROR(ME_PRECISION, "pnchisq"); ans = fmax2(ans, 0.0); }"
pnchisq, 9, 12, -1, -1, "if(ans < 1e-10) ML_ERROR(ME_PRECISION, "pnchisq");"
pnchisq, 10, 15, -1, -1, "if (!log_p) return ans;"
pnchisq, 11, 17, -1, -1, "if (ncp >= 80 || ans < 1 - 1e-8) return log(ans);"
pnchisq, 12, 17, -1, -1, "if (ncp >= 80 || ans < 1 - 1e-8) return log(ans);"
pnchisq_raw, 0, 7, 2, 1, "if (x <= 0.) { if(x == 0. && f == 0.) return lower_tail ? exp(-0.5*theta) : -expm1(-0.5*theta); return lower_tail ? 0. : 1.; }"
pnchisq_raw, 1, 8, 78836, 2, "if(x == 0. && f == 0.) return lower_tail ? exp(-0.5*theta) : -expm1(-0.5*theta);"
pnchisq_raw, 2, 8, 78836, 2, "if(x == 0. && f == 0.) return lower_tail ? exp(-0.5*theta) : -expm1(-0.5*theta);"
pnchisq_raw, 3, 11, 1, -1, "if(!R_FINITE(x)) return lower_tail ? 1. : 0.;"
pnchisq_raw, 4, 14, -1, -1, "#endif if(theta < 80) { long double sum = 0, sum2 = 0, lambda = 0.5*theta, pr = exp(-lambda); double ans; int i; for(i = 0; i < 110; pr *= lambda/++i) { sum2 += pr; sum += pr * pchisq(x, f+2*i, lower_tail, FALSE); if (sum2 >= 1-1e-15) break; } ans = (double) (sum/sum2); return ans; }"
pnchisq_raw, 5, 18, -1, -1, "for(i = 0; i < 110; pr *= lambda/++i) { sum2 += pr; sum += pr * pchisq(x, f+2*i, lower_tail, FALSE); if (sum2 >= 1-1e-15) break; }"
pnchisq_raw, 6, 21, -1, -1, "if (sum2 >= 1-1e-15) break;"
pnchisq_raw, 7, 28, -1, -1, "if(lamSml) { /* MATHLIB_ERROR( "non centrality parameter (= %g) too large for current algorithm", theta) */ u = 0; lu = -lam; l_lam = log(lam); } else { u = exp(-lam); }"
pnchisq_raw, 8, 38, -1, -1, "#endif if(f2 * DBL_EPSILON > 0.125 && fabs(t = x2 - f2) < sqrt(DBL_EPSILON) * f2) { lt = (1 - t)*(2 - t/(f2 + 1)) - 0.5 * log(2*M_PI*(f2 + 1)); #ifdef DEBUG_pnch REprintf(" (case I) ==> "); #endif } else { lt = f2*log(x2) -x2 - lgammafn(f2 + 1); }"
pnchisq_raw, 9, 38, -1, -1, "#endif if(f2 * DBL_EPSILON > 0.125 && fabs(t = x2 - f2) < sqrt(DBL_EPSILON) * f2) { lt = (1 - t)*(2 - t/(f2 + 1)) - 0.5 * log(2*M_PI*(f2 + 1)); #ifdef DEBUG_pnch REprintf(" (case I) ==> "); #endif } else { lt = f2*log(x2) -x2 - lgammafn(f2 + 1); }"
pnchisq_raw, 10, 44, -1, -1, "if(tSml) { if (x > f + theta + 5* sqrt( 2*(f + 2*theta))) { return lower_tail ? 1. : 0.; } l_x = log(x); ans = term = 0.; t = 0; } else { t = exp(lt); #ifdef DEBUG_pnch REprintf(", t=exp(lt)= %g\n", t); #endif ans = term = (double) (v * t); }"
pnchisq_raw, 11, 45, -1, -1, "if (x > f + theta + 5* sqrt( 2*(f + 2*theta))) { return lower_tail ? 1. : 0.; }"
pnchisq_raw, 12, 55, -1, -1, "#endif #ifndef MATHLIB_STANDALONE if(n % 1000) R_CheckUserInterrupt();"
pnchisq_raw, 13, 57, -1, -1, "#endif /* f_2n === f + 2*n * f_x_2n === f - x + 2*n > 0 <==> (f+2n) > x */ if (f_x_2n > 0) { bound = (double) (t * x / f_x_2n); #ifdef DEBUG_pnch REprintf("\n L10: n=%d; term= %g; bound= %g",n,term,bound); #endif is_r = is_it = FALSE; if (((is_b = (bound <= errmax)) && (is_r = (term <= reltol * ans))) || (is_it = (n > itrmax))) { #ifdef DEBUG_pnch REprintf("BREAK n=%d %s; bound= %g %s, rel.err= %g %s\n", n, (is_it ? "> itrmax" : ""), bound, (is_b ? "<= errmax" : ""), term/ans, (is_r ? "<= reltol" : "")); #endif break; } }"
pnchisq_raw, 14, 61, -1, -1, "if (((is_b = (bound <= errmax)) && (is_r = (term <= reltol * ans))) || (is_it = (n > itrmax))) { #ifdef DEBUG_pnch REprintf("BREAK n=%d %s; bound= %g %s, rel.err= %g %s\n", n, (is_it ? "> itrmax" : ""), bound, (is_b ? "<= errmax" : ""), term/ans, (is_r ? "<= reltol" : "")); #endif break; }"
pnchisq_raw, 15, 61, -1, -1, "if (((is_b = (bound <= errmax)) && (is_r = (term <= reltol * ans))) || (is_it = (n > itrmax))) { #ifdef DEBUG_pnch REprintf("BREAK n=%d %s; bound= %g %s, rel.err= %g %s\n", n, (is_it ? "> itrmax" : ""), bound, (is_b ? "<= errmax" : ""), term/ans, (is_r ? "<= reltol" : "")); #endif break; }"
pnchisq_raw, 16, 64, -1, -1, "if(lamSml) { lu += l_lam - log(n); if(lu >= _dbl_min_exp) { #ifdef DEBUG_pnch REprintf(" n=%d; nomore underflow in u = exp(lu) ==> change\n", n); #endif v = u = exp(lu); lamSml = FALSE; } } else { u *= lam / n; v += u; }"
pnchisq_raw, 17, 66, -1, -1, "if(lu >= _dbl_min_exp) { #ifdef DEBUG_pnch REprintf(" n=%d; nomore underflow in u = exp(lu) ==> change\n", n); #endif v = u = exp(lu); lamSml = FALSE; }"
pnchisq_raw, 18, 72, -1, -1, "if(tSml) { lt += l_x - log(f_2n); if(lt >= _dbl_min_exp) { #ifdef DEBUG_pnch REprintf(" n=%d; nomore underflow in t = exp(lt) ==> change\n", n); #endif t = exp(lt); tSml = FALSE; } } else { t *= x / f_2n; }"
pnchisq_raw, 19, 74, -1, -1, "if(lt >= _dbl_min_exp) { #ifdef DEBUG_pnch REprintf(" n=%d; nomore underflow in t = exp(lt) ==> change\n", n); #endif t = exp(lt); tSml = FALSE; }"
pnchisq_raw, 20, 79, -1, -1, "if(!lamSml && !tSml) { term = (double) (v * t); ans += term; }"
pnchisq_raw, 21, 79, -1, -1, "if(!lamSml && !tSml) { term = (double) (v * t); ans += term; }"
pnchisq_raw, 22, 82, -1, -1, "if (is_it) { MATHLIB_WARNING2(_("pnchisq(x=%g, ..): not converged in %d iter."), x, itrmax); }"
