Test Object, Condition No, node, True Evaluations, False Evaluations, Code
afc, 0, 3, 1, 4, "if (i < 0) { MATHLIB_WARNING(("rhyper.c: afc(i), i=%d < 0 -- SHOULD NOT HAPPEN!\n"), i); return -1; } else if (i <= 7) { value = al[i + 1]; } else { di = i; value = (di + 0.5) * log(di) - di + 0.08333333333333 / di - 0.00277777777777 / di / di / di + 0.9189385332; }"
afc, 1, 6, 12, 4, "if (i <= 7) { value = al[i + 1]; } else { di = i; value = (di + 0.5) * log(di) - di + 0.08333333333333 / di - 0.00277777777777 / di / di / di + 0.9189385332; }"
rhyper, 0, 17, 1, -1, "if(!R_FINITE(nn1in) || !R_FINITE(nn2in) || !R_FINITE(kkin)) ML_ERR_return_NAN;"
rhyper, 1, 17, 1, -1, "if(!R_FINITE(nn1in) || !R_FINITE(nn2in) || !R_FINITE(kkin)) ML_ERR_return_NAN;"
rhyper, 2, 17, 1, -1, "if(!R_FINITE(nn1in) || !R_FINITE(nn2in) || !R_FINITE(kkin)) ML_ERR_return_NAN;"
rhyper, 3, 22, -1, -1, "if (nn1 < 0 || nn2 < 0 || kk < 0 || kk > nn1 + nn2) ML_ERR_return_NAN;"
rhyper, 4, 22, -1, -1, "if (nn1 < 0 || nn2 < 0 || kk < 0 || kk > nn1 + nn2) ML_ERR_return_NAN;"
rhyper, 5, 22, -1, -1, "if (nn1 < 0 || nn2 < 0 || kk < 0 || kk > nn1 + nn2) ML_ERR_return_NAN;"
rhyper, 6, 22, -1, -1, "if (nn1 < 0 || nn2 < 0 || kk < 0 || kk > nn1 + nn2) ML_ERR_return_NAN;"
rhyper, 7, 25, -1, -1, "if (nn1 != n1s || nn2 != n2s) { setup1 = TRUE; setup2 = TRUE; } else if (kk != ks) { setup1 = FALSE; setup2 = TRUE; } else { setup1 = FALSE; setup2 = FALSE; }"
rhyper, 8, 25, -1, -1, "if (nn1 != n1s || nn2 != n2s) { setup1 = TRUE; setup2 = TRUE; } else if (kk != ks) { setup1 = FALSE; setup2 = TRUE; } else { setup1 = FALSE; setup2 = FALSE; }"
rhyper, 9, 28, -1, -1, "if (kk != ks) { setup1 = FALSE; setup2 = TRUE; } else { setup1 = FALSE; setup2 = FALSE; }"
rhyper, 10, 33, -1, -1, "if (setup1) { n1s = nn1; n2s = nn2; tn = nn1 + nn2; if (nn1 <= nn2) { n1 = nn1; n2 = nn2; } else { n1 = nn2; n2 = nn1; } }"
rhyper, 11, 37, -1, -1, "if (nn1 <= nn2) { n1 = nn1; n2 = nn2; } else { n1 = nn2; n2 = nn1; }"
rhyper, 12, 42, -1, -1, "if (setup2) { ks = kk; if (kk + kk >= tn) { k = (int)(tn - kk); } else { k = kk; } }"
rhyper, 13, 44, -1, -1, "if (kk + kk >= tn) { k = (int)(tn - kk); } else { k = kk; }"
rhyper, 14, 47, -1, -1, "if (setup1 || setup2) { m = (int) ((k + 1.0) * (n1 + 1.0) / (tn + 2.0)); minjx = imax2(0, k - n2); maxjx = imin2(n1, k); }"
rhyper, 15, 47, -1, -1, "if (setup1 || setup2) { m = (int) ((k + 1.0) * (n1 + 1.0) / (tn + 2.0)); minjx = imax2(0, k - n2); maxjx = imin2(n1, k); }"
rhyper, 16, 51, -1, -1, "if (minjx == maxjx) { ix = maxjx; /* return ix; No, need to unmangle <TSL>*/ if (kk + kk >= tn) { if (nn1 > nn2) { ix = kk - nn2 + ix; } else { ix = nn1 - ix; } } else { if (nn1 > nn2) ix = kk - ix; } return ix; } else if (m - minjx < 10) { if (setup1 || setup2) { if (k < n2) { w = exp(con + afc(n2) + afc(n1 + n2 - k) - afc(n2 - k) - afc(n1 + n2)); } else { w = exp(con + afc(n1) + afc(k) - afc(k - n2) - afc(n1 + n2)); } } L10: p = w; ix = minjx; u = unif_rand() * scale; L20: if (u > p) { u -= p; p *= (n1 - ix) * (k - ix); ix++; p = p / ix / (n2 - k + ix); if (ix > maxjx) goto L10; goto L20; } } else { if (setup1 || setup2) { s = sqrt((tn - k) * k * n1 * n2 / (tn - 1) / tn / tn); d = (int) (1.5 * s) + .5; xl = m - d + .5; xr = m + d + .5; a = afc(m) + afc(n1 - m) + afc(k - m) + afc(n2 - k + m); kl = exp(a - afc((int) (xl)) - afc((int) (n1 - xl)) - afc((int) (k - xl)) - afc((int) (n2 - k + xl))); kr = exp(a - afc((int) (xr - 1)) - afc((int) (n1 - xr + 1)) - afc((int) (k - xr + 1)) - afc((int) (n2 - k + xr - 1))); lamdl = -log(xl * (n2 - k + xl) / (n1 - xl + 1) / (k - xl + 1)); lamdr = -log((n1 - xr + 1) * (k - xr + 1) / xr / (n2 - k + xr)); p1 = d + d; p2 = p1 + kl / lamdl; p3 = p2 + kr / lamdr; } L30: u = unif_rand() * p3; v = unif_rand(); if (u < p1) { ix = (int) (xl + u); } else if (u <= p2) { ix = (int) (xl + log(v) / lamdl); if (ix < minjx) goto L30; v = v * (u - p1) * lamdl; } else { ix = (int) (xr - log(v) / lamdr); if (ix > maxjx) goto L30; v = v * (u - p2) * lamdr; } if (m < 100 || ix <= 50) { /* The original algorithm (and TOMS 668) have f = f * i * (n2 - k + i) / (n1 - i) / (k - i); in the (m > ix) case, but the definition of the recurrence relation on p134 shows that the +1 is needed. */ f = 1.0; if (m < ix) { for (i = m + 1; i <= ix; i++) f = f * (n1 - i + 1) * (k - i + 1) / (n2 - k + i) / i; } else if (m > ix) { for (i = ix + 1; i <= m; i++) f = f * i * (n2 - k + i) / (n1 - i + 1) / (k - i + 1); } if (v <= f) { reject = FALSE; } } else { y = ix; y1 = y + 1.0; ym = y - m; yn = n1 - y + 1.0; yk = k - y + 1.0; nk = n2 - k + y1; r = -ym / y1; s = ym / yn; t = ym / yk; e = -ym / nk; g = yn * yk / (y1 * nk) - 1.0; dg = 1.0; if (g < 0.0) dg = 1.0 + g; gu = g * (1.0 + g * (-0.5 + g / 3.0)); gl = gu - .25 * (g * g * g * g) / dg; xm = m + 0.5; xn = n1 - m + 0.5; xk = k - m + 0.5; nm = n2 - k + xm; ub = y * gu - m * gl + deltau + xm * r * (1. + r * (-0.5 + r / 3.0)) + xn * s * (1. + s * (-0.5 + s / 3.0)) + xk * t * (1. + t * (-0.5 + t / 3.0)) + nm * e * (1. + e * (-0.5 + e / 3.0)); alv = log(v); if (alv > ub) { reject = TRUE; } else { dr = xm * (r * r * r * r); if (r < 0.0) dr /= (1.0 + r); ds = xn * (s * s * s * s); if (s < 0.0) ds /= (1.0 + s); dt = xk * (t * t * t * t); if (t < 0.0) dt /= (1.0 + t); de = nm * (e * e * e * e); if (e < 0.0) de /= (1.0 + e); if (alv < ub - 0.25 * (dr + ds + dt + de) + (y + m) * (gl - gu) - deltal) { reject = FALSE; } else { /* * Stirling's formula to machine accuracy */ if (alv <= (a - afc(ix) - afc(n1 - ix) - afc(k - ix) - afc(n2 - k + ix))) { reject = FALSE; } else { reject = TRUE; } } } } if (reject) goto L30; }"
rhyper, 17, 53, -1, -1, "/* return ix; No, need to unmangle <TSL>*/ if (kk + kk >= tn) { if (nn1 > nn2) { ix = kk - nn2 + ix; } else { ix = nn1 - ix; } } else { if (nn1 > nn2) ix = kk - ix; }"
rhyper, 18, 54, -1, -1, "if (nn1 > nn2) { ix = kk - nn2 + ix; } else { ix = nn1 - ix; }"
rhyper, 19, 57, -1, -1, "if (nn1 > nn2) ix = kk - ix;"
rhyper, 20, 60, -1, -1, "if (m - minjx < 10) { if (setup1 || setup2) { if (k < n2) { w = exp(con + afc(n2) + afc(n1 + n2 - k) - afc(n2 - k) - afc(n1 + n2)); } else { w = exp(con + afc(n1) + afc(k) - afc(k - n2) - afc(n1 + n2)); } } L10: p = w; ix = minjx; u = unif_rand() * scale; L20: if (u > p) { u -= p; p *= (n1 - ix) * (k - ix); ix++; p = p / ix / (n2 - k + ix); if (ix > maxjx) goto L10; goto L20; } } else { if (setup1 || setup2) { s = sqrt((tn - k) * k * n1 * n2 / (tn - 1) / tn / tn); d = (int) (1.5 * s) + .5; xl = m - d + .5; xr = m + d + .5; a = afc(m) + afc(n1 - m) + afc(k - m) + afc(n2 - k + m); kl = exp(a - afc((int) (xl)) - afc((int) (n1 - xl)) - afc((int) (k - xl)) - afc((int) (n2 - k + xl))); kr = exp(a - afc((int) (xr - 1)) - afc((int) (n1 - xr + 1)) - afc((int) (k - xr + 1)) - afc((int) (n2 - k + xr - 1))); lamdl = -log(xl * (n2 - k + xl) / (n1 - xl + 1) / (k - xl + 1)); lamdr = -log((n1 - xr + 1) * (k - xr + 1) / xr / (n2 - k + xr)); p1 = d + d; p2 = p1 + kl / lamdl; p3 = p2 + kr / lamdr; } L30: u = unif_rand() * p3; v = unif_rand(); if (u < p1) { ix = (int) (xl + u); } else if (u <= p2) { ix = (int) (xl + log(v) / lamdl); if (ix < minjx) goto L30; v = v * (u - p1) * lamdl; } else { ix = (int) (xr - log(v) / lamdr); if (ix > maxjx) goto L30; v = v * (u - p2) * lamdr; } if (m < 100 || ix <= 50) { /* The original algorithm (and TOMS 668) have f = f * i * (n2 - k + i) / (n1 - i) / (k - i); in the (m > ix) case, but the definition of the recurrence relation on p134 shows that the +1 is needed. */ f = 1.0; if (m < ix) { for (i = m + 1; i <= ix; i++) f = f * (n1 - i + 1) * (k - i + 1) / (n2 - k + i) / i; } else if (m > ix) { for (i = ix + 1; i <= m; i++) f = f * i * (n2 - k + i) / (n1 - i + 1) / (k - i + 1); } if (v <= f) { reject = FALSE; } } else { y = ix; y1 = y + 1.0; ym = y - m; yn = n1 - y + 1.0; yk = k - y + 1.0; nk = n2 - k + y1; r = -ym / y1; s = ym / yn; t = ym / yk; e = -ym / nk; g = yn * yk / (y1 * nk) - 1.0; dg = 1.0; if (g < 0.0) dg = 1.0 + g; gu = g * (1.0 + g * (-0.5 + g / 3.0)); gl = gu - .25 * (g * g * g * g) / dg; xm = m + 0.5; xn = n1 - m + 0.5; xk = k - m + 0.5; nm = n2 - k + xm; ub = y * gu - m * gl + deltau + xm * r * (1. + r * (-0.5 + r / 3.0)) + xn * s * (1. + s * (-0.5 + s / 3.0)) + xk * t * (1. + t * (-0.5 + t / 3.0)) + nm * e * (1. + e * (-0.5 + e / 3.0)); alv = log(v); if (alv > ub) { reject = TRUE; } else { dr = xm * (r * r * r * r); if (r < 0.0) dr /= (1.0 + r); ds = xn * (s * s * s * s); if (s < 0.0) ds /= (1.0 + s); dt = xk * (t * t * t * t); if (t < 0.0) dt /= (1.0 + t); de = nm * (e * e * e * e); if (e < 0.0) de /= (1.0 + e); if (alv < ub - 0.25 * (dr + ds + dt + de) + (y + m) * (gl - gu) - deltal) { reject = FALSE; } else { /* * Stirling's formula to machine accuracy */ if (alv <= (a - afc(ix) - afc(n1 - ix) - afc(k - ix) - afc(n2 - k + ix))) { reject = FALSE; } else { reject = TRUE; } } } } if (reject) goto L30; }"
rhyper, 21, 61, -1, -1, "if (setup1 || setup2) { if (k < n2) { w = exp(con + afc(n2) + afc(n1 + n2 - k) - afc(n2 - k) - afc(n1 + n2)); } else { w = exp(con + afc(n1) + afc(k) - afc(k - n2) - afc(n1 + n2)); } }"
rhyper, 22, 61, -1, -1, "if (setup1 || setup2) { if (k < n2) { w = exp(con + afc(n2) + afc(n1 + n2 - k) - afc(n2 - k) - afc(n1 + n2)); } else { w = exp(con + afc(n1) + afc(k) - afc(k - n2) - afc(n1 + n2)); } }"
rhyper, 23, 62, -1, -1, "if (k < n2) { w = exp(con + afc(n2) + afc(n1 + n2 - k) - afc(n2 - k) - afc(n1 + n2)); } else { w = exp(con + afc(n1) + afc(k) - afc(k - n2) - afc(n1 + n2)); }"
rhyper, 24, 70, -1, -1, "if (u > p) { u -= p; p *= (n1 - ix) * (k - ix); ix++; p = p / ix / (n2 - k + ix); if (ix > maxjx) goto L10; goto L20; }"
rhyper, 25, 75, -1, -1, "if (ix > maxjx) goto L10;"
rhyper, 26, 78, -1, -1, "if (setup1 || setup2) { s = sqrt((tn - k) * k * n1 * n2 / (tn - 1) / tn / tn); d = (int) (1.5 * s) + .5; xl = m - d + .5; xr = m + d + .5; a = afc(m) + afc(n1 - m) + afc(k - m) + afc(n2 - k + m); kl = exp(a - afc((int) (xl)) - afc((int) (n1 - xl)) - afc((int) (k - xl)) - afc((int) (n2 - k + xl))); kr = exp(a - afc((int) (xr - 1)) - afc((int) (n1 - xr + 1)) - afc((int) (k - xr + 1)) - afc((int) (n2 - k + xr - 1))); lamdl = -log(xl * (n2 - k + xl) / (n1 - xl + 1) / (k - xl + 1)); lamdr = -log((n1 - xr + 1) * (k - xr + 1) / xr / (n2 - k + xr)); p1 = d + d; p2 = p1 + kl / lamdl; p3 = p2 + kr / lamdr; }"
rhyper, 27, 78, -1, -1, "if (setup1 || setup2) { s = sqrt((tn - k) * k * n1 * n2 / (tn - 1) / tn / tn); d = (int) (1.5 * s) + .5; xl = m - d + .5; xr = m + d + .5; a = afc(m) + afc(n1 - m) + afc(k - m) + afc(n2 - k + m); kl = exp(a - afc((int) (xl)) - afc((int) (n1 - xl)) - afc((int) (k - xl)) - afc((int) (n2 - k + xl))); kr = exp(a - afc((int) (xr - 1)) - afc((int) (n1 - xr + 1)) - afc((int) (k - xr + 1)) - afc((int) (n2 - k + xr - 1))); lamdl = -log(xl * (n2 - k + xl) / (n1 - xl + 1) / (k - xl + 1)); lamdr = -log((n1 - xr + 1) * (k - xr + 1) / xr / (n2 - k + xr)); p1 = d + d; p2 = p1 + kl / lamdl; p3 = p2 + kr / lamdr; }"
rhyper, 28, 94, -1, -1, "if (u < p1) { ix = (int) (xl + u); } else if (u <= p2) { ix = (int) (xl + log(v) / lamdl); if (ix < minjx) goto L30; v = v * (u - p1) * lamdl; } else { ix = (int) (xr - log(v) / lamdr); if (ix > maxjx) goto L30; v = v * (u - p2) * lamdr; }"
rhyper, 29, 96, -1, -1, "if (u <= p2) { ix = (int) (xl + log(v) / lamdl); if (ix < minjx) goto L30; v = v * (u - p1) * lamdl; } else { ix = (int) (xr - log(v) / lamdr); if (ix > maxjx) goto L30; v = v * (u - p2) * lamdr; }"
rhyper, 30, 98, -1, -1, "if (ix < minjx) goto L30;"
rhyper, 31, 102, -1, -1, "if (ix > maxjx) goto L30;"
rhyper, 32, 105, -1, -1, "if (m < 100 || ix <= 50) { /* The original algorithm (and TOMS 668) have f = f * i * (n2 - k + i) / (n1 - i) / (k - i); in the (m > ix) case, but the definition of the recurrence relation on p134 shows that the +1 is needed. */ f = 1.0; if (m < ix) { for (i = m + 1; i <= ix; i++) f = f * (n1 - i + 1) * (k - i + 1) / (n2 - k + i) / i; } else if (m > ix) { for (i = ix + 1; i <= m; i++) f = f * i * (n2 - k + i) / (n1 - i + 1) / (k - i + 1); } if (v <= f) { reject = FALSE; } } else { y = ix; y1 = y + 1.0; ym = y - m; yn = n1 - y + 1.0; yk = k - y + 1.0; nk = n2 - k + y1; r = -ym / y1; s = ym / yn; t = ym / yk; e = -ym / nk; g = yn * yk / (y1 * nk) - 1.0; dg = 1.0; if (g < 0.0) dg = 1.0 + g; gu = g * (1.0 + g * (-0.5 + g / 3.0)); gl = gu - .25 * (g * g * g * g) / dg; xm = m + 0.5; xn = n1 - m + 0.5; xk = k - m + 0.5; nm = n2 - k + xm; ub = y * gu - m * gl + deltau + xm * r * (1. + r * (-0.5 + r / 3.0)) + xn * s * (1. + s * (-0.5 + s / 3.0)) + xk * t * (1. + t * (-0.5 + t / 3.0)) + nm * e * (1. + e * (-0.5 + e / 3.0)); alv = log(v); if (alv > ub) { reject = TRUE; } else { dr = xm * (r * r * r * r); if (r < 0.0) dr /= (1.0 + r); ds = xn * (s * s * s * s); if (s < 0.0) ds /= (1.0 + s); dt = xk * (t * t * t * t); if (t < 0.0) dt /= (1.0 + t); de = nm * (e * e * e * e); if (e < 0.0) de /= (1.0 + e); if (alv < ub - 0.25 * (dr + ds + dt + de) + (y + m) * (gl - gu) - deltal) { reject = FALSE; } else { /* * Stirling's formula to machine accuracy */ if (alv <= (a - afc(ix) - afc(n1 - ix) - afc(k - ix) - afc(n2 - k + ix))) { reject = FALSE; } else { reject = TRUE; } } } }"
rhyper, 33, 105, -1, -1, "if (m < 100 || ix <= 50) { /* The original algorithm (and TOMS 668) have f = f * i * (n2 - k + i) / (n1 - i) / (k - i); in the (m > ix) case, but the definition of the recurrence relation on p134 shows that the +1 is needed. */ f = 1.0; if (m < ix) { for (i = m + 1; i <= ix; i++) f = f * (n1 - i + 1) * (k - i + 1) / (n2 - k + i) / i; } else if (m > ix) { for (i = ix + 1; i <= m; i++) f = f * i * (n2 - k + i) / (n1 - i + 1) / (k - i + 1); } if (v <= f) { reject = FALSE; } } else { y = ix; y1 = y + 1.0; ym = y - m; yn = n1 - y + 1.0; yk = k - y + 1.0; nk = n2 - k + y1; r = -ym / y1; s = ym / yn; t = ym / yk; e = -ym / nk; g = yn * yk / (y1 * nk) - 1.0; dg = 1.0; if (g < 0.0) dg = 1.0 + g; gu = g * (1.0 + g * (-0.5 + g / 3.0)); gl = gu - .25 * (g * g * g * g) / dg; xm = m + 0.5; xn = n1 - m + 0.5; xk = k - m + 0.5; nm = n2 - k + xm; ub = y * gu - m * gl + deltau + xm * r * (1. + r * (-0.5 + r / 3.0)) + xn * s * (1. + s * (-0.5 + s / 3.0)) + xk * t * (1. + t * (-0.5 + t / 3.0)) + nm * e * (1. + e * (-0.5 + e / 3.0)); alv = log(v); if (alv > ub) { reject = TRUE; } else { dr = xm * (r * r * r * r); if (r < 0.0) dr /= (1.0 + r); ds = xn * (s * s * s * s); if (s < 0.0) ds /= (1.0 + s); dt = xk * (t * t * t * t); if (t < 0.0) dt /= (1.0 + t); de = nm * (e * e * e * e); if (e < 0.0) de /= (1.0 + e); if (alv < ub - 0.25 * (dr + ds + dt + de) + (y + m) * (gl - gu) - deltal) { reject = FALSE; } else { /* * Stirling's formula to machine accuracy */ if (alv <= (a - afc(ix) - afc(n1 - ix) - afc(k - ix) - afc(n2 - k + ix))) { reject = FALSE; } else { reject = TRUE; } } } }"
rhyper, 34, 107, -1, -1, "if (m < ix) { for (i = m + 1; i <= ix; i++) f = f * (n1 - i + 1) * (k - i + 1) / (n2 - k + i) / i; } else if (m > ix) { for (i = ix + 1; i <= m; i++) f = f * i * (n2 - k + i) / (n1 - i + 1) / (k - i + 1); }"
rhyper, 35, 108, -1, -1, "for (i = m + 1; i <= ix; i++) f = f * (n1 - i + 1) * (k - i + 1) / (n2 - k + i) / i;"
rhyper, 36, 110, -1, -1, "if (m > ix) { for (i = ix + 1; i <= m; i++) f = f * i * (n2 - k + i) / (n1 - i + 1) / (k - i + 1); }"
rhyper, 37, 111, -1, -1, "for (i = ix + 1; i <= m; i++) f = f * i * (n2 - k + i) / (n1 - i + 1) / (k - i + 1);"
rhyper, 38, 113, -1, -1, "if (v <= f) { reject = FALSE; }"
rhyper, 39, 127, -1, -1, "if (g < 0.0) dg = 1.0 + g;"
rhyper, 40, 137, -1, -1, "if (alv > ub) { reject = TRUE; } else { dr = xm * (r * r * r * r); if (r < 0.0) dr /= (1.0 + r); ds = xn * (s * s * s * s); if (s < 0.0) ds /= (1.0 + s); dt = xk * (t * t * t * t); if (t < 0.0) dt /= (1.0 + t); de = nm * (e * e * e * e); if (e < 0.0) de /= (1.0 + e); if (alv < ub - 0.25 * (dr + ds + dt + de) + (y + m) * (gl - gu) - deltal) { reject = FALSE; } else { /* * Stirling's formula to machine accuracy */ if (alv <= (a - afc(ix) - afc(n1 - ix) - afc(k - ix) - afc(n2 - k + ix))) { reject = FALSE; } else { reject = TRUE; } } }"
rhyper, 41, 140, -1, -1, "if (r < 0.0) dr /= (1.0 + r);"
rhyper, 42, 143, -1, -1, "if (s < 0.0) ds /= (1.0 + s);"
rhyper, 43, 146, -1, -1, "if (t < 0.0) dt /= (1.0 + t);"
rhyper, 44, 149, -1, -1, "if (e < 0.0) de /= (1.0 + e);"
rhyper, 45, 151, -1, -1, "if (alv < ub - 0.25 * (dr + ds + dt + de) + (y + m) * (gl - gu) - deltal) { reject = FALSE; } else { /* * Stirling's formula to machine accuracy */ if (alv <= (a - afc(ix) - afc(n1 - ix) - afc(k - ix) - afc(n2 - k + ix))) { reject = FALSE; } else { reject = TRUE; } }"
rhyper, 46, 153, -1, -1, "/* * Stirling's formula to machine accuracy */ if (alv <= (a - afc(ix) - afc(n1 - ix) - afc(k - ix) - afc(n2 - k + ix))) { reject = FALSE; } else { reject = TRUE; }"
rhyper, 47, 156, -1, -1, "if (reject) goto L30;"
rhyper, 48, 158, -1, -1, "if (kk + kk >= tn) { if (nn1 > nn2) { ix = kk - nn2 + ix; } else { ix = nn1 - ix; } } else { if (nn1 > nn2) ix = kk - ix; }"
rhyper, 49, 159, -1, -1, "if (nn1 > nn2) { ix = kk - nn2 + ix; } else { ix = nn1 - ix; }"
rhyper, 50, 162, -1, -1, "if (nn1 > nn2) ix = kk - ix;"
