Test Object, Condition No, node, True Evaluations, False Evaluations, Code
bratio, 0, 7, 1, 2, "if (a < 0.0 || b < 0.0) { *ierr = 1; return; }"
bratio, 1, 7, 1, 2, "if (a < 0.0 || b < 0.0) { *ierr = 1; return; }"
bratio, 2, 10, -1, 2, "if (a == 0.0 && b == 0.0) { *ierr = 2; return; }"
bratio, 3, 10, -1, 2, "if (a == 0.0 && b == 0.0) { *ierr = 2; return; }"
bratio, 4, 13, 2, 97, "if (x < 0.0 || x > 1.0) { *ierr = 3; return; }"
bratio, 5, 13, 2, 97, "if (x < 0.0 || x > 1.0) { *ierr = 3; return; }"
bratio, 6, 16, 97, 7134, "if (y < 0.0 || y > 1.0) { *ierr = 4; return; }"
bratio, 7, 16, 97, 7134, "if (y < 0.0 || y > 1.0) { *ierr = 4; return; }"
bratio, 8, 20, 7134, 14315, "if (fabs(z) > eps * 3.0) { *ierr = 5; return; }"
bratio, 9, 25, -1, 14315, "if (x == 0.0) goto L200;"
bratio, 10, 27, -1, 14315, "if (y == 0.0) goto L210;"
