Test Object, Condition No, node, True Evaluations, False Evaluations, Code
bratio, 0, 7, 2, 1, "if (a < 0.0 || b < 0.0) { *ierr = 1; return; }"
bratio, 1, 7, 2, 1, "if (a < 0.0 || b < 0.0) { *ierr = 1; return; }"
bratio, 2, 10, -1, 1, "if (a == 0.0 && b == 0.0) { *ierr = 2; return; }"
bratio, 3, 10, -1, 1, "if (a == 0.0 && b == 0.0) { *ierr = 2; return; }"
bratio, 4, 13, 1, 1056, "if (x < 0.0 || x > 1.0) { *ierr = 3; return; }"
bratio, 5, 13, 1, 1056, "if (x < 0.0 || x > 1.0) { *ierr = 3; return; }"
bratio, 6, 16, 1056, 6142, "if (y < 0.0 || y > 1.0) { *ierr = 4; return; }"
bratio, 7, 16, 1056, 6142, "if (y < 0.0 || y > 1.0) { *ierr = 4; return; }"
bratio, 8, 20, 6142, 22526, "if (fabs(z) > eps * 3.0) { *ierr = 5; return; }"
bratio, 9, 25, -1, 22526, "if (x == 0.0) goto L200;"
bratio, 10, 27, -1, 22526, "if (y == 0.0) goto L210;"
bratio, 11, 29, -1, 22526, "if (a == 0.0) goto L211;"
bratio, 12, 31, -1, 22526, "if (b == 0.0) goto L201;"
bratio, 13, 34, -1, 22526, "if (max(a,b) < eps * .001) { if(log_p) { z = log(a + b); *w = log(b) - z; *w1 = log(a) - z; } else { *w = b / (a + b); *w1 = a / (a + b); } return; }"
bratio, 14, 35, -1, -1, "if(log_p) { z = log(a + b); *w = log(b) - z; *w1 = log(a) - z; } else { *w = b / (a + b); *w1 = a / (a + b); }"
bratio, 15, 42, 32429, 22526, "#define SET_0_noswap \ a0 = a; x0 = x; \ b0 = b; y0 = y; #define SET_0_swap \ a0 = b; x0 = y; \ b0 = a; y0 = x; if (min(a,b) <= 1.) { do_swap = (x > 0.5); if (do_swap) { SET_0_swap; } else { SET_0_noswap; } #ifdef DEBUG_bratio REprintf(" min(a,b) <= 1 : do_swap = %d; ", do_swap); #endif if (b0 < min(eps, eps * a0)) { *w = fpser(a0, b0, x0, eps, log_p); *w1 = log_p ? R_Log1_Exp(*w) : 0.5 - *w + 0.5; #ifdef DEBUG_bratio REprintf(" b0 small -> w := fpser(*) = %15g\n", *w); #endif goto L_end_after_log; } if (a0 < min(eps, eps * b0) && b0 * x0 <= 1.0) { *w1 = apser(a0, b0, x0, eps); #ifdef DEBUG_bratio REprintf(" a0 small -> w1 := apser(*) = %15g\n", *w1); #endif goto L_end_from_w1; } if (max(a0,b0) > 1.0) { #ifdef DEBUG_bratio REprintf(" L20: min(a,b) <= 1 < max(a,b); "); #endif if (b0 <= 1.0) goto L100; if (x0 >= 0.29) goto L110; if (x0 < 0.1) { if (pow(x0*b0, a0) <= 0.7) { goto L100; } } if (b0 > 15.0) { *w1 = 0.; goto L131; } } else { #ifdef DEBUG_bratio REprintf(" both a,b <= 1; "); #endif if (a0 >= min(0.2, b0)) goto L100; if (pow(x0, a0) <= 0.9) goto L100; if (x0 >= 0.3) goto L110; } n = 20; *w1 = bup(b0, a0, y0, x0, n, eps); #ifdef DEBUG_bratio REprintf(" ... n=20 and *w1 := bup(*) = %15g; "); #endif b0 += n; L131: bgrat(b0, a0, y0, x0, w1, 15*eps, &ierr1); #ifdef DEBUG_bratio REprintf(" L131: bgrat(*, w1) ==> w1 = %15g\n", *w1); #endif goto L_end_from_w1; } else { if (a > b) lambda = (a + b) * y - b; else lambda = a - (a + b) * x; do_swap = (lambda < 0.0); if (do_swap) { lambda = -lambda; SET_0_swap; } else { SET_0_noswap; } #ifdef DEBUG_bratio REprintf(" L30: both a, b > 1; |lambda| = %#g, do_swap = %d\n", lambda, do_swap); #endif if (b0 < 40.0) { #ifdef DEBUG_bratio REprintf(" b0 < 40; "); #endif if (b0 * x0 <= 0.7 || (log_p && lambda > 650.)) goto L100; else goto L140; } else if (a0 > b0) { #ifdef DEBUG_bratio REprintf(" a0 > b0 >= 40; "); #endif if (b0 <= 100.0 || lambda > b0 * 0.03) goto L120; } else if (a0 <= 100.0) { #ifdef DEBUG_bratio REprintf(" a0 <= 100; a0 <= b0 >= 40; "); #endif goto L120; } else if (lambda > a0 * 0.03) { #ifdef DEBUG_bratio REprintf(" b0 >= a0 > 100; lambda > a0 * 0.03 "); #endif goto L120; } *w = basym(a0, b0, lambda, eps * 100.0, log_p); *w1 = log_p ? R_Log1_Exp(*w) : 0.5 - *w + 0.5; #ifdef DEBUG_bratio REprintf(" b0 >= a0 > 100; lambda <= a0 * 0.03: *w := basym(*) = %15g\n", *w); #endif goto L_end_after_log; }"
bratio, 16, 44, 32429, -1, "if (do_swap) { SET_0_swap; } else { SET_0_noswap; }"
bratio, 17, 48, -1, 32429, "#endif if (b0 < min(eps, eps * a0)) { *w = fpser(a0, b0, x0, eps, log_p); *w1 = log_p ? R_Log1_Exp(*w) : 0.5 - *w + 0.5; #ifdef DEBUG_bratio REprintf(" b0 small -> w := fpser(*) = %15g\n", *w); #endif goto L_end_after_log; }"
bratio, 18, 53, -1, 32429, "if (a0 < min(eps, eps * b0) && b0 * x0 <= 1.0) { *w1 = apser(a0, b0, x0, eps); #ifdef DEBUG_bratio REprintf(" a0 small -> w1 := apser(*) = %15g\n", *w1); #endif goto L_end_from_w1; }"
bratio, 19, 53, -1, 32429, "if (a0 < min(eps, eps * b0) && b0 * x0 <= 1.0) { *w1 = apser(a0, b0, x0, eps); #ifdef DEBUG_bratio REprintf(" a0 small -> w1 := apser(*) = %15g\n", *w1); #endif goto L_end_from_w1; }"
bratio, 20, 57, 32429, 33223, "if (max(a0,b0) > 1.0) { #ifdef DEBUG_bratio REprintf(" L20: min(a,b) <= 1 < max(a,b); "); #endif if (b0 <= 1.0) goto L100; if (x0 >= 0.29) goto L110; if (x0 < 0.1) { if (pow(x0*b0, a0) <= 0.7) { goto L100; } } if (b0 > 15.0) { *w1 = 0.; goto L131; } } else { #ifdef DEBUG_bratio REprintf(" both a,b <= 1; "); #endif if (a0 >= min(0.2, b0)) goto L100; if (pow(x0, a0) <= 0.9) goto L100; if (x0 >= 0.3) goto L110; }"
bratio, 21, 59, 32957, 32429, "#endif if (b0 <= 1.0) goto L100;"
bratio, 22, 61, 61557, 32429, "if (x0 >= 0.29) goto L110;"
bratio, 23, 63, -1, 32429, "if (x0 < 0.1) { if (pow(x0*b0, a0) <= 0.7) { goto L100; } }"
bratio, 24, 64, -1, -1, "if (pow(x0*b0, a0) <= 0.7) { goto L100; }"
bratio, 25, 66, -1, -1, "if (b0 > 15.0) { *w1 = 0.; goto L131; }"
bratio, 26, 70, 33223, 39559, "#endif if (a0 >= min(0.2, b0)) goto L100;"
bratio, 27, 72, 39559, 41135, "if (pow(x0, a0) <= 0.9) goto L100;"
bratio, 28, 74, -1, 41135, "if (x0 >= 0.3) goto L110;"
bratio, 29, 84, 22810, 22526, "if (a > b) lambda = (a + b) * y - b; else lambda = a - (a + b) * x;"
bratio, 30, 88, 22526, -1, "if (do_swap) { lambda = -lambda; SET_0_swap; } else { SET_0_noswap; }"
bratio, 31, 93, 23011, 22526, "#endif if (b0 < 40.0) { #ifdef DEBUG_bratio REprintf(" b0 < 40; "); #endif if (b0 * x0 <= 0.7 || (log_p && lambda > 650.)) goto L100; else goto L140; } else if (a0 > b0) { #ifdef DEBUG_bratio REprintf(" a0 > b0 >= 40; "); #endif if (b0 <= 100.0 || lambda > b0 * 0.03) goto L120; } else if (a0 <= 100.0) { #ifdef DEBUG_bratio REprintf(" a0 <= 100; a0 <= b0 >= 40; "); #endif goto L120; } else if (lambda > a0 * 0.03) { #ifdef DEBUG_bratio REprintf(" b0 >= a0 > 100; lambda > a0 * 0.03 "); #endif goto L120; }"
bratio, 32, 95, 37469, 23011, "#endif if (b0 * x0 <= 0.7 || (log_p && lambda > 650.)) goto L100; else goto L140;"
bratio, 33, 95, 37469, 23011, "#endif if (b0 * x0 <= 0.7 || (log_p && lambda > 650.)) goto L100; else goto L140;"
bratio, 34, 98, 22526, 22810, "if (a0 > b0) { #ifdef DEBUG_bratio REprintf(" a0 > b0 >= 40; "); #endif if (b0 <= 100.0 || lambda > b0 * 0.03) goto L120; } else if (a0 <= 100.0) { #ifdef DEBUG_bratio REprintf(" a0 <= 100; a0 <= b0 >= 40; "); #endif goto L120; } else if (lambda > a0 * 0.03) { #ifdef DEBUG_bratio REprintf(" b0 >= a0 > 100; lambda > a0 * 0.03 "); #endif goto L120; }"
bratio, 35, 100, 22526, -1, "#endif if (b0 <= 100.0 || lambda > b0 * 0.03) goto L120;"
bratio, 36, 100, 22526, -1, "#endif if (b0 <= 100.0 || lambda > b0 * 0.03) goto L120;"
bratio, 37, 102, 22810, -1, "if (a0 <= 100.0) { #ifdef DEBUG_bratio REprintf(" a0 <= 100; a0 <= b0 >= 40; "); #endif goto L120; } else if (lambda > a0 * 0.03) { #ifdef DEBUG_bratio REprintf(" b0 >= a0 > 100; lambda > a0 * 0.03 "); #endif goto L120; }"
bratio, 38, 105, -1, -1, "if (lambda > a0 * 0.03) { #ifdef DEBUG_bratio REprintf(" b0 >= a0 > 100; lambda > a0 * 0.03 "); #endif goto L120; }"
