Test Object, Condition No, node, True Evaluations, False Evaluations, Code
bratio, 0, 7, 1, 12, "if (a < 0.0 || b < 0.0) { *ierr = 1; return; }"
bratio, 1, 7, 1, 12, "if (a < 0.0 || b < 0.0) { *ierr = 1; return; }"
bratio, 2, 10, -1, 12, "if (a == 0.0 && b == 0.0) { *ierr = 2; return; }"
bratio, 3, 10, -1, 12, "if (a == 0.0 && b == 0.0) { *ierr = 2; return; }"
bratio, 4, 13, 12, 102, "if (x < 0.0 || x > 1.0) { *ierr = 3; return; }"
bratio, 5, 13, 12, 102, "if (x < 0.0 || x > 1.0) { *ierr = 3; return; }"
bratio, 6, 16, 102, 174, "if (y < 0.0 || y > 1.0) { *ierr = 4; return; }"
bratio, 7, 16, 102, 174, "if (y < 0.0 || y > 1.0) { *ierr = 4; return; }"
bratio, 8, 20, 174, 690, "if (fabs(z) > eps * 3.0) { *ierr = 5; return; }"
