Test Object, Condition No, node, True Evaluations, False Evaluations, Code
cephes_exp, 0, 2, -1, 68, "if (isnan(x)) { return x; }"
cephes_exp, 1, 4, -1, 1, "if (!isfinite(x)) { return (x < 0)? -1.0 : x; }"
cephes_exp, 2, 6, 1, 68, "if (x < -0.5 || x > 0.5) { return exp(x) - 1.0; }"
cephes_exp, 3, 6, 1, 68, "if (x < -0.5 || x > 0.5) { return exp(x) - 1.0; }"
cephes_log, 0, 2, 1, 68, "if (z < SQRTH || z > SQRT2) { return log(z); }"
cephes_log, 1, 2, 1, 68, "if (z < SQRTH || z > SQRT2) { return log(z); }"
cosm1, 0, 2, 1, 68, "if (x < -PIO4 || x > PIO4) { return cos(x) - 1.0; }"
cosm1, 1, 2, 1, 68, "if (x < -PIO4 || x > PIO4) { return cos(x) - 1.0; }"
