Test object: org.iguanatool.casestudies.cody.testobjects.gamma_cody
13T	OK  	8	[-4.000000000000001]
13F	OK  	1	[8.7]
17T	OK  	8	[-4.000000000000001]
17F	OK  	14	[-15.0]
18T	OK  	10	[-3.900000000000001]
18F	OK  	8	[-4.000000000000001]
23T	OK  	1774	[5.551115123125783E-17]
23F	OK  	1	[8.7]
24T	OK  	1774	[5.551115123125783E-17]
24F	FAIL	100000	
27T	OK  	1	[8.7]
27F	OK  	8	[15.0]
29T	OK  	13	[0.8999999999999992]
29F	OK  	1	[8.7]
37T	OK  	1	[8.7]
37F	OK  	1	[8.7]
41T	OK  	88	[0.6000000000000032]
41F	OK  	1	[8.7]
43T	OK  	1	[8.7]
43F	OK  	118	[-0.4]
44T	OK  	1	[8.7]
44F	OK  	1	[8.7]
47T	OK  	8	[15.0]
47F	FAIL	100000	
50T	OK  	4	[-15.1]
50F	OK  	4	[-15.1]
56T	OK  	4	[-15.1]
56F	OK  	1	[8.7]
58T	OK  	4	[-15.1]
58F	OK  	1	[8.7]
