Test object: org.iguanatool.casestudies.cody.testobjects.gamma_cody
13T	OK  	1	[-24.8]
13F	OK  	6	[58.2]
17T	OK  	1	[-24.8]
17F	OK  	7	[-67.0]
18T	OK  	5	[-93.2]
18F	OK  	1	[-24.8]
23T	FAIL	100000	
23F	OK  	1	[-24.8]
24T	FAIL	100000	
24F	FAIL	100000	
27T	OK  	3	[-10.5]
27F	OK  	1	[-24.8]
29T	OK  	165	[0.9]
29F	OK  	3	[-10.5]
37T	OK  	3	[-10.5]
37F	OK  	3	[-10.5]
41T	OK  	165	[0.9]
41F	OK  	3	[-10.5]
43T	OK  	3	[-10.5]
43F	OK  	153	[-0.4]
44T	OK  	3	[-10.5]
44F	OK  	3	[-10.5]
47T	OK  	1	[-24.8]
47F	FAIL	100000	
50T	OK  	1	[-24.8]
50F	OK  	1	[-24.8]
56T	OK  	5	[-93.2]
56F	OK  	1	[-24.8]
58T	OK  	1	[-24.8]
58F	OK  	6	[58.2]
