Test object: org.iguanatool.casestudies.cody.testobjects.gamma_cody
13T	OK  	1	[-38.4]
13F	OK  	2	[28.5]
17T	OK  	1	[-38.4]
17F	OK  	15	[-50.0]
18T	OK  	7	[-25.9]
18F	OK  	1	[-38.4]
23T	OK  	11275	[1.18256387348541E-17]
23F	OK  	1	[-38.4]
24T	OK  	11275	[1.18256387348541E-17]
24F	FAIL	100000	
27T	OK  	6	[4.4]
27F	OK  	1	[-38.4]
29T	OK  	104	[0.4]
29F	OK  	6	[4.4]
37T	OK  	6	[4.4]
37F	OK  	6	[4.4]
41T	OK  	104	[0.4]
41F	OK  	6	[4.4]
43T	OK  	6	[4.4]
43F	OK  	124	[-0.8]
44T	OK  	6	[4.4]
44F	OK  	6	[4.4]
47T	OK  	1	[-38.4]
47F	FAIL	100000	
50T	OK  	1	[-38.4]
50F	OK  	1	[-38.4]
56T	OK  	7	[-25.9]
56F	OK  	1	[-38.4]
58T	OK  	1	[-38.4]
58F	OK  	2	[28.5]
