Test object: org.iguanatool.casestudies.cody.testobjects.gamma_cody
13T	OK  	5	[-6.7]
13F	OK  	1	[20.1]
17T	OK  	5	[-6.7]
17F	OK  	64	[-30.0]
18T	OK  	8	[-3.3]
18F	OK  	5	[-6.7]
23T	OK  	13906	[8.860896364521961E-17]
23F	OK  	1	[20.1]
24T	OK  	13906	[8.860896364521961E-17]
24F	FAIL	100000	
27T	OK  	5	[-6.7]
27F	OK  	1	[20.1]
29T	OK  	273	[0.8]
29F	OK  	5	[-6.7]
37T	OK  	5	[-6.7]
37F	OK  	5	[-6.7]
41T	OK  	273	[0.8]
41F	OK  	5	[-6.7]
43T	OK  	5	[-6.7]
43F	OK  	42	[-0.9]
44T	OK  	5	[-6.7]
44F	OK  	5	[-6.7]
47T	OK  	1	[20.1]
47F	FAIL	100000	
50T	OK  	1	[20.1]
50F	OK  	1	[20.1]
56T	OK  	8	[-3.3]
56F	OK  	1	[20.1]
58T	OK  	5	[-6.7]
58F	OK  	1	[20.1]
