Test object: org.iguanatool.casestudies.cody.testobjects.gamma_cody
13T	OK  	1	[-87.1]
13F	OK  	2	[84.6]
17T	OK  	1	[-87.1]
17F	OK  	33	[-19.0]
18T	OK  	1	[-87.1]
18F	OK  	10	[-24.1]
23T	OK  	16409	[4.957816189177428E-18]
23F	OK  	1	[-87.1]
24T	OK  	16409	[4.957816189177428E-18]
24F	FAIL	100000	
27T	OK  	4	[-9.6]
27F	OK  	1	[-87.1]
29T	OK  	6	[0.1]
29F	OK  	4	[-9.6]
37T	OK  	4	[-9.6]
37F	OK  	4	[-9.6]
41T	OK  	6	[0.1]
41F	OK  	4	[-9.6]
43T	OK  	4	[-9.6]
43F	OK  	19	[1.3]
44T	OK  	4	[-9.6]
44F	OK  	4	[-9.6]
47T	OK  	1	[-87.1]
47F	FAIL	100000	
50T	OK  	1	[-87.1]
50F	OK  	1	[-87.1]
56T	OK  	1	[-87.1]
56F	OK  	2	[84.6]
58T	OK  	1	[-87.1]
58F	OK  	2	[84.6]
