Test object: org.iguanatool.casestudies.cody.testobjects.gamma_cody
13T	OK  	2	[-96.6]
13F	OK  	1	[99.5]
17T	OK  	2	[-96.6]
17F	OK  	4	[-32.0]
18T	OK  	11	[-45.1]
18F	OK  	2	[-96.6]
23T	OK  	9073	[8.875719441098912E-17]
23F	OK  	1	[99.5]
24T	OK  	9073	[8.875719441098912E-17]
24F	FAIL	100000	
27T	OK  	13	[6.2]
27F	OK  	1	[99.5]
29T	OK  	80	[0.5]
29F	OK  	13	[6.2]
37T	OK  	13	[6.2]
37F	OK  	13	[6.2]
41T	OK  	80	[0.5]
41F	OK  	13	[6.2]
43T	OK  	13	[6.2]
43F	OK  	38	[-0.4]
44T	OK  	13	[6.2]
44F	OK  	13	[6.2]
47T	OK  	1	[99.5]
47F	FAIL	100000	
50T	OK  	1	[99.5]
50F	OK  	1	[99.5]
56T	OK  	11	[-45.1]
56F	OK  	1	[99.5]
58T	OK  	2	[-96.6]
58F	OK  	1	[99.5]
