Test object: org.iguanatool.casestudies.cody.testobjects.gamma_cody
13T	OK  	1	[-38.4]
13F	OK  	11	[12.700000000000006]
17T	OK  	1	[-38.4]
17F	OK  	24	[-22.0]
18T	OK  	14	[-73.80000000000001]
18F	OK  	1	[-38.4]
23T	OK  	187	[1.942890293094024E-16]
23F	OK  	1	[-38.4]
24T	OK  	187	[1.942890293094024E-16]
24F	FAIL	100000	
27T	OK  	16	[11.200000000000006]
27F	OK  	1	[-38.4]
29T	OK  	19	[6.217248937900877E-15]
29F	OK  	16	[11.200000000000006]
37T	OK  	16	[11.200000000000006]
37F	OK  	16	[11.200000000000006]
41T	OK  	19	[6.217248937900877E-15]
41F	OK  	16	[11.200000000000006]
43T	OK  	16	[11.200000000000006]
43F	OK  	117	[-0.3999999999999968]
44T	OK  	16	[4.4]
44F	OK  	16	[4.4]
47T	OK  	1	[-38.4]
47F	FAIL	100000	
50T	OK  	1	[-38.4]
50F	OK  	1	[-38.4]
56T	OK  	19	[-25.9]
56F	OK  	1	[-38.4]
58T	OK  	1	[-38.4]
58F	OK  	6	[28.5]
