Test object: org.iguanatool.casestudies.cody.testobjects.gamma_cody
13T	OK  	11	[-50.60000000000001]
13F	OK  	1	[51.7]
17T	OK  	11	[-50.60000000000001]
17F	OK  	17	[-50.0]
18T	OK  	22	[-9.9]
18F	OK  	11	[-50.60000000000001]
23T	OK  	43	[5.551115123125783E-17]
23F	OK  	1	[51.7]
24T	OK  	43	[5.551115123125783E-17]
24F	FAIL	100000	
27T	OK  	10	[0.5999999999999979]
27F	OK  	1	[51.7]
29T	OK  	10	[0.5999999999999979]
29F	OK  	14	[1.299999999999998]
37T	OK  	10	[0.5999999999999979]
37F	OK  	10	[0.5999999999999979]
41T	OK  	10	[0.5999999999999979]
41F	OK  	20	[9.3]
43T	OK  	20	[9.3]
43F	OK  	117	[1.2000000000000002]
44T	OK  	31	[6.8]
44F	OK  	31	[6.8]
47T	OK  	1	[51.7]
47F	FAIL	100000	
50T	OK  	1	[51.7]
50F	OK  	1	[51.7]
56T	OK  	7	[-97.1]
56F	OK  	1	[51.7]
58T	OK  	7	[-97.1]
58F	OK  	1	[51.7]
