Test object: org.iguanatool.casestudies.cody.testobjects.gamma_cody
13T	OK  	9	[-5.4]
13F	OK  	1	[20.1]
17T	OK  	9	[-5.4]
17F	OK  	10	[-31.0]
18T	OK  	9	[-5.4]
18F	OK  	23	[-10.70000000000001]
23T	OK  	908	[8.326672684688674E-17]
23F	OK  	1	[20.1]
24T	OK  	908	[8.326672684688674E-17]
24F	FAIL	100000	
27T	OK  	8	[7.4]
27F	OK  	1	[20.1]
29T	OK  	16	[0.8999999999999999]
29F	OK  	8	[7.4]
37T	OK  	8	[7.4]
37F	OK  	8	[7.4]
41T	OK  	427	[0.9999999999999979]
41F	OK  	8	[7.4]
43T	OK  	8	[7.4]
43F	OK  	95	[-0.7999999999999927]
44T	OK  	13	[-6.7]
44F	OK  	13	[-6.7]
47T	OK  	1	[20.1]
47F	FAIL	100000	
50T	OK  	1	[20.1]
50F	OK  	1	[20.1]
56T	OK  	22	[-3.3]
56F	OK  	1	[20.1]
58T	OK  	13	[-6.7]
58F	OK  	1	[20.1]
