Test object: org.iguanatool.casestudies.g.testobjects.gradient_calc_bilinear_factor
5T	FAIL	100000	
5F	OK  	1	[-97.8, 37.1, -99.4, 88.7, 82.2]
11T	OK  	4	[49.2, 45.5, 52.4, 17.3, -15.2]
11F	OK  	1	[-97.8, 37.1, -99.4, 88.7, 82.2]
13T	OK  	2299	[-23.4, -45.80000305175781, 100.0, -58.5, -89.90933227539062]
13F	OK  	1	[-97.8, 37.1, -99.4, 88.7, 82.2]
14T	FAIL	100000	
14F	OK  	2299	[-23.4, -45.80000305175781, 100.0, -58.5, -89.90933227539062]
Test object: org.iguanatool.casestudies.g.testobjects.gradient_calc_conical_asym_factor
8T	FAIL	100000	
8F	OK  	1	[-97.8, 37.1, -99.4, 88.7, 82.2]
10T	OK  	1	[-97.8, 37.1, -99.4, 88.7, 82.2]
10F	FAIL	100000	
12T	FAIL	100000	
12F	FAIL	100000	
19T	OK  	1	[-97.8, 37.1, -99.4, 88.7, 82.2]
19F	OK  	2	[-51.0, -21.0, -7.4, -2.4, 72.5]
23T	OK  	1	[-97.8, 37.1, -99.4, 88.7, 82.2]
23F	OK  	2	[-51.0, -21.0, -7.4, -2.4, 72.5]
25T	FAIL	100000	
25F	OK  	2	[-51.0, -21.0, -7.4, -2.4, 72.5]
Test object: org.iguanatool.casestudies.g.testobjects.gradient_calc_conical_sym_factor
6T	FAIL	100000	
6F	OK  	1	[-97.8, 37.1, -99.4, 88.7, 82.2]
8T	OK  	1	[-97.8, 37.1, -99.4, 88.7, 82.2]
8F	FAIL	100000	
10T	FAIL	100000	
10F	FAIL	100000	
16T	OK  	6	[-3.0, -52.2, 23.9, -28.9, 12.6]
16F	OK  	1	[-97.8, 37.1, -99.4, 88.7, 82.2]
18T	OK  	1	[-97.8, 37.1, -99.4, 88.7, 82.2]
18F	OK  	4	[49.2, 45.5, 52.4, 17.3, -15.2]
23T	OK  	2	[-51.0, -21.0, -7.4, -2.4, 72.5]
23F	OK  	1	[-97.8, 37.1, -99.4, 88.7, 82.2]
25T	FAIL	100000	
25F	OK  	1	[-97.8, 37.1, -99.4, 88.7, 82.2]
Test object: org.iguanatool.casestudies.g.testobjects.gradient_calc_linear_factor
3T	FAIL	100000	
3F	OK  	1	[-97.8, 37.1, -99.4, 88.7, 82.2]
8T	OK  	1	[-97.8, 37.1, -99.4, 88.7, 82.2]
8F	OK  	3	[0.6, 72.9, -95.8, -53.0, 57.0]
9T	OK  	805	[-21.4, 87.3, 26.7, 28.5, -93.3]
9F	OK  	1	[-97.8, 37.1, -99.4, 88.7, 82.2]
13T	OK  	2295	[-23.4, -45.80000305175781, 100.0, -58.5, -89.90933227539062]
13F	OK  	1	[-97.8, 37.1, -99.4, 88.7, 82.2]
14T	OK  	2295	[-23.4, -45.80000305175781, 100.0, -58.5, -89.90933227539062]
14F	OK  	2738	[-30.0, 17.725, 100.0, 85.7, 22.4]
17T	OK  	3	[0.6, 72.9, -95.8, -53.0, 57.0]
17F	OK  	1	[-97.8, 37.1, -99.4, 88.7, 82.2]
Test object: org.iguanatool.casestudies.g.testobjects.gradient_calc_radial_factor
3T	FAIL	100000	
3F	OK  	1	[-97.8, 37.1, -99.4, 88.7]
8T	OK  	1	[-97.8, 37.1, -99.4, 88.7]
8F	OK  	2	[82.2, -51.0, -21.0, -7.4]
10T	OK  	4089	[29.5, 100.0, -95.0054931640625, -97.35625]
10F	OK  	2	[82.2, -51.0, -21.0, -7.4]
11T	OK  	4089	[29.5, 100.0, -95.0054931640625, -97.35625]
11F	FAIL	100000	
Test object: org.iguanatool.casestudies.g.testobjects.gradient_calc_spiral_factor
9T	OK  	94486	[0.0, -48.1999298828125, -72.87956972656252, -18.8936694519043, -91.10264491882324, -83.20627345581055]
9F	OK  	1	[-97.8, 37.1, -99.4, 88.7, 82.2, -51.0]
11T	OK  	1	[-97.8, 37.1, -99.4, 88.7, 82.2, -51.0]
11F	OK  	45489	[51.153961425781254, -12.943035937500001, 15.149631787109374, 0.0, 45.625, 43.686396484375]
13T	OK  	45489	[51.153961425781254, -12.943035937500001, 15.149631787109374, 0.0, 45.625, 43.686396484375]
13F	FAIL	100000	
19T	OK  	1	[-97.8, 37.1, -99.4, 88.7, 82.2, -51.0]
19F	OK  	152	[-75.1, 20.7, -76.9, -99.7, -96.1, 0.0]
22T	OK  	1	[-97.8, 37.1, -99.4, 88.7, 82.2, -51.0]
22F	OK  	2	[-21.0, -7.4, -2.4, 72.5, 0.6, 72.9]
Test object: org.iguanatool.casestudies.g.testobjects.gradient_calc_square_factor
9T	FAIL	100000	
9F	OK  	1	[-97.8, 37.1, -99.4, 88.7]
14T	FAIL	100000	
14F	OK  	1	[-97.8, 37.1, -99.4, 88.7]
20T	OK  	1	[-97.8, 37.1, -99.4, 88.7]
20F	OK  	2	[82.2, -51.0, -21.0, -7.4]
22T	OK  	1669	[76.4875, 100.0, 50.6, -78.45]
22F	OK  	2	[82.2, -51.0, -21.0, -7.4]
23T	OK  	1669	[76.4875, 100.0, 50.6, -78.45]
23F	FAIL	100000	
Test object: org.iguanatool.casestudies.g.testobjects.main
