Test object: org.iguanatool.casestudies.g.testobjects.gradient_calc_bilinear_factor
5T	OK  	1236	[0.0, -65.75, -43.0984375, -68.3, 90.975390625]
5F	OK  	1	[-6.5, -73.8, 59.2, 79.8, -98.8]
11T	OK  	1079	[66.2, -47.7, 62.799998437499994, 25.9, 19.900203124999997]
11F	OK  	1	[-6.5, -73.8, 59.2, 79.8, -98.8]
13T	OK  	3563	[72.590234375, -52.8, 100.0, -11.5556396484375, 17.9173828125]
13F	OK  	1	[-6.5, -73.8, 59.2, 79.8, -98.8]
14T	FAIL	100000	
14F	OK  	3563	[72.590234375, -52.8, 100.0, -11.5556396484375, 17.9173828125]
Test object: org.iguanatool.casestudies.g.testobjects.gradient_calc_conical_asym_factor
8T	OK  	1236	[0.0, -65.75, -43.0984375, -68.3, 90.975390625]
8F	OK  	1	[-6.5, -73.8, 59.2, 79.8, -98.8]
10T	OK  	1	[-6.5, -73.8, 59.2, 79.8, -98.8]
10F	OK  	24	[46.0, -17.2, 14.0, 0.0, 37.3]
12T	OK  	24	[46.0, -17.2, 14.0, 0.0, 37.3]
12F	FAIL	100000	
19T	OK  	5	[83.4, 99.0, 44.4, 12.9, 48.2]
19F	OK  	1	[-6.5, -73.8, 59.2, 79.8, -98.8]
23T	OK  	6	[49.0, -60.7, -40.0, 17.3, 68.0]
23F	OK  	1	[-6.5, -73.8, 59.2, 79.8, -98.8]
25T	FAIL	100000	
25F	OK  	1	[-6.5, -73.8, 59.2, 79.8, -98.8]
Test object: org.iguanatool.casestudies.g.testobjects.gradient_calc_conical_sym_factor
6T	OK  	1236	[0.0, -65.75, -43.0984375, -68.3, 90.975390625]
6F	OK  	1	[-6.5, -73.8, 59.2, 79.8, -98.8]
8T	OK  	1	[-6.5, -73.8, 59.2, 79.8, -98.8]
8F	OK  	24	[46.0, -17.2, 14.0, 0.0, 37.3]
10T	OK  	24	[46.0, -17.2, 14.0, 0.0, 37.3]
10F	FAIL	100000	
16T	OK  	2	[33.5, 16.3, 91.7, 74.0, 92.9]
16F	OK  	1	[-6.5, -73.8, 59.2, 79.8, -98.8]
18T	OK  	1	[-6.5, -73.8, 59.2, 79.8, -98.8]
18F	OK  	33	[42.3, 42.5, 22.2, 42.0, -84.3]
23T	OK  	1	[-6.5, -73.8, 59.2, 79.8, -98.8]
23F	OK  	2	[33.5, 16.3, 91.7, 74.0, 92.9]
25T	FAIL	100000	
25F	OK  	2	[33.5, 16.3, 91.7, 74.0, 92.9]
Test object: org.iguanatool.casestudies.g.testobjects.gradient_calc_linear_factor
3T	OK  	1236	[0.0, -65.75, -43.0984375, -68.3, 90.975390625]
3F	OK  	1	[-6.5, -73.8, 59.2, 79.8, -98.8]
8T	OK  	1	[-6.5, -73.8, 59.2, 79.8, -98.8]
8F	OK  	3	[-57.9, -4.0, 76.2, 41.9, 19.0]
9T	OK  	518	[-86.2, 21.9, 13.4, 61.10000390625, -100.0]
9F	OK  	1	[-6.5, -73.8, 59.2, 79.8, -98.8]
13T	OK  	3817	[96.64609375, -52.8, 100.0, -32.5006103515625, 17.6]
13F	OK  	1	[-6.5, -73.8, 59.2, 79.8, -98.8]
14T	OK  	3817	[96.64609375, -52.8, 100.0, -32.5006103515625, 17.6]
14F	OK  	3818	[-57.9, -52.8, 100.0, 8.59755859375, 22.6]
17T	OK  	3	[-57.9, -4.0, 76.2, 41.9, 19.0]
17F	OK  	1	[-6.5, -73.8, 59.2, 79.8, -98.8]
Test object: org.iguanatool.casestudies.g.testobjects.gradient_calc_radial_factor
3T	OK  	9006	[0.0, 54.57598876953125, 99.66640625, 13.13621826171875]
3F	OK  	1	[-6.5, -73.8, 59.2, 79.8]
8T	OK  	1	[-6.5, -73.8, 59.2, 79.8]
8F	OK  	4	[76.2, 41.9, 19.0, -69.0]
10T	OK  	2221	[76.409765625, 100.0, -82.0, 25.795117187499997]
10F	OK  	4	[76.2, 41.9, 19.0, -69.0]
11T	OK  	2221	[76.409765625, 100.0, -82.0, 25.795117187499997]
11F	FAIL	100000	
Test object: org.iguanatool.casestudies.g.testobjects.gradient_calc_spiral_factor
9T	OK  	31355	[0.0, 21.440918701171874, -47.15190447998047, -97.29121704101563, -24.010996093750002, -26.900048828124998]
9F	OK  	1	[-6.5, -73.8, 59.2, 79.8, -98.8, 33.5]
11T	OK  	1	[-6.5, -73.8, 59.2, 79.8, -98.8, 33.5]
11F	FAIL	100000	
13T	FAIL	100000	
13F	FAIL	100000	
19T	OK  	1	[-6.5, -73.8, 59.2, 79.8, -98.8, 33.5]
19F	OK  	14	[73.2, 55.5, 0.3, 48.5, -66.4, 0.6]
22T	OK  	3	[76.2, 41.9, 19.0, -69.0, -40.5, 30.4]
22F	OK  	1	[-6.5, -73.8, 59.2, 79.8, -98.8, 33.5]
Test object: org.iguanatool.casestudies.g.testobjects.gradient_calc_square_factor
9T	OK  	9006	[0.0, 54.57598876953125, 99.66640625, 13.13621826171875]
9F	OK  	1	[-6.5, -73.8, 59.2, 79.8]
14T	FAIL	100000	
14F	OK  	1	[-6.5, -73.8, 59.2, 79.8]
20T	OK  	1	[-6.5, -73.8, 59.2, 79.8]
20F	OK  	3	[74.0, 92.9, -57.9, -4.0]
22T	OK  	1936	[78.3163818359375, 100.0, -67.9, -60.8439208984375]
22F	OK  	3	[74.0, 92.9, -57.9, -4.0]
23T	OK  	1936	[78.3163818359375, 100.0, -67.9, -60.8439208984375]
23F	FAIL	100000	
Test object: org.iguanatool.casestudies.g.testobjects.main
