Test object: org.iguanatool.casestudies.g.testobjects.gradient_calc_bilinear_factor
5T	OK  	89587	[0.0, -30.088946533203124, -85.35873449707032, 30.098964660644533, -26.571422045898437]
5F	OK  	1	[38.3, 2.3, 58.7, 40.3, -43.6]
11T	OK  	434	[73.3, -87.8, 67.6, -48.89375, -63.9]
11F	OK  	1	[38.3, 2.3, 58.7, 40.3, -43.6]
13T	OK  	1408	[29.1875, 11.0, 100.0, 75.8, -39.41943359375]
13F	OK  	1	[38.3, 2.3, 58.7, 40.3, -43.6]
14T	FAIL	100000	
14F	OK  	1408	[29.1875, 11.0, 100.0, 75.8, -39.41943359375]
Test object: org.iguanatool.casestudies.g.testobjects.gradient_calc_conical_asym_factor
8T	OK  	89587	[0.0, -30.088946533203124, -85.35873449707032, 30.098964660644533, -26.571422045898437]
8F	OK  	1	[38.3, 2.3, 58.7, 40.3, -43.6]
10T	OK  	1	[38.3, 2.3, 58.7, 40.3, -43.6]
10F	OK  	163	[-49.8, 8.2, 39.8, 0.0, 27.3]
12T	OK  	163	[-49.8, 8.2, 39.8, 0.0, 27.3]
12F	FAIL	100000	
19T	OK  	4	[-75.3, 28.3, -87.3, -11.1, -38.2]
19F	OK  	1	[38.3, 2.3, 58.7, 40.3, -43.6]
23T	OK  	3	[6.2, -45.4, -19.7, 32.1, 99.0]
23F	OK  	1	[38.3, 2.3, 58.7, 40.3, -43.6]
25T	FAIL	100000	
25F	OK  	1	[38.3, 2.3, 58.7, 40.3, -43.6]
Test object: org.iguanatool.casestudies.g.testobjects.gradient_calc_conical_sym_factor
6T	OK  	89587	[0.0, -30.088946533203124, -85.35873449707032, 30.098964660644533, -26.571422045898437]
6F	OK  	1	[38.3, 2.3, 58.7, 40.3, -43.6]
8T	OK  	1	[38.3, 2.3, 58.7, 40.3, -43.6]
8F	OK  	163	[-49.8, 8.2, 39.8, 0.0, 27.3]
10T	OK  	163	[-49.8, 8.2, 39.8, 0.0, 27.3]
10F	FAIL	100000	
16T	OK  	4	[-75.3, 28.3, -87.3, -11.1, -38.2]
16F	OK  	1	[38.3, 2.3, 58.7, 40.3, -43.6]
18T	OK  	1	[38.3, 2.3, 58.7, 40.3, -43.6]
18F	OK  	173	[91.6, -5.2, 15.3, -38.8, -15.6]
23T	OK  	1	[38.3, 2.3, 58.7, 40.3, -43.6]
23F	OK  	3	[6.2, -45.4, -19.7, 32.1, 99.0]
25T	FAIL	100000	
25F	OK  	3	[6.2, -45.4, -19.7, 32.1, 99.0]
Test object: org.iguanatool.casestudies.g.testobjects.gradient_calc_linear_factor
3T	OK  	89587	[0.0, -30.088946533203124, -85.35873449707032, 30.098964660644533, -26.571422045898437]
3F	OK  	1	[38.3, 2.3, 58.7, 40.3, -43.6]
8T	OK  	5	[97.3, -6.6, 26.4, -98.3, 33.8]
8F	OK  	1	[38.3, 2.3, 58.7, 40.3, -43.6]
9T	OK  	1826	[-87.99732360839843, -28.9, 23.99998046875, -19.399980468749998, -23.7999609375]
9F	OK  	5	[97.3, -6.6, 26.4, -98.3, 33.8]
13T	OK  	1408	[29.1875, 11.0, 100.0, 75.8, -39.41943359375]
13F	OK  	1	[38.3, 2.3, 58.7, 40.3, -43.6]
14T	OK  	1409	[59.18994140625, 11.0, 100.0, 75.8, 76.409765625]
14F	OK  	1408	[29.1875, 11.0, 100.0, 75.8, -39.41943359375]
17T	OK  	1	[38.3, 2.3, 58.7, 40.3, -43.6]
17F	OK  	5	[97.3, -6.6, 26.4, -98.3, 33.8]
Test object: org.iguanatool.casestudies.g.testobjects.gradient_calc_radial_factor
3T	FAIL	100000	
3F	OK  	1	[38.3, 2.3, 58.7, 40.3]
8T	OK  	2	[-43.6, 51.0, -87.6, 26.6]
8F	OK  	1	[38.3, 2.3, 58.7, 40.3]
10T	OK  	2201	[38.3, 100.0, -80.1, 36.14453125]
10F	OK  	1	[38.3, 2.3, 58.7, 40.3]
11T	OK  	2201	[38.3, 100.0, -80.1, 36.14453125]
11F	FAIL	100000	
Test object: org.iguanatool.casestudies.g.testobjects.gradient_calc_spiral_factor
9T	FAIL	100000	
9F	OK  	1	[38.3, 2.3, 58.7, 40.3, -43.6, 51.0]
11T	OK  	1	[38.3, 2.3, 58.7, 40.3, -43.6, 51.0]
11F	OK  	136	[-49.8, 8.2, 39.8, 0.0, 27.3, -39.2]
13T	OK  	136	[-49.8, 8.2, 39.8, 0.0, 27.3, -39.2]
13F	FAIL	100000	
19T	OK  	1	[38.3, 2.3, 58.7, 40.3, -43.6, 51.0]
19F	OK  	161	[-42.3, -85.6, 74.4, -42.3, -85.2, -0.5]
22T	OK  	2	[-87.6, 26.6, 58.9, -32.6, 6.2, -45.4]
22F	OK  	1	[38.3, 2.3, 58.7, 40.3, -43.6, 51.0]
Test object: org.iguanatool.casestudies.g.testobjects.gradient_calc_square_factor
9T	FAIL	100000	
9F	OK  	1	[38.3, 2.3, 58.7, 40.3]
14T	FAIL	100000	
14F	OK  	1	[38.3, 2.3, 58.7, 40.3]
20T	OK  	2	[-43.6, 51.0, -87.6, 26.6]
20F	OK  	1	[38.3, 2.3, 58.7, 40.3]
22T	OK  	2486	[39.69156494140625, 100.0, 22.03828125, 94.59951171875]
22F	OK  	1	[38.3, 2.3, 58.7, 40.3]
23T	OK  	2486	[39.69156494140625, 100.0, 22.03828125, 94.59951171875]
23F	FAIL	100000	
Test object: org.iguanatool.casestudies.g.testobjects.main
