Test object: org.iguanatool.casestudies.g.testobjects.gradient_calc_bilinear_factor
5T	FAIL	100000	
5F	OK  	1	[61.7, -56.8, -36.7, 25.0, 21.8]
11T	OK  	405	[67.1984375, 32.0, 68.9, 40.199804687500006, -19.0]
11F	OK  	1	[61.7, -56.8, -36.7, 25.0, 21.8]
13T	OK  	4386	[54.5993896484375, -28.60859375, 100.0, -40.096875, 21.8390625]
13F	OK  	1	[61.7, -56.8, -36.7, 25.0, 21.8]
14T	FAIL	100000	
14F	OK  	4386	[54.5993896484375, -28.60859375, 100.0, -40.096875, 21.8390625]
Test object: org.iguanatool.casestudies.g.testobjects.gradient_calc_conical_asym_factor
8T	FAIL	100000	
8F	OK  	1	[61.7, -56.8, -36.7, 25.0, 21.8]
10T	OK  	1	[61.7, -56.8, -36.7, 25.0, 21.8]
10F	OK  	5534	[-89.90000878906251, 34.4850830078125, 41.084375, 0.0, -31.1753662109375]
12T	OK  	5534	[-89.90000878906251, 34.4850830078125, 41.084375, 0.0, -31.1753662109375]
12F	FAIL	100000	
19T	OK  	3	[63.4, 11.4, -85.6, 37.7, 48.6]
19F	OK  	1	[61.7, -56.8, -36.7, 25.0, 21.8]
23T	OK  	1	[61.7, -56.8, -36.7, 25.0, 21.8]
23F	OK  	2	[57.3, 3.4, 72.6, 35.7, 36.4]
25T	FAIL	100000	
25F	OK  	2	[57.3, 3.4, 72.6, 35.7, 36.4]
Test object: org.iguanatool.casestudies.g.testobjects.gradient_calc_conical_sym_factor
6T	FAIL	100000	
6F	OK  	1	[61.7, -56.8, -36.7, 25.0, 21.8]
8T	OK  	1	[61.7, -56.8, -36.7, 25.0, 21.8]
8F	OK  	5534	[-89.90000878906251, 34.4850830078125, 41.084375, 0.0, -31.1753662109375]
10T	OK  	5534	[-89.90000878906251, 34.4850830078125, 41.084375, 0.0, -31.1753662109375]
10F	FAIL	100000	
16T	OK  	2	[57.3, 3.4, 72.6, 35.7, 36.4]
16F	OK  	1	[61.7, -56.8, -36.7, 25.0, 21.8]
18T	OK  	1	[61.7, -56.8, -36.7, 25.0, 21.8]
18F	OK  	8	[0.9, -21.0, -19.2, 84.4, -98.4]
23T	OK  	6	[71.1, -82.5, -79.0, -91.9, -4.8]
23F	OK  	1	[61.7, -56.8, -36.7, 25.0, 21.8]
25T	FAIL	100000	
25F	OK  	1	[61.7, -56.8, -36.7, 25.0, 21.8]
Test object: org.iguanatool.casestudies.g.testobjects.gradient_calc_linear_factor
3T	FAIL	100000	
3F	OK  	1	[61.7, -56.8, -36.7, 25.0, 21.8]
8T	OK  	2	[57.3, 3.4, 72.6, 35.7, 36.4]
8F	OK  	1	[61.7, -56.8, -36.7, 25.0, 21.8]
9T	OK  	1085	[-85.29999921569824, 24.599741403198244, 30.300025006103517, -32.5, 25.599996875000002]
9F	OK  	2	[57.3, 3.4, 72.6, 35.7, 36.4]
13T	OK  	4386	[54.5993896484375, -28.60859375, 100.0, -40.096875, 21.8390625]
13F	OK  	1	[61.7, -56.8, -36.7, 25.0, 21.8]
14T	OK  	4386	[54.5993896484375, -28.60859375, 100.0, -40.096875, 21.8390625]
14F	OK  	4637	[26.34140625, 77.1, 100.0, -40.096875, 21.8390625]
17T	OK  	1	[61.7, -56.8, -36.7, 25.0, 21.8]
17F	OK  	2	[57.3, 3.4, 72.6, 35.7, 36.4]
Test object: org.iguanatool.casestudies.g.testobjects.gradient_calc_radial_factor
3T	FAIL	100000	
3F	OK  	1	[61.7, -56.8, -36.7, 25.0]
8T	OK  	4	[-85.6, 37.7, 48.6, 80.8]
8F	OK  	1	[61.7, -56.8, -36.7, 25.0]
10T	OK  	7033	[6.600000000000001, 100.0, 96.48970703124999, -82.652587890625]
10F	OK  	1	[61.7, -56.8, -36.7, 25.0]
11T	OK  	7033	[6.600000000000001, 100.0, 96.48970703124999, -82.652587890625]
11F	FAIL	100000	
Test object: org.iguanatool.casestudies.g.testobjects.gradient_calc_spiral_factor
9T	FAIL	100000	
9F	OK  	1	[61.7, -56.8, -36.7, 25.0, 21.8, 57.3]
11T	OK  	1	[61.7, -56.8, -36.7, 25.0, 21.8, 57.3]
11F	FAIL	100000	
13T	FAIL	100000	
13F	FAIL	100000	
19T	OK  	1	[61.7, -56.8, -36.7, 25.0, 21.8, 57.3]
19F	OK  	6	[-6.6, -76.8, -51.9, -93.9, 16.7, 0.9]
22T	OK  	2	[3.4, 72.6, 35.7, 36.4, 63.4, 11.4]
22F	OK  	1	[61.7, -56.8, -36.7, 25.0, 21.8, 57.3]
Test object: org.iguanatool.casestudies.g.testobjects.gradient_calc_square_factor
9T	FAIL	100000	
9F	OK  	1	[61.7, -56.8, -36.7, 25.0]
14T	FAIL	100000	
14F	OK  	1	[61.7, -56.8, -36.7, 25.0]
20T	OK  	4	[-85.6, 37.7, 48.6, 80.8]
20F	OK  	1	[61.7, -56.8, -36.7, 25.0]
22T	OK  	6508	[5.339013671875001, 100.0, -9.080163574218751, 94.90373046875001]
22F	OK  	1	[61.7, -56.8, -36.7, 25.0]
23T	OK  	6508	[5.339013671875001, 100.0, -9.080163574218751, 94.90373046875001]
23F	FAIL	100000	
Test object: org.iguanatool.casestudies.g.testobjects.main
