Test object: org.iguanatool.casestudies.g.testobjects.gradient_calc_bilinear_factor
5T	FAIL	100000	
5F	OK  	1	[66.7, -77.5, 70.1, 49.9, -4.7]
11T	OK  	633	[55.15703125, -7.0530029296875, 61.8375, -23.7, -2.8]
11F	OK  	1	[66.7, -77.5, 70.1, 49.9, -4.7]
13T	OK  	2480	[-30.6, -19.4, 100.0, 48.3, 98.0265625]
13F	OK  	1	[66.7, -77.5, 70.1, 49.9, -4.7]
14T	FAIL	100000	
14F	OK  	2480	[-30.6, -19.4, 100.0, 48.3, 98.0265625]
Test object: org.iguanatool.casestudies.g.testobjects.gradient_calc_conical_asym_factor
8T	FAIL	100000	
8F	OK  	1	[66.7, -77.5, 70.1, 49.9, -4.7]
10T	OK  	1	[66.7, -77.5, 70.1, 49.9, -4.7]
10F	FAIL	100000	
12T	FAIL	100000	
12F	FAIL	100000	
19T	OK  	2	[90.2, 43.5, 24.7, -22.6, 62.1]
19F	OK  	1	[66.7, -77.5, 70.1, 49.9, -4.7]
23T	OK  	3	[-8.8, -39.0, -48.8, -23.4, -43.1]
23F	OK  	1	[66.7, -77.5, 70.1, 49.9, -4.7]
25T	FAIL	100000	
25F	OK  	1	[66.7, -77.5, 70.1, 49.9, -4.7]
Test object: org.iguanatool.casestudies.g.testobjects.gradient_calc_conical_sym_factor
6T	FAIL	100000	
6F	OK  	1	[66.7, -77.5, 70.1, 49.9, -4.7]
8T	OK  	1	[66.7, -77.5, 70.1, 49.9, -4.7]
8F	FAIL	100000	
10T	FAIL	100000	
10F	FAIL	100000	
16T	OK  	2	[90.2, 43.5, 24.7, -22.6, 62.1]
16F	OK  	1	[66.7, -77.5, 70.1, 49.9, -4.7]
18T	OK  	1	[66.7, -77.5, 70.1, 49.9, -4.7]
18F	OK  	244	[-94.5, -76.7, -7.8, -9.1, 93.1]
23T	OK  	1	[66.7, -77.5, 70.1, 49.9, -4.7]
23F	OK  	2	[90.2, 43.5, 24.7, -22.6, 62.1]
25T	FAIL	100000	
25F	OK  	2	[90.2, 43.5, 24.7, -22.6, 62.1]
Test object: org.iguanatool.casestudies.g.testobjects.gradient_calc_linear_factor
3T	FAIL	100000	
3F	OK  	1	[66.7, -77.5, 70.1, 49.9, -4.7]
8T	OK  	2	[90.2, 43.5, 24.7, -22.6, 62.1]
8F	OK  	1	[66.7, -77.5, 70.1, 49.9, -4.7]
9T	OK  	696	[55.0298828125, -14.274996948242189, 52.6, 86.475, 23.5]
9F	OK  	2	[90.2, 43.5, 24.7, -22.6, 62.1]
13T	OK  	2480	[-30.6, -19.4, 100.0, 54.3, 98.0265625]
13F	OK  	1	[66.7, -77.5, 70.1, 49.9, -4.7]
14T	OK  	3827	[7.8490478515625, -19.4, 100.0, 62.8875, 98.0265625]
14F	OK  	2480	[-30.6, -19.4, 100.0, 54.3, 98.0265625]
17T	OK  	1	[66.7, -77.5, 70.1, 49.9, -4.7]
17F	OK  	2	[90.2, 43.5, 24.7, -22.6, 62.1]
Test object: org.iguanatool.casestudies.g.testobjects.gradient_calc_radial_factor
3T	OK  	8758	[0.0, -48.62753515625, 61.83133544921875, 2.323406982421875]
3F	OK  	1	[66.7, -77.5, 70.1, 49.9]
8T	OK  	2	[-4.7, 90.2, 43.5, 24.7]
8F	OK  	1	[66.7, -77.5, 70.1, 49.9]
10T	OK  	2454	[71.2, 100.0, -83.20313110351563, 87.5853515625]
10F	OK  	1	[66.7, -77.5, 70.1, 49.9]
11T	OK  	2454	[71.2, 100.0, -83.20313110351563, 87.5853515625]
11F	FAIL	100000	
Test object: org.iguanatool.casestudies.g.testobjects.gradient_calc_spiral_factor
9T	OK  	2503	[0.0, 4.498016357421875, -61.86875, 6.3, -56.1126220703125, -4.931890869140625]
9F	OK  	1	[66.7, -77.5, 70.1, 49.9, -4.7, 90.2]
11T	OK  	1	[66.7, -77.5, 70.1, 49.9, -4.7, 90.2]
11F	OK  	105	[-43.3, -65.7, 9.9, 0.0, -59.8, 82.1]
13T	OK  	105	[-43.3, -65.7, 9.9, 0.0, -59.8, 82.1]
13F	FAIL	100000	
19T	OK  	1	[66.7, -77.5, 70.1, 49.9, -4.7, 90.2]
19F	OK  	159	[-25.7, 89.7, 15.5, 4.8, -66.3, -0.2]
22T	OK  	2	[43.5, 24.7, -22.6, 62.1, -8.8, -39.0]
22F	OK  	1	[66.7, -77.5, 70.1, 49.9, -4.7, 90.2]
Test object: org.iguanatool.casestudies.g.testobjects.gradient_calc_square_factor
9T	OK  	8758	[0.0, -48.62753515625, 61.83133544921875, 2.323406982421875]
9F	OK  	1	[66.7, -77.5, 70.1, 49.9]
14T	FAIL	100000	
14F	OK  	1	[66.7, -77.5, 70.1, 49.9]
20T	OK  	2	[-4.7, 90.2, 43.5, 24.7]
20F	OK  	1	[66.7, -77.5, 70.1, 49.9]
22T	OK  	1679	[46.50244140625, 100.0, -90.7, -33.40516357421875]
22F	OK  	1	[66.7, -77.5, 70.1, 49.9]
23T	OK  	1679	[46.50244140625, 100.0, -90.7, -33.40516357421875]
23F	FAIL	100000	
Test object: org.iguanatool.casestudies.g.testobjects.main
