Test object: org.iguanatool.casestudies.g.testobjects.gradient_calc_bilinear_factor
5T	FAIL	100000	
5F	OK  	1	[-19.2, 75.3, 97.9, 83.2, -99.1]
11T	OK  	1048	[52.3, -84.7, 87.9, 17.3, 16.200062499999998]
11F	OK  	1	[-19.2, 75.3, 97.9, 83.2, -99.1]
13T	OK  	1664	[-88.0, -98.701220703125, 100.0, 83.2, -100.0]
13F	OK  	1	[-19.2, 75.3, 97.9, 83.2, -99.1]
14T	FAIL	100000	
14F	OK  	1664	[-88.0, -98.701220703125, 100.0, 83.2, -100.0]
Test object: org.iguanatool.casestudies.g.testobjects.gradient_calc_conical_asym_factor
8T	FAIL	100000	
8F	OK  	1	[-19.2, 75.3, 97.9, 83.2, -99.1]
10T	OK  	1	[-19.2, 75.3, 97.9, 83.2, -99.1]
10F	FAIL	100000	
12T	FAIL	100000	
12F	FAIL	100000	
19T	OK  	2	[38.8, 28.0, -67.8, 26.8, 97.4]
19F	OK  	1	[-19.2, 75.3, 97.9, 83.2, -99.1]
23T	OK  	2	[38.8, 28.0, -67.8, 26.8, 97.4]
23F	OK  	1	[-19.2, 75.3, 97.9, 83.2, -99.1]
25T	FAIL	100000	
25F	OK  	1	[-19.2, 75.3, 97.9, 83.2, -99.1]
Test object: org.iguanatool.casestudies.g.testobjects.gradient_calc_conical_sym_factor
6T	FAIL	100000	
6F	OK  	1	[-19.2, 75.3, 97.9, 83.2, -99.1]
8T	OK  	1	[-19.2, 75.3, 97.9, 83.2, -99.1]
8F	FAIL	100000	
10T	FAIL	100000	
10F	FAIL	100000	
16T	OK  	6	[-10.1, -81.9, 77.8, -31.3, 91.2]
16F	OK  	1	[-19.2, 75.3, 97.9, 83.2, -99.1]
18T	OK  	1	[-19.2, 75.3, 97.9, 83.2, -99.1]
18F	OK  	225	[60.7, 41.8, -1.8, 0.6, 17.3]
23T	OK  	1	[-19.2, 75.3, 97.9, 83.2, -99.1]
23F	OK  	2	[38.8, 28.0, -67.8, 26.8, 97.4]
25T	FAIL	100000	
25F	OK  	2	[38.8, 28.0, -67.8, 26.8, 97.4]
Test object: org.iguanatool.casestudies.g.testobjects.gradient_calc_linear_factor
3T	FAIL	100000	
3F	OK  	1	[-19.2, 75.3, 97.9, 83.2, -99.1]
8T	OK  	1	[-19.2, 75.3, 97.9, 83.2, -99.1]
8F	OK  	2	[38.8, 28.0, -67.8, 26.8, 97.4]
9T	OK  	859	[-77.10030517578124, -50.7, 30.896533203125, 33.0, 54.1]
9F	OK  	1	[-19.2, 75.3, 97.9, 83.2, -99.1]
13T	OK  	1664	[-88.0, 75.3, 100.0, 83.2, -100.0]
13F	OK  	1	[-19.2, 75.3, 97.9, 83.2, -99.1]
14T	OK  	1664	[-88.0, 75.3, 100.0, 83.2, -100.0]
14F	OK  	1954	[54.42156982421875, 75.3, 100.0, 0.8, -99.1]
17T	OK  	2	[38.8, 28.0, -67.8, 26.8, 97.4]
17F	OK  	1	[-19.2, 75.3, 97.9, 83.2, -99.1]
Test object: org.iguanatool.casestudies.g.testobjects.gradient_calc_radial_factor
3T	FAIL	100000	
3F	OK  	1	[-19.2, 75.3, 97.9, 83.2]
8T	OK  	1	[-19.2, 75.3, 97.9, 83.2]
8F	OK  	3	[26.8, 97.4, 32.5, 25.6]
10T	OK  	2186	[41.53896484375, 100.0, 32.5, 25.9125]
10F	OK  	3	[26.8, 97.4, 32.5, 25.6]
11T	OK  	2186	[41.53896484375, 100.0, 32.5, 25.9125]
11F	FAIL	100000	
Test object: org.iguanatool.casestudies.g.testobjects.gradient_calc_spiral_factor
9T	FAIL	100000	
9F	OK  	1	[-19.2, 75.3, 97.9, 83.2, -99.1, 38.8]
11T	OK  	1	[-19.2, 75.3, 97.9, 83.2, -99.1, 38.8]
11F	FAIL	100000	
13T	FAIL	100000	
13F	FAIL	100000	
19T	OK  	1	[-19.2, 75.3, 97.9, 83.2, -99.1, 38.8]
19F	OK  	84	[-56.0, -86.8, -10.9, 25.4, 8.0, 0.8]
22T	OK  	4	[71.3, 42.4, 23.8, -56.8, 68.6, -65.7]
22F	OK  	1	[-19.2, 75.3, 97.9, 83.2, -99.1, 38.8]
Test object: org.iguanatool.casestudies.g.testobjects.gradient_calc_square_factor
9T	FAIL	100000	
9F	OK  	1	[-19.2, 75.3, 97.9, 83.2]
14T	FAIL	100000	
14F	OK  	1	[-19.2, 75.3, 97.9, 83.2]
20T	OK  	1	[-19.2, 75.3, 97.9, 83.2]
20F	OK  	3	[26.8, 97.4, 32.5, 25.6]
22T	OK  	2183	[65.459912109375, 100.0, 35.4, 46.03563232421875]
22F	OK  	3	[26.8, 97.4, 32.5, 25.6]
23T	OK  	2183	[65.459912109375, 100.0, 35.4, 46.03563232421875]
23F	FAIL	100000	
Test object: org.iguanatool.casestudies.g.testobjects.main
