Test object: org.iguanatool.casestudies.g.testobjects.gradient_calc_bilinear_factor
5T	OK  	69	[0.0, 87.3, -97.7, -17.8, -24.1]
5F	OK  	1	[-87.1, 84.6, 55.2, -9.6, -11.5]
11T	OK  	41	[-99.8, -17.70000000000001, 16.799999999999997, -10.299999999999999, -11.5]
11F	OK  	1	[-87.1, 84.6, 55.2, -9.6, -11.5]
13T	OK  	56	[-87.1, 84.6, 100.0, -9.6, -11.5]
13F	OK  	1	[-87.1, 84.6, 55.2, -9.6, -11.5]
14T	OK  	6016	[-100.0, -46.39999999999999, 100.0, 25.0, 10.599999999999998]
14F	OK  	56	[-87.1, 84.6, 100.0, -9.6, -11.5]
Test object: org.iguanatool.casestudies.g.testobjects.gradient_calc_conical_asym_factor
8T	OK  	69	[0.0, 87.3, -97.7, -17.8, -24.1]
8F	OK  	1	[-87.1, 84.6, 55.2, -9.6, -11.5]
10T	OK  	1	[-87.1, 84.6, 55.2, -9.6, -11.5]
10F	OK  	8716	[96.5, 96.6, -13.8, 0.0, -56.2]
12T	OK  	8716	[96.5, 96.6, -13.8, 0.0, -56.2]
12F	FAIL	100000	
19T	OK  	1	[-87.1, 84.6, 55.2, -9.6, -11.5]
19F	OK  	24	[-87.1, -17.70000000000001, -47.10000000000001, -9.6, -11.5]
23T	OK  	24	[-87.1, -17.70000000000001, -47.10000000000001, -9.6, -11.5]
23F	OK  	1	[-87.1, 84.6, 55.2, -9.6, -11.5]
25T	FAIL	100000	
25F	OK  	1	[-87.1, 84.6, 55.2, -9.6, -11.5]
Test object: org.iguanatool.casestudies.g.testobjects.gradient_calc_conical_sym_factor
6T	OK  	69	[0.0, 87.3, -97.7, -17.8, -24.1]
6F	OK  	1	[-87.1, 84.6, 55.2, -9.6, -11.5]
8T	OK  	1	[-87.1, 84.6, 55.2, -9.6, -11.5]
8F	OK  	8716	[96.5, 96.6, -13.8, 0.0, -56.2]
10T	OK  	8716	[96.5, 96.6, -13.8, 0.0, -56.2]
10F	FAIL	100000	
16T	OK  	23	[-87.1, -17.70000000000001, 4.099999999999998, -9.6, -11.5]
16F	OK  	1	[-87.1, 84.6, 55.2, -9.6, -11.5]
18T	OK  	1	[-87.1, 84.6, 55.2, -9.6, -11.5]
18F	OK  	37	[-87.1, -17.70000000000001, 29.7, -15.899999999999999, -10.0]
23T	OK  	1	[-87.1, 84.6, 55.2, -9.6, -11.5]
23F	OK  	15	[-87.1, 84.6, -47.10000000000001, -9.6, -11.5]
25T	FAIL	100000	
25F	OK  	15	[-87.1, 84.6, -47.10000000000001, -9.6, -11.5]
Test object: org.iguanatool.casestudies.g.testobjects.gradient_calc_linear_factor
3T	OK  	69	[0.0, 87.3, -97.7, -17.8, -24.1]
3F	OK  	1	[-87.1, 84.6, 55.2, -9.6, -11.5]
8T	OK  	1	[-87.1, 84.6, 55.2, -9.6, -11.5]
8F	OK  	29	[-99.8, -17.70000000000001, 4.099999999999998, -9.6, -11.5]
9T	OK  	43	[-99.8, -17.70000000000001, 29.7, -15.899999999999999, -10.0]
9F	OK  	1	[-87.1, 84.6, 55.2, -9.6, -11.5]
13T	OK  	56	[-87.1, 84.6, 100.0, -9.6, -11.5]
13F	OK  	1	[-87.1, 84.6, 55.2, -9.6, -11.5]
14T	OK  	56	[-87.1, 84.6, 100.0, -9.6, -11.5]
14F	OK  	65	[-87.1, 84.6, 100.0, 15.900000000000002, -11.5]
17T	OK  	29	[-99.8, -17.70000000000001, 4.099999999999998, -9.6, -11.5]
17F	OK  	1	[-87.1, 84.6, 55.2, -9.6, -11.5]
Test object: org.iguanatool.casestudies.g.testobjects.gradient_calc_radial_factor
3T	OK  	8466	[0.0, -56.2, -0.8, 46.9]
3F	OK  	1	[-87.1, 84.6, 55.2, -9.6]
8T	OK  	1	[-87.1, 84.6, 55.2, -9.6]
8F	OK  	29	[-99.8, -17.70000000000001, 4.099999999999998, -9.6]
10T	OK  	285	[24.0, 100.0, 31.4, 16.7]
10F	OK  	29	[-99.8, -17.70000000000001, 4.099999999999998, -9.6]
11T	OK  	285	[24.0, 100.0, 31.4, 16.7]
11F	FAIL	100000	
Test object: org.iguanatool.casestudies.g.testobjects.gradient_calc_spiral_factor
9T	OK  	15397	[0.0, -12.4, 23.1, 46.5, 30.7, -22.4]
9F	OK  	1	[-87.1, 84.6, 55.2, -9.6, -11.5, 0.1]
11T	OK  	1	[-87.1, 84.6, 55.2, -9.6, -11.5, 0.1]
11F	OK  	49353	[23.0, 4.2, -42.0, 0.0, -20.1, -8.2]
13T	OK  	49353	[23.0, 4.2, -42.0, 0.0, -20.1, -8.2]
13F	FAIL	100000	
19T	OK  	14	[87.3, -97.7, -17.8, -24.1, -18.9, -48.8]
19F	OK  	1	[-87.1, 84.6, 55.2, -9.6, -11.5, 0.1]
22T	OK  	24	[-87.1, -17.70000000000001, -47.10000000000001, -9.6, -11.5, 0.1]
22F	OK  	1	[-87.1, 84.6, 55.2, -9.6, -11.5, 0.1]
Test object: org.iguanatool.casestudies.g.testobjects.gradient_calc_square_factor
9T	OK  	8466	[0.0, -56.2, -0.8, 46.9]
9F	OK  	1	[-87.1, 84.6, 55.2, -9.6]
14T	FAIL	100000	
14F	OK  	1	[-87.1, 84.6, 55.2, -9.6]
20T	OK  	1	[-87.1, 84.6, 55.2, -9.6]
20F	OK  	349	[24.0, 16.8, 31.4, 16.7]
22T	OK  	398	[24.0, 100.0, 31.4, 16.7]
22F	OK  	349	[24.0, 16.8, 31.4, 16.7]
23T	OK  	398	[24.0, 100.0, 31.4, 16.7]
23F	FAIL	100000	
Test object: org.iguanatool.casestudies.g.testobjects.main
