Test object: org.iguanatool.casestudies.g.testobjects.gradient_calc_bilinear_factor
5T	OK  	44137	[0.0, -36.8, -4.6, 74.0, -52.5]
5F	OK  	1	[-77.4, -16.4, -96.7, 22.4, 61.2]
11T	OK  	435	[63.1, -80.4, 37.199999999999996, 30.5, 65.89999999999999]
11F	OK  	1	[-77.4, -16.4, -96.7, 22.4, 61.2]
13T	OK  	188	[-33.7, 9.1, 100.0, -72.4, 63.7]
13F	OK  	1	[-77.4, -16.4, -96.7, 22.4, 61.2]
14T	OK  	33580	[-84.0, -32.0, 100.0, 82.0, 25.4]
14F	OK  	188	[-33.7, 9.1, 100.0, -72.4, 63.7]
Test object: org.iguanatool.casestudies.g.testobjects.gradient_calc_conical_asym_factor
8T	OK  	44137	[0.0, -36.8, -4.6, 74.0, -52.5]
8F	OK  	1	[-77.4, -16.4, -96.7, 22.4, 61.2]
10T	OK  	1	[-77.4, -16.4, -96.7, 22.4, 61.2]
10F	OK  	30532	[18.1, -27.0, 63.8, 0.0, -64.7]
12T	OK  	30532	[18.1, -27.0, 63.8, 0.0, -64.7]
12F	FAIL	100000	
19T	OK  	45	[-77.4, -67.5, 5.600000000000001, -79.9, -41.1]
19F	OK  	1	[-77.4, -16.4, -96.7, 22.4, 61.2]
23T	OK  	1	[-77.4, -16.4, -96.7, 22.4, 61.2]
23F	OK  	25	[-77.4, 85.9, 5.600000000000001, 22.4, 61.2]
25T	FAIL	100000	
25F	OK  	25	[-77.4, 85.9, 5.600000000000001, 22.4, 61.2]
Test object: org.iguanatool.casestudies.g.testobjects.gradient_calc_conical_sym_factor
6T	OK  	44137	[0.0, -36.8, -4.6, 74.0, -52.5]
6F	OK  	1	[-77.4, -16.4, -96.7, 22.4, 61.2]
8T	OK  	1	[-77.4, -16.4, -96.7, 22.4, 61.2]
8F	OK  	30532	[18.1, -27.0, 63.8, 0.0, -64.7]
10T	OK  	30532	[18.1, -27.0, 63.8, 0.0, -64.7]
10F	FAIL	100000	
16T	OK  	25	[-77.4, 85.9, 5.600000000000001, 22.4, 61.2]
16F	OK  	1	[-77.4, -16.4, -96.7, 22.4, 61.2]
18T	OK  	1	[-77.4, -16.4, -96.7, 22.4, 61.2]
18F	OK  	39	[-77.4, 85.9, -45.6, 28.7, 54.9]
23T	OK  	50	[-77.4, -16.4, -7.399999999999997, 22.4, 61.2]
23F	OK  	1	[-77.4, -16.4, -96.7, 22.4, 61.2]
25T	FAIL	100000	
25F	OK  	1	[-77.4, -16.4, -96.7, 22.4, 61.2]
Test object: org.iguanatool.casestudies.g.testobjects.gradient_calc_linear_factor
3T	OK  	44137	[0.0, -36.8, -4.6, 74.0, -52.5]
3F	OK  	1	[-77.4, -16.4, -96.7, 22.4, 61.2]
8T	OK  	1	[-77.4, -16.4, -96.7, 22.4, 61.2]
8F	OK  	31	[-90.10000000000001, 85.9, 5.600000000000001, 22.4, 61.2]
9T	OK  	476	[88.60000000000001, -86.7, 36.89999999999999, 30.5, 72.3]
9F	OK  	1	[-77.4, -16.4, -96.7, 22.4, 61.2]
13T	OK  	188	[-33.7, 9.1, 100.0, -72.4, 63.7]
13F	OK  	1	[-77.4, -16.4, -96.7, 22.4, 61.2]
14T	OK  	207	[-33.7, 9.1, 100.0, -97.9, -38.6]
14F	OK  	188	[-33.7, 9.1, 100.0, -72.4, 63.7]
17T	OK  	31	[-90.10000000000001, 85.9, 5.600000000000001, 22.4, 61.2]
17F	OK  	1	[-77.4, -16.4, -96.7, 22.4, 61.2]
Test object: org.iguanatool.casestudies.g.testobjects.gradient_calc_radial_factor
3T	OK  	89131	[0.0, 2.0, -58.6, 88.3]
3F	OK  	1	[-77.4, -16.4, -96.7, 22.4]
8T	OK  	1	[-77.4, -16.4, -96.7, 22.4]
8F	OK  	29	[-90.10000000000001, -67.5, -45.6, 22.4]
10T	OK  	445	[12.0, 100.0, 88.3, 17.8]
10F	OK  	29	[-90.10000000000001, -67.5, -45.6, 22.4]
11T	OK  	445	[12.0, 100.0, 88.3, 17.8]
11F	FAIL	100000	
Test object: org.iguanatool.casestudies.g.testobjects.gradient_calc_spiral_factor
9T	OK  	76465	[0.0, 2.0, -58.6, 88.3, 28.3, -23.2]
9F	OK  	1	[-77.4, -16.4, -96.7, 22.4, 61.2, -33.7]
11T	OK  	1	[-77.4, -16.4, -96.7, 22.4, 61.2, -33.7]
11F	OK  	32518	[-17.4, -72.6, -65.3, 0.0, 60.3, 32.1]
13T	OK  	32518	[-17.4, -72.6, -65.3, 0.0, 60.3, 32.1]
13F	FAIL	100000	
19T	OK  	1	[-77.4, -16.4, -96.7, 22.4, 61.2, -33.7]
19F	OK  	14	[9.1, -9.6, -72.4, 63.7, 91.4, 0.2]
22T	OK  	45	[-77.4, -67.5, 5.600000000000001, -79.9, -41.1, -33.7]
22F	OK  	1	[-77.4, -16.4, -96.7, 22.4, 61.2, -33.7]
Test object: org.iguanatool.casestudies.g.testobjects.gradient_calc_square_factor
9T	OK  	89131	[0.0, 2.0, -58.6, 88.3]
9F	OK  	1	[-77.4, -16.4, -96.7, 22.4]
14T	FAIL	100000	
14F	OK  	1	[-77.4, -16.4, -96.7, 22.4]
20T	OK  	1	[-77.4, -16.4, -96.7, 22.4]
20F	OK  	86	[61.2, -33.7, 9.1, -9.6]
22T	OK  	165	[61.2, 100.0, 9.1, -9.6]
22F	OK  	86	[61.2, -33.7, 9.1, -9.6]
23T	OK  	165	[61.2, 100.0, 9.1, -9.6]
23F	FAIL	100000	
Test object: org.iguanatool.casestudies.g.testobjects.main
