Test object: org.iguanatool.casestudies.g.testobjects.gradient_calc_bilinear_factor
5T	OK  	1074	[0.0, 15.5, -60.8, 70.8, -46.2]
5F	OK  	1	[8.7, -15.1, 94.4, 91.6, -65.3]
11T	OK  	47	[59.800000000000004, 87.2, 97.5, 78.89999999999999, -70.89999999999999]
11F	OK  	1	[8.7, -15.1, 94.4, 91.6, -65.3]
13T	OK  	47	[8.7, -15.1, 100.0, 91.6, -65.3]
13F	OK  	1	[8.7, -15.1, 94.4, 91.6, -65.3]
14T	OK  	39654	[70.0, 63.8, 100.0, -100.0, 64.5]
14F	OK  	47	[8.7, -15.1, 100.0, 91.6, -65.3]
Test object: org.iguanatool.casestudies.g.testobjects.gradient_calc_conical_asym_factor
8T	OK  	1074	[0.0, 15.5, -60.8, 70.8, -46.2]
8F	OK  	1	[8.7, -15.1, 94.4, 91.6, -65.3]
10T	OK  	1	[8.7, -15.1, 94.4, 91.6, -65.3]
10F	OK  	11890	[-76.2, -72.9, -73.7, 0.0, 0.9]
12T	OK  	11890	[-76.2, -72.9, -73.7, 0.0, 0.9]
12F	FAIL	100000	
19T	OK  	43	[8.7, 87.2, -7.899999999999999, 97.89999999999999, 37.00000000000001]
19F	OK  	1	[8.7, -15.1, 94.4, 91.6, -65.3]
23T	OK  	64	[8.7, -15.099999999999987, -10.999999999999998, -10.70000000000001, -14.199999999999996]
23F	OK  	1	[8.7, -15.1, 94.4, 91.6, -65.3]
25T	FAIL	100000	
25F	OK  	1	[8.7, -15.1, 94.4, 91.6, -65.3]
Test object: org.iguanatool.casestudies.g.testobjects.gradient_calc_conical_sym_factor
6T	OK  	1074	[0.0, 15.5, -60.8, 70.8, -46.2]
6F	OK  	1	[8.7, -15.1, 94.4, 91.6, -65.3]
8T	OK  	1	[8.7, -15.1, 94.4, 91.6, -65.3]
8F	OK  	11890	[-76.2, -72.9, -73.7, 0.0, 0.9]
10T	OK  	11890	[-76.2, -72.9, -73.7, 0.0, 0.9]
10F	FAIL	100000	
16T	OK  	14	[8.7, 87.2, 94.4, 91.6, -65.3]
16F	OK  	1	[8.7, -15.1, 94.4, 91.6, -65.3]
18T	OK  	1	[8.7, -15.1, 94.4, 91.6, -65.3]
18F	OK  	39	[8.7, 36.0, 68.9, 97.89999999999999, -52.599999999999994]
23T	OK  	1	[8.7, -15.1, 94.4, 91.6, -65.3]
23F	OK  	29	[8.7, -15.1, -10.999999999999998, 91.6, -65.3]
25T	FAIL	100000	
25F	OK  	29	[8.7, -15.1, -10.999999999999998, 91.6, -65.3]
Test object: org.iguanatool.casestudies.g.testobjects.gradient_calc_linear_factor
3T	OK  	1074	[0.0, 15.5, -60.8, 70.8, -46.2]
3F	OK  	1	[8.7, -15.1, 94.4, 91.6, -65.3]
8T	OK  	22	[59.800000000000004, 87.2, 94.4, 91.6, -65.3]
8F	OK  	1	[8.7, -15.1, 94.4, 91.6, -65.3]
9T	OK  	62	[85.30000000000001, 85.7, 97.8, 78.89999999999999, -68.39999999999999]
9F	OK  	22	[59.800000000000004, 87.2, 94.4, 91.6, -65.3]
13T	OK  	47	[8.7, -15.1, 100.0, 91.6, -65.3]
13F	OK  	1	[8.7, -15.1, 94.4, 91.6, -65.3]
14T	OK  	69	[8.7, -15.1, 100.0, -10.70000000000001, 37.00000000000001]
14F	OK  	47	[8.7, -15.1, 100.0, 91.6, -65.3]
17T	OK  	1	[8.7, -15.1, 94.4, 91.6, -65.3]
17F	OK  	22	[59.800000000000004, 87.2, 94.4, 91.6, -65.3]
Test object: org.iguanatool.casestudies.g.testobjects.gradient_calc_radial_factor
3T	OK  	12645	[0.0, -11.8, 3.1, -42.3]
3F	OK  	1	[8.7, -15.1, 94.4, 91.6]
8T	OK  	48	[59.800000000000004, 87.2, -1.5999999999999988, 40.49999999999999]
8F	OK  	1	[8.7, -15.1, 94.4, 91.6]
10T	OK  	36	[8.7, 100.0, 94.4, 91.6]
10F	OK  	1	[8.7, -15.1, 94.4, 91.6]
11T	OK  	36	[8.7, 100.0, 94.4, 91.6]
11F	FAIL	100000	
Test object: org.iguanatool.casestudies.g.testobjects.gradient_calc_spiral_factor
9T	OK  	10589	[0.0, -51.1, -31.7, 54.4, -58.2, -40.7]
9F	OK  	1	[8.7, -15.1, 94.4, 91.6, -65.3, 16.5]
11T	OK  	1	[8.7, -15.1, 94.4, 91.6, -65.3, 16.5]
11F	OK  	113	[77.4, -63.7, -0.4, 0.0, 28.7, 43.0]
13T	OK  	113	[77.4, -63.7, -0.4, 0.0, 28.7, 43.0]
13F	FAIL	100000	
19T	OK  	1	[8.7, -15.1, 94.4, 91.6, -65.3, 16.5]
19F	OK  	570	[-70.8, -13.9, -2.4, 88.4, -83.4, -0.2]
22T	OK  	43	[8.7, 87.2, -7.899999999999999, 97.89999999999999, 37.00000000000001, 16.5]
22F	OK  	1	[8.7, -15.1, 94.4, 91.6, -65.3, 16.5]
Test object: org.iguanatool.casestudies.g.testobjects.gradient_calc_square_factor
9T	OK  	12645	[0.0, -11.8, 3.1, -42.3]
9F	OK  	1	[8.7, -15.1, 94.4, 91.6]
14T	FAIL	100000	
14F	OK  	1	[8.7, -15.1, 94.4, 91.6]
20T	OK  	95	[-65.3, 16.5, 77.4, -63.7]
20F	OK  	1	[8.7, -15.1, 94.4, 91.6]
22T	OK  	36	[8.7, 100.0, 94.4, 91.6]
22F	OK  	1	[8.7, -15.1, 94.4, 91.6]
23T	OK  	36	[8.7, 100.0, 94.4, 91.6]
23F	FAIL	100000	
Test object: org.iguanatool.casestudies.g.testobjects.main
