Test object: org.iguanatool.casestudies.g.testobjects.gradient_calc_bilinear_factor
5T	OK  	2299	[0.0, -71.9, 24.0, -62.6, 50.2]
5F	OK  	1	[15.0, -81.1, -82.4, 32.9, -44.0]
11T	OK  	1125	[-83.3, -33.4, 98.8, -20.6, -6.4]
11F	OK  	1	[15.0, -81.1, -82.4, 32.9, -44.0]
13T	OK  	8105	[-21.7, 34.6, 100.0, -92.9, -20.5]
13F	OK  	1	[15.0, -81.1, -82.4, 32.9, -44.0]
14T	FAIL	100000	
14F	OK  	8105	[-21.7, 34.6, 100.0, -92.9, -20.5]
Test object: org.iguanatool.casestudies.g.testobjects.gradient_calc_conical_asym_factor
8T	OK  	2299	[0.0, -71.9, 24.0, -62.6, 50.2]
8F	OK  	1	[15.0, -81.1, -82.4, 32.9, -44.0]
10T	OK  	1	[15.0, -81.1, -82.4, 32.9, -44.0]
10F	OK  	3356	[42.9, -75.2, -72.9, 0.0, -58.2]
12T	OK  	3356	[42.9, -75.2, -72.9, 0.0, -58.2]
12F	FAIL	100000	
19T	OK  	4	[-12.6, -44.1, 89.8, -5.7, -13.0]
19F	OK  	1	[15.0, -81.1, -82.4, 32.9, -44.0]
23T	OK  	1	[15.0, -81.1, -82.4, 32.9, -44.0]
23F	OK  	2	[85.1, -73.5, 39.1, 79.3, 10.7]
25T	FAIL	100000	
25F	OK  	2	[85.1, -73.5, 39.1, 79.3, 10.7]
Test object: org.iguanatool.casestudies.g.testobjects.gradient_calc_conical_sym_factor
6T	OK  	2299	[0.0, -71.9, 24.0, -62.6, 50.2]
6F	OK  	1	[15.0, -81.1, -82.4, 32.9, -44.0]
8T	OK  	1	[15.0, -81.1, -82.4, 32.9, -44.0]
8F	OK  	3356	[42.9, -75.2, -72.9, 0.0, -58.2]
10T	OK  	3356	[42.9, -75.2, -72.9, 0.0, -58.2]
10F	FAIL	100000	
16T	OK  	1	[15.0, -81.1, -82.4, 32.9, -44.0]
16F	OK  	2	[85.1, -73.5, 39.1, 79.3, 10.7]
18T	OK  	2	[85.1, -73.5, 39.1, 79.3, 10.7]
18F	OK  	59	[-26.3, 88.5, 23.2, -7.3, 29.0]
23T	OK  	1	[15.0, -81.1, -82.4, 32.9, -44.0]
23F	OK  	5	[77.4, 26.5, 17.4, 56.7, -44.8]
25T	FAIL	100000	
25F	OK  	5	[77.4, 26.5, 17.4, 56.7, -44.8]
Test object: org.iguanatool.casestudies.g.testobjects.gradient_calc_linear_factor
3T	OK  	2299	[0.0, -71.9, 24.0, -62.6, 50.2]
3F	OK  	1	[15.0, -81.1, -82.4, 32.9, -44.0]
8T	OK  	1	[15.0, -81.1, -82.4, 32.9, -44.0]
8F	OK  	2	[85.1, -73.5, 39.1, 79.3, 10.7]
9T	OK  	2637	[-11.2, -97.7, 76.4, -5.3, -6.8]
9F	OK  	1	[15.0, -81.1, -82.4, 32.9, -44.0]
13T	OK  	8105	[-21.7, 34.6, 100.0, -92.9, -20.5]
13F	OK  	1	[15.0, -81.1, -82.4, 32.9, -44.0]
14T	OK  	8105	[-21.7, 34.6, 100.0, -92.9, -20.5]
14F	OK  	9583	[60.7, 88.4, 100.0, -90.9, -90.2]
17T	OK  	2	[85.1, -73.5, 39.1, 79.3, 10.7]
17F	OK  	1	[15.0, -81.1, -82.4, 32.9, -44.0]
Test object: org.iguanatool.casestudies.g.testobjects.gradient_calc_radial_factor
3T	OK  	1149	[0.0, -15.7, -81.0, 79.2]
3F	OK  	1	[15.0, -81.1, -82.4, 32.9]
8T	OK  	2	[-44.0, 85.1, -73.5, 39.1]
8F	OK  	1	[15.0, -81.1, -82.4, 32.9]
10T	OK  	12512	[22.2, 100.0, -44.7, 41.0]
10F	OK  	1	[15.0, -81.1, -82.4, 32.9]
11T	OK  	12512	[22.2, 100.0, -44.7, 41.0]
11F	FAIL	100000	
Test object: org.iguanatool.casestudies.g.testobjects.gradient_calc_spiral_factor
9T	OK  	1572	[0.0, 57.0, 12.4, 49.7, -48.7, 60.3]
9F	OK  	1	[15.0, -81.1, -82.4, 32.9, -44.0, 85.1]
11T	OK  	1	[15.0, -81.1, -82.4, 32.9, -44.0, 85.1]
11F	OK  	3729	[41.1, 84.9, 25.9, 0.0, -39.7, -27.8]
13T	OK  	3729	[41.1, 84.9, 25.9, 0.0, -39.7, -27.8]
13F	FAIL	100000	
19T	OK  	1	[15.0, -81.1, -82.4, 32.9, -44.0, 85.1]
19F	OK  	29	[59.1, 60.2, -46.6, -39.2, -59.3, -0.8]
22T	OK  	3	[91.2, 88.3, -60.6, -12.6, -44.1, 89.8]
22F	OK  	1	[15.0, -81.1, -82.4, 32.9, -44.0, 85.1]
Test object: org.iguanatool.casestudies.g.testobjects.gradient_calc_square_factor
9T	OK  	1149	[0.0, -15.7, -81.0, 79.2]
9F	OK  	1	[15.0, -81.1, -82.4, 32.9]
14T	FAIL	100000	
14F	OK  	1	[15.0, -81.1, -82.4, 32.9]
20T	OK  	2	[-44.0, 85.1, -73.5, 39.1]
20F	OK  	1	[15.0, -81.1, -82.4, 32.9]
22T	OK  	10392	[75.5, 100.0, -40.1, -22.0]
22F	OK  	1	[15.0, -81.1, -82.4, 32.9]
23T	OK  	10392	[75.5, 100.0, -40.1, -22.0]
23F	FAIL	100000	
Test object: org.iguanatool.casestudies.g.testobjects.main
