Test object: org.iguanatool.casestudies.g.testobjects.gradient_calc_bilinear_factor
5T	OK  	927	[0.0, 83.9, -5.5, 87.0, 38.5]
5F	OK  	1	[-38.4, 28.5, 81.1, 81.8, -84.5]
11T	OK  	42	[51.1, -23.1, 76.7, -87.6, -26.0]
11F	OK  	1	[-38.4, 28.5, 81.1, 81.8, -84.5]
13T	OK  	501	[-87.9, -20.8, 100.0, -57.6, 14.1]
13F	OK  	1	[-38.4, 28.5, 81.1, 81.8, -84.5]
14T	FAIL	100000	
14F	OK  	501	[-87.9, -20.8, 100.0, -57.6, 14.1]
Test object: org.iguanatool.casestudies.g.testobjects.gradient_calc_conical_asym_factor
8T	OK  	927	[0.0, 83.9, -5.5, 87.0, 38.5]
8F	OK  	1	[-38.4, 28.5, 81.1, 81.8, -84.5]
10T	OK  	1	[-38.4, 28.5, 81.1, 81.8, -84.5]
10F	OK  	1743	[-44.7, -15.7, -8.0, 0.0, -6.6]
12T	OK  	1743	[-44.7, -15.7, -8.0, 0.0, -6.6]
12F	FAIL	100000	
19T	OK  	3	[-88.7, -68.8, 43.1, -33.1, -50.0]
19F	OK  	1	[-38.4, 28.5, 81.1, 81.8, -84.5]
23T	OK  	2	[4.4, -25.9, -84.6, 6.4, -42.5]
23F	OK  	1	[-38.4, 28.5, 81.1, 81.8, -84.5]
25T	FAIL	100000	
25F	OK  	1	[-38.4, 28.5, 81.1, 81.8, -84.5]
Test object: org.iguanatool.casestudies.g.testobjects.gradient_calc_conical_sym_factor
6T	OK  	927	[0.0, 83.9, -5.5, 87.0, 38.5]
6F	OK  	1	[-38.4, 28.5, 81.1, 81.8, -84.5]
8T	OK  	1	[-38.4, 28.5, 81.1, 81.8, -84.5]
8F	OK  	1743	[-44.7, -15.7, -8.0, 0.0, -6.6]
10T	OK  	1743	[-44.7, -15.7, -8.0, 0.0, -6.6]
10F	FAIL	100000	
16T	OK  	2	[4.4, -25.9, -84.6, 6.4, -42.5]
16F	OK  	1	[-38.4, 28.5, 81.1, 81.8, -84.5]
18T	OK  	1	[-38.4, 28.5, 81.1, 81.8, -84.5]
18F	OK  	42	[51.1, -23.1, 76.7, -87.6, -26.0]
23T	OK  	1	[-38.4, 28.5, 81.1, 81.8, -84.5]
23F	OK  	3	[-88.7, -68.8, 43.1, -33.1, -50.0]
25T	FAIL	100000	
25F	OK  	3	[-88.7, -68.8, 43.1, -33.1, -50.0]
Test object: org.iguanatool.casestudies.g.testobjects.gradient_calc_linear_factor
3T	OK  	927	[0.0, 83.9, -5.5, 87.0, 38.5]
3F	OK  	1	[-38.4, 28.5, 81.1, 81.8, -84.5]
8T	OK  	1	[-38.4, 28.5, 81.1, 81.8, -84.5]
8F	OK  	3	[-88.7, -68.8, 43.1, -33.1, -50.0]
9T	OK  	42	[51.1, -23.1, 76.7, -87.6, -26.0]
9F	OK  	1	[-38.4, 28.5, 81.1, 81.8, -84.5]
13T	OK  	501	[-87.9, -20.8, 100.0, -57.6, 14.1]
13F	OK  	1	[-38.4, 28.5, 81.1, 81.8, -84.5]
14T	OK  	5200	[42.9, 80.1, 100.0, 17.9, -10.0]
14F	OK  	501	[-87.9, -20.8, 100.0, -57.6, 14.1]
17T	OK  	3	[-88.7, -68.8, 43.1, -33.1, -50.0]
17F	OK  	1	[-38.4, 28.5, 81.1, 81.8, -84.5]
Test object: org.iguanatool.casestudies.g.testobjects.gradient_calc_radial_factor
3T	OK  	3000	[0.0, -7.3, 2.4, -0.6]
3F	OK  	1	[-38.4, 28.5, 81.1, 81.8]
8T	OK  	1	[-38.4, 28.5, 81.1, 81.8]
8F	OK  	3	[6.4, -42.5, -88.7, -68.8]
10T	OK  	11373	[36.4, 100.0, -40.0, -7.8]
10F	OK  	3	[6.4, -42.5, -88.7, -68.8]
11T	OK  	11373	[36.4, 100.0, -40.0, -7.8]
11F	FAIL	100000	
Test object: org.iguanatool.casestudies.g.testobjects.gradient_calc_spiral_factor
9T	OK  	3591	[0.0, -47.6, 36.4, 58.8, 20.0, -65.2]
9F	OK  	1	[-38.4, 28.5, 81.1, 81.8, -84.5, 4.4]
11T	OK  	1	[-38.4, 28.5, 81.1, 81.8, -84.5, 4.4]
11F	OK  	1993	[23.3, 82.2, -87.5, 0.0, -8.2, 67.9]
13T	OK  	1993	[23.3, 82.2, -87.5, 0.0, -8.2, 67.9]
13F	FAIL	100000	
19T	OK  	1	[-38.4, 28.5, 81.1, 81.8, -84.5, 4.4]
19F	OK  	41	[66.2, 74.9, -10.0, -10.8, -99.3, 0.8]
22T	OK  	2	[-25.9, -84.6, 6.4, -42.5, -88.7, -68.8]
22F	OK  	1	[-38.4, 28.5, 81.1, 81.8, -84.5, 4.4]
Test object: org.iguanatool.casestudies.g.testobjects.gradient_calc_square_factor
9T	OK  	3000	[0.0, -7.3, 2.4, -0.6]
9F	OK  	1	[-38.4, 28.5, 81.1, 81.8]
14T	FAIL	100000	
14F	OK  	1	[-38.4, 28.5, 81.1, 81.8]
20T	OK  	1	[-38.4, 28.5, 81.1, 81.8]
20F	OK  	3	[6.4, -42.5, -88.7, -68.8]
22T	OK  	6500	[80.1, 100.0, 17.9, -10.0]
22F	OK  	3	[6.4, -42.5, -88.7, -68.8]
23T	OK  	6500	[80.1, 100.0, 17.9, -10.0]
23F	FAIL	100000	
Test object: org.iguanatool.casestudies.g.testobjects.main
