Test object: org.iguanatool.casestudies.g.testobjects.gradient_calc_bilinear_factor
5T	OK  	52	[0.0, -29.0, -7.2, -21.6, -33.0]
5F	OK  	1	[-96.8, 23.2, -11.0, 6.2, -30.2]
11T	OK  	142	[-28.2, 54.0, 69.5, 60.4, -46.7]
11F	OK  	1	[-96.8, 23.2, -11.0, 6.2, -30.2]
13T	OK  	276	[-91.5, 76.8, 100.0, 70.9, 53.6]
13F	OK  	1	[-96.8, 23.2, -11.0, 6.2, -30.2]
14T	FAIL	100000	
14F	OK  	276	[-91.5, 76.8, 100.0, 70.9, 53.6]
Test object: org.iguanatool.casestudies.g.testobjects.gradient_calc_conical_asym_factor
8T	OK  	52	[0.0, -29.0, -7.2, -21.6, -33.0]
8F	OK  	1	[-96.8, 23.2, -11.0, 6.2, -30.2]
10T	OK  	1	[-96.8, 23.2, -11.0, 6.2, -30.2]
10F	OK  	48	[6.3, -49.6, -69.9, 0.0, -27.1]
12T	OK  	48	[6.3, -49.6, -69.9, 0.0, -27.1]
12F	FAIL	100000	
19T	OK  	2	[-72.9, 78.6, 37.0, -1.2, 99.6]
19F	OK  	1	[-96.8, 23.2, -11.0, 6.2, -30.2]
23T	OK  	1	[-96.8, 23.2, -11.0, 6.2, -30.2]
23F	OK  	2	[-72.9, 78.6, 37.0, -1.2, 99.6]
25T	FAIL	100000	
25F	OK  	2	[-72.9, 78.6, 37.0, -1.2, 99.6]
Test object: org.iguanatool.casestudies.g.testobjects.gradient_calc_conical_sym_factor
6T	OK  	52	[0.0, -29.0, -7.2, -21.6, -33.0]
6F	OK  	1	[-96.8, 23.2, -11.0, 6.2, -30.2]
8T	OK  	1	[-96.8, 23.2, -11.0, 6.2, -30.2]
8F	OK  	48	[6.3, -49.6, -69.9, 0.0, -27.1]
10T	OK  	48	[6.3, -49.6, -69.9, 0.0, -27.1]
10F	FAIL	100000	
16T	OK  	1	[-96.8, 23.2, -11.0, 6.2, -30.2]
16F	OK  	3	[-91.8, -69.0, 28.9, 81.8, -26.6]
18T	OK  	3	[-91.8, -69.0, 28.9, 81.8, -26.6]
18F	OK  	30	[57.0, 57.3, 59.8, 74.9, -70.1]
23T	OK  	1	[-96.8, 23.2, -11.0, 6.2, -30.2]
23F	OK  	2	[-72.9, 78.6, 37.0, -1.2, 99.6]
25T	FAIL	100000	
25F	OK  	2	[-72.9, 78.6, 37.0, -1.2, 99.6]
Test object: org.iguanatool.casestudies.g.testobjects.gradient_calc_linear_factor
3T	OK  	52	[0.0, -29.0, -7.2, -21.6, -33.0]
3F	OK  	1	[-96.8, 23.2, -11.0, 6.2, -30.2]
8T	OK  	3	[-91.8, -69.0, 28.9, 81.8, -26.6]
8F	OK  	1	[-96.8, 23.2, -11.0, 6.2, -30.2]
9T	OK  	1509	[-72.1, 79.4, 68.3, 68.7, -80.4]
9F	OK  	3	[-91.8, -69.0, 28.9, 81.8, -26.6]
13T	OK  	276	[-91.5, 76.8, 100.0, 70.9, 53.6]
13F	OK  	1	[-96.8, 23.2, -11.0, 6.2, -30.2]
14T	OK  	9354	[49.0, 70.1, 100.0, 60.7, -33.2]
14F	OK  	276	[-91.5, 76.8, 100.0, 70.9, 53.6]
17T	OK  	1	[-96.8, 23.2, -11.0, 6.2, -30.2]
17F	OK  	3	[-91.8, -69.0, 28.9, 81.8, -26.6]
Test object: org.iguanatool.casestudies.g.testobjects.gradient_calc_radial_factor
3T	OK  	1464	[0.0, 90.1, -5.6, -70.0]
3F	OK  	1	[-96.8, 23.2, -11.0, 6.2]
8T	OK  	1	[-96.8, 23.2, -11.0, 6.2]
8F	OK  	4	[28.9, 81.8, -26.6, 90.3]
10T	OK  	345	[76.8, 100.0, 70.9, 53.6]
10F	OK  	4	[28.9, 81.8, -26.6, 90.3]
11T	OK  	345	[76.8, 100.0, 70.9, 53.6]
11F	FAIL	100000	
Test object: org.iguanatool.casestudies.g.testobjects.gradient_calc_spiral_factor
9T	OK  	1232	[0.0, 13.0, 19.3, 46.8, -43.1, -24.7]
9F	OK  	1	[-96.8, 23.2, -11.0, 6.2, -30.2, -72.9]
11T	OK  	1	[-96.8, 23.2, -11.0, 6.2, -30.2, -72.9]
11F	OK  	43	[3.5, 79.3, -45.3, 0.0, -29.0, -7.2]
13T	OK  	43	[3.5, 79.3, -45.3, 0.0, -29.0, -7.2]
13F	FAIL	100000	
19T	OK  	1	[-96.8, 23.2, -11.0, 6.2, -30.2, -72.9]
19F	OK  	86	[-91.6, 71.3, 88.5, 4.0, -54.1, -0.1]
22T	OK  	5	[-68.7, 83.6, 21.9, 42.6, 53.5, -59.3]
22F	OK  	1	[-96.8, 23.2, -11.0, 6.2, -30.2, -72.9]
Test object: org.iguanatool.casestudies.g.testobjects.gradient_calc_square_factor
9T	OK  	1464	[0.0, 90.1, -5.6, -70.0]
9F	OK  	1	[-96.8, 23.2, -11.0, 6.2]
14T	FAIL	100000	
14F	OK  	1	[-96.8, 23.2, -11.0, 6.2]
20T	OK  	1	[-96.8, 23.2, -11.0, 6.2]
20F	OK  	4	[28.9, 81.8, -26.6, 90.3]
22T	OK  	345	[76.8, 100.0, 70.9, 53.6]
22F	OK  	4	[28.9, 81.8, -26.6, 90.3]
23T	OK  	345	[76.8, 100.0, 70.9, 53.6]
23F	FAIL	100000	
Test object: org.iguanatool.casestudies.g.testobjects.main
