Test object: org.iguanatool.casestudies.g.testobjects.gradient_calc_bilinear_factor
5T	OK  	726	[0.0, 50.4, 56.0, 82.1, -52.5]
5F	OK  	1	[14.2, 8.1, -58.3, -12.1, 7.5]
11T	OK  	220	[-47.8, -90.5, 72.4, -60.6, -75.5]
11F	OK  	1	[14.2, 8.1, -58.3, -12.1, 7.5]
13T	OK  	443	[67.2, -18.9, 100.0, -48.3, 66.3]
13F	OK  	1	[14.2, 8.1, -58.3, -12.1, 7.5]
14T	FAIL	100000	
14F	OK  	443	[67.2, -18.9, 100.0, -48.3, 66.3]
Test object: org.iguanatool.casestudies.g.testobjects.gradient_calc_conical_asym_factor
8T	OK  	726	[0.0, 50.4, 56.0, 82.1, -52.5]
8F	OK  	1	[14.2, 8.1, -58.3, -12.1, 7.5]
10T	OK  	1	[14.2, 8.1, -58.3, -12.1, 7.5]
10F	OK  	2271	[-97.7, -44.6, 78.3, 0.0, 35.3]
12T	OK  	2271	[-97.7, -44.6, 78.3, 0.0, 35.3]
12F	FAIL	100000	
19T	OK  	1	[14.2, 8.1, -58.3, -12.1, 7.5]
19F	OK  	3	[68.8, -8.5, 54.4, 86.3, 10.4]
23T	OK  	1	[14.2, 8.1, -58.3, -12.1, 7.5]
23F	OK  	2	[60.4, 99.2, 78.3, -93.8, 71.1]
25T	FAIL	100000	
25F	OK  	2	[60.4, 99.2, 78.3, -93.8, 71.1]
Test object: org.iguanatool.casestudies.g.testobjects.gradient_calc_conical_sym_factor
6T	OK  	726	[0.0, 50.4, 56.0, 82.1, -52.5]
6F	OK  	1	[14.2, 8.1, -58.3, -12.1, 7.5]
8T	OK  	1	[14.2, 8.1, -58.3, -12.1, 7.5]
8F	OK  	2271	[-97.7, -44.6, 78.3, 0.0, 35.3]
10T	OK  	2271	[-97.7, -44.6, 78.3, 0.0, 35.3]
10F	FAIL	100000	
16T	OK  	4	[-99.2, 23.9, 56.1, 31.7, 73.9]
16F	OK  	1	[14.2, 8.1, -58.3, -12.1, 7.5]
18T	OK  	1	[14.2, 8.1, -58.3, -12.1, 7.5]
18F	OK  	207	[11.1, 81.9, 37.6, 26.1, -56.1]
23T	OK  	2	[60.4, 99.2, 78.3, -93.8, 71.1]
23F	OK  	1	[14.2, 8.1, -58.3, -12.1, 7.5]
25T	FAIL	100000	
25F	OK  	1	[14.2, 8.1, -58.3, -12.1, 7.5]
Test object: org.iguanatool.casestudies.g.testobjects.gradient_calc_linear_factor
3T	OK  	726	[0.0, 50.4, 56.0, 82.1, -52.5]
3F	OK  	1	[14.2, 8.1, -58.3, -12.1, 7.5]
8T	OK  	7	[-17.7, -9.0, -22.9, -43.4, 66.5]
8F	OK  	1	[14.2, 8.1, -58.3, -12.1, 7.5]
9T	OK  	1542	[-65.3, 55.6, 5.6, -6.2, 61.1]
9F	OK  	7	[-17.7, -9.0, -22.9, -43.4, 66.5]
13T	OK  	443	[67.2, -18.9, 100.0, -48.3, 66.3]
13F	OK  	1	[14.2, 8.1, -58.3, -12.1, 7.5]
14T	OK  	443	[67.2, -18.9, 100.0, -48.3, 66.3]
14F	OK  	701	[-87.5, -45.9, 100.0, -65.3, 83.2]
17T	OK  	1	[14.2, 8.1, -58.3, -12.1, 7.5]
17F	OK  	7	[-17.7, -9.0, -22.9, -43.4, 66.5]
Test object: org.iguanatool.casestudies.g.testobjects.gradient_calc_radial_factor
3T	OK  	3507	[0.0, 97.1, -40.4, -48.2]
3F	OK  	1	[14.2, 8.1, -58.3, -12.1]
8T	OK  	3	[-93.8, 71.1, 68.8, -8.5]
8F	OK  	1	[14.2, 8.1, -58.3, -12.1]
10T	OK  	1365	[75.3, 100.0, -95.7, -37.9]
10F	OK  	1	[14.2, 8.1, -58.3, -12.1]
11T	OK  	1365	[75.3, 100.0, -95.7, -37.9]
11F	FAIL	100000	
Test object: org.iguanatool.casestudies.g.testobjects.gradient_calc_spiral_factor
9T	OK  	1010	[0.0, 44.7, 41.5, -37.1, 58.3, -42.3]
9F	OK  	1	[14.2, 8.1, -58.3, -12.1, 7.5, 60.4]
11T	OK  	1	[14.2, 8.1, -58.3, -12.1, 7.5, 60.4]
11F	OK  	394	[36.6, 26.0, 30.5, 0.0, 25.1, 42.5]
13T	OK  	394	[36.6, 26.0, 30.5, 0.0, 25.1, 42.5]
13F	FAIL	100000	
19T	OK  	1	[14.2, 8.1, -58.3, -12.1, 7.5, 60.4]
19F	OK  	100	[-26.7, -11.6, -76.9, -2.5, -89.5, -0.4]
22T	OK  	1	[14.2, 8.1, -58.3, -12.1, 7.5, 60.4]
22F	OK  	5	[-56.0, -91.5, -80.1, 64.7, 73.8, 96.0]
Test object: org.iguanatool.casestudies.g.testobjects.gradient_calc_square_factor
9T	OK  	3507	[0.0, 97.1, -40.4, -48.2]
9F	OK  	1	[14.2, 8.1, -58.3, -12.1]
14T	FAIL	100000	
14F	OK  	1	[14.2, 8.1, -58.3, -12.1]
20T	OK  	3	[-93.8, 71.1, 68.8, -8.5]
20F	OK  	1	[14.2, 8.1, -58.3, -12.1]
22T	OK  	1365	[75.3, 100.0, -95.7, -37.9]
22F	OK  	1	[14.2, 8.1, -58.3, -12.1]
23T	OK  	1365	[75.3, 100.0, -95.7, -37.9]
23F	FAIL	100000	
Test object: org.iguanatool.casestudies.g.testobjects.main
