Test object: org.iguanatool.casestudies.gamma.testobjects.gammafn
7T	FAIL	100000	
7F	FAIL	100000	
12T	FAIL	100000	
12F	OK  	1	[-6.5]
14T	OK  	42	[-24.0]
14F	OK  	1	[-6.5]
18T	OK  	1	[-6.5]
18F	OK  	2	[19.5]
20T	OK  	1	[-6.5]
20F	OK  	12	[6.5]
25T	OK  	24	[1.3]
25F	OK  	1	[-6.5]
27T	OK  	1	[-6.5]
27F	OK  	12	[6.5]
28T	FAIL	100000	
28F	OK  	1	[-6.5]
30T	FAIL	100000	
30F	OK  	1	[-6.5]
32T	FAIL	100000	
32F	FAIL	100000	
36T	OK  	1	[-6.5]
36F	OK  	1	[-6.5]
39T	OK  	12	[6.5]
39F	OK  	12	[6.5]
42T	FAIL	100000	
42F	OK  	2	[19.5]
45T	FAIL	100000	
45F	OK  	2	[19.5]
48T	OK  	10	[29.0]
48F	OK  	2	[19.5]
50T	OK  	10	[29.0]
50F	OK  	10	[29.0]
53T	OK  	2	[19.5]
53F	OK  	3	[-41.4]
55T	OK  	7747	[-93.99999938964845]
55F	OK  	3	[-41.4]
58T	FAIL	100000	
58F	OK  	3	[-41.4]
