Test object: org.iguanatool.casestudies.gamma.testobjects.gammafn
7T	FAIL	100000	
7F	FAIL	100000	
12T	FAIL	100000	
12F	OK  	1	[-93.3]
14T	OK  	30	[-53.0]
14F	OK  	1	[-93.3]
18T	OK  	5	[0.3]
18F	OK  	1	[-93.3]
20T	OK  	8	[-4.8]
20F	OK  	5	[0.3]
25T	OK  	35	[1.0]
25F	OK  	5	[0.3]
27T	OK  	5	[0.3]
27F	OK  	54	[8.4]
28T	FAIL	100000	
28F	OK  	5	[0.3]
30T	FAIL	100000	
30F	OK  	5	[0.3]
32T	FAIL	100000	
32F	FAIL	100000	
36T	OK  	5	[0.3]
36F	OK  	5	[0.3]
39T	OK  	54	[8.4]
39F	OK  	54	[8.4]
42T	FAIL	100000	
42F	OK  	1	[-93.3]
45T	FAIL	100000	
45F	OK  	1	[-93.3]
48T	OK  	123	[23.0]
48F	OK  	1	[-93.3]
50T	OK  	123	[23.0]
50F	OK  	123	[23.0]
53T	OK  	2	[33.2]
53F	OK  	1	[-93.3]
55T	OK  	534	[-73.99999999694825]
55F	OK  	1	[-93.3]
58T	FAIL	100000	
58F	OK  	1	[-93.3]
