Test object: org.iguanatool.casestudies.gamma.testobjects.gammafn
7T	FAIL	100000	
7F	FAIL	100000	
12T	FAIL	100000	
12F	OK  	1	[4.3]
14T	OK  	9	[-73.0]
14F	OK  	1	[4.3]
18T	OK  	1	[4.3]
18F	OK  	8	[10.600000000000001]
20T	OK  	7	[-2.0000000000000004]
20F	OK  	1	[4.3]
25T	OK  	152	[1.5000000000000036]
25F	OK  	1	[4.3]
27T	OK  	21	[-8.881784197001252E-16]
27F	OK  	1	[4.3]
28T	FAIL	100000	
28F	OK  	21	[-8.881784197001252E-16]
30T	FAIL	100000	
30F	OK  	21	[-8.881784197001252E-16]
32T	FAIL	100000	
32F	FAIL	100000	
36T	OK  	19	[-5.3]
36F	OK  	19	[-5.3]
39T	OK  	1	[4.3]
39F	OK  	1	[4.3]
42T	FAIL	100000	
42F	OK  	8	[10.600000000000001]
45T	FAIL	100000	
45F	OK  	8	[10.600000000000001]
48T	OK  	9	[17.0]
48F	OK  	8	[10.600000000000001]
50T	OK  	8	[38.0]
50F	OK  	8	[38.0]
53T	OK  	8	[10.600000000000001]
53F	OK  	28	[-12.900000000000002]
55T	OK  	30	[-64.00000000000001]
55F	OK  	28	[-12.900000000000002]
58T	FAIL	100000	
58F	OK  	28	[-12.900000000000002]
