Test object: org.iguanatool.casestudies.gamma.testobjects.gammafn
7T	FAIL	100000	
7F	FAIL	100000	
12T	FAIL	100000	
12F	OK  	1	[8.7]
14T	OK  	6	[-15.0]
14F	OK  	1	[8.7]
18T	OK  	1	[8.7]
18F	OK  	6	[10.2]
20T	OK  	8	[-4.000000000000001]
20F	OK  	1	[8.7]
25T	OK  	37	[1.9999999999999902]
25F	OK  	1	[8.7]
27T	OK  	17	[-7.899999999999999]
27F	OK  	1	[8.7]
28T	FAIL	100000	
28F	OK  	17	[-7.899999999999999]
30T	FAIL	100000	
30F	OK  	17	[-7.899999999999999]
32T	FAIL	100000	
32F	FAIL	100000	
36T	OK  	25	[-0.4]
36F	OK  	25	[-0.4]
39T	OK  	1	[8.7]
39F	OK  	1	[8.7]
42T	FAIL	100000	
42F	OK  	6	[10.2]
45T	FAIL	100000	
45F	OK  	6	[10.2]
48T	OK  	28	[43.0]
48F	OK  	6	[10.2]
50T	OK  	20	[43.0]
50F	OK  	20	[43.0]
53T	OK  	6	[10.2]
53F	OK  	12	[-15.1]
55T	OK  	72	[-11.000000000000009]
55F	OK  	12	[-15.1]
58T	FAIL	100000	
58F	OK  	12	[-15.1]
