Test object: org.iguanatool.casestudies.gamma.testobjects.gammafn
7T	FAIL	100000	
7F	FAIL	100000	
12T	FAIL	100000	
12F	OK  	1	[-50.8]
14T	OK  	21	[-61.0]
14F	OK  	1	[-50.8]
18T	OK  	23	[4.1]
18F	OK  	1	[-50.8]
20T	OK  	90	[-5.5]
20F	OK  	23	[4.1]
25T	OK  	44	[1.3]
25F	OK  	23	[4.1]
27T	OK  	90	[-5.5]
27F	OK  	23	[4.1]
28T	FAIL	100000	
28F	OK  	90	[-5.5]
30T	FAIL	100000	
30F	OK  	90	[-5.5]
32T	FAIL	100000	
32F	FAIL	100000	
36T	OK  	90	[-5.5]
36F	OK  	90	[-5.5]
39T	OK  	23	[4.1]
39F	OK  	23	[4.1]
42T	FAIL	100000	
42F	OK  	1	[-50.8]
45T	FAIL	100000	
45F	OK  	1	[-50.8]
48T	OK  	175	[32.0]
48F	OK  	1	[-50.8]
50T	OK  	175	[32.0]
50F	OK  	175	[32.0]
53T	OK  	3	[20.7]
53F	OK  	1	[-50.8]
55T	OK  	2662	[-98.0000001220703]
55F	OK  	1	[-50.8]
58T	FAIL	100000	
58F	OK  	1	[-50.8]
