Test object: org.iguanatool.casestudies.gamma.testobjects.gammafn
7T	FAIL	100000	
7F	FAIL	100000	
12T	FAIL	100000	
12F	OK  	1	[16.0]
14T	OK  	2	[-86.0]
14F	OK  	1	[16.0]
18T	OK  	8	[-2.5]
18F	OK  	1	[16.0]
20T	OK  	8	[-2.5]
20F	OK  	13	[5.6]
25T	OK  	285	[1.0]
25F	OK  	8	[-2.5]
27T	OK  	8	[-2.5]
27F	OK  	13	[5.6]
28T	FAIL	100000	
28F	OK  	8	[-2.5]
30T	FAIL	100000	
30F	OK  	8	[-2.5]
32T	FAIL	100000	
32F	FAIL	100000	
36T	OK  	8	[-2.5]
36F	OK  	8	[-2.5]
39T	OK  	13	[5.6]
39F	OK  	13	[5.6]
42T	FAIL	100000	
42F	OK  	1	[16.0]
45T	FAIL	100000	
45F	OK  	1	[16.0]
48T	OK  	1	[16.0]
48F	OK  	3	[-13.2]
50T	OK  	1	[16.0]
50F	OK  	1	[16.0]
53T	OK  	1	[16.0]
53F	OK  	3	[-13.2]
55T	OK  	507	[-82.00000100708007]
55F	OK  	3	[-13.2]
58T	FAIL	100000	
58F	OK  	3	[-13.2]
