Test object: org.iguanatool.casestudies.gamma.testobjects.gammafn
7T	FAIL	100000	
7F	FAIL	100000	
12T	FAIL	100000	
12F	OK  	1	[-96.8]
14T	OK  	7	[-11.0]
14F	OK  	1	[-96.8]
18T	OK  	12	[5.500000000000007]
18F	OK  	1	[-96.8]
20T	OK  	18	[-0.7999999999999932]
20F	OK  	12	[5.500000000000007]
25T	OK  	90	[1.7999999999999918]
25F	OK  	12	[5.500000000000007]
27T	OK  	23	[-2.3000000000000025]
27F	OK  	12	[5.500000000000007]
28T	FAIL	100000	
28F	OK  	23	[-2.3000000000000025]
30T	FAIL	100000	
30F	OK  	23	[-2.3000000000000025]
32T	FAIL	100000	
32F	FAIL	100000	
36T	OK  	25	[-1.2]
36F	OK  	25	[-1.2]
39T	OK  	10	[6.2]
39F	OK  	10	[6.2]
42T	FAIL	100000	
42F	OK  	1	[-96.8]
45T	FAIL	100000	
45F	OK  	1	[-96.8]
48T	OK  	96	[37.0]
48F	OK  	1	[-96.8]
50T	OK  	79	[37.0]
50F	OK  	79	[37.0]
53T	OK  	45	[23.2]
53F	OK  	1	[-96.8]
55T	OK  	60	[-29.999999999999996]
55F	OK  	1	[-96.8]
58T	FAIL	100000	
58F	OK  	1	[-96.8]
