Test object: org.iguanatool.casestudies.gamma.testobjects.gammafn
7T	FAIL	100000	
7F	FAIL	100000	
12T	FAIL	100000	
12F	OK  	1	[66.7]
14T	OK  	34	[-39.0]
14F	OK  	1	[66.7]
18T	OK  	18	[9.3]
18F	OK  	1	[66.7]
20T	OK  	20	[-9.9]
20F	OK  	18	[9.3]
25T	OK  	231	[1.4999999999999991]
25F	OK  	18	[9.3]
27T	OK  	20	[-9.9]
27F	OK  	18	[9.3]
28T	FAIL	100000	
28F	OK  	20	[-9.9]
30T	FAIL	100000	
30F	OK  	20	[-9.9]
32T	FAIL	100000	
32F	FAIL	100000	
36T	OK  	13	[-4.7]
36F	OK  	13	[-4.7]
39T	OK  	100	[2.9]
39F	OK  	100	[2.9]
42T	FAIL	100000	
42F	OK  	1	[66.7]
45T	FAIL	100000	
45F	OK  	1	[66.7]
48T	OK  	15	[41.0]
48F	OK  	1	[66.7]
50T	OK  	15	[41.0]
50F	OK  	15	[41.0]
53T	OK  	1	[66.7]
53F	OK  	11	[-35.6]
55T	OK  	17	[-36.00000000000001]
55F	OK  	11	[-35.6]
58T	FAIL	100000	
58F	OK  	11	[-35.6]
