Test object: org.iguanatool.casestudies.gamma.testobjects.gammafn
7T	FAIL	100000	
7F	FAIL	100000	
12T	FAIL	100000	
12F	OK  	1	[-42.6]
14T	OK  	10	[-31.0]
14F	OK  	1	[-42.6]
18T	OK  	11	[8.500000000000004]
18F	OK  	1	[-42.6]
20T	OK  	19	[-4.199999999999997]
20F	OK  	11	[8.500000000000004]
25T	OK  	381	[1.700000000000001]
25F	OK  	11	[8.500000000000004]
27T	OK  	15	[-6.6]
27F	OK  	11	[8.500000000000004]
28T	FAIL	100000	
28F	OK  	15	[-6.6]
30T	FAIL	100000	
30F	OK  	15	[-6.6]
32T	FAIL	100000	
32F	FAIL	100000	
36T	OK  	4	[-6.6]
36F	OK  	4	[-6.6]
39T	OK  	7	[3.1]
39F	OK  	7	[3.1]
42T	FAIL	100000	
42F	OK  	1	[-42.6]
45T	FAIL	100000	
45F	OK  	1	[-42.6]
48T	OK  	42	[28.0]
48F	OK  	1	[-42.6]
50T	OK  	88	[28.0]
50F	OK  	88	[28.0]
53T	OK  	66	[15.800000000000002]
53F	OK  	1	[-42.6]
55T	OK  	6	[-43.00000000000001]
55F	OK  	1	[-42.6]
58T	FAIL	100000	
58F	OK  	1	[-42.6]
