Test object: org.iguanatool.casestudies.gamma.testobjects.gammafn
7T	FAIL	100000	
7F	FAIL	100000	
12T	FAIL	100000	
12F	OK  	1	[51.7]
14T	OK  	9	[-97.0]
14F	OK  	1	[51.7]
18T	OK  	10	[0.5999999999999979]
18F	OK  	1	[51.7]
20T	OK  	15	[-0.10000000000000214]
20F	OK  	10	[0.5999999999999979]
25T	OK  	133	[1.2000000000000002]
25F	OK  	10	[0.5999999999999979]
27T	OK  	10	[0.5999999999999979]
27F	OK  	20	[9.3]
28T	FAIL	100000	
28F	OK  	10	[0.5999999999999979]
30T	FAIL	100000	
30F	OK  	10	[0.5999999999999979]
32T	FAIL	100000	
32F	FAIL	100000	
36T	OK  	46	[-0.8]
36F	OK  	46	[-0.8]
39T	OK  	31	[6.8]
39F	OK  	31	[6.8]
42T	FAIL	100000	
42F	OK  	1	[51.7]
45T	FAIL	100000	
45F	OK  	1	[51.7]
48T	OK  	8	[39.0]
48F	OK  	1	[51.7]
50T	OK  	8	[39.0]
50F	OK  	8	[39.0]
53T	OK  	1	[51.7]
53F	OK  	57	[-97.1]
55T	OK  	104	[-41.00000000000001]
55F	OK  	57	[-97.1]
58T	FAIL	100000	
58F	OK  	57	[-97.1]
