Test object: org.iguanatool.casestudies.gamma.testobjects.gammafn
7T	FAIL	100000	
7F	FAIL	100000	
12T	FAIL	100000	
12F	OK  	1	[-12.6]
14T	OK  	14	[-17.0]
14F	OK  	1	[-12.6]
18T	OK  	7	[-9.7]
18F	OK  	1	[-12.6]
20T	OK  	7	[-9.7]
20F	OK  	46	[8.5]
25T	OK  	136	[1.8]
25F	OK  	7	[-9.7]
27T	OK  	7	[-9.7]
27F	OK  	46	[8.5]
28T	FAIL	100000	
28F	OK  	7	[-9.7]
30T	FAIL	100000	
30F	OK  	7	[-9.7]
32T	FAIL	100000	
32F	FAIL	100000	
36T	OK  	7	[-9.7]
36F	OK  	7	[-9.7]
39T	OK  	46	[8.5]
39F	OK  	46	[8.5]
42T	FAIL	100000	
42F	OK  	1	[-12.6]
45T	FAIL	100000	
45F	OK  	1	[-12.6]
48T	OK  	16	[47.0]
48F	OK  	1	[-12.6]
50T	OK  	16	[47.0]
50F	OK  	16	[47.0]
53T	OK  	2	[20.7]
53F	OK  	1	[-12.6]
55T	OK  	2163	[-89.00000007324218]
55F	OK  	1	[-12.6]
58T	FAIL	100000	
58F	OK  	1	[-12.6]
