Test object: org.iguanatool.casestudies.gamma.testobjects.gammafn
7T	FAIL	100000	
7F	FAIL	100000	
12T	FAIL	100000	
12F	OK  	1	[31.6]
14T	OK  	5	[-48.0]
14F	OK  	1	[31.6]
18T	OK  	9	[6.099999999999998]
18F	OK  	1	[31.6]
20T	OK  	17	[-0.2000000000000024]
20F	OK  	9	[6.099999999999998]
25T	OK  	367	[1.899999999999996]
25F	OK  	9	[6.099999999999998]
27T	OK  	39	[-0.5000000000000036]
27F	OK  	9	[6.099999999999998]
28T	FAIL	100000	
28F	OK  	39	[-0.5000000000000036]
30T	FAIL	100000	
30F	OK  	39	[-0.5000000000000036]
32T	FAIL	100000	
32F	FAIL	100000	
36T	OK  	22	[-8.6]
36F	OK  	22	[-8.6]
39T	OK  	94	[2.3]
39F	OK  	94	[2.3]
42T	FAIL	100000	
42F	OK  	1	[31.6]
45T	FAIL	100000	
45F	OK  	1	[31.6]
48T	OK  	7	[31.0]
48F	OK  	1	[31.6]
50T	OK  	7	[31.0]
50F	OK  	7	[31.0]
53T	OK  	1	[31.6]
53F	OK  	35	[-47.9]
55T	OK  	127	[-36.00000000000001]
55F	OK  	35	[-47.9]
58T	FAIL	100000	
58F	OK  	35	[-47.9]
