Test object: org.iguanatool.casestudies.gamma.testobjects.gammafn
7T	FAIL	100000	
7F	FAIL	100000	
12T	FAIL	100000	
12F	OK  	1	[16.0]
14T	OK  	4	[-86.0]
14F	OK  	1	[16.0]
18T	OK  	7	[9.7]
18F	OK  	1	[16.0]
20T	OK  	9	[-9.500000000000002]
20F	OK  	7	[9.7]
25T	OK  	69	[1.3000000000000078]
25F	OK  	7	[9.7]
27T	OK  	9	[-9.500000000000002]
27F	OK  	7	[9.7]
28T	FAIL	100000	
28F	OK  	9	[-9.500000000000002]
30T	FAIL	100000	
30F	OK  	9	[-9.500000000000002]
32T	FAIL	100000	
32F	FAIL	100000	
36T	OK  	22	[-2.5]
36F	OK  	22	[-2.5]
39T	OK  	37	[5.6]
39F	OK  	37	[5.6]
42T	FAIL	100000	
42F	OK  	1	[16.0]
45T	FAIL	100000	
45F	OK  	1	[16.0]
48T	OK  	1	[16.0]
48F	OK  	2	[15.9]
50T	OK  	1	[16.0]
50F	OK  	1	[16.0]
53T	OK  	1	[16.0]
53F	OK  	27	[-86.1]
55T	OK  	42	[-17.000000000000004]
55F	OK  	27	[-86.1]
58T	FAIL	100000	
58F	OK  	27	[-86.1]
