Test object: org.iguanatool.casestudies.gamma.testobjects.gammafn
7T	FAIL	100000	
7F	FAIL	100000	
12T	FAIL	100000	
12F	OK  	1	[99.5]
14T	OK  	4	[-32.0]
14F	OK  	1	[99.5]
18T	OK  	13	[6.2]
18F	OK  	1	[99.5]
20T	OK  	38	[-0.4]
20F	OK  	13	[6.2]
25T	OK  	231	[1.9]
25F	OK  	13	[6.2]
27T	OK  	38	[-0.4]
27F	OK  	13	[6.2]
28T	FAIL	100000	
28F	OK  	38	[-0.4]
30T	FAIL	100000	
30F	OK  	38	[-0.4]
32T	FAIL	100000	
32F	FAIL	100000	
36T	OK  	38	[-0.4]
36F	OK  	38	[-0.4]
39T	OK  	13	[6.2]
39F	OK  	13	[6.2]
42T	FAIL	100000	
42F	OK  	1	[99.5]
45T	FAIL	100000	
45F	OK  	1	[99.5]
48T	OK  	69	[47.0]
48F	OK  	1	[99.5]
50T	OK  	69	[47.0]
50F	OK  	69	[47.0]
53T	OK  	1	[99.5]
53F	OK  	2	[-96.6]
55T	OK  	4791	[-32.000000305175774]
55F	OK  	2	[-96.6]
58T	FAIL	100000	
58F	OK  	2	[-96.6]
