Test object: org.iguanatool.casestudies.i0.testobjects.cephes_bessel_I0
2T	OK  	1	[-24.8]
2F	OK  	6	[58.2]
4T	OK  	21	[-3.7]
4F	OK  	1	[-24.8]
Test object: org.iguanatool.casestudies.i0.testobjects.i0e
2T	OK  	1	[-24.8]
2F	OK  	6	[58.2]
4T	OK  	21	[-3.7]
4F	OK  	1	[-24.8]
