Test object: org.iguanatool.casestudies.i0.testobjects.cephes_bessel_I0
2T	OK  	11	[-6.800000000000004]
2F	OK  	1	[95.5]
4T	OK  	11	[-6.800000000000004]
4F	OK  	1	[95.5]
Test object: org.iguanatool.casestudies.i0.testobjects.i0e
2T	OK  	11	[-6.800000000000004]
2F	OK  	1	[95.5]
4T	OK  	11	[-6.800000000000004]
4F	OK  	1	[95.5]
