Test object: org.iguanatool.casestudies.i0.testobjects.cephes_bessel_I0
2T	OK  	1	[-19.2]
2F	OK  	10	[6.3000000000000025]
4T	OK  	9	[-6.499999999999998]
4F	OK  	1	[-19.2]
Test object: org.iguanatool.casestudies.i0.testobjects.i0e
2T	OK  	1	[-19.2]
2F	OK  	10	[6.3000000000000025]
4T	OK  	9	[-6.499999999999998]
4F	OK  	1	[-19.2]
