Test object: org.iguanatool.casestudies.i0.testobjects.cephes_bessel_I0
2T	OK  	1	[-12.6]
2F	OK  	2	[20.7]
4T	OK  	15	[-4.2]
4F	OK  	1	[-12.6]
Test object: org.iguanatool.casestudies.i0.testobjects.i0e
2T	OK  	1	[-12.6]
2F	OK  	2	[20.7]
4T	OK  	15	[-4.2]
4F	OK  	1	[-12.6]
