Test object: org.iguanatool.casestudies.i0.testobjects.cephes_bessel_I0
2T	OK  	2	[-86.0]
2F	OK  	1	[16.0]
4T	OK  	8	[-2.5]
4F	OK  	1	[16.0]
Test object: org.iguanatool.casestudies.i0.testobjects.i0e
2T	OK  	2	[-86.0]
2F	OK  	1	[16.0]
4T	OK  	8	[-2.5]
4F	OK  	1	[16.0]
