Test object: org.iguanatool.casestudies.i0.testobjects.cephes_bessel_I0
2T	OK  	3	[-73.1]
2F	OK  	1	[4.3]
4T	OK  	1	[4.3]
4F	OK  	2	[38.2]
Test object: org.iguanatool.casestudies.i0.testobjects.i0e
2T	OK  	3	[-73.1]
2F	OK  	1	[4.3]
4T	OK  	1	[4.3]
4F	OK  	2	[38.2]
