Test object: org.iguanatool.casestudies.i0.testobjects.cephes_bessel_I0
2T	OK  	2	[-81.1]
2F	OK  	1	[15.0]
4T	OK  	19	[-5.7]
4F	OK  	1	[15.0]
Test object: org.iguanatool.casestudies.i0.testobjects.i0e
2T	OK  	2	[-81.1]
2F	OK  	1	[15.0]
4T	OK  	19	[-5.7]
4F	OK  	1	[15.0]
