Test object: org.iguanatool.casestudies.i0.testobjects.cephes_bessel_I0
2T	OK  	1	[-6.9]
2F	OK  	5	[33.6]
4T	OK  	1	[-6.9]
4F	OK  	2	[-13.9]
Test object: org.iguanatool.casestudies.i0.testobjects.i0e
2T	OK  	1	[-6.9]
2F	OK  	5	[33.6]
4T	OK  	1	[-6.9]
4F	OK  	2	[-13.9]
