Test object: org.iguanatool.casestudies.i0.testobjects.cephes_bessel_I0
2T	OK  	9	[-11.3]
2F	OK  	1	[14.2]
4T	OK  	7	[7.8999999999999995]
4F	OK  	1	[14.2]
Test object: org.iguanatool.casestudies.i0.testobjects.i0e
2T	OK  	9	[-11.3]
2F	OK  	1	[14.2]
4T	OK  	7	[7.8999999999999995]
4F	OK  	1	[14.2]
