Test object: org.iguanatool.casestudies.i0.testobjects.cephes_bessel_I0
2T	OK  	1	[-96.8]
2F	OK  	2	[23.2]
4T	OK  	4	[6.2]
4F	OK  	1	[-96.8]
Test object: org.iguanatool.casestudies.i0.testobjects.i0e
2T	OK  	1	[-96.8]
2F	OK  	2	[23.2]
4T	OK  	4	[6.2]
4F	OK  	1	[-96.8]
