Test object: org.iguanatool.casestudies.i0.testobjects.cephes_bessel_I0
2T	OK  	1	[-45.1]
2F	OK  	11	[6.0000000000000036]
4T	OK  	11	[6.0000000000000036]
4F	OK  	1	[-45.1]
Test object: org.iguanatool.casestudies.i0.testobjects.i0e
2T	OK  	1	[-45.1]
2F	OK  	11	[6.0000000000000036]
4T	OK  	11	[6.0000000000000036]
4F	OK  	1	[-45.1]
