Test object: org.iguanatool.casestudies.i0.testobjects.cephes_bessel_I0
2T	OK  	3	[-97.1]
2F	OK  	1	[51.7]
4T	OK  	11	[6.8]
4F	OK  	1	[51.7]
Test object: org.iguanatool.casestudies.i0.testobjects.i0e
2T	OK  	3	[-97.1]
2F	OK  	1	[51.7]
4T	OK  	11	[6.8]
4F	OK  	1	[51.7]
