Test object: org.iguanatool.casestudies.i0.testobjects.cephes_bessel_I0
2T	OK  	1	[-6.5]
2F	OK  	3	[59.2]
4T	OK  	1	[-6.5]
4F	OK  	2	[-73.8]
Test object: org.iguanatool.casestudies.i0.testobjects.i0e
2T	OK  	1	[-6.5]
2F	OK  	3	[59.2]
4T	OK  	1	[-6.5]
4F	OK  	2	[-73.8]
