Test object: org.iguanatool.casestudies.k0.testobjects.cephes_bessel_K0
2T	OK  	3	[-97.1]
2F	OK  	1	[51.7]
5T	OK  	111	[0.8]
5F	OK  	1	[51.7]
Test object: org.iguanatool.casestudies.k0.testobjects.k0e
2T	OK  	3	[-97.1]
2F	OK  	1	[51.7]
5T	OK  	111	[0.8]
5F	OK  	1	[51.7]
