Test object: org.iguanatool.casestudies.k0.testobjects.cephes_bessel_K0
2T	OK  	1	[-97.8]
2F	OK  	2	[37.1]
5T	OK  	11	[0.6]
5F	OK  	2	[37.1]
Test object: org.iguanatool.casestudies.k0.testobjects.k0e
2T	OK  	1	[-97.8]
2F	OK  	2	[37.1]
5T	OK  	11	[0.6]
5F	OK  	2	[37.1]
