Test object: org.iguanatool.casestudies.k0.testobjects.cephes_bessel_K0
2T	OK  	1	[-93.3]
2F	OK  	2	[33.2]
5T	OK  	5	[0.3]
5F	OK  	2	[33.2]
Test object: org.iguanatool.casestudies.k0.testobjects.k0e
2T	OK  	1	[-93.3]
2F	OK  	2	[33.2]
5T	OK  	5	[0.3]
5F	OK  	2	[33.2]
