Test object: org.iguanatool.casestudies.k0.testobjects.cephes_bessel_K0
2T	OK  	3	[-58.3]
2F	OK  	1	[14.2]
5T	OK  	344	[0.49755859375]
5F	OK  	1	[14.2]
Test object: org.iguanatool.casestudies.k0.testobjects.k0e
2T	OK  	3	[-58.3]
2F	OK  	1	[14.2]
5T	OK  	344	[0.49755859375]
5F	OK  	1	[14.2]
