Test object: org.iguanatool.casestudies.k0.testobjects.cephes_bessel_K0
2T	OK  	9	[-11.3]
2F	OK  	1	[14.2]
5T	OK  	8	[1.4999999999999991]
5F	OK  	1	[14.2]
Test object: org.iguanatool.casestudies.k0.testobjects.k0e
2T	OK  	9	[-11.3]
2F	OK  	1	[14.2]
5T	OK  	8	[1.4999999999999991]
5F	OK  	1	[14.2]
