Test object: org.iguanatool.casestudies.k0.testobjects.cephes_bessel_K0
2T	OK  	2	[-56.8]
2F	OK  	1	[61.7]
5T	OK  	36	[0.9]
5F	OK  	1	[61.7]
Test object: org.iguanatool.casestudies.k0.testobjects.k0e
2T	OK  	2	[-56.8]
2F	OK  	1	[61.7]
5T	OK  	36	[0.9]
5F	OK  	1	[61.7]
