Test object: org.iguanatool.casestudies.k0.testobjects.cephes_bessel_K0
2T	OK  	1	[-45.1]
2F	OK  	11	[6.0000000000000036]
5T	OK  	23	[1.4000000000000032]
5F	OK  	11	[6.0000000000000036]
Test object: org.iguanatool.casestudies.k0.testobjects.k0e
2T	OK  	1	[-45.1]
2F	OK  	11	[6.0000000000000036]
5T	OK  	23	[1.4000000000000032]
5F	OK  	11	[6.0000000000000036]
