Test object: org.iguanatool.casestudies.k0.testobjects.cephes_bessel_K0
2T	OK  	5	[-6.7]
2F	OK  	1	[20.1]
5T	OK  	200	[1.6]
5F	OK  	1	[20.1]
Test object: org.iguanatool.casestudies.k0.testobjects.k0e
2T	OK  	5	[-6.7]
2F	OK  	1	[20.1]
5T	OK  	200	[1.6]
5F	OK  	1	[20.1]
