Test object: org.iguanatool.casestudies.k0.testobjects.cephes_bessel_K0
2T	OK  	2	[-22.4]
2F	OK  	1	[53.2]
5T	OK  	20	[1.2]
5F	OK  	1	[53.2]
Test object: org.iguanatool.casestudies.k0.testobjects.k0e
2T	OK  	2	[-22.4]
2F	OK  	1	[53.2]
5T	OK  	20	[1.2]
5F	OK  	1	[53.2]
