Test object: org.iguanatool.casestudies.k0.testobjects.cephes_bessel_K0
2T	OK  	10	[-19.500000000000004]
2F	OK  	1	[31.6]
5T	OK  	22	[1.4999999999999976]
5F	OK  	1	[31.6]
Test object: org.iguanatool.casestudies.k0.testobjects.k0e
2T	OK  	10	[-19.500000000000004]
2F	OK  	1	[31.6]
5T	OK  	22	[1.4999999999999976]
5F	OK  	1	[31.6]
