Test object: org.iguanatool.casestudies.k0.testobjects.cephes_bessel_K0
2T	OK  	1	[-77.4]
2F	OK  	4	[22.4]
5T	OK  	12	[0.2]
5F	OK  	4	[22.4]
Test object: org.iguanatool.casestudies.k0.testobjects.k0e
2T	OK  	1	[-77.4]
2F	OK  	4	[22.4]
5T	OK  	12	[0.2]
5F	OK  	4	[22.4]
