Test object: org.iguanatool.casestudies.k0.testobjects.cephes_bessel_K0
2T	OK  	1	[-50.8]
2F	OK  	3	[20.7]
5T	OK  	43	[1.3]
5F	OK  	3	[20.7]
Test object: org.iguanatool.casestudies.k0.testobjects.k0e
2T	OK  	1	[-50.8]
2F	OK  	3	[20.7]
5T	OK  	43	[1.3]
5F	OK  	3	[20.7]
