Test object: org.iguanatool.casestudies.k0.testobjects.cephes_bessel_K0
2T	OK  	1	[-15.6]
2F	OK  	5	[79.4]
5T	OK  	47	[1.9]
5F	OK  	5	[79.4]
Test object: org.iguanatool.casestudies.k0.testobjects.k0e
2T	OK  	1	[-15.6]
2F	OK  	5	[79.4]
5T	OK  	47	[1.9]
5F	OK  	5	[79.4]
