Test object: org.iguanatool.casestudies.k0.testobjects.cephes_bessel_K0
2T	OK  	2	[-86.0]
2F	OK  	1	[16.0]
5T	OK  	269	[1.0]
5F	OK  	1	[16.0]
Test object: org.iguanatool.casestudies.k0.testobjects.k0e
2T	OK  	2	[-86.0]
2F	OK  	1	[16.0]
5T	OK  	269	[1.0]
5F	OK  	1	[16.0]
