Test object: org.iguanatool.casestudies.k0.testobjects.cephes_bessel_K0
2T	OK  	11	[-6.800000000000004]
2F	OK  	1	[95.5]
5T	OK  	42	[1.5999999999999936]
5F	OK  	1	[95.5]
Test object: org.iguanatool.casestudies.k0.testobjects.k0e
2T	OK  	11	[-6.800000000000004]
2F	OK  	1	[95.5]
5T	OK  	42	[1.5999999999999936]
5F	OK  	1	[95.5]
