Test object: org.iguanatool.casestudies.k0.testobjects.cephes_bessel_K0
2T	OK  	1	[-12.6]
2F	OK  	2	[20.7]
5T	OK  	90	[2.0]
5F	OK  	2	[20.7]
Test object: org.iguanatool.casestudies.k0.testobjects.k0e
2T	OK  	1	[-12.6]
2F	OK  	2	[20.7]
5T	OK  	90	[2.0]
5F	OK  	2	[20.7]
