Test object: org.iguanatool.casestudies.k0.testobjects.cephes_bessel_K0
2T	OK  	9	[-10.500000000000002]
2F	OK  	1	[15.0]
5T	OK  	12	[1.999999999999999]
5F	OK  	1	[15.0]
Test object: org.iguanatool.casestudies.k0.testobjects.k0e
2T	OK  	9	[-10.500000000000002]
2F	OK  	1	[15.0]
5T	OK  	12	[1.999999999999999]
5F	OK  	1	[15.0]
