Test object: org.iguanatool.casestudies.k0.testobjects.cephes_bessel_K0
2T	OK  	9	[-9.500000000000002]
2F	OK  	1	[16.0]
5T	OK  	14	[1.7999999999999987]
5F	OK  	1	[16.0]
Test object: org.iguanatool.casestudies.k0.testobjects.k0e
2T	OK  	9	[-9.500000000000002]
2F	OK  	1	[16.0]
5T	OK  	14	[1.7999999999999987]
5F	OK  	1	[16.0]
