Test object: org.iguanatool.casestudies.pnchisq.testobjects.pnchisq
2T	FAIL	100000	
2F	OK  	1	[66.7, -77.5, 70.1, 1.0, 0.0]
4T	OK  	1	[66.7, -77.5, 70.1, 1.0, 0.0]
4F	OK  	30940	[60.3, 0.0, 0.0, 1.0, 1.0]
6T	FAIL	100000	
6F	OK  	30923	[60.3, 0.0, 0.0, 1.0, 1.0]
9T	FAIL	100000	
9F	OK  	30923	[60.3, 0.0, 0.0, 1.0, 1.0]
10T	FAIL	100000	
10F	FAIL	100000	
12T	FAIL	100000	
12F	FAIL	100000	
15T	OK  	30929	[60.3, 0.0, 0.0, 1.0, 0.0]
15F	OK  	30923	[60.3, 0.0, 0.0, 1.0, 1.0]
17T	OK  	30928	[60.3, 0.0, 0.0, 0.0, 1.0]
17F	OK  	30923	[60.3, 0.0, 0.0, 1.0, 1.0]
Test object: org.iguanatool.casestudies.pnchisq.testobjects.pnchisq_raw
7T	OK  	11	[-35.6, -77.5, 70.1, 49.9, -4.7, 1.0, 1.0]
7F	OK  	1	[66.7, -77.5, 70.1, 49.9, -4.7, 1.0, 1.0]
8T	FAIL	100000	
8F	OK  	11	[-35.6, -77.5, 70.1, 49.9, -4.7, 1.0, 1.0]
11T	OK  	1	[66.7, -77.5, 70.1, 49.9, -4.7, 1.0, 1.0]
11F	FAIL	100000	
14T	FAIL	100000	
14F	FAIL	100000	
18T	FAIL	100000	
18F	FAIL	100000	
21T	FAIL	100000	
21F	FAIL	100000	
28T	FAIL	100000	
28F	FAIL	100000	
38T	FAIL	100000	
38F	FAIL	100000	
44T	FAIL	100000	
44F	FAIL	100000	
45T	FAIL	100000	
45F	FAIL	100000	
55T	FAIL	100000	
55F	FAIL	100000	
57T	FAIL	100000	
57F	FAIL	100000	
61T	FAIL	100000	
61F	FAIL	100000	
64T	FAIL	100000	
64F	FAIL	100000	
66T	FAIL	100000	
66F	FAIL	100000	
72T	FAIL	100000	
72F	FAIL	100000	
74T	FAIL	100000	
74F	FAIL	100000	
79T	FAIL	100000	
79F	FAIL	100000	
82T	FAIL	100000	
82F	FAIL	100000	
