Test object: org.iguanatool.casestudies.pnorm.testobjects.pnorm5
2T	FAIL	100000	
2F	OK  	1	[95.5, -38.6, -59.5, 1.0, 1.0]
4T	FAIL	100000	
4F	OK  	1	[95.5, -38.6, -59.5, 1.0, 1.0]
6T	OK  	1	[95.5, -38.6, -59.5, 1.0, 1.0]
6F	OK  	3	[11.6, -51.9, 68.4, 1.0, 1.0]
7T	OK  	1	[95.5, -38.6, -59.5, 1.0, 1.0]
7F	FAIL	100000	
11T	OK  	3	[11.6, -51.9, 68.4, 1.0, 1.0]
11F	FAIL	100000	
Test object: org.iguanatool.casestudies.pnorm.testobjects.pnorm_both
10T	FAIL	100000	
10F	OK  	1	[95.5, -38.6, -59.5, 1.0, 1.0]
17T	OK  	41	[0.1, -88.2, -63.3, 1.0, 0.0]
17F	OK  	1	[95.5, -38.6, -59.5, 1.0, 1.0]
18T	OK  	41	[0.1, -88.2, -63.3, 1.0, 0.0]
18F	OK  	8037	[-4.0767695751349475E-18, -3.2, -25.22177734375, 1.473388671875E-4, 0.99975]
22T	OK  	41	[0.1, -88.2, -63.3, 1.0, 0.0]
22F	OK  	41	[0.1, -88.2, -63.3, 1.0, 0.0]
27T	OK  	107	[0.2, -3.2, 20.4, 0.0, 1.0]
27F	OK  	41	[0.1, -88.2, -63.3, 1.0, 0.0]
29T	OK  	41	[0.1, -88.2, -63.3, 1.0, 0.0]
29F	OK  	107	[0.2, -3.2, 20.4, 0.0, 1.0]
31T	OK  	107	[0.2, -3.2, 20.4, 0.0, 1.0]
31F	OK  	41	[0.1, -88.2, -63.3, 1.0, 0.0]
32T	OK  	107	[0.2, -3.2, 20.4, 0.0, 1.0]
32F	OK  	311	[0.1, 94.3, -63.3, 1.0, 1.0]
34T	OK  	311	[0.1, 94.3, -63.3, 1.0, 1.0]
34F	OK  	107	[0.2, -3.2, 20.4, 0.0, 1.0]
36T	OK  	20	[-4.4, -98.2, 37.9, 1.0, 0.0]
36F	OK  	1	[95.5, -38.6, -59.5, 1.0, 1.0]
39T	OK  	20	[-4.4, -98.2, 37.9, 1.0, 0.0]
39F	OK  	20	[-4.4, -98.2, 37.9, 1.0, 0.0]
45T	OK  	1	[95.5, -38.6, -59.5, 1.0, 1.0]
45F	OK  	4	[-76.9, 60.8, 46.2, 0.0, 0.0]
49T	OK  	1	[95.5, -38.6, -59.5, 1.0, 1.0]
49F	OK  	1	[95.5, -38.6, -59.5, 1.0, 1.0]
56T	OK  	5	[26.6, -26.6, 82.6, 0.0, 0.0]
56F	OK  	4	[-76.9, 60.8, 46.2, 0.0, 0.0]
61T	FAIL	100000	
61F	FAIL	100000	
62T	FAIL	100000	
62F	FAIL	100000	
64T	FAIL	100000	
64F	FAIL	100000	
66T	FAIL	100000	
66F	FAIL	100000	
68T	FAIL	100000	
68F	FAIL	100000	
