Test object: org.iguanatool.casestudies.pnorm.testobjects.pnorm5
2T	FAIL	100000	
2F	OK  	1	[-24.8, -86.3, -10.5, 0.0, 0.0]
4T	OK  	411	[-79.0, -79.0, -41.3, 0.0, 0.0]
4F	OK  	1	[-24.8, -86.3, -10.5, 0.0, 0.0]
6T	OK  	1	[-24.8, -86.3, -10.5, 0.0, 0.0]
6F	OK  	2	[58.2, -67.0, 61.5, 1.0, 1.0]
7T	OK  	1	[-24.8, -86.3, -10.5, 0.0, 0.0]
7F	OK  	4455	[-81.7, -45.2, 0.0, 0.0, 1.0]
11T	OK  	2	[58.2, -67.0, 61.5, 1.0, 1.0]
11F	FAIL	100000	
Test object: org.iguanatool.casestudies.pnorm.testobjects.pnorm_both
10T	FAIL	100000	
10F	OK  	1	[-24.8, -86.3, -10.5, 0.0, 0.0]
17T	OK  	52	[-0.2, 80.9, 39.0, 0.0, 1.0]
17F	OK  	1	[-24.8, -86.3, -10.5, 0.0, 0.0]
18T	OK  	52	[-0.2, 80.9, 39.0, 0.0, 1.0]
18F	OK  	941	[0.0, -9.4, -52.3, 0.0, 1.0]
22T	OK  	52	[-0.2, 80.9, 39.0, 0.0, 1.0]
22F	OK  	52	[-0.2, 80.9, 39.0, 0.0, 1.0]
27T	OK  	52	[-0.2, 80.9, 39.0, 0.0, 1.0]
27F	OK  	328	[0.1, 40.5, -56.5, 1.0, 0.0]
29T	OK  	328	[0.1, 40.5, -56.5, 1.0, 0.0]
29F	OK  	52	[-0.2, 80.9, 39.0, 0.0, 1.0]
31T	OK  	52	[-0.2, 80.9, 39.0, 0.0, 1.0]
31F	OK  	328	[0.1, 40.5, -56.5, 1.0, 0.0]
32T	OK  	52	[-0.2, 80.9, 39.0, 0.0, 1.0]
32F	OK  	658	[0.4, 46.8, -92.1, 1.0, 1.0]
34T	OK  	658	[0.4, 46.8, -92.1, 1.0, 1.0]
34F	OK  	52	[-0.2, 80.9, 39.0, 0.0, 1.0]
36T	OK  	5	[-3.7, -77.3, 17.5, 1.0, 0.0]
36F	OK  	1	[-24.8, -86.3, -10.5, 0.0, 0.0]
39T	OK  	5	[-3.7, -77.3, 17.5, 1.0, 0.0]
39F	OK  	5	[-3.7, -77.3, 17.5, 1.0, 0.0]
45T	OK  	1	[-24.8, -86.3, -10.5, 0.0, 0.0]
45F	OK  	4	[89.1, 80.7, -24.0, 0.0, 0.0]
49T	OK  	1	[-24.8, -86.3, -10.5, 0.0, 0.0]
49F	OK  	1	[-24.8, -86.3, -10.5, 0.0, 0.0]
56T	OK  	4	[89.1, 80.7, -24.0, 0.0, 0.0]
56F	OK  	11	[-30.1, -80.0, -83.5, 1.0, 0.0]
61T	FAIL	100000	
61F	FAIL	100000	
62T	FAIL	100000	
62F	FAIL	100000	
64T	FAIL	100000	
64F	FAIL	100000	
66T	FAIL	100000	
66F	FAIL	100000	
68T	FAIL	100000	
68F	FAIL	100000	
