Test object: org.iguanatool.casestudies.pnorm.testobjects.pnorm5
2T	FAIL	100000	
2F	OK  	1	[-6.9, -13.9, -57.4, 0.0, 1.0]
4T	OK  	1179	[37.6, 37.6, 37.0, 1.953125E-8, 5.3320312500000004E-6]
4F	OK  	1	[-6.9, -13.9, -57.4, 0.0, 1.0]
6T	OK  	1	[-6.9, -13.9, -57.4, 0.0, 1.0]
6F	OK  	3	[-29.2, 61.2, 29.8, 1.0, 0.0]
7T	OK  	1	[-6.9, -13.9, -57.4, 0.0, 1.0]
7F	FAIL	100000	
11T	OK  	3	[-29.2, 61.2, 29.8, 1.0, 0.0]
11F	FAIL	100000	
Test object: org.iguanatool.casestudies.pnorm.testobjects.pnorm_both
10T	FAIL	100000	
10F	OK  	1	[-6.9, -13.9, -57.4, 0.0, 1.0]
17T	OK  	164	[-0.3, 10.7, 92.2, 1.0, 0.0]
17F	OK  	1	[-6.9, -13.9, -57.4, 0.0, 1.0]
18T	OK  	164	[-0.3, 10.7, 92.2, 1.0, 0.0]
18F	OK  	14481	[-2.220242761342972E-17, -26.461611938476562, 87.32710266113281, 3.131103515625E-5, 0.9987884521484375]
22T	OK  	164	[-0.3, 10.7, 92.2, 1.0, 0.0]
22F	OK  	164	[-0.3, 10.7, 92.2, 1.0, 0.0]
27T	OK  	823	[-0.3999999999999999, 46.5, 87.0, 0.0, 1.0]
27F	OK  	164	[-0.3, 10.7, 92.2, 1.0, 0.0]
29T	OK  	164	[-0.3, 10.7, 92.2, 1.0, 0.0]
29F	OK  	823	[-0.3999999999999999, 46.5, 87.0, 0.0, 1.0]
31T	OK  	598	[-0.3999999999999999, 21.76484375, 87.0, 1.0, 1.0]
31F	OK  	164	[-0.3, 10.7, 92.2, 1.0, 0.0]
32T	OK  	823	[-0.3999999999999999, 46.5, 87.0, 0.0, 1.0]
32F	OK  	598	[-0.3999999999999999, 21.76484375, 87.0, 1.0, 1.0]
34T	OK  	598	[-0.3999999999999999, 21.76484375, 87.0, 1.0, 1.0]
34F	OK  	823	[-0.3999999999999999, 46.5, 87.0, 0.0, 1.0]
36T	OK  	4	[4.2, 86.4, -84.9, 1.0, 0.0]
36F	OK  	1	[-6.9, -13.9, -57.4, 0.0, 1.0]
39T	OK  	4	[4.2, 86.4, -84.9, 1.0, 0.0]
39F	OK  	4	[4.2, 86.4, -84.9, 1.0, 0.0]
45T	OK  	1	[-6.9, -13.9, -57.4, 0.0, 1.0]
45F	OK  	3	[-29.2, 61.2, 29.8, 1.0, 0.0]
49T	OK  	1	[-6.9, -13.9, -57.4, 0.0, 1.0]
49F	OK  	1	[-6.9, -13.9, -57.4, 0.0, 1.0]
56T	OK  	13	[49.4, -55.2, -6.0, 1.0, 0.0]
56F	OK  	3	[-29.2, 61.2, 29.8, 1.0, 0.0]
61T	FAIL	100000	
61F	FAIL	100000	
62T	FAIL	100000	
62F	FAIL	100000	
64T	FAIL	100000	
64F	FAIL	100000	
66T	FAIL	100000	
66F	FAIL	100000	
68T	FAIL	100000	
68F	FAIL	100000	
