Test object: org.iguanatool.casestudies.pnorm.testobjects.pnorm5
2T	FAIL	100000	
2F	OK  	1	[8.7, -15.1, 94.4, 1.0, 0.0]
4T	OK  	6309	[-48.9, -48.9, -82.2, 1.0, 1.0]
4F	OK  	1	[8.7, -15.1, 94.4, 1.0, 0.0]
6T	OK  	2	[16.5, 77.4, -63.7, 0.0, 1.0]
6F	OK  	1	[8.7, -15.1, 94.4, 1.0, 0.0]
7T	OK  	2	[16.5, 77.4, -63.7, 0.0, 1.0]
7F	OK  	275	[-17.0, 42.2, 0.0, 0.0, 1.0]
11T	OK  	1	[8.7, -15.1, 94.4, 1.0, 0.0]
11F	FAIL	100000	
Test object: org.iguanatool.casestudies.pnorm.testobjects.pnorm_both
10T	FAIL	100000	
10F	OK  	1	[8.7, -15.1, 94.4, 1.0, 0.0]
17T	OK  	7	[-0.4, -48.5, 4.5, 1.0, 1.0]
17F	OK  	1	[8.7, -15.1, 94.4, 1.0, 0.0]
18T	OK  	7	[-0.4, -48.5, 4.5, 1.0, 1.0]
18F	OK  	1044	[0.0, 81.6, -68.6, 0.0, 0.0]
22T	OK  	7	[-0.4, -48.5, 4.5, 1.0, 1.0]
22F	OK  	7	[-0.4, -48.5, 4.5, 1.0, 1.0]
27T	OK  	184	[0.6, -88.5, -72.9, 0.0, 1.0]
27F	OK  	7	[-0.4, -48.5, 4.5, 1.0, 1.0]
29T	OK  	7	[-0.4, -48.5, 4.5, 1.0, 1.0]
29F	OK  	184	[0.6, -88.5, -72.9, 0.0, 1.0]
31T	OK  	7	[-0.4, -48.5, 4.5, 1.0, 1.0]
31F	OK  	22	[-0.2, 15.5, -60.8, 1.0, 0.0]
32T	OK  	184	[0.6, -88.5, -72.9, 0.0, 1.0]
32F	OK  	7	[-0.4, -48.5, 4.5, 1.0, 1.0]
34T	OK  	7	[-0.4, -48.5, 4.5, 1.0, 1.0]
34F	OK  	184	[0.6, -88.5, -72.9, 0.0, 1.0]
36T	OK  	4	[-3.4, -54.8, 39.8, 0.0, 0.0]
36F	OK  	1	[8.7, -15.1, 94.4, 1.0, 0.0]
39T	OK  	4	[-3.4, -54.8, 39.8, 0.0, 0.0]
39F	OK  	4	[-3.4, -54.8, 39.8, 0.0, 0.0]
45T	OK  	1	[8.7, -15.1, 94.4, 1.0, 0.0]
45F	OK  	9	[42.4, 71.2, -88.6, 0.0, 0.0]
49T	OK  	1	[8.7, -15.1, 94.4, 1.0, 0.0]
49F	OK  	1	[8.7, -15.1, 94.4, 1.0, 0.0]
56T	OK  	9	[42.4, 71.2, -88.6, 0.0, 0.0]
56F	OK  	15	[-92.8, 46.8, 70.0, 0.0, 0.0]
61T	FAIL	100000	
61F	FAIL	100000	
62T	FAIL	100000	
62F	FAIL	100000	
64T	FAIL	100000	
64F	FAIL	100000	
66T	FAIL	100000	
66F	FAIL	100000	
68T	FAIL	100000	
68F	FAIL	100000	
