Test object: org.iguanatool.casestudies.pnorm.testobjects.pnorm5
2T	FAIL	100000	
2F	OK  	1	[-93.3, 33.2, -16.3, 1.0, 1.0]
4T	OK  	217	[-81.60000000000001, -81.60000000000001, 48.6, 1.0, 0.0]
4F	OK  	1	[-93.3, 33.2, -16.3, 1.0, 1.0]
6T	OK  	1	[-93.3, 33.2, -16.3, 1.0, 1.0]
6F	OK  	14	[-93.3, 33.2, 9.200000000000001, 1.0, 1.0]
7T	OK  	1	[-93.3, 33.2, -16.3, 1.0, 1.0]
7F	OK  	12717	[11.8, 95.6, 0.0, 0.0, 0.0]
11T	OK  	14	[-93.3, 33.2, 9.200000000000001, 1.0, 1.0]
11F	FAIL	100000	
Test object: org.iguanatool.casestudies.pnorm.testobjects.pnorm_both
10T	FAIL	100000	
10F	OK  	1	[-93.3, 33.2, -16.3, 1.0, 1.0]
17T	OK  	37	[-0.39999999999999303, 33.2, -16.3, 1.0, 1.0]
17F	OK  	1	[-93.3, 33.2, -16.3, 1.0, 1.0]
18T	OK  	37	[-0.39999999999999303, 33.2, -16.3, 1.0, 1.0]
18F	OK  	135	[-2.7755575615628914E-17, -68.7, 86.6, 0.0, 0.0]
22T	OK  	109	[0.6, 37.8, -45.7, 1.0, 0.0]
22F	OK  	109	[0.6, 37.8, -45.7, 1.0, 0.0]
27T	OK  	44	[-0.39999999999999303, 33.2, -16.3, 0.0, 1.0]
27F	OK  	37	[-0.39999999999999303, 33.2, -16.3, 1.0, 1.0]
29T	OK  	37	[-0.39999999999999303, 33.2, -16.3, 1.0, 1.0]
29F	OK  	44	[-0.39999999999999303, 33.2, -16.3, 0.0, 1.0]
31T	OK  	37	[-0.39999999999999303, 33.2, -16.3, 1.0, 1.0]
31F	OK  	45	[-0.39999999999999303, 33.2, -16.3, 1.0, 0.0]
32T	OK  	44	[-0.39999999999999303, 33.2, -16.3, 0.0, 1.0]
32F	OK  	37	[-0.39999999999999303, 33.2, -16.3, 1.0, 1.0]
34T	OK  	37	[-0.39999999999999303, 33.2, -16.3, 1.0, 1.0]
34F	OK  	44	[-0.39999999999999303, 33.2, -16.3, 0.0, 1.0]
36T	OK  	24	[2.7000000000000073, 33.2, -16.3, 1.0, 1.0]
36F	OK  	1	[-93.3, 33.2, -16.3, 1.0, 1.0]
39T	OK  	24	[2.7000000000000073, 33.2, -16.3, 1.0, 1.0]
39F	OK  	24	[2.7000000000000073, 33.2, -16.3, 1.0, 1.0]
45T	OK  	1	[-93.3, 33.2, -16.3, 1.0, 1.0]
45F	OK  	9	[-93.3, 33.2, -16.3, 1.0, 0.0]
49T	OK  	1	[-93.3, 33.2, -16.3, 1.0, 1.0]
49F	OK  	1	[-93.3, 33.2, -16.3, 1.0, 1.0]
56T	OK  	201	[49.5, -34.8, 16.3, 0.0, 0.0]
56F	OK  	9	[-93.3, 33.2, -16.3, 1.0, 0.0]
61T	FAIL	100000	
61F	FAIL	100000	
62T	FAIL	100000	
62F	FAIL	100000	
64T	FAIL	100000	
64F	FAIL	100000	
66T	FAIL	100000	
66F	FAIL	100000	
68T	FAIL	100000	
68F	FAIL	100000	
