Test object: org.iguanatool.casestudies.pnorm.testobjects.pnorm5
2T	FAIL	100000	
2F	OK  	1	[38.3, 2.3, 58.7, 1.0, 0.0]
4T	OK  	4427	[-23.3, -23.3, 65.5, 1.0, 0.0]
4F	OK  	1	[38.3, 2.3, 58.7, 1.0, 0.0]
6T	OK  	3	[6.2, -45.4, -19.7, 1.0, 1.0]
6F	OK  	1	[38.3, 2.3, 58.7, 1.0, 0.0]
7T	OK  	3	[6.2, -45.4, -19.7, 1.0, 1.0]
7F	OK  	421	[79.5, -80.9, 0.0, 0.0, 1.0]
11T	OK  	1	[38.3, 2.3, 58.7, 1.0, 0.0]
11F	FAIL	100000	
Test object: org.iguanatool.casestudies.pnorm.testobjects.pnorm_both
10T	FAIL	100000	
10F	OK  	1	[38.3, 2.3, 58.7, 1.0, 0.0]
17T	OK  	126	[-0.5, 19.2, 26.6, 1.0, 1.0]
17F	OK  	1	[38.3, 2.3, 58.7, 1.0, 0.0]
18T	OK  	126	[-0.5, 19.2, 26.6, 1.0, 1.0]
18F	OK  	3212	[0.0, -93.7, -1.6, 0.0, 1.0]
22T	OK  	126	[-0.5, 19.2, 26.6, 1.0, 1.0]
22F	OK  	126	[-0.5, 19.2, 26.6, 1.0, 1.0]
27T	OK  	483	[0.3, -78.7, -24.0, 0.0, 1.0]
27F	OK  	126	[-0.5, 19.2, 26.6, 1.0, 1.0]
29T	OK  	126	[-0.5, 19.2, 26.6, 1.0, 1.0]
29F	OK  	483	[0.3, -78.7, -24.0, 0.0, 1.0]
31T	OK  	126	[-0.5, 19.2, 26.6, 1.0, 1.0]
31F	OK  	194	[-0.5, 83.8, -0.1, 1.0, 0.0]
32T	OK  	483	[0.3, -78.7, -24.0, 0.0, 1.0]
32F	OK  	126	[-0.5, 19.2, 26.6, 1.0, 1.0]
34T	OK  	126	[-0.5, 19.2, 26.6, 1.0, 1.0]
34F	OK  	483	[0.3, -78.7, -24.0, 0.0, 1.0]
36T	OK  	61	[3.3, -45.6, -89.0, 0.0, 0.0]
36F	OK  	1	[38.3, 2.3, 58.7, 1.0, 0.0]
39T	OK  	61	[3.3, -45.6, -89.0, 0.0, 0.0]
39F	OK  	61	[3.3, -45.6, -89.0, 0.0, 0.0]
45T	OK  	3	[6.2, -45.4, -19.7, 1.0, 1.0]
45F	OK  	1	[38.3, 2.3, 58.7, 1.0, 0.0]
49T	OK  	3	[6.2, -45.4, -19.7, 1.0, 1.0]
49F	OK  	3	[6.2, -45.4, -19.7, 1.0, 1.0]
56T	OK  	1	[38.3, 2.3, 58.7, 1.0, 0.0]
56F	OK  	4	[-75.3, 28.3, -87.3, 0.0, 0.0]
61T	FAIL	100000	
61F	FAIL	100000	
62T	FAIL	100000	
62F	FAIL	100000	
64T	FAIL	100000	
64F	FAIL	100000	
66T	FAIL	100000	
66F	FAIL	100000	
68T	FAIL	100000	
68F	FAIL	100000	
