Test object: org.iguanatool.casestudies.pnorm.testobjects.pnorm5
2T	FAIL	100000	
2F	OK  	1	[31.6, -47.9, 50.6, 1.0, 1.0]
4T	OK  	36	[-44.9, -44.9, 50.6, 1.0, 1.0]
4F	OK  	1	[31.6, -47.9, 50.6, 1.0, 1.0]
6T	OK  	14	[31.6, -47.9, -0.5000000000000036, 1.0, 1.0]
6F	OK  	1	[31.6, -47.9, 50.6, 1.0, 1.0]
7T	OK  	14	[31.6, -47.9, -0.5000000000000036, 1.0, 1.0]
7F	OK  	11441	[91.2, 11.4, 0.0, 1.0, 0.0]
11T	OK  	1	[31.6, -47.9, 50.6, 1.0, 1.0]
11F	FAIL	100000	
Test object: org.iguanatool.casestudies.pnorm.testobjects.pnorm_both
10T	FAIL	100000	
10F	OK  	1	[31.6, -47.9, 50.6, 1.0, 1.0]
17T	OK  	23	[-0.2000000000000024, -47.9, 50.6, 1.0, 1.0]
17F	OK  	1	[31.6, -47.9, 50.6, 1.0, 1.0]
18T	OK  	23	[-0.2000000000000024, -47.9, 50.6, 1.0, 1.0]
18F	OK  	323	[-8.326672684688674E-17, 2.3, -63.0, 1.0, 0.0]
22T	OK  	1064	[-0.1, 30.2, 40.0, 0.0, 0.0]
22F	OK  	1064	[-0.1, 30.2, 40.0, 0.0, 0.0]
27T	OK  	30	[-0.2000000000000024, -47.9, 50.6, 0.0, 1.0]
27F	OK  	23	[-0.2000000000000024, -47.9, 50.6, 1.0, 1.0]
29T	OK  	23	[-0.2000000000000024, -47.9, 50.6, 1.0, 1.0]
29F	OK  	30	[-0.2000000000000024, -47.9, 50.6, 0.0, 1.0]
31T	OK  	23	[-0.2000000000000024, -47.9, 50.6, 1.0, 1.0]
31F	OK  	31	[-0.2000000000000024, -47.9, 50.6, 1.0, 0.0]
32T	OK  	30	[-0.2000000000000024, -47.9, 50.6, 0.0, 1.0]
32F	OK  	23	[-0.2000000000000024, -47.9, 50.6, 1.0, 1.0]
34T	OK  	23	[-0.2000000000000024, -47.9, 50.6, 1.0, 1.0]
34F	OK  	30	[-0.2000000000000024, -47.9, 50.6, 0.0, 1.0]
36T	OK  	20	[5.399999999999998, -47.9, 50.6, 1.0, 1.0]
36F	OK  	1	[31.6, -47.9, 50.6, 1.0, 1.0]
39T	OK  	20	[5.399999999999998, -47.9, 50.6, 1.0, 1.0]
39F	OK  	20	[5.399999999999998, -47.9, 50.6, 1.0, 1.0]
45T	OK  	1	[31.6, -47.9, 50.6, 1.0, 1.0]
45F	OK  	17	[31.6, -47.9, 50.6, 0.0, 0.0]
49T	OK  	1	[31.6, -47.9, 50.6, 1.0, 1.0]
49F	OK  	1	[31.6, -47.9, 50.6, 1.0, 1.0]
56T	OK  	17	[31.6, -47.9, 50.6, 0.0, 0.0]
56F	OK  	110	[-57.9, -82.6, -8.6, 1.0, 0.0]
61T	FAIL	100000	
61F	FAIL	100000	
62T	FAIL	100000	
62F	FAIL	100000	
64T	FAIL	100000	
64F	FAIL	100000	
66T	FAIL	100000	
66F	FAIL	100000	
68T	FAIL	100000	
68F	FAIL	100000	
