Test object: org.iguanatool.casestudies.pnorm.testobjects.pnorm5
2T	FAIL	100000	
2F	OK  	1	[-93.3, 33.2, -16.3, 1.0, 1.0]
4T	OK  	5508	[28.099972534179688, 28.099972534179688, -19.175, 3.90625E-6, 1.0]
4F	OK  	1	[-93.3, 33.2, -16.3, 1.0, 1.0]
6T	OK  	1	[-93.3, 33.2, -16.3, 1.0, 1.0]
6F	OK  	3	[-16.1, -68.7, 86.6, 0.0, 0.0]
7T	OK  	1	[-93.3, 33.2, -16.3, 1.0, 1.0]
7F	OK  	192	[11.8, 95.6, 0.0, 0.0, 0.0]
11T	OK  	3	[-16.1, -68.7, 86.6, 0.0, 0.0]
11F	FAIL	100000	
Test object: org.iguanatool.casestudies.pnorm.testobjects.pnorm_both
10T	FAIL	100000	
10F	OK  	1	[-93.3, 33.2, -16.3, 1.0, 1.0]
17T	OK  	13	[0.6, 37.8, -45.7, 1.0, 0.0]
17F	OK  	1	[-93.3, 33.2, -16.3, 1.0, 1.0]
18T	OK  	13	[0.6, 37.8, -45.7, 1.0, 0.0]
18F	OK  	35	[0.0, -36.9, -17.8, 0.0, 0.0]
22T	OK  	13	[0.6, 37.8, -45.7, 1.0, 0.0]
22F	OK  	13	[0.6, 37.8, -45.7, 1.0, 0.0]
27T	OK  	35	[0.0, -36.9, -17.8, 0.0, 0.0]
27F	OK  	13	[0.6, 37.8, -45.7, 1.0, 0.0]
29T	OK  	13	[0.6, 37.8, -45.7, 1.0, 0.0]
29F	OK  	35	[0.0, -36.9, -17.8, 0.0, 0.0]
31T	OK  	317	[0.0, -36.9, -17.8, 0.0, 1.0]
31F	OK  	13	[0.6, 37.8, -45.7, 1.0, 0.0]
32T	OK  	317	[0.0, -36.9, -17.8, 0.0, 1.0]
32F	OK  	758	[0.300000390625, 63.3, 2.40000625, 1.0, 1.0]
34T	OK  	758	[0.300000390625, 63.3, 2.40000625, 1.0, 1.0]
34F	OK  	317	[0.0, -36.9, -17.8, 0.0, 1.0]
36T	OK  	30	[-2.2, -17.9, -1.1, 1.0, 0.0]
36F	OK  	1	[-93.3, 33.2, -16.3, 1.0, 1.0]
39T	OK  	30	[-2.2, -17.9, -1.1, 1.0, 0.0]
39F	OK  	30	[-2.2, -17.9, -1.1, 1.0, 0.0]
45T	OK  	1	[-93.3, 33.2, -16.3, 1.0, 1.0]
45F	OK  	4	[49.5, -34.8, 16.3, 0.0, 0.0]
49T	OK  	1	[-93.3, 33.2, -16.3, 1.0, 1.0]
49F	OK  	1	[-93.3, 33.2, -16.3, 1.0, 1.0]
56T	OK  	4	[49.5, -34.8, 16.3, 0.0, 0.0]
56F	OK  	6	[-29.7, -94.4, 48.6, 1.0, 0.0]
61T	FAIL	100000	
61F	FAIL	100000	
62T	FAIL	100000	
62F	FAIL	100000	
64T	FAIL	100000	
64F	FAIL	100000	
66T	FAIL	100000	
66F	FAIL	100000	
68T	FAIL	100000	
68F	FAIL	100000	
