Test object: org.iguanatool.casestudies.pnorm.testobjects.pnorm5
2T	FAIL	100000	
2F	OK  	1	[95.5, -38.6, -59.5, 1.0, 1.0]
4T	OK  	69	[91.2, 91.2, -2.1, 0.0, 1.0]
4F	OK  	1	[95.5, -38.6, -59.5, 1.0, 1.0]
6T	OK  	1	[95.5, -38.6, -59.5, 1.0, 1.0]
6F	OK  	16	[95.5, -38.6, 42.800000000000004, 1.0, 1.0]
7T	OK  	1	[95.5, -38.6, -59.5, 1.0, 1.0]
7F	OK  	4099	[-70.4, 64.1, 0.0, 1.0, 0.0]
11T	OK  	16	[95.5, -38.6, 42.800000000000004, 1.0, 1.0]
11F	FAIL	100000	
Test object: org.iguanatool.casestudies.pnorm.testobjects.pnorm_both
10T	FAIL	100000	
10F	OK  	1	[95.5, -38.6, -59.5, 1.0, 1.0]
17T	OK  	17	[-0.500000000000004, -38.6, -59.5, 1.0, 1.0]
17F	OK  	1	[95.5, -38.6, -59.5, 1.0, 1.0]
18T	OK  	17	[-0.500000000000004, -38.6, -59.5, 1.0, 1.0]
18F	OK  	1775	[0.0, -88.2, -63.3, 1.0, 0.0]
22T	OK  	361	[0.1, -88.2, -63.3, 1.0, 0.0]
22F	OK  	361	[0.1, -88.2, -63.3, 1.0, 0.0]
27T	OK  	23	[-0.500000000000004, -38.6, -59.5, 0.0, 1.0]
27F	OK  	17	[-0.500000000000004, -38.6, -59.5, 1.0, 1.0]
29T	OK  	17	[-0.500000000000004, -38.6, -59.5, 1.0, 1.0]
29F	OK  	23	[-0.500000000000004, -38.6, -59.5, 0.0, 1.0]
31T	OK  	17	[-0.500000000000004, -38.6, -59.5, 1.0, 1.0]
31F	OK  	24	[-0.500000000000004, -38.6, -59.5, 1.0, 0.0]
32T	OK  	23	[-0.500000000000004, -38.6, -59.5, 0.0, 1.0]
32F	OK  	17	[-0.500000000000004, -38.6, -59.5, 1.0, 1.0]
34T	OK  	17	[-0.500000000000004, -38.6, -59.5, 1.0, 1.0]
34F	OK  	23	[-0.500000000000004, -38.6, -59.5, 0.0, 1.0]
36T	OK  	15	[-5.300000000000004, -38.6, -59.5, 1.0, 1.0]
36F	OK  	1	[95.5, -38.6, -59.5, 1.0, 1.0]
39T	OK  	15	[-5.300000000000004, -38.6, -59.5, 1.0, 1.0]
39F	OK  	15	[-5.300000000000004, -38.6, -59.5, 1.0, 1.0]
45T	OK  	1	[95.5, -38.6, -59.5, 1.0, 1.0]
45F	OK  	9	[95.5, -38.6, -59.5, 1.0, 0.0]
49T	OK  	1	[95.5, -38.6, -59.5, 1.0, 1.0]
49F	OK  	1	[95.5, -38.6, -59.5, 1.0, 1.0]
56T	OK  	9	[95.5, -38.6, -59.5, 1.0, 0.0]
56F	OK  	87	[-9.6, 84.9, -2.1, 1.0, 0.0]
61T	FAIL	100000	
61F	FAIL	100000	
62T	FAIL	100000	
62F	FAIL	100000	
64T	FAIL	100000	
64F	FAIL	100000	
66T	FAIL	100000	
66F	FAIL	100000	
68T	FAIL	100000	
68F	FAIL	100000	
