Test object: org.iguanatool.casestudies.pnorm.testobjects.pnorm5
2T	FAIL	100000	
2F	OK  	1	[-15.6, -45.5, -31.3, 0.0, 1.0]
4T	OK  	974	[-71.8, -71.8, -35.3, 0.0, 0.0]
4F	OK  	1	[-15.6, -45.5, -31.3, 0.0, 1.0]
6T	OK  	1	[-15.6, -45.5, -31.3, 0.0, 1.0]
6F	OK  	3	[17.0, 30.5, 89.1, 0.0, 0.0]
7T	OK  	1	[-15.6, -45.5, -31.3, 0.0, 1.0]
7F	OK  	129	[-34.4, -76.6, 0.0, 1.0, 0.0]
11T	OK  	3	[17.0, 30.5, 89.1, 0.0, 0.0]
11F	FAIL	100000	
Test object: org.iguanatool.casestudies.pnorm.testobjects.pnorm_both
10T	FAIL	100000	
10F	OK  	1	[-15.6, -45.5, -31.3, 0.0, 1.0]
17T	OK  	34	[0.0, -55.5, -51.9, 1.0, 1.0]
17F	OK  	1	[-15.6, -45.5, -31.3, 0.0, 1.0]
18T	OK  	663	[0.4, -0.1, 81.9, 0.0, 1.0]
18F	OK  	34	[0.0, -55.5, -51.9, 1.0, 1.0]
22T	OK  	663	[0.4, -0.1, 81.9, 0.0, 1.0]
22F	OK  	663	[0.4, -0.1, 81.9, 0.0, 1.0]
27T	OK  	663	[0.4, -0.1, 81.9, 0.0, 1.0]
27F	OK  	34	[0.0, -55.5, -51.9, 1.0, 1.0]
29T	OK  	34	[0.0, -55.5, -51.9, 1.0, 1.0]
29F	OK  	663	[0.4, -0.1, 81.9, 0.0, 1.0]
31T	OK  	34	[0.0, -55.5, -51.9, 1.0, 1.0]
31F	OK  	1038	[-0.6, 74.3, -20.7, 0.0, 0.0]
32T	OK  	663	[0.4, -0.1, 81.9, 0.0, 1.0]
32F	OK  	34	[0.0, -55.5, -51.9, 1.0, 1.0]
34T	OK  	34	[0.0, -55.5, -51.9, 1.0, 1.0]
34F	OK  	663	[0.4, -0.1, 81.9, 0.0, 1.0]
36T	OK  	12	[1.1, 76.9, 63.6, 1.0, 1.0]
36F	OK  	1	[-15.6, -45.5, -31.3, 0.0, 1.0]
39T	OK  	12	[1.1, 76.9, 63.6, 1.0, 1.0]
39F	OK  	12	[1.1, 76.9, 63.6, 1.0, 1.0]
45T	OK  	1	[-15.6, -45.5, -31.3, 0.0, 1.0]
45F	OK  	3	[17.0, 30.5, 89.1, 0.0, 0.0]
49T	OK  	1	[-15.6, -45.5, -31.3, 0.0, 1.0]
49F	OK  	1	[-15.6, -45.5, -31.3, 0.0, 1.0]
56T	OK  	3	[17.0, 30.5, 89.1, 0.0, 0.0]
56F	OK  	7	[-76.1, 86.1, -36.7, 0.0, 0.0]
61T	FAIL	100000	
61F	FAIL	100000	
62T	FAIL	100000	
62F	FAIL	100000	
64T	FAIL	100000	
64F	FAIL	100000	
66T	FAIL	100000	
66F	FAIL	100000	
68T	FAIL	100000	
68F	FAIL	100000	
