Test object: org.iguanatool.casestudies.pnorm.testobjects.pnorm5
2T	FAIL	100000	
2F	OK  	1	[-6.5, 19.5, -41.4, 1.0, 0.0]
4T	OK  	15055	[33.75488046569824, 33.75488046569824, 38.10001925048828, 0.9999999961547851, 0.9999499721679688]
4F	OK  	1	[-6.5, 19.5, -41.4, 1.0, 0.0]
6T	OK  	1	[-6.5, 19.5, -41.4, 1.0, 0.0]
6F	OK  	3	[17.8, 6.5, 84.1, 1.0, 1.0]
7T	OK  	1	[-6.5, 19.5, -41.4, 1.0, 0.0]
7F	FAIL	100000	
11T	OK  	3	[17.8, 6.5, 84.1, 1.0, 1.0]
11F	FAIL	100000	
Test object: org.iguanatool.casestudies.pnorm.testobjects.pnorm_both
10T	FAIL	100000	
10F	OK  	1	[-6.5, 19.5, -41.4, 1.0, 0.0]
17T	OK  	1489	[0.5506103515624998, 19.5, 9.8, 1.0, 1.0]
17F	OK  	1	[-6.5, 19.5, -41.4, 1.0, 0.0]
18T	OK  	1489	[0.5506103515624998, 19.5, 9.8, 1.0, 1.0]
18F	FAIL	100000	
22T	FAIL	100000	
22F	FAIL	100000	
27T	OK  	2472	[0.5506103515624998, 19.5, 9.8, 0.9999755859375, 1.0]
27F	OK  	1489	[0.5506103515624998, 19.5, 9.8, 1.0, 1.0]
29T	OK  	1489	[0.5506103515624998, 19.5, 9.8, 1.0, 1.0]
29F	OK  	2472	[0.5506103515624998, 19.5, 9.8, 0.9999755859375, 1.0]
31T	OK  	1489	[0.5506103515624998, 19.5, 9.8, 1.0, 1.0]
31F	OK  	2250	[0.5506103515624998, 19.5, 9.8, 1.0, 0.99375]
32T	OK  	2472	[0.5506103515624998, 19.5, 9.8, 0.9999755859375, 1.0]
32F	OK  	1489	[0.5506103515624998, 19.5, 9.8, 1.0, 1.0]
34T	OK  	1489	[0.5506103515624998, 19.5, 9.8, 1.0, 1.0]
34F	OK  	2472	[0.5506103515624998, 19.5, 9.8, 0.9999755859375, 1.0]
36T	OK  	7	[5.1, -27.3, 35.9, 0.0, 0.0]
36F	OK  	1	[-6.5, 19.5, -41.4, 1.0, 0.0]
39T	OK  	7	[5.1, -27.3, 35.9, 0.0, 0.0]
39F	OK  	7	[5.1, -27.3, 35.9, 0.0, 0.0]
45T	OK  	1	[-6.5, 19.5, -41.4, 1.0, 0.0]
45F	OK  	5	[-21.9, 71.5, -62.6, 1.0, 0.0]
49T	OK  	1	[-6.5, 19.5, -41.4, 1.0, 0.0]
49F	OK  	1	[-6.5, 19.5, -41.4, 1.0, 0.0]
56T	OK  	16	[47.9, -0.7, -58.2, 0.0, 0.0]
56F	OK  	5	[-21.9, 71.5, -62.6, 1.0, 0.0]
61T	FAIL	100000	
61F	FAIL	100000	
62T	FAIL	100000	
62F	FAIL	100000	
64T	FAIL	100000	
64F	FAIL	100000	
66T	FAIL	100000	
66F	FAIL	100000	
68T	FAIL	100000	
68F	FAIL	100000	
