Test object: org.iguanatool.casestudies.pnorm.testobjects.pnorm5
2T	FAIL	100000	
2F	OK  	1	[-45.1, 84.3, -25.9, 1.0, 0.0]
4T	OK  	668	[-82.5, -82.5, 98.9, 0.0, 1.0]
4F	OK  	1	[-45.1, 84.3, -25.9, 1.0, 0.0]
6T	OK  	1	[-45.1, 84.3, -25.9, 1.0, 0.0]
6F	OK  	4	[-31.8, 12.1, 96.3, 0.0, 1.0]
7T	OK  	1	[-45.1, 84.3, -25.9, 1.0, 0.0]
7F	FAIL	100000	
11T	OK  	4	[-31.8, 12.1, 96.3, 0.0, 1.0]
11F	FAIL	100000	
Test object: org.iguanatool.casestudies.pnorm.testobjects.pnorm_both
10T	FAIL	100000	
10F	OK  	1	[-45.1, 84.3, -25.9, 1.0, 0.0]
17T	OK  	23	[0.0, -50.9, 23.6, 1.0, 1.0]
17F	OK  	1	[-45.1, 84.3, -25.9, 1.0, 0.0]
18T	OK  	170	[-0.6, -9.2, -40.2, 0.0, 1.0]
18F	OK  	23	[0.0, -50.9, 23.6, 1.0, 1.0]
22T	OK  	170	[-0.6, -9.2, -40.2, 0.0, 1.0]
22F	OK  	170	[-0.6, -9.2, -40.2, 0.0, 1.0]
27T	OK  	170	[-0.6, -9.2, -40.2, 0.0, 1.0]
27F	OK  	23	[0.0, -50.9, 23.6, 1.0, 1.0]
29T	OK  	23	[0.0, -50.9, 23.6, 1.0, 1.0]
29F	OK  	170	[-0.6, -9.2, -40.2, 0.0, 1.0]
31T	OK  	23	[0.0, -50.9, 23.6, 1.0, 1.0]
31F	OK  	696	[-0.6, 83.8, -40.199980468750006, 0.0, 0.9999999984741211]
32T	OK  	170	[-0.6, -9.2, -40.2, 0.0, 1.0]
32F	OK  	23	[0.0, -50.9, 23.6, 1.0, 1.0]
34T	OK  	23	[0.0, -50.9, 23.6, 1.0, 1.0]
34F	OK  	170	[-0.6, -9.2, -40.2, 0.0, 1.0]
36T	OK  	19	[3.5, 97.5, -38.0, 1.0, 1.0]
36F	OK  	1	[-45.1, 84.3, -25.9, 1.0, 0.0]
39T	OK  	19	[3.5, 97.5, -38.0, 1.0, 1.0]
39F	OK  	19	[3.5, 97.5, -38.0, 1.0, 1.0]
45T	OK  	2	[97.6, 3.0, -99.7, 1.0, 1.0]
45F	OK  	1	[-45.1, 84.3, -25.9, 1.0, 0.0]
49T	OK  	2	[97.6, 3.0, -99.7, 1.0, 1.0]
49F	OK  	2	[97.6, 3.0, -99.7, 1.0, 1.0]
56T	OK  	10	[59.3, -44.9, 77.1, 0.0, 0.0]
56F	OK  	1	[-45.1, 84.3, -25.9, 1.0, 0.0]
61T	FAIL	100000	
61F	FAIL	100000	
62T	FAIL	100000	
62F	FAIL	100000	
64T	FAIL	100000	
64F	FAIL	100000	
66T	FAIL	100000	
66F	FAIL	100000	
68T	FAIL	100000	
68F	FAIL	100000	
