Test object: org.iguanatool.casestudies.pnorm.testobjects.pnorm5
2T	FAIL	100000	
2F	OK  	1	[51.7, 15.6, -97.1, 0.0, 1.0]
4T	OK  	29	[60.7, 60.7, 81.2, 1.0, 1.0]
4F	OK  	1	[51.7, 15.6, -97.1, 0.0, 1.0]
6T	OK  	1	[51.7, 15.6, -97.1, 0.0, 1.0]
6F	OK  	2	[-40.7, -46.9, 62.6, 1.0, 1.0]
7T	OK  	1	[51.7, 15.6, -97.1, 0.0, 1.0]
7F	OK  	1312	[8.2, 22.9, 0.0, 1.0, 1.0]
11T	OK  	2	[-40.7, -46.9, 62.6, 1.0, 1.0]
11F	FAIL	100000	
Test object: org.iguanatool.casestudies.pnorm.testobjects.pnorm_both
10T	FAIL	100000	
10F	OK  	1	[51.7, 15.6, -97.1, 0.0, 1.0]
17T	OK  	79	[0.2, 49.7, -2.7, 0.0, 1.0]
17F	OK  	1	[51.7, 15.6, -97.1, 0.0, 1.0]
18T	OK  	79	[0.2, 49.7, -2.7, 0.0, 1.0]
18F	OK  	616	[0.0, -2.5, 6.0, 1.0, 1.0]
22T	OK  	79	[0.2, 49.7, -2.7, 0.0, 1.0]
22F	OK  	79	[0.2, 49.7, -2.7, 0.0, 1.0]
27T	OK  	79	[0.2, 49.7, -2.7, 0.0, 1.0]
27F	OK  	241	[-0.3, 48.5, 75.4, 1.0, 1.0]
29T	OK  	241	[-0.3, 48.5, 75.4, 1.0, 1.0]
29F	OK  	79	[0.2, 49.7, -2.7, 0.0, 1.0]
31T	OK  	79	[0.2, 49.7, -2.7, 0.0, 1.0]
31F	OK  	306	[0.3, -93.2, -84.2, 0.0, 0.0]
32T	OK  	79	[0.2, 49.7, -2.7, 0.0, 1.0]
32F	OK  	241	[-0.3, 48.5, 75.4, 1.0, 1.0]
34T	OK  	241	[-0.3, 48.5, 75.4, 1.0, 1.0]
34F	OK  	79	[0.2, 49.7, -2.7, 0.0, 1.0]
36T	OK  	4	[-0.8, 57.4, 84.8, 1.0, 1.0]
36F	OK  	1	[51.7, 15.6, -97.1, 0.0, 1.0]
39T	OK  	4	[-0.8, 57.4, 84.8, 1.0, 1.0]
39F	OK  	4	[-0.8, 57.4, 84.8, 1.0, 1.0]
45T	OK  	1	[51.7, 15.6, -97.1, 0.0, 1.0]
45F	OK  	13	[-43.2, 17.3, 33.4, 1.0, 0.0]
49T	OK  	1	[51.7, 15.6, -97.1, 0.0, 1.0]
49F	OK  	1	[51.7, 15.6, -97.1, 0.0, 1.0]
56T	OK  	16	[75.8, 20.0, -99.3, 0.0, 0.0]
56F	OK  	13	[-43.2, 17.3, 33.4, 1.0, 0.0]
61T	FAIL	100000	
61F	FAIL	100000	
62T	FAIL	100000	
62F	FAIL	100000	
64T	FAIL	100000	
64F	FAIL	100000	
66T	FAIL	100000	
66F	FAIL	100000	
68T	FAIL	100000	
68F	FAIL	100000	
