Test object: org.iguanatool.casestudies.pnorm.testobjects.pnorm5
2T	FAIL	100000	
2F	OK  	1	[66.7, -77.5, 70.1, 1.0, 0.0]
4T	OK  	15663	[-35.236537109375, -35.236537109375, -39.100976287841796, 0.009997489624023437, 0.05079345458984375]
4F	OK  	1	[66.7, -77.5, 70.1, 1.0, 0.0]
6T	OK  	3	[-8.8, -39.0, -48.8, 0.0, 0.0]
6F	OK  	1	[66.7, -77.5, 70.1, 1.0, 0.0]
7T	OK  	3	[-8.8, -39.0, -48.8, 0.0, 0.0]
7F	OK  	126	[-65.7, 9.9, 0.0, 0.0, 1.0]
11T	OK  	1	[66.7, -77.5, 70.1, 1.0, 0.0]
11F	FAIL	100000	
Test object: org.iguanatool.casestudies.pnorm.testobjects.pnorm_both
10T	FAIL	100000	
10F	OK  	1	[66.7, -77.5, 70.1, 1.0, 0.0]
17T	OK  	275	[-0.6, 34.9, 24.7, 0.0, 0.0]
17F	OK  	1	[66.7, -77.5, 70.1, 1.0, 0.0]
18T	OK  	275	[-0.6, 34.9, 24.7, 0.0, 0.0]
18F	OK  	11876	[8.882326298087495E-17, 99.77591552734376, 68.0880873779297, 0.013180267333984376, 0.0]
22T	OK  	275	[-0.6, 34.9, 24.7, 0.0, 0.0]
22F	OK  	275	[-0.6, 34.9, 24.7, 0.0, 0.0]
27T	OK  	275	[-0.6, 34.9, 24.7, 0.0, 0.0]
27F	OK  	1303	[0.5997863769531251, -42.7, 40.6625, 1.0, 0.0]
29T	OK  	1303	[0.5997863769531251, -42.7, 40.6625, 1.0, 0.0]
29F	OK  	275	[-0.6, 34.9, 24.7, 0.0, 0.0]
31T	OK  	1191	[-0.6, 59.2, 24.7, 0.0, 1.0]
31F	OK  	275	[-0.6, 34.9, 24.7, 0.0, 0.0]
32T	OK  	1191	[-0.6, 59.2, 24.7, 0.0, 1.0]
32F	OK  	1530	[0.5997863769531251, -42.7, 39.600244140625, 1.0, 1.0]
34T	OK  	1530	[0.5997863769531251, -42.7, 39.600244140625, 1.0, 1.0]
34F	OK  	1191	[-0.6, 59.2, 24.7, 0.0, 1.0]
36T	OK  	4	[-4.9, -45.6, 14.2, 0.0, 1.0]
36F	OK  	1	[66.7, -77.5, 70.1, 1.0, 0.0]
39T	OK  	4	[-4.9, -45.6, 14.2, 0.0, 1.0]
39F	OK  	4	[-4.9, -45.6, 14.2, 0.0, 1.0]
45T	OK  	2	[90.2, 43.5, 24.7, 0.0, 1.0]
45F	OK  	1	[66.7, -77.5, 70.1, 1.0, 0.0]
49T	OK  	2	[90.2, 43.5, 24.7, 0.0, 1.0]
49F	OK  	2	[90.2, 43.5, 24.7, 0.0, 1.0]
56T	OK  	1	[66.7, -77.5, 70.1, 1.0, 0.0]
56F	OK  	7	[-28.2, -59.1, -98.7, 1.0, 0.0]
61T	FAIL	100000	
61F	FAIL	100000	
62T	FAIL	100000	
62F	FAIL	100000	
64T	FAIL	100000	
64F	FAIL	100000	
66T	FAIL	100000	
66F	FAIL	100000	
68T	FAIL	100000	
68F	FAIL	100000	
