Test object: org.iguanatool.casestudies.pnorm.testobjects.pnorm5
2T	FAIL	100000	
2F	OK  	1	[-96.8, 23.2, -11.0, 1.0, 0.0]
4T	OK  	12641	[57.29908447265625, 57.29908447265625, -19.68429870605469, 0.00181072998046875, 8.789062500000001E-6]
4F	OK  	1	[-96.8, 23.2, -11.0, 1.0, 0.0]
6T	OK  	1	[-96.8, 23.2, -11.0, 1.0, 0.0]
6F	OK  	2	[-72.9, 78.6, 37.0, 0.0, 1.0]
7T	OK  	1	[-96.8, 23.2, -11.0, 1.0, 0.0]
7F	OK  	292	[90.3, -60.8, 0.0, 1.0, 0.0]
11T	OK  	2	[-72.9, 78.6, 37.0, 0.0, 1.0]
11F	FAIL	100000	
Test object: org.iguanatool.casestudies.pnorm.testobjects.pnorm_both
10T	FAIL	100000	
10F	OK  	1	[-96.8, 23.2, -11.0, 1.0, 0.0]
17T	OK  	51	[-0.6, -1.3, 3.5, 1.0, 0.0]
17F	OK  	1	[-96.8, 23.2, -11.0, 1.0, 0.0]
18T	OK  	51	[-0.6, -1.3, 3.5, 1.0, 0.0]
18F	OK  	52	[0.0, -29.0, -7.2, 0.0, 0.0]
22T	OK  	51	[-0.6, -1.3, 3.5, 1.0, 0.0]
22F	OK  	51	[-0.6, -1.3, 3.5, 1.0, 0.0]
27T	OK  	52	[0.0, -29.0, -7.2, 0.0, 0.0]
27F	OK  	51	[-0.6, -1.3, 3.5, 1.0, 0.0]
29T	OK  	51	[-0.6, -1.3, 3.5, 1.0, 0.0]
29F	OK  	52	[0.0, -29.0, -7.2, 0.0, 0.0]
31T	OK  	104	[-0.1, 92.4, 37.4, 0.0, 1.0]
31F	OK  	51	[-0.6, -1.3, 3.5, 1.0, 0.0]
32T	OK  	104	[-0.1, 92.4, 37.4, 0.0, 1.0]
32F	OK  	585	[0.0, -87.20006103515625, -85.1, 1.0, 1.0]
34T	OK  	585	[0.0, -87.20006103515625, -85.1, 1.0, 1.0]
34F	OK  	104	[-0.1, 92.4, 37.4, 0.0, 1.0]
36T	OK  	8	[-5.5, -19.1, 94.5, 1.0, 1.0]
36F	OK  	1	[-96.8, 23.2, -11.0, 1.0, 0.0]
39T	OK  	8	[-5.5, -19.1, 94.5, 1.0, 1.0]
39F	OK  	8	[-5.5, -19.1, 94.5, 1.0, 1.0]
45T	OK  	2	[-72.9, 78.6, 37.0, 0.0, 1.0]
45F	OK  	1	[-96.8, 23.2, -11.0, 1.0, 0.0]
49T	OK  	2	[-72.9, 78.6, 37.0, 0.0, 1.0]
49F	OK  	2	[-72.9, 78.6, 37.0, 0.0, 1.0]
56T	OK  	4	[90.3, -60.5, -56.7, 0.0, 0.0]
56F	OK  	1	[-96.8, 23.2, -11.0, 1.0, 0.0]
61T	FAIL	100000	
61F	FAIL	100000	
62T	FAIL	100000	
62F	FAIL	100000	
64T	FAIL	100000	
64F	FAIL	100000	
66T	FAIL	100000	
66F	FAIL	100000	
68T	FAIL	100000	
68F	FAIL	100000	
