Test object: org.iguanatool.casestudies.pnorm.testobjects.pnorm5
2T	FAIL	100000	
2F	OK  	1	[53.2, -22.4, -78.7, 1.0, 1.0]
4T	OK  	1172	[-88.1, -88.1, 68.5, 1.0, 1.0]
4F	OK  	1	[53.2, -22.4, -78.7, 1.0, 1.0]
6T	OK  	1	[53.2, -22.4, -78.7, 1.0, 1.0]
6F	OK  	2	[74.8, -10.4, 24.6, 0.0, 1.0]
7T	OK  	1	[53.2, -22.4, -78.7, 1.0, 1.0]
7F	OK  	3625	[-87.3, 29.6, 0.0, 0.0, 1.0]
11T	OK  	2	[74.8, -10.4, 24.6, 0.0, 1.0]
11F	FAIL	100000	
Test object: org.iguanatool.casestudies.pnorm.testobjects.pnorm_both
10T	FAIL	100000	
10F	OK  	1	[53.2, -22.4, -78.7, 1.0, 1.0]
17T	OK  	77	[-0.2, 58.0, 89.0, 0.0, 0.0]
17F	OK  	1	[53.2, -22.4, -78.7, 1.0, 1.0]
18T	OK  	77	[-0.2, 58.0, 89.0, 0.0, 0.0]
18F	OK  	5776	[0.0, -13.9, -48.9, 0.0, 1.0]
22T	OK  	77	[-0.2, 58.0, 89.0, 0.0, 0.0]
22F	OK  	77	[-0.2, 58.0, 89.0, 0.0, 0.0]
27T	OK  	77	[-0.2, 58.0, 89.0, 0.0, 0.0]
27F	OK  	2016	[0.3, 14.5, -65.5, 1.0, 0.0]
29T	OK  	2016	[0.3, 14.5, -65.5, 1.0, 0.0]
29F	OK  	77	[-0.2, 58.0, 89.0, 0.0, 0.0]
31T	OK  	772	[-0.4, -47.3, 68.6, 0.0, 1.0]
31F	OK  	77	[-0.2, 58.0, 89.0, 0.0, 0.0]
32T	OK  	772	[-0.4, -47.3, 68.6, 0.0, 1.0]
32F	OK  	2224	[-0.2, 13.8, -60.2, 1.0, 1.0]
34T	OK  	2224	[-0.2, 13.8, -60.2, 1.0, 1.0]
34F	OK  	772	[-0.4, -47.3, 68.6, 0.0, 1.0]
36T	OK  	92	[-0.7, 42.3, 75.5, 1.0, 1.0]
36F	OK  	1	[53.2, -22.4, -78.7, 1.0, 1.0]
39T	OK  	92	[-0.7, 42.3, 75.5, 1.0, 1.0]
39F	OK  	92	[-0.7, 42.3, 75.5, 1.0, 1.0]
45T	OK  	1	[53.2, -22.4, -78.7, 1.0, 1.0]
45F	OK  	3	[57.3, -14.1, 9.8, 1.0, 0.0]
49T	OK  	1	[53.2, -22.4, -78.7, 1.0, 1.0]
49F	OK  	1	[53.2, -22.4, -78.7, 1.0, 1.0]
56T	OK  	3	[57.3, -14.1, 9.8, 1.0, 0.0]
56F	OK  	6	[-95.2, 9.2, 3.7, 1.0, 0.0]
61T	FAIL	100000	
61F	FAIL	100000	
62T	FAIL	100000	
62F	FAIL	100000	
64T	FAIL	100000	
64F	FAIL	100000	
66T	FAIL	100000	
66F	FAIL	100000	
68T	FAIL	100000	
68F	FAIL	100000	
