Test object: org.iguanatool.casestudies.pnorm.testobjects.pnorm5
2T	FAIL	100000	
2F	OK  	1	[-42.6, -6.6, 3.1, 0.0, 1.0]
4T	OK  	31	[-17.799999999999997, -17.799999999999997, 3.1, 0.0, 1.0]
4F	OK  	1	[-42.6, -6.6, 3.1, 0.0, 1.0]
6T	OK  	10	[-42.6, -6.6, -2.220446049250313E-16, 0.0, 1.0]
6F	OK  	1	[-42.6, -6.6, 3.1, 0.0, 1.0]
7T	OK  	10	[-42.6, -6.6, -2.220446049250313E-16, 0.0, 1.0]
7F	OK  	9209	[-16.5, -74.8, 0.0, 1.0, 0.0]
11T	OK  	1	[-42.6, -6.6, 3.1, 0.0, 1.0]
11F	FAIL	100000	
Test object: org.iguanatool.casestudies.pnorm.testobjects.pnorm_both
10T	FAIL	100000	
10F	OK  	1	[-42.6, -6.6, 3.1, 0.0, 1.0]
17T	OK  	45	[0.6000000000000035, -6.6, 3.1, 0.0, 1.0]
17F	OK  	1	[-42.6, -6.6, 3.1, 0.0, 1.0]
18T	OK  	45	[0.6000000000000035, -6.6, 3.1, 0.0, 1.0]
18F	OK  	71	[8.326672684688674E-17, 58.0, 38.3, 0.0, 0.0]
22T	OK  	298	[0.5, -65.4, 8.3, 1.0, 0.0]
22F	OK  	298	[0.5, -65.4, 8.3, 1.0, 0.0]
27T	OK  	45	[0.6000000000000035, -6.6, 3.1, 0.0, 1.0]
27F	OK  	52	[0.6000000000000035, -6.6, 3.1, 1.0, 1.0]
29T	OK  	52	[0.6000000000000035, -6.6, 3.1, 1.0, 1.0]
29F	OK  	45	[0.6000000000000035, -6.6, 3.1, 0.0, 1.0]
31T	OK  	45	[0.6000000000000035, -6.6, 3.1, 0.0, 1.0]
31F	OK  	53	[0.6000000000000035, -6.6, 3.1, 0.0, 0.0]
32T	OK  	45	[0.6000000000000035, -6.6, 3.1, 0.0, 1.0]
32F	OK  	52	[0.6000000000000035, -6.6, 3.1, 1.0, 1.0]
34T	OK  	52	[0.6000000000000035, -6.6, 3.1, 1.0, 1.0]
34F	OK  	45	[0.6000000000000035, -6.6, 3.1, 0.0, 1.0]
36T	OK  	23	[5.400000000000004, -6.6, 3.1, 0.0, 1.0]
36F	OK  	1	[-42.6, -6.6, 3.1, 0.0, 1.0]
39T	OK  	23	[5.400000000000004, -6.6, 3.1, 0.0, 1.0]
39F	OK  	23	[5.400000000000004, -6.6, 3.1, 0.0, 1.0]
45T	OK  	1	[-42.6, -6.6, 3.1, 0.0, 1.0]
45F	OK  	9	[-42.6, -6.6, 3.1, 0.0, 0.0]
49T	OK  	1	[-42.6, -6.6, 3.1, 0.0, 1.0]
49F	OK  	1	[-42.6, -6.6, 3.1, 0.0, 1.0]
56T	OK  	275	[93.6, 14.4, 26.3, 0.0, 0.0]
56F	OK  	9	[-42.6, -6.6, 3.1, 0.0, 0.0]
61T	FAIL	100000	
61F	FAIL	100000	
62T	FAIL	100000	
62F	FAIL	100000	
64T	FAIL	100000	
64F	FAIL	100000	
66T	FAIL	100000	
66F	FAIL	100000	
68T	FAIL	100000	
68F	FAIL	100000	
