Test object: org.iguanatool.casestudies.pnorm.testobjects.pnorm5
2T	FAIL	100000	
2F	OK  	1	[-38.4, 28.5, 81.1, 1.0, 0.0]
4T	OK  	7	[-5.0, -5.0, -36.0, 1.0, 0.0]
4F	OK  	1	[-38.4, 28.5, 81.1, 1.0, 0.0]
6T	OK  	2	[4.4, -25.9, -84.6, 1.0, 0.0]
6F	OK  	1	[-38.4, 28.5, 81.1, 1.0, 0.0]
7T	OK  	2	[4.4, -25.9, -84.6, 1.0, 0.0]
7F	OK  	2320	[56.7, 64.2, 0.0, 0.0, 1.0]
11T	OK  	1	[-38.4, 28.5, 81.1, 1.0, 0.0]
11F	FAIL	100000	
Test object: org.iguanatool.casestudies.pnorm.testobjects.pnorm_both
10T	FAIL	100000	
10F	OK  	1	[-38.4, 28.5, 81.1, 1.0, 0.0]
17T	OK  	277	[0.1, 56.3, -42.3, 1.0, 0.0]
17F	OK  	1	[-38.4, 28.5, 81.1, 1.0, 0.0]
18T	OK  	277	[0.1, 56.3, -42.3, 1.0, 0.0]
18F	OK  	927	[0.0, 83.9, -5.5, 1.0, 1.0]
22T	OK  	277	[0.1, 56.3, -42.3, 1.0, 0.0]
22F	OK  	277	[0.1, 56.3, -42.3, 1.0, 0.0]
27T	OK  	1140	[-0.2, -53.1, -99.3, 0.0, 0.0]
27F	OK  	277	[0.1, 56.3, -42.3, 1.0, 0.0]
29T	OK  	277	[0.1, 56.3, -42.3, 1.0, 0.0]
29F	OK  	1140	[-0.2, -53.1, -99.3, 0.0, 0.0]
31T	OK  	927	[0.0, 83.9, -5.5, 1.0, 1.0]
31F	OK  	277	[0.1, 56.3, -42.3, 1.0, 0.0]
32T	OK  	1395	[0.2, -2.8, -10.2, 0.0, 1.0]
32F	OK  	927	[0.0, 83.9, -5.5, 1.0, 1.0]
34T	OK  	927	[0.0, 83.9, -5.5, 1.0, 1.0]
34F	OK  	1395	[0.2, -2.8, -10.2, 0.0, 1.0]
36T	OK  	2	[4.4, -25.9, -84.6, 1.0, 0.0]
36F	OK  	1	[-38.4, 28.5, 81.1, 1.0, 0.0]
39T	OK  	2	[4.4, -25.9, -84.6, 1.0, 0.0]
39F	OK  	2	[4.4, -25.9, -84.6, 1.0, 0.0]
45T	OK  	4	[-52.6, 27.2, -24.1, 0.0, 1.0]
45F	OK  	1	[-38.4, 28.5, 81.1, 1.0, 0.0]
49T	OK  	4	[-52.6, 27.2, -24.1, 0.0, 1.0]
49F	OK  	4	[-52.6, 27.2, -24.1, 0.0, 1.0]
56T	OK  	13	[59.4, 4.7, -88.7, 0.0, 0.0]
56F	OK  	1	[-38.4, 28.5, 81.1, 1.0, 0.0]
61T	FAIL	100000	
61F	FAIL	100000	
62T	FAIL	100000	
62F	FAIL	100000	
64T	FAIL	100000	
64F	FAIL	100000	
66T	FAIL	100000	
66F	FAIL	100000	
68T	FAIL	100000	
68F	FAIL	100000	
