Test object: org.iguanatool.casestudies.pnorm.testobjects.pnorm5
2T	FAIL	100000	
2F	OK  	1	[-6.5, 19.5, -41.4, 1.0, 0.0]
4T	OK  	6801	[71.3, 71.3, 80.8, 1.0, 1.0]
4F	OK  	1	[-6.5, 19.5, -41.4, 1.0, 0.0]
6T	OK  	1	[-6.5, 19.5, -41.4, 1.0, 0.0]
6F	OK  	3	[17.8, 6.5, 84.1, 1.0, 1.0]
7T	OK  	1	[-6.5, 19.5, -41.4, 1.0, 0.0]
7F	OK  	2689	[-2.9, 72.7, 0.0, 1.0, 1.0]
11T	OK  	3	[17.8, 6.5, 84.1, 1.0, 1.0]
11F	FAIL	100000	
Test object: org.iguanatool.casestudies.pnorm.testobjects.pnorm_both
10T	FAIL	100000	
10F	OK  	1	[-6.5, 19.5, -41.4, 1.0, 0.0]
17T	OK  	807	[0.5, 72.2, -22.0, 0.0, 0.0]
17F	OK  	1	[-6.5, 19.5, -41.4, 1.0, 0.0]
18T	OK  	807	[0.5, 72.2, -22.0, 0.0, 0.0]
18F	OK  	5341	[0.0, 34.7, 61.2, 0.0, 1.0]
22T	OK  	807	[0.5, 72.2, -22.0, 0.0, 0.0]
22F	OK  	807	[0.5, 72.2, -22.0, 0.0, 0.0]
27T	OK  	807	[0.5, 72.2, -22.0, 0.0, 0.0]
27F	OK  	946	[-0.5, 5.7, -88.7, 1.0, 1.0]
29T	OK  	946	[-0.5, 5.7, -88.7, 1.0, 1.0]
29F	OK  	807	[0.5, 72.2, -22.0, 0.0, 0.0]
31T	OK  	946	[-0.5, 5.7, -88.7, 1.0, 1.0]
31F	OK  	807	[0.5, 72.2, -22.0, 0.0, 0.0]
32T	OK  	1912	[-0.6, 21.6, 84.9, 0.0, 1.0]
32F	OK  	946	[-0.5, 5.7, -88.7, 1.0, 1.0]
34T	OK  	946	[-0.5, 5.7, -88.7, 1.0, 1.0]
34F	OK  	1912	[-0.6, 21.6, 84.9, 0.0, 1.0]
36T	OK  	7	[5.1, -27.3, 35.9, 0.0, 0.0]
36F	OK  	1	[-6.5, 19.5, -41.4, 1.0, 0.0]
39T	OK  	7	[5.1, -27.3, 35.9, 0.0, 0.0]
39F	OK  	7	[5.1, -27.3, 35.9, 0.0, 0.0]
45T	OK  	1	[-6.5, 19.5, -41.4, 1.0, 0.0]
45F	OK  	5	[-21.9, 71.5, -62.6, 1.0, 0.0]
49T	OK  	1	[-6.5, 19.5, -41.4, 1.0, 0.0]
49F	OK  	1	[-6.5, 19.5, -41.4, 1.0, 0.0]
56T	OK  	16	[47.9, -0.7, -58.2, 0.0, 0.0]
56F	OK  	5	[-21.9, 71.5, -62.6, 1.0, 0.0]
61T	FAIL	100000	
61F	FAIL	100000	
62T	FAIL	100000	
62F	FAIL	100000	
64T	FAIL	100000	
64F	FAIL	100000	
66T	FAIL	100000	
66F	FAIL	100000	
68T	FAIL	100000	
68F	FAIL	100000	
