Test object: org.iguanatool.casestudies.pnorm.testobjects.pnorm5
2T	FAIL	100000	
2F	OK  	1	[61.7, -56.8, -36.7, 1.0, 1.0]
4T	OK  	4067	[36.0, 36.0, -80.80360717773436, 0.0, 0.0]
4F	OK  	1	[61.7, -56.8, -36.7, 1.0, 1.0]
6T	OK  	1	[61.7, -56.8, -36.7, 1.0, 1.0]
6F	OK  	2	[57.3, 3.4, 72.6, 1.0, 1.0]
7T	OK  	1	[61.7, -56.8, -36.7, 1.0, 1.0]
7F	FAIL	100000	
11T	OK  	2	[57.3, 3.4, 72.6, 1.0, 1.0]
11F	FAIL	100000	
Test object: org.iguanatool.casestudies.pnorm.testobjects.pnorm_both
10T	FAIL	100000	
10F	OK  	1	[61.7, -56.8, -36.7, 1.0, 1.0]
17T	OK  	584	[-0.6740234375, 81.6, 80.2, 0.0, 0.0]
17F	OK  	1	[61.7, -56.8, -36.7, 1.0, 1.0]
18T	OK  	584	[-0.6740234375, 81.6, 80.2, 0.0, 0.0]
18F	OK  	17241	[-4.440824335864846E-17, 79.51175536804199, 38.80673995361328, 0.002869138229370117, 0.999999951171875]
22T	OK  	94799	[0.2977314636230468, -53.81654206848144, -5.324178088378908, 1.1365798950195313E-4, 3.0593043518066407E-4]
22F	OK  	94799	[0.2977314636230468, -53.81654206848144, -5.324178088378908, 1.1365798950195313E-4, 3.0593043518066407E-4]
27T	OK  	584	[-0.6740234375, 81.6, 80.2, 0.0, 0.0]
27F	OK  	633	[-0.546875, -74.7, -77.3, 1.0, 0.0]
29T	OK  	633	[-0.546875, -74.7, -77.3, 1.0, 0.0]
29F	OK  	584	[-0.6740234375, 81.6, 80.2, 0.0, 0.0]
31T	OK  	1119	[-0.546875, -74.7, -77.3, 1.0, 1.0]
31F	OK  	584	[-0.6740234375, 81.6, 80.2, 0.0, 0.0]
32T	OK  	1300	[-0.67396240234375, 71.1, 80.2, 0.0, 1.0]
32F	OK  	1119	[-0.546875, -74.7, -77.3, 1.0, 1.0]
34T	OK  	1119	[-0.546875, -74.7, -77.3, 1.0, 1.0]
34F	OK  	1300	[-0.67396240234375, 71.1, 80.2, 0.0, 1.0]
36T	OK  	8	[0.9, -21.0, -19.2, 1.0, 0.0]
36F	OK  	1	[61.7, -56.8, -36.7, 1.0, 1.0]
39T	OK  	8	[0.9, -21.0, -19.2, 1.0, 0.0]
39F	OK  	8	[0.9, -21.0, -19.2, 1.0, 0.0]
45T	OK  	1	[61.7, -56.8, -36.7, 1.0, 1.0]
45F	OK  	4	[80.8, 92.2, 21.1, 1.0, 0.0]
49T	OK  	1	[61.7, -56.8, -36.7, 1.0, 1.0]
49F	OK  	1	[61.7, -56.8, -36.7, 1.0, 1.0]
56T	OK  	4	[80.8, 92.2, 21.1, 1.0, 0.0]
56F	OK  	14	[-82.3, 64.0, -81.6, 0.0, 0.0]
61T	FAIL	100000	
61F	FAIL	100000	
62T	FAIL	100000	
62F	FAIL	100000	
64T	FAIL	100000	
64F	FAIL	100000	
66T	FAIL	100000	
66F	FAIL	100000	
68T	FAIL	100000	
68F	FAIL	100000	
