Test object: org.iguanatool.casestudies.ptukey.testobjects.ptukey
15T	FAIL	100000	
15F	OK  	1	[51.7, 15.6, -97.1, -92.1, 1.0, 0.0]
17T	OK  	11	[-50.60000000000001, 15.6, -97.1, -92.1, 1.0, 0.0]
17F	OK  	1	[51.7, 15.6, -97.1, -92.1, 1.0, 0.0]
19T	OK  	1	[51.7, 15.6, -97.1, -92.1, 1.0, 0.0]
19F	OK  	35	[51.7, 15.6, 5.20000000000001, 10.20000000000001, 1.0, 0.0]
21T	OK  	22	[4.200000000000006, 62.6, 69.9, 13.9, 1.0, 1.0]
21F	FAIL	100000	
23T	FAIL	100000	
23F	FAIL	100000	
29T	FAIL	100000	
29F	FAIL	100000	
31T	FAIL	100000	
31F	FAIL	100000	
33T	FAIL	100000	
33F	FAIL	100000	
38T	FAIL	100000	
38F	FAIL	100000	
41T	FAIL	100000	
41F	FAIL	100000	
42T	FAIL	100000	
42F	FAIL	100000	
47T	FAIL	100000	
47F	FAIL	100000	
48T	FAIL	100000	
48F	FAIL	100000	
54T	FAIL	100000	
54F	FAIL	100000	
57T	FAIL	100000	
57F	FAIL	100000	
59T	FAIL	100000	
59F	FAIL	100000	
Test object: org.iguanatool.casestudies.ptukey.testobjects.wprob
14T	OK  	1	[51.7, 15.6, -97.1]
14F	OK  	10	[0.5999999999999979, 15.6, -97.1]
17T	OK  	154	[13.9, 6.8, 92.8]
17F	OK  	10	[0.5999999999999979, 15.6, -97.1]
20T	OK  	16	[3.699999999999998, 15.6, -97.1]
20F	OK  	10	[0.5999999999999979, 15.6, -97.1]
28T	OK  	10	[0.5999999999999979, 15.6, -97.1]
28F	OK  	10	[0.5999999999999979, 15.6, -97.1]
32T	OK  	10	[0.5999999999999979, 15.6, -97.1]
32F	OK  	10	[0.5999999999999979, 15.6, -97.1]
33T	OK  	10	[0.5999999999999979, 15.6, -97.1]
33F	OK  	10	[0.5999999999999979, 15.6, -97.1]
41T	OK  	10	[0.5999999999999979, 15.6, -97.1]
41F	OK  	10	[0.5999999999999979, 15.6, -97.1]
46T	OK  	155	[13.9, 6.8, 92.8]
46F	OK  	10	[0.5999999999999979, 15.6, -97.1]
54T	OK  	10	[0.5999999999999979, 15.6, -97.1]
54F	OK  	135	[13.9, 6.8, 92.8]
57T	OK  	135	[13.9, 6.8, 92.8]
57F	OK  	166	[3.6999999999999997, -18.9, 74.3]
