Test object: org.iguanatool.casestudies.ptukey.testobjects.ptukey
15T	FAIL	100000	
15F	OK  	1	[-50.8, -12.6, 20.7, -18.4, 0.0, 0.0]
17T	OK  	1	[-50.8, -12.6, 20.7, -18.4, 0.0, 0.0]
17F	OK  	3	[95.2, 29.5, 40.7, -35.8, 1.0, 0.0]
19T	OK  	3	[95.2, 29.5, 40.7, -35.8, 1.0, 0.0]
19F	OK  	6	[80.0, 93.1, 86.8, 6.8, 1.0, 1.0]
21T	OK  	6	[80.0, 93.1, 86.8, 6.8, 1.0, 1.0]
21F	FAIL	100000	
23T	FAIL	100000	
23F	FAIL	100000	
29T	FAIL	100000	
29F	FAIL	100000	
31T	FAIL	100000	
31F	FAIL	100000	
33T	FAIL	100000	
33F	FAIL	100000	
38T	FAIL	100000	
38F	FAIL	100000	
41T	FAIL	100000	
41F	FAIL	100000	
42T	FAIL	100000	
42F	FAIL	100000	
47T	FAIL	100000	
47F	FAIL	100000	
48T	FAIL	100000	
48F	FAIL	100000	
54T	FAIL	100000	
54F	FAIL	100000	
57T	FAIL	100000	
57F	FAIL	100000	
59T	FAIL	100000	
59F	FAIL	100000	
Test object: org.iguanatool.casestudies.ptukey.testobjects.wprob
14T	OK  	4	[41.2, -42.6, 21.8]
14F	OK  	1	[-50.8, -12.6, 20.7]
17T	OK  	12	[6.8, 25.1, 32.6]
17F	OK  	1	[-50.8, -12.6, 20.7]
20T	OK  	12	[6.8, 25.1, 32.6]
20F	OK  	1	[-50.8, -12.6, 20.7]
28T	OK  	1	[-50.8, -12.6, 20.7]
28F	OK  	1	[-50.8, -12.6, 20.7]
32T	OK  	1	[-50.8, -12.6, 20.7]
32F	OK  	2	[-18.4, -62.3, -40.2]
33T	OK  	1	[-50.8, -12.6, 20.7]
33F	OK  	1	[-50.8, -12.6, 20.7]
41T	OK  	1	[-50.8, -12.6, 20.7]
41F	OK  	1	[-50.8, -12.6, 20.7]
46T	OK  	12	[6.8, 25.1, 32.6]
46F	OK  	1	[-50.8, -12.6, 20.7]
54T	OK  	1	[-50.8, -12.6, 20.7]
54F	OK  	12	[6.8, 25.1, 32.6]
57T	OK  	12	[6.8, 25.1, 32.6]
57F	OK  	224	[1.9, -48.0, 49.1]
