Test object: org.iguanatool.casestudies.ptukey.testobjects.ptukey
15T	FAIL	100000	
15F	OK  	1	[-93.3, 33.2, -16.3, 69.5, 1.0, 0.0]
17T	OK  	1	[-93.3, 33.2, -16.3, 69.5, 1.0, 0.0]
17F	OK  	12	[9.000000000000007, 33.2, -16.3, 69.5, 1.0, 0.0]
19T	OK  	12	[9.000000000000007, 33.2, -16.3, 69.5, 1.0, 0.0]
19F	OK  	23	[9.000000000000007, 33.2, 9.200000000000001, 69.5, 1.0, 0.0]
21T	OK  	286	[80.0, 98.0, 27.5, 58.5, 0.0, 1.0]
21F	FAIL	100000	
23T	FAIL	100000	
23F	FAIL	100000	
29T	FAIL	100000	
29F	FAIL	100000	
31T	FAIL	100000	
31F	FAIL	100000	
33T	FAIL	100000	
33F	FAIL	100000	
38T	FAIL	100000	
38F	FAIL	100000	
41T	FAIL	100000	
41F	FAIL	100000	
42T	FAIL	100000	
42F	FAIL	100000	
47T	FAIL	100000	
47F	FAIL	100000	
48T	FAIL	100000	
48F	FAIL	100000	
54T	FAIL	100000	
54F	FAIL	100000	
57T	FAIL	100000	
57F	FAIL	100000	
59T	FAIL	100000	
59F	FAIL	100000	
Test object: org.iguanatool.casestudies.ptukey.testobjects.wprob
14T	OK  	24	[21.70000000000001, 33.2, -16.3]
14F	OK  	1	[-93.3, 33.2, -16.3]
17T	OK  	740	[1.899999999999995, -34.5, 89.3]
17F	OK  	1	[-93.3, 33.2, -16.3]
20T	OK  	12	[9.000000000000007, 33.2, -16.3]
20F	OK  	1	[-93.3, 33.2, -16.3]
28T	OK  	1	[-93.3, 33.2, -16.3]
28F	OK  	1	[-93.3, 33.2, -16.3]
32T	OK  	1	[-93.3, 33.2, -16.3]
32F	OK  	49	[-15.70000000000001, -22.6, -0.6]
33T	OK  	18	[-32.800000000000004, 0.3, -20.6]
33F	OK  	1	[-93.3, 33.2, -16.3]
41T	OK  	1	[-93.3, 33.2, -16.3]
41F	OK  	10	[-67.8, 33.2, -16.3]
46T	OK  	770	[1.899999999999995, -34.5, 89.3]
46F	OK  	10	[-67.8, 33.2, -16.3]
54T	OK  	1	[-93.3, 33.2, -16.3]
54F	OK  	656	[1.899999999999995, -34.5, 89.3]
57T	OK  	2688	[11.399999999999999, 61.9, 1.9]
57F	OK  	656	[1.899999999999995, -34.5, 89.3]
