Test object: org.iguanatool.casestudies.ptukey.testobjects.ptukey
15T	FAIL	100000	
15F	OK  	1	[95.5, -38.6, -59.5, 92.5, 1.0, 0.0]
17T	OK  	11	[-6.800000000000004, -38.6, -59.5, 92.5, 1.0, 0.0]
17F	OK  	1	[95.5, -38.6, -59.5, 92.5, 1.0, 0.0]
19T	OK  	1	[95.5, -38.6, -59.5, 92.5, 1.0, 0.0]
19F	OK  	25	[95.5, 12.500000000000004, 42.800000000000004, 92.5, 1.0, 0.0]
21T	OK  	65	[25.0, 88.5, 61.9, 20.5, 0.0, 0.0]
21F	FAIL	100000	
23T	FAIL	100000	
23F	FAIL	100000	
29T	FAIL	100000	
29F	FAIL	100000	
31T	FAIL	100000	
31F	FAIL	100000	
33T	FAIL	100000	
33F	FAIL	100000	
38T	FAIL	100000	
38F	FAIL	100000	
41T	FAIL	100000	
41F	FAIL	100000	
42T	FAIL	100000	
42F	FAIL	100000	
47T	FAIL	100000	
47F	FAIL	100000	
48T	FAIL	100000	
48F	FAIL	100000	
54T	FAIL	100000	
54F	FAIL	100000	
57T	FAIL	100000	
57F	FAIL	100000	
59T	FAIL	100000	
59F	FAIL	100000	
Test object: org.iguanatool.casestudies.ptukey.testobjects.wprob
14T	OK  	1	[95.5, -38.6, -59.5]
14F	OK  	11	[-6.800000000000004, -38.6, -59.5]
17T	OK  	612	[7.799999999999994, 9.4, 14.1]
17F	OK  	11	[-6.800000000000004, -38.6, -59.5]
20T	OK  	18	[5.899999999999997, -38.6, -59.5]
20F	OK  	11	[-6.800000000000004, -38.6, -59.5]
28T	OK  	11	[-6.800000000000004, -38.6, -59.5]
28F	OK  	11	[-6.800000000000004, -38.6, -59.5]
32T	OK  	11	[-6.800000000000004, -38.6, -59.5]
32F	OK  	11	[-6.800000000000004, -38.6, -59.5]
33T	OK  	11	[-6.800000000000004, -38.6, -59.5]
33F	OK  	11	[-6.800000000000004, -38.6, -59.5]
41T	OK  	11	[-6.800000000000004, -38.6, -59.5]
41F	OK  	11	[-6.800000000000004, -38.6, -59.5]
46T	OK  	604	[7.799999999999994, 9.4, 14.1]
46F	OK  	11	[-6.800000000000004, -38.6, -59.5]
54T	OK  	11	[-6.800000000000004, -38.6, -59.5]
54F	OK  	693	[7.799999999999994, 9.4, 14.1]
57T	OK  	693	[7.799999999999994, 9.4, 14.1]
57F	OK  	1268	[3.4, -17.200000000000003, 64.6]
