Test object: org.iguanatool.casestudies.rhyper.testobjects.afc
3T	OK  	1	[-426.0]
3F	OK  	11	[85.0]
6T	OK  	24	[7.0]
6F	OK  	11	[85.0]
Test object: org.iguanatool.casestudies.rhyper.testobjects.rhyper
17T	OK  	1	[-42.6, -6.6, 3.1]
17F	FAIL	100000	
22T	FAIL	100000	
22F	FAIL	100000	
25T	FAIL	100000	
25F	FAIL	100000	
28T	FAIL	100000	
28F	FAIL	100000	
33T	FAIL	100000	
33F	FAIL	100000	
37T	FAIL	100000	
37F	FAIL	100000	
42T	FAIL	100000	
42F	FAIL	100000	
44T	FAIL	100000	
44F	FAIL	100000	
47T	FAIL	100000	
47F	FAIL	100000	
51T	FAIL	100000	
51F	FAIL	100000	
53T	FAIL	100000	
53F	FAIL	100000	
54T	FAIL	100000	
54F	FAIL	100000	
57T	FAIL	100000	
57F	FAIL	100000	
60T	FAIL	100000	
60F	FAIL	100000	
61T	FAIL	100000	
61F	FAIL	100000	
62T	FAIL	100000	
62F	FAIL	100000	
70T	FAIL	100000	
70F	FAIL	100000	
75T	FAIL	100000	
75F	FAIL	100000	
78T	FAIL	100000	
78F	FAIL	100000	
94T	FAIL	100000	
94F	FAIL	100000	
96T	FAIL	100000	
96F	FAIL	100000	
98T	FAIL	100000	
98F	FAIL	100000	
102T	FAIL	100000	
102F	FAIL	100000	
105T	FAIL	100000	
105F	FAIL	100000	
107T	FAIL	100000	
107F	FAIL	100000	
108T	FAIL	100000	
108F	FAIL	100000	
110T	FAIL	100000	
110F	FAIL	100000	
111T	FAIL	100000	
111F	FAIL	100000	
113T	FAIL	100000	
113F	FAIL	100000	
127T	FAIL	100000	
127F	FAIL	100000	
137T	FAIL	100000	
137F	FAIL	100000	
140T	FAIL	100000	
140F	FAIL	100000	
143T	FAIL	100000	
143F	FAIL	100000	
146T	FAIL	100000	
146F	FAIL	100000	
149T	FAIL	100000	
149F	FAIL	100000	
151T	FAIL	100000	
151F	FAIL	100000	
153T	FAIL	100000	
153F	FAIL	100000	
156T	FAIL	100000	
156F	FAIL	100000	
158T	FAIL	100000	
158F	FAIL	100000	
159T	FAIL	100000	
159F	FAIL	100000	
162T	FAIL	100000	
162F	FAIL	100000	
