Test object: org.iguanatool.casestudies.spice1.testobjects.clip_to_circle
7T	OK  	1	[667.0, -775.0, 701.0, 499.0, -47.0, 902.0, 435.0]
7F	OK  	6258	[-48.9969482421875, 870.006103515625, 6.0, -561.953125, -48.5655517578125, 870.3319091796875, 435.0]
10T	OK  	1	[667.0, -775.0, 701.0, 499.0, -47.0, 902.0, 435.0]
10F	OK  	7052	[-267.868896484375, 229.755859375, 570.0, -36.9473876953125, 570.6875, -36.4256591796875, -890.7965087890625]
13T	OK  	1	[667.0, -775.0, 701.0, 499.0, -47.0, 902.0, 435.0]
13F	OK  	2	[247.0, -226.0, 621.0, -88.0, -390.0, -488.0, -234.0]
15T	OK  	1	[667.0, -775.0, 701.0, 499.0, -47.0, 902.0, 435.0]
15F	OK  	2	[247.0, -226.0, 621.0, -88.0, -390.0, -488.0, -234.0]
18T	OK  	17	[26.0, 533.0, -233.0, -33.0, -754.0, 69.0, -457.0]
18F	OK  	1	[667.0, -775.0, 701.0, 499.0, -47.0, 902.0, 435.0]
20T	OK  	15	[977.0, -711.0, -16.0, 510.0, -474.0, -61.0, -809.0]
20F	OK  	1	[667.0, -775.0, 701.0, 499.0, -47.0, 902.0, 435.0]
22T	OK  	2	[247.0, -226.0, 621.0, -88.0, -390.0, -488.0, -234.0]
22F	OK  	1	[667.0, -775.0, 701.0, 499.0, -47.0, 902.0, 435.0]
40T	OK  	6	[-945.0, -844.0, -929.0, 691.0, -668.0, 299.0, -890.0]
40F	OK  	1	[667.0, -775.0, 701.0, 499.0, -47.0, 902.0, 435.0]
42T	FAIL	100000	
42F	OK  	6	[-945.0, -844.0, -929.0, 691.0, -668.0, 299.0, -890.0]
44T	FAIL	100000	
44F	OK  	6	[-945.0, -844.0, -929.0, 691.0, -668.0, 299.0, -890.0]
48T	OK  	3	[-431.0, -49.0, -456.0, 142.0, -121.0, 234.0, -986.0]
48F	OK  	1	[667.0, -775.0, 701.0, 499.0, -47.0, 902.0, 435.0]
51T	OK  	1	[667.0, -775.0, 701.0, 499.0, -47.0, 902.0, 435.0]
51F	OK  	19	[306.0, 684.0, -107.0, 730.0, 29.0, 981.0, 559.0]
53T	OK  	32	[-49.0, 845.0, 590.0, -560.0, -129.0, 326.0, 351.0]
53F	OK  	19	[306.0, 684.0, -107.0, 730.0, 29.0, 981.0, 559.0]
55T	FAIL	100000	
55F	OK  	32	[-49.0, 845.0, 590.0, -560.0, -129.0, 326.0, 351.0]
57T	FAIL	100000	
57F	OK  	32	[-49.0, 845.0, 590.0, -560.0, -129.0, 326.0, 351.0]
61T	OK  	32	[-49.0, 845.0, 590.0, -560.0, -129.0, 326.0, 351.0]
61F	FAIL	100000	
66T	OK  	31	[-947.0, -146.0, 570.0, -566.0, -324.0, -267.0, 814.0]
66F	OK  	19	[306.0, 684.0, -107.0, 730.0, 29.0, 981.0, 559.0]
68T	FAIL	100000	
68F	OK  	31	[-947.0, -146.0, 570.0, -566.0, -324.0, -267.0, 814.0]
70T	FAIL	100000	
70F	OK  	31	[-947.0, -146.0, 570.0, -566.0, -324.0, -267.0, 814.0]
74T	OK  	31	[-947.0, -146.0, 570.0, -566.0, -324.0, -267.0, 814.0]
74F	FAIL	100000	
79T	OK  	19	[306.0, 684.0, -107.0, 730.0, 29.0, 981.0, 559.0]
79F	OK  	31	[-947.0, -146.0, 570.0, -566.0, -324.0, -267.0, 814.0]
