Test object: org.iguanatool.casestudies.spice1.testobjects.clip_to_circle
7T	OK  	1	[517.0, 156.0, -971.0, -921.0, 285.0, -407.0, -469.0]
7F	FAIL	100000	
10T	OK  	1	[517.0, 156.0, -971.0, -921.0, 285.0, -407.0, -469.0]
10F	FAIL	100000	
13T	OK  	3	[743.0, -8.0, 574.0, 848.0, 154.0, 334.0, 760.0]
13F	OK  	1	[517.0, 156.0, -971.0, -921.0, 285.0, -407.0, -469.0]
15T	OK  	1	[517.0, 156.0, -971.0, -921.0, 285.0, -407.0, -469.0]
15F	OK  	2	[626.0, 699.0, 139.0, 68.0, 928.0, 68.0, -189.0]
18T	OK  	7	[647.0, 728.0, 354.0, -447.0, -242.0, 107.0, -939.0]
18F	OK  	1	[517.0, 156.0, -971.0, -921.0, 285.0, -407.0, -469.0]
20T	OK  	3	[743.0, -8.0, 574.0, 848.0, 154.0, 334.0, 760.0]
20F	OK  	1	[517.0, 156.0, -971.0, -921.0, 285.0, -407.0, -469.0]
22T	OK  	4	[141.0, -162.0, -51.0, 850.0, 872.0, -423.0, -208.0]
22F	OK  	1	[517.0, 156.0, -971.0, -921.0, 285.0, -407.0, -469.0]
40T	OK  	1	[517.0, 156.0, -971.0, -921.0, 285.0, -407.0, -469.0]
40F	OK  	4	[141.0, -162.0, -51.0, 850.0, 872.0, -423.0, -208.0]
42T	FAIL	100000	
42F	OK  	1	[517.0, 156.0, -971.0, -921.0, 285.0, -407.0, -469.0]
44T	FAIL	100000	
44F	OK  	1	[517.0, 156.0, -971.0, -921.0, 285.0, -407.0, -469.0]
48T	OK  	6	[-240.0, -335.0, -671.0, -779.0, 973.0, 52.0, -698.0]
48F	OK  	4	[141.0, -162.0, -51.0, 850.0, 872.0, -423.0, -208.0]
51T	OK  	1	[517.0, 156.0, -971.0, -921.0, 285.0, -407.0, -469.0]
51F	OK  	3	[743.0, -8.0, 574.0, 848.0, 154.0, 334.0, 760.0]
53T	OK  	23	[-502.0, 958.0, -333.0, -412.0, -132.0, 54.0, 602.0]
53F	OK  	3	[743.0, -8.0, 574.0, 848.0, 154.0, 334.0, 760.0]
55T	FAIL	100000	
55F	OK  	23	[-502.0, 958.0, -333.0, -412.0, -132.0, 54.0, 602.0]
57T	FAIL	100000	
57F	OK  	23	[-502.0, 958.0, -333.0, -412.0, -132.0, 54.0, 602.0]
61T	OK  	23	[-502.0, 958.0, -333.0, -412.0, -132.0, 54.0, 602.0]
61F	FAIL	100000	
66T	OK  	28	[614.0, -813.0, -941.0, 113.0, 219.0, -571.0, 111.0]
66F	OK  	3	[743.0, -8.0, 574.0, 848.0, 154.0, 334.0, 760.0]
68T	FAIL	100000	
68F	OK  	28	[614.0, -813.0, -941.0, 113.0, 219.0, -571.0, 111.0]
70T	FAIL	100000	
70F	OK  	28	[614.0, -813.0, -941.0, 113.0, 219.0, -571.0, 111.0]
74T	OK  	28	[614.0, -813.0, -941.0, 113.0, 219.0, -571.0, 111.0]
74F	FAIL	100000	
79T	OK  	28	[614.0, -813.0, -941.0, 113.0, 219.0, -571.0, 111.0]
79F	OK  	3	[743.0, -8.0, 574.0, 848.0, 154.0, 334.0, 760.0]
