Test object: org.iguanatool.casestudies.spice1.testobjects.clip_to_circle
7T	OK  	1	[-69.0, -139.0, -574.0, -594.0, 336.0, -397.0, -680.0]
7F	OK  	5756	[424.668212890625, -869.0, 370.078125, 110.24755859375, 424.0, -869.875, 549.84765625]
10T	OK  	1	[-69.0, -139.0, -574.0, -594.0, 336.0, -397.0, -680.0]
10F	OK  	7853	[886.28125, -676.125, 611.7265625, 271.4344482421875, 611.5849609375, 271.951171875, -519.0]
13T	OK  	2	[-942.0, -936.0, 567.0, -292.0, 612.0, 298.0, 784.0]
13F	OK  	1	[-69.0, -139.0, -574.0, -594.0, 336.0, -397.0, -680.0]
15T	OK  	1	[-69.0, -139.0, -574.0, -594.0, 336.0, -397.0, -680.0]
15F	OK  	5	[-417.0, -285.0, -753.0, -284.0, 206.0, -486.0, -887.0]
18T	OK  	36	[121.0, 870.0, -83.0, -128.0, -370.0, -63.0, -769.0]
18F	OK  	1	[-69.0, -139.0, -574.0, -594.0, 336.0, -397.0, -680.0]
20T	OK  	10	[603.0, -874.0, 185.0, 223.0, 291.0, -562.0, -375.0]
20F	OK  	1	[-69.0, -139.0, -574.0, -594.0, 336.0, -397.0, -680.0]
22T	OK  	4	[443.0, -855.0, -639.0, -301.0, 48.0, 552.0, -532.0]
22F	OK  	1	[-69.0, -139.0, -574.0, -594.0, 336.0, -397.0, -680.0]
40T	OK  	6	[198.0, 127.0, -537.0, 883.0, -142.0, 511.0, -123.0]
40F	OK  	1	[-69.0, -139.0, -574.0, -594.0, 336.0, -397.0, -680.0]
42T	FAIL	100000	
42F	OK  	6	[198.0, 127.0, -537.0, 883.0, -142.0, 511.0, -123.0]
44T	FAIL	100000	
44F	OK  	6	[198.0, 127.0, -537.0, 883.0, -142.0, 511.0, -123.0]
48T	OK  	1	[-69.0, -139.0, -574.0, -594.0, 336.0, -397.0, -680.0]
48F	OK  	2	[-942.0, -936.0, 567.0, -292.0, 612.0, 298.0, 784.0]
51T	OK  	1	[-69.0, -139.0, -574.0, -594.0, 336.0, -397.0, -680.0]
51F	OK  	2	[-942.0, -936.0, 567.0, -292.0, 612.0, 298.0, 784.0]
53T	OK  	2	[-942.0, -936.0, 567.0, -292.0, 612.0, 298.0, 784.0]
53F	OK  	30	[806.0, 981.0, 377.0, -394.0, 788.0, 812.0, 846.0]
55T	OK  	14672	[-616.1568603515625, 797.954833984375, -649.0, -886.6277465820312, -636.0, -223.30712890625, 451.99755859375]
55F	OK  	2	[-942.0, -936.0, 567.0, -292.0, 612.0, 298.0, 784.0]
57T	FAIL	100000	
57F	OK  	2	[-942.0, -936.0, 567.0, -292.0, 612.0, 298.0, 784.0]
61T	OK  	2	[-942.0, -936.0, 567.0, -292.0, 612.0, 298.0, 784.0]
61F	FAIL	100000	
66T	OK  	30	[806.0, 981.0, 377.0, -394.0, 788.0, 812.0, 846.0]
66F	OK  	2	[-942.0, -936.0, 567.0, -292.0, 612.0, 298.0, 784.0]
68T	FAIL	100000	
68F	OK  	30	[806.0, 981.0, 377.0, -394.0, 788.0, 812.0, 846.0]
70T	FAIL	100000	
70F	OK  	30	[806.0, 981.0, 377.0, -394.0, 788.0, 812.0, 846.0]
74T	OK  	30	[806.0, 981.0, 377.0, -394.0, 788.0, 812.0, 846.0]
74F	FAIL	100000	
79T	OK  	49	[-976.0, -160.0, 261.0, -838.0, -575.0, -408.0, 158.0]
79F	OK  	2	[-942.0, -936.0, 567.0, -292.0, 612.0, 298.0, 784.0]
