Test object: org.iguanatool.casestudies.spice1.testobjects.clip_to_circle
7T	OK  	1	[-156.0, -455.0, -313.0, -902.0, 794.0, -80.0, -21.0]
7F	OK  	78	[860.0, -328.0, -313.0, -902.0, 860.0, -328.0, -21.0]
10T	OK  	1	[-156.0, -455.0, -313.0, -902.0, 794.0, -80.0, -21.0]
10F	OK  	88	[-156.0, -455.0, 725.0, -647.0, 725.0, -647.0, -21.0]
13T	OK  	1	[-156.0, -455.0, -313.0, -902.0, 794.0, -80.0, -21.0]
13F	OK  	22	[867.0, 56.0, -313.0, -902.0, 794.0, -80.0, -21.0]
15T	OK  	1	[-156.0, -455.0, -313.0, -902.0, 794.0, -80.0, -21.0]
15F	OK  	69	[-156.0, -455.0, 965.0, -454.0, -229.0, -591.0, -21.0]
18T	OK  	50	[-667.0, 568.0, 710.0, -965.0, -229.0, -80.0, -21.0]
18F	OK  	1	[-156.0, -455.0, -313.0, -902.0, 794.0, -80.0, -21.0]
20T	OK  	53	[867.0, -200.0, -824.0, 121.0, -229.0, -80.0, -21.0]
20F	OK  	1	[-156.0, -455.0, -313.0, -902.0, 794.0, -80.0, -21.0]
22T	OK  	11	[355.0, -455.0, -313.0, -902.0, 794.0, -80.0, -21.0]
22F	OK  	1	[-156.0, -455.0, -313.0, -902.0, 794.0, -80.0, -21.0]
40T	OK  	61	[667.0, 875.0, -761.0, 861.0, -367.0, -246.0, -653.0]
40F	OK  	1	[-156.0, -455.0, -313.0, -902.0, 794.0, -80.0, -21.0]
42T	OK  	2568	[-981.0, 656.0, 975.0, 503.0, 323.0, 554.0, 986.0]
42F	OK  	61	[667.0, 875.0, -761.0, 861.0, -367.0, -246.0, -653.0]
44T	FAIL	100000	
44F	OK  	61	[667.0, 875.0, -761.0, 861.0, -367.0, -246.0, -653.0]
48T	OK  	1	[-156.0, -455.0, -313.0, -902.0, 794.0, -80.0, -21.0]
48F	OK  	10	[-667.0, -455.0, -313.0, -902.0, 794.0, -80.0, -21.0]
51T	OK  	1	[-156.0, -455.0, -313.0, -902.0, 794.0, -80.0, -21.0]
51F	OK  	53	[867.0, -200.0, -313.0, -902.0, 857.0, -200.0, 42.0]
53T	OK  	53	[867.0, -200.0, -313.0, -902.0, 857.0, -200.0, 42.0]
53F	OK  	80	[867.0, -200.0, 710.0, -647.0, 857.0, -200.0, 490.0]
55T	OK  	1975	[920.0, 870.0, -70.0, 285.0, 546.0, 649.0, 302.0]
55F	OK  	53	[867.0, -200.0, -313.0, -902.0, 857.0, -200.0, 42.0]
57T	FAIL	100000	
57F	OK  	53	[867.0, -200.0, -313.0, -902.0, 857.0, -200.0, 42.0]
61T	OK  	53	[867.0, -200.0, -313.0, -902.0, 857.0, -200.0, 42.0]
61F	FAIL	100000	
66T	OK  	159	[-545.0, -330.0, 287.0, 681.0, 290.0, 667.0, 206.0]
66F	OK  	53	[867.0, -200.0, -313.0, -902.0, 857.0, -200.0, 42.0]
68T	OK  	3189	[202.0, -615.0, 349.0, 463.0, 199.0, -637.0, 379.0]
68F	OK  	159	[-545.0, -330.0, 287.0, 681.0, 290.0, 667.0, 206.0]
70T	FAIL	100000	
70F	OK  	159	[-545.0, -330.0, 287.0, 681.0, 290.0, 667.0, 206.0]
74T	OK  	159	[-545.0, -330.0, 287.0, 681.0, 290.0, 667.0, 206.0]
74F	FAIL	100000	
79T	OK  	53	[867.0, -200.0, -313.0, -902.0, 857.0, -200.0, 42.0]
79F	OK  	278	[730.0, -148.0, -888.0, -162.0, -430.0, -183.0, 370.0]
