Test object: org.iguanatool.casestudies.spice1.testobjects.clip_to_circle
7T	OK  	1	[142.0, 81.0, -583.0, -121.0, 75.0, 604.0, 992.0]
7F	OK  	49	[78.0, 592.0, -583.0, -121.0, 78.0, 592.0, 992.0]
10T	OK  	1	[142.0, 81.0, -583.0, -121.0, 75.0, 604.0, 992.0]
10F	OK  	119	[142.0, 81.0, -56.0, 127.0, -56.0, 127.0, 992.0]
13T	OK  	1	[142.0, 81.0, -583.0, -121.0, 75.0, 604.0, 992.0]
13F	OK  	40	[653.0, 592.0, -583.0, -121.0, -948.0, 589.0, 992.0]
15T	OK  	1	[142.0, 81.0, -583.0, -121.0, 75.0, 604.0, 992.0]
15F	OK  	27	[142.0, 81.0, 440.0, 902.0, 75.0, 604.0, 992.0]
18T	OK  	62	[-881.0, 592.0, 440.0, 390.0, -436.0, 477.0, 992.0]
18F	OK  	1	[142.0, 81.0, -583.0, -121.0, 75.0, 604.0, 992.0]
20T	OK  	41	[653.0, 592.0, -838.0, 902.0, 75.0, 604.0, 992.0]
20F	OK  	1	[142.0, 81.0, -583.0, -121.0, 75.0, 604.0, 992.0]
22T	OK  	1	[142.0, 81.0, -583.0, -121.0, 75.0, 604.0, 992.0]
22F	OK  	11	[-881.0, 81.0, -583.0, -121.0, 75.0, 604.0, 992.0]
40T	OK  	121	[-17.0, -625.0, -707.0, -391.0, -27.0, 124.0, -813.0]
40F	OK  	1	[142.0, 81.0, -583.0, -121.0, 75.0, 604.0, 992.0]
42T	OK  	6556	[-634.0, -883.0, -661.0, 719.0, -652.0, 185.0, -680.0]
42F	OK  	121	[-17.0, -625.0, -707.0, -391.0, -27.0, 124.0, -813.0]
44T	FAIL	100000	
44F	OK  	121	[-17.0, -625.0, -707.0, -391.0, -27.0, 124.0, -813.0]
48T	OK  	214	[104.0, -992.0, 239.0, 561.0, 317.0, 739.0, -805.0]
48F	OK  	1	[142.0, 81.0, -583.0, -121.0, 75.0, 604.0, 992.0]
51T	OK  	27	[397.0, -942.0, -614.0, -121.0, 75.0, 604.0, 992.0]
51F	OK  	1	[142.0, 81.0, -583.0, -121.0, 75.0, 604.0, 992.0]
53T	OK  	10	[142.0, 81.0, -614.0, -121.0, 75.0, 604.0, 992.0]
53F	OK  	1	[142.0, 81.0, -583.0, -121.0, 75.0, 604.0, 992.0]
55T	OK  	4571	[807.0, 879.0, -873.0, -561.0, -880.0, -567.0, 392.0]
55F	OK  	10	[142.0, 81.0, -614.0, -121.0, 75.0, 604.0, 992.0]
57T	FAIL	100000	
57F	OK  	10	[142.0, 81.0, -614.0, -121.0, 75.0, 604.0, 992.0]
61T	OK  	10	[142.0, 81.0, -614.0, -121.0, 75.0, 604.0, 992.0]
61F	FAIL	100000	
66T	OK  	20	[653.0, -430.0, -583.0, -121.0, 75.0, 604.0, 992.0]
66F	OK  	1	[142.0, 81.0, -583.0, -121.0, 75.0, 604.0, 992.0]
68T	OK  	28723	[295.0, 655.0, -989.0, 441.0, 307.0, 657.0, 66.0]
68F	OK  	20	[653.0, -430.0, -583.0, -121.0, 75.0, 604.0, 992.0]
70T	FAIL	100000	
70F	OK  	20	[653.0, -430.0, -583.0, -121.0, 75.0, 604.0, 992.0]
74T	OK  	20	[653.0, -430.0, -583.0, -121.0, 75.0, 604.0, 992.0]
74F	FAIL	100000	
79T	OK  	1	[142.0, 81.0, -583.0, -121.0, 75.0, 604.0, 992.0]
79F	OK  	16	[783.0, -938.0, 711.0, 688.0, -85.0, 544.0, 863.0]
