Test object: org.iguanatool.casestudies.spice1.testobjects.clip_to_circle
7T	OK  	1	[-978.0, 371.0, -994.0, 887.0, 822.0, -510.0, -210.0]
7F	OK  	9218	[-595.78125, 36.875, -232.98779296875, -921.993896484375, -595.2919921875, 36.356494140625, 499.1700439453125]
10T	OK  	1	[-978.0, 371.0, -994.0, 887.0, 822.0, -510.0, -210.0]
10F	OK  	8721	[-119.00030517578125, 302.0025, -327.0208203125, 765.2125, -327.0, 765.8581481933594, 875.0]
13T	OK  	5	[-289.0, 126.0, -513.0, 481.0, 856.0, 283.0, -97.0]
13F	OK  	1	[-978.0, 371.0, -994.0, 887.0, 822.0, -510.0, -210.0]
15T	OK  	4	[555.0, 506.0, -233.0, -920.0, -30.0, -522.0, 239.0]
15F	OK  	1	[-978.0, 371.0, -994.0, 887.0, 822.0, -510.0, -210.0]
18T	OK  	4	[555.0, 506.0, -233.0, -920.0, -30.0, -522.0, 239.0]
18F	OK  	1	[-978.0, 371.0, -994.0, 887.0, 822.0, -510.0, -210.0]
20T	OK  	95	[847.0, -275.0, 511.0, 602.0, -580.0, -254.0, -447.0]
20F	OK  	1	[-978.0, 371.0, -994.0, 887.0, 822.0, -510.0, -210.0]
22T	OK  	1	[-978.0, 371.0, -994.0, 887.0, 822.0, -510.0, -210.0]
22F	OK  	3	[570.0, 492.0, 455.0, 524.0, 173.0, -152.0, 889.0]
40T	OK  	4	[555.0, 506.0, -233.0, -920.0, -30.0, -522.0, 239.0]
40F	OK  	1	[-978.0, 371.0, -994.0, 887.0, 822.0, -510.0, -210.0]
42T	FAIL	100000	
42F	OK  	4	[555.0, 506.0, -233.0, -920.0, -30.0, -522.0, 239.0]
44T	FAIL	100000	
44F	OK  	4	[555.0, 506.0, -233.0, -920.0, -30.0, -522.0, 239.0]
48T	OK  	2	[-74.0, -24.0, 725.0, 6.0, 729.0, -958.0, -530.0]
48F	OK  	1	[-978.0, 371.0, -994.0, 887.0, 822.0, -510.0, -210.0]
51T	OK  	1	[-978.0, 371.0, -994.0, 887.0, 822.0, -510.0, -210.0]
51F	OK  	3	[570.0, 492.0, 455.0, 524.0, 173.0, -152.0, 889.0]
53T	OK  	4	[555.0, 506.0, -233.0, -920.0, -30.0, -522.0, 239.0]
53F	OK  	3	[570.0, 492.0, 455.0, 524.0, 173.0, -152.0, 889.0]
55T	OK  	66677	[-908.9945164489747, -330.50340576171874, 834.5936907958985, 541.3781274414061, -474.9998393554688, -113.2575244140625, 648.2520874633788]
55F	OK  	4	[555.0, 506.0, -233.0, -920.0, -30.0, -522.0, 239.0]
57T	FAIL	100000	
57F	OK  	4	[555.0, 506.0, -233.0, -920.0, -30.0, -522.0, 239.0]
61T	OK  	4	[555.0, 506.0, -233.0, -920.0, -30.0, -522.0, 239.0]
61F	FAIL	100000	
66T	OK  	4	[555.0, 506.0, -233.0, -920.0, -30.0, -522.0, 239.0]
66F	OK  	3	[570.0, 492.0, 455.0, 524.0, 173.0, -152.0, 889.0]
68T	FAIL	100000	
68F	OK  	4	[555.0, 506.0, -233.0, -920.0, -30.0, -522.0, 239.0]
70T	FAIL	100000	
70F	OK  	4	[555.0, 506.0, -233.0, -920.0, -30.0, -522.0, 239.0]
74T	OK  	4	[555.0, 506.0, -233.0, -920.0, -30.0, -522.0, 239.0]
74F	FAIL	100000	
79T	OK  	4	[555.0, 506.0, -233.0, -920.0, -30.0, -522.0, 239.0]
79F	OK  	3	[570.0, 492.0, 455.0, 524.0, 173.0, -152.0, 889.0]
