Test object: org.iguanatool.casestudies.spice1.testobjects.clip_to_circle
7T	OK  	1	[-248.0, -863.0, -105.0, -506.0, -932.0, 582.0, -670.0]
7F	OK  	4961	[-991.0, -332.0, -95.17938232421875, 794.931640625, -991.371337890625, -332.37255859375, 479.0]
10T	OK  	1	[-248.0, -863.0, -105.0, -506.0, -932.0, 582.0, -670.0]
10F	OK  	5252	[98.0955810546875, -664.7921752929688, 44.0, -989.625, 44.1275634765625, -989.009765625, -228.760986328125]
13T	OK  	1	[-248.0, -863.0, -105.0, -506.0, -932.0, 582.0, -670.0]
13F	OK  	2	[615.0, 802.0, 393.0, -172.0, 962.0, 581.0, 203.0]
15T	OK  	1	[-248.0, -863.0, -105.0, -506.0, -932.0, 582.0, -670.0]
15F	OK  	3	[729.0, 891.0, 807.0, -240.0, -646.0, -892.0, -37.0]
18T	OK  	16	[555.0, 437.0, 845.0, -937.0, -748.0, -377.0, 813.0]
18F	OK  	1	[-248.0, -863.0, -105.0, -506.0, -932.0, 582.0, -670.0]
20T	OK  	17	[589.0, -700.0, 704.0, 235.0, -373.0, -497.0, 144.0]
20F	OK  	1	[-248.0, -863.0, -105.0, -506.0, -932.0, 582.0, -670.0]
22T	OK  	3	[729.0, 891.0, 807.0, -240.0, -646.0, -892.0, -37.0]
22F	OK  	1	[-248.0, -863.0, -105.0, -506.0, -932.0, 582.0, -670.0]
40T	OK  	6	[-568.0, 32.0, -940.0, -774.0, 115.0, -945.0, 768.0]
40F	OK  	1	[-248.0, -863.0, -105.0, -506.0, -932.0, 582.0, -670.0]
42T	FAIL	100000	
42F	OK  	6	[-568.0, 32.0, -940.0, -774.0, 115.0, -945.0, 768.0]
44T	FAIL	100000	
44F	OK  	6	[-568.0, 32.0, -940.0, -774.0, 115.0, -945.0, 768.0]
48T	OK  	2	[615.0, 802.0, 393.0, -172.0, 962.0, 581.0, 203.0]
48F	OK  	1	[-248.0, -863.0, -105.0, -506.0, -932.0, 582.0, -670.0]
51T	OK  	1	[-248.0, -863.0, -105.0, -506.0, -932.0, 582.0, -670.0]
51F	OK  	9	[35.0, -338.0, 615.0, -859.0, -87.0, -121.0, 333.0]
53T	OK  	29	[-502.0, -237.0, 894.0, -284.0, 825.0, -221.0, 858.0]
53F	OK  	9	[35.0, -338.0, 615.0, -859.0, -87.0, -121.0, 333.0]
55T	FAIL	100000	
55F	OK  	29	[-502.0, -237.0, 894.0, -284.0, 825.0, -221.0, 858.0]
57T	FAIL	100000	
57F	OK  	29	[-502.0, -237.0, 894.0, -284.0, 825.0, -221.0, 858.0]
61T	OK  	29	[-502.0, -237.0, 894.0, -284.0, 825.0, -221.0, 858.0]
61F	FAIL	100000	
66T	OK  	9	[35.0, -338.0, 615.0, -859.0, -87.0, -121.0, 333.0]
66F	OK  	29	[-502.0, -237.0, 894.0, -284.0, 825.0, -221.0, 858.0]
68T	FAIL	100000	
68F	OK  	9	[35.0, -338.0, 615.0, -859.0, -87.0, -121.0, 333.0]
70T	FAIL	100000	
70F	OK  	9	[35.0, -338.0, 615.0, -859.0, -87.0, -121.0, 333.0]
74T	OK  	9	[35.0, -338.0, 615.0, -859.0, -87.0, -121.0, 333.0]
74F	FAIL	100000	
79T	OK  	13	[-439.0, 38.0, 549.0, 172.0, 615.0, -132.0, 718.0]
79F	OK  	9	[35.0, -338.0, 615.0, -859.0, -87.0, -121.0, 333.0]
