Test object: org.iguanatool.casestudies.spice1.testobjects.clip_to_circle
7T	OK  	1	[316.0, -479.0, 506.0, 560.0, 665.0, -579.0, -826.0]
7F	OK  	8171	[144.1953125, 327.4346923828125, 107.0, 66.951171875, 144.31103515625, 327.10986328125, 19.1953125]
10T	OK  	1	[316.0, -479.0, 506.0, 560.0, 665.0, -579.0, -826.0]
10F	OK  	5425	[411.0, 233.0625, 978.390625, -338.677978515625, 978.0, -338.9969482421875, -891.9735107421875]
13T	OK  	3	[969.0, -866.0, 196.0, -733.0, 814.0, 984.0, 953.0]
13F	OK  	1	[316.0, -479.0, 506.0, 560.0, 665.0, -579.0, -826.0]
15T	OK  	3	[969.0, -866.0, 196.0, -733.0, 814.0, 984.0, 953.0]
15F	OK  	1	[316.0, -479.0, 506.0, 560.0, 665.0, -579.0, -826.0]
18T	OK  	5	[-333.0, 797.0, -75.0, 23.0, -630.0, 36.0, -864.0]
18F	OK  	1	[316.0, -479.0, 506.0, 560.0, 665.0, -579.0, -826.0]
20T	OK  	4	[-53.0, -932.0, -566.0, 915.0, -878.0, -417.0, -385.0]
20F	OK  	1	[316.0, -479.0, 506.0, 560.0, 665.0, -579.0, -826.0]
22T	OK  	1	[316.0, -479.0, 506.0, 560.0, 665.0, -579.0, -826.0]
22F	OK  	4	[-53.0, -932.0, -566.0, 915.0, -878.0, -417.0, -385.0]
40T	OK  	3	[969.0, -866.0, 196.0, -733.0, 814.0, 984.0, 953.0]
40F	OK  	1	[316.0, -479.0, 506.0, 560.0, 665.0, -579.0, -826.0]
42T	FAIL	100000	
42F	OK  	3	[969.0, -866.0, 196.0, -733.0, 814.0, 984.0, 953.0]
44T	FAIL	100000	
44F	OK  	3	[969.0, -866.0, 196.0, -733.0, 814.0, 984.0, 953.0]
48T	OK  	2	[-86.0, 701.0, 978.0, 205.0, 978.0, -339.0, 165.0]
48F	OK  	1	[316.0, -479.0, 506.0, 560.0, 665.0, -579.0, -826.0]
51T	OK  	1	[316.0, -479.0, 506.0, 560.0, 665.0, -579.0, -826.0]
51F	OK  	6	[-27.0, -243.0, 724.0, -274.0, 943.0, -93.0, 497.0]
53T	OK  	6	[-27.0, -243.0, 724.0, -274.0, 943.0, -93.0, 497.0]
53F	OK  	27	[-532.0, 395.0, -202.0, -169.0, -540.0, 597.0, 659.0]
55T	FAIL	100000	
55F	OK  	6	[-27.0, -243.0, 724.0, -274.0, 943.0, -93.0, 497.0]
57T	FAIL	100000	
57F	OK  	6	[-27.0, -243.0, 724.0, -274.0, 943.0, -93.0, 497.0]
61T	OK  	6	[-27.0, -243.0, 724.0, -274.0, 943.0, -93.0, 497.0]
61F	FAIL	100000	
66T	OK  	27	[-532.0, 395.0, -202.0, -169.0, -540.0, 597.0, 659.0]
66F	OK  	6	[-27.0, -243.0, 724.0, -274.0, 943.0, -93.0, 497.0]
68T	FAIL	100000	
68F	OK  	27	[-532.0, 395.0, -202.0, -169.0, -540.0, 597.0, 659.0]
70T	FAIL	100000	
70F	OK  	27	[-532.0, 395.0, -202.0, -169.0, -540.0, 597.0, 659.0]
74T	OK  	27	[-532.0, 395.0, -202.0, -169.0, -540.0, 597.0, 659.0]
74F	FAIL	100000	
79T	OK  	37	[-723.0, -394.0, -552.0, 975.0, -417.0, -684.0, 858.0]
79F	OK  	6	[-27.0, -243.0, 724.0, -274.0, 943.0, -93.0, 497.0]
