Test object: org.iguanatool.casestudies.spice1.testobjects.clip_to_circle
7T	OK  	1	[-65.0, 195.0, -414.0, 415.0, -563.0, -528.0, -975.0]
7F	OK  	82	[-562.0, -285.0, -414.0, 415.0, -562.0, -285.0, -975.0]
10T	OK  	1	[-65.0, 195.0, -414.0, 415.0, -563.0, -528.0, -975.0]
10F	OK  	74	[-65.0, 195.0, -548.0, -544.0, -548.0, -544.0, -975.0]
13T	OK  	22	[958.0, -828.0, -414.0, 415.0, -563.0, -528.0, -975.0]
13F	OK  	1	[-65.0, 195.0, -414.0, 415.0, -563.0, -528.0, -975.0]
15T	OK  	26	[-65.0, 195.0, 609.0, -608.0, -563.0, -528.0, -975.0]
15F	OK  	1	[-65.0, 195.0, -414.0, 415.0, -563.0, -528.0, -975.0]
18T	OK  	43	[958.0, -316.0, -925.0, -608.0, -563.0, -528.0, -975.0]
18F	OK  	1	[-65.0, 195.0, -414.0, 415.0, -563.0, -528.0, -975.0]
20T	OK  	21	[-576.0, -828.0, -414.0, 415.0, -563.0, -528.0, -975.0]
20F	OK  	1	[-65.0, 195.0, -414.0, 415.0, -563.0, -528.0, -975.0]
22T	OK  	10	[-576.0, 195.0, -414.0, 415.0, -563.0, -528.0, -975.0]
22F	OK  	1	[-65.0, 195.0, -414.0, 415.0, -563.0, -528.0, -975.0]
40T	OK  	46	[715.0, -626.0, 13.0, -791.0, 261.0, 97.0, -366.0]
40F	OK  	1	[-65.0, 195.0, -414.0, 415.0, -563.0, -528.0, -975.0]
42T	OK  	1093	[862.0, -425.0, -693.0, -260.0, -71.0, -326.0, -649.0]
42F	OK  	46	[715.0, -626.0, 13.0, -791.0, 261.0, 97.0, -366.0]
44T	FAIL	100000	
44F	OK  	46	[715.0, -626.0, 13.0, -791.0, 261.0, 97.0, -366.0]
48T	OK  	1	[-65.0, 195.0, -414.0, 415.0, -563.0, -528.0, -975.0]
48F	OK  	37	[-781.0, 194.0, 290.0, 178.0, 65.0, 841.0, 911.0]
51T	OK  	1	[-65.0, 195.0, -414.0, 415.0, -563.0, -528.0, -975.0]
51F	OK  	54	[-561.0, -316.0, -414.0, 415.0, -562.0, -273.0, 48.0]
53T	OK  	85	[-781.0, 194.0, 290.0, 178.0, 65.0, 841.0, 911.0]
53F	OK  	54	[-561.0, -316.0, -414.0, 415.0, -562.0, -273.0, 48.0]
55T	OK  	26939	[-47.0, 229.0, 845.0, -663.0, 882.0, -700.0, 77.0]
55F	OK  	85	[-781.0, 194.0, 290.0, 178.0, 65.0, 841.0, 911.0]
57T	FAIL	100000	
57F	OK  	85	[-781.0, 194.0, 290.0, 178.0, 65.0, 841.0, 911.0]
61T	OK  	85	[-781.0, 194.0, 290.0, 178.0, 65.0, 841.0, 911.0]
61F	FAIL	100000	
66T	OK  	54	[-561.0, -316.0, -414.0, 415.0, -562.0, -273.0, 48.0]
66F	OK  	66	[-561.0, -316.0, -669.0, 415.0, -562.0, -273.0, 48.0]
68T	OK  	72508	[-555.0, 538.0, -410.0, -767.0, -554.0, 529.0, 344.0]
68F	OK  	54	[-561.0, -316.0, -414.0, 415.0, -562.0, -273.0, 48.0]
70T	FAIL	100000	
70F	OK  	54	[-561.0, -316.0, -414.0, 415.0, -562.0, -273.0, 48.0]
74T	OK  	54	[-561.0, -316.0, -414.0, 415.0, -562.0, -273.0, 48.0]
74F	FAIL	100000	
79T	OK  	144	[89.0, -419.0, 610.0, 219.0, 611.0, 220.0, 36.0]
79F	OK  	54	[-561.0, -316.0, -414.0, 415.0, -562.0, -273.0, 48.0]
