Test object: org.iguanatool.casestudies.spice1.testobjects.clip_to_circle
7T	OK  	1	[-426.0, -66.0, 31.0, -310.0, 51.0, -10.0, 580.0]
7F	FAIL	100000	
10T	OK  	1	[-426.0, -66.0, 31.0, -310.0, 51.0, -10.0, 580.0]
10F	FAIL	100000	
13T	OK  	1	[-426.0, -66.0, 31.0, -310.0, 51.0, -10.0, 580.0]
13F	OK  	4	[924.0, 932.0, 796.0, -550.0, -167.0, 131.0, -945.0]
15T	OK  	1	[-426.0, -66.0, 31.0, -310.0, 51.0, -10.0, 580.0]
15F	OK  	3	[-667.0, -519.0, 582.0, 477.0, 464.0, -445.0, 31.0]
18T	OK  	4	[924.0, 932.0, 796.0, -550.0, -167.0, 131.0, -945.0]
18F	OK  	1	[-426.0, -66.0, 31.0, -310.0, 51.0, -10.0, 580.0]
20T	OK  	35	[-163.0, -624.0, 74.0, 473.0, -873.0, 329.0, -942.0]
20F	OK  	1	[-426.0, -66.0, 31.0, -310.0, 51.0, -10.0, 580.0]
22T	OK  	2	[383.0, -730.0, -34.0, -468.0, 259.0, 288.0, 437.0]
22F	OK  	1	[-426.0, -66.0, 31.0, -310.0, 51.0, -10.0, 580.0]
40T	OK  	3	[-667.0, -519.0, 582.0, 477.0, 464.0, -445.0, 31.0]
40F	OK  	1	[-426.0, -66.0, 31.0, -310.0, 51.0, -10.0, 580.0]
42T	FAIL	100000	
42F	OK  	3	[-667.0, -519.0, 582.0, 477.0, 464.0, -445.0, 31.0]
44T	FAIL	100000	
44F	OK  	3	[-667.0, -519.0, 582.0, 477.0, 464.0, -445.0, 31.0]
48T	OK  	2	[383.0, -730.0, -34.0, -468.0, 259.0, 288.0, 437.0]
48F	OK  	1	[-426.0, -66.0, 31.0, -310.0, 51.0, -10.0, 580.0]
51T	OK  	2	[383.0, -730.0, -34.0, -468.0, 259.0, 288.0, 437.0]
51F	OK  	1	[-426.0, -66.0, 31.0, -310.0, 51.0, -10.0, 580.0]
53T	OK  	8	[-206.0, 290.0, -633.0, -268.0, -155.0, 606.0, 404.0]
53F	OK  	1	[-426.0, -66.0, 31.0, -310.0, 51.0, -10.0, 580.0]
55T	FAIL	100000	
55F	OK  	8	[-206.0, 290.0, -633.0, -268.0, -155.0, 606.0, 404.0]
57T	FAIL	100000	
57F	OK  	8	[-206.0, 290.0, -633.0, -268.0, -155.0, 606.0, 404.0]
61T	OK  	8	[-206.0, 290.0, -633.0, -268.0, -155.0, 606.0, 404.0]
61F	FAIL	100000	
66T	OK  	11	[193.0, 755.0, 911.0, -247.0, 952.0, -411.0, 430.0]
66F	OK  	1	[-426.0, -66.0, 31.0, -310.0, 51.0, -10.0, 580.0]
68T	FAIL	100000	
68F	OK  	11	[193.0, 755.0, 911.0, -247.0, 952.0, -411.0, 430.0]
70T	FAIL	100000	
70F	OK  	11	[193.0, 755.0, 911.0, -247.0, 952.0, -411.0, 430.0]
74T	OK  	11	[193.0, 755.0, 911.0, -247.0, 952.0, -411.0, 430.0]
74F	FAIL	100000	
79T	OK  	8	[-206.0, 290.0, -633.0, -268.0, -155.0, 606.0, 404.0]
79F	OK  	1	[-426.0, -66.0, 31.0, -310.0, 51.0, -10.0, 580.0]
