Test object: org.iguanatool.casestudies.spice1.testobjects.clip_to_circle
7T	OK  	1	[-384.0, 285.0, 811.0, 818.0, -845.0, 44.0, -259.0]
7F	OK  	6258	[347.585205078125, -84.556396484375, -196.0, 395.30517578125, 347.9969482421875, -84.993896484375, 150.75]
10T	OK  	1	[-384.0, 285.0, 811.0, 818.0, -845.0, 44.0, -259.0]
10F	OK  	7654	[189.6923828125, -493.84405517578125, 549.0958251953125, -150.15625, 549.66552734375, -150.934375, -488.328125]
13T	OK  	2	[-846.0, 64.0, -425.0, -887.0, -688.0, 431.0, -331.0]
13F	OK  	1	[-384.0, 285.0, 811.0, 818.0, -845.0, 44.0, -259.0]
15T	OK  	2	[-846.0, 64.0, -425.0, -887.0, -688.0, 431.0, -331.0]
15F	OK  	1	[-384.0, 285.0, 811.0, 818.0, -845.0, 44.0, -259.0]
18T	OK  	17	[199.0, 691.0, -337.0, -630.0, -952.0, 223.0, 165.0]
18F	OK  	1	[-384.0, 285.0, 811.0, 818.0, -845.0, 44.0, -259.0]
20T	OK  	7	[222.0, -819.0, -747.0, 707.0, -740.0, 608.0, -257.0]
20F	OK  	1	[-384.0, 285.0, 811.0, 818.0, -845.0, 44.0, -259.0]
22T	OK  	1	[-384.0, 285.0, 811.0, 818.0, -845.0, 44.0, -259.0]
22F	OK  	2	[-846.0, 64.0, -425.0, -887.0, -688.0, 431.0, -331.0]
40T	OK  	6	[-744.0, -537.0, 971.0, 348.0, 982.0, -969.0, 871.0]
40F	OK  	1	[-384.0, 285.0, 811.0, 818.0, -845.0, 44.0, -259.0]
42T	OK  	15466	[393.5113525390625, 24.0009765625, -672.750244140625, 144.8828125, -317.93115234375, 104.20306396484375, -59.05853271484375]
42F	OK  	6	[-744.0, -537.0, 971.0, 348.0, 982.0, -969.0, 871.0]
44T	FAIL	100000	
44F	OK  	6	[-744.0, -537.0, 971.0, 348.0, 982.0, -969.0, 871.0]
48T	OK  	2	[-846.0, 64.0, -425.0, -887.0, -688.0, 431.0, -331.0]
48F	OK  	1	[-384.0, 285.0, 811.0, 818.0, -845.0, 44.0, -259.0]
51T	OK  	1	[-384.0, 285.0, 811.0, 818.0, -845.0, 44.0, -259.0]
51F	OK  	11	[882.0, -576.0, 115.0, -492.0, 793.0, -924.0, 426.0]
53T	OK  	13	[839.0, -905.0, -845.0, 364.0, 541.0, -346.0, 862.0]
53F	OK  	11	[882.0, -576.0, 115.0, -492.0, 793.0, -924.0, 426.0]
55T	OK  	18959	[-562.71875, -784.21875, -337.09765625, -334.09765625, -32.66015625, 276.32275390625, 947.94970703125]
55F	OK  	13	[839.0, -905.0, -845.0, 364.0, 541.0, -346.0, 862.0]
57T	FAIL	100000	
57F	OK  	13	[839.0, -905.0, -845.0, 364.0, 541.0, -346.0, 862.0]
61T	OK  	13	[839.0, -905.0, -845.0, 364.0, 541.0, -346.0, 862.0]
61F	FAIL	100000	
66T	OK  	11	[882.0, -576.0, 115.0, -492.0, 793.0, -924.0, 426.0]
66F	OK  	13	[839.0, -905.0, -845.0, 364.0, 541.0, -346.0, 862.0]
68T	FAIL	100000	
68F	OK  	11	[882.0, -576.0, 115.0, -492.0, 793.0, -924.0, 426.0]
70T	FAIL	100000	
70F	OK  	11	[882.0, -576.0, 115.0, -492.0, 793.0, -924.0, 426.0]
74T	OK  	11	[882.0, -576.0, 115.0, -492.0, 793.0, -924.0, 426.0]
74F	OK  	12474	[140.609375, 706.65625, -663.88720703125, 706.8992919921875, -438.4999951171875, 281.01025390625, 425.8046875]
79T	OK  	13	[839.0, -905.0, -845.0, 364.0, 541.0, -346.0, 862.0]
79F	OK  	11	[882.0, -576.0, 115.0, -492.0, 793.0, -924.0, 426.0]
