Test object: org.iguanatool.casestudies.spice1.testobjects.clip_to_circle
7T	OK  	1	[43.0, 382.0, -731.0, -952.0, 961.0, 485.0, -53.0]
7F	OK  	93	[570.0, 516.0, -731.0, -952.0, 570.0, 516.0, -53.0]
10T	OK  	1	[43.0, 382.0, -731.0, -952.0, 961.0, 485.0, -53.0]
10F	OK  	115	[43.0, 382.0, 419.0, -410.0, 419.0, -410.0, -53.0]
13T	OK  	1	[43.0, 382.0, -731.0, -952.0, 961.0, 485.0, -53.0]
13F	OK  	67	[809.0, -514.0, -731.0, -952.0, -62.0, -538.0, -53.0]
15T	OK  	1	[43.0, 382.0, -731.0, -952.0, 961.0, 485.0, -53.0]
15F	OK  	70	[43.0, 382.0, 803.0, -472.0, -62.0, -538.0, -53.0]
18T	OK  	60	[-980.0, 893.0, 292.0, -983.0, -62.0, -538.0, -53.0]
18F	OK  	1	[43.0, 382.0, -731.0, -952.0, 961.0, 485.0, -53.0]
20T	OK  	63	[554.0, -641.0, -986.0, 71.0, -62.0, -538.0, -53.0]
20F	OK  	1	[43.0, 382.0, -731.0, -952.0, 961.0, 485.0, -53.0]
22T	OK  	19	[554.0, 127.0, -731.0, -952.0, 961.0, 485.0, -53.0]
22F	OK  	1	[43.0, 382.0, -731.0, -952.0, 961.0, 485.0, -53.0]
40T	OK  	31	[-813.0, -102.0, -186.0, -654.0, 405.0, 504.0, 588.0]
40F	OK  	1	[43.0, 382.0, -731.0, -952.0, 961.0, 485.0, -53.0]
42T	OK  	39768	[120.0, 196.0, 834.0, -875.0, 400.0, -224.0, -198.0]
42F	OK  	31	[-813.0, -102.0, -186.0, -654.0, 405.0, 504.0, 588.0]
44T	FAIL	100000	
44F	OK  	31	[-813.0, -102.0, -186.0, -654.0, 405.0, 504.0, 588.0]
48T	OK  	1	[43.0, 382.0, -731.0, -952.0, 961.0, 485.0, -53.0]
48F	OK  	22	[-980.0, -641.0, -731.0, -952.0, 961.0, 485.0, -53.0]
51T	OK  	1	[43.0, 382.0, -731.0, -952.0, 961.0, 485.0, -53.0]
51F	OK  	57	[554.0, 509.0, -731.0, -952.0, 577.0, 516.0, 74.0]
53T	OK  	149	[-471.0, -766.0, -47.0, 819.0, -465.0, -786.0, 39.0]
53F	OK  	57	[554.0, 509.0, -731.0, -952.0, 577.0, 516.0, 74.0]
55T	OK  	6961	[-791.0, -183.0, 102.0, 710.0, -787.0, -179.0, 150.0]
55F	OK  	149	[-471.0, -766.0, -47.0, 819.0, -465.0, -786.0, 39.0]
57T	FAIL	100000	
57F	OK  	149	[-471.0, -766.0, -47.0, 819.0, -465.0, -786.0, 39.0]
61T	OK  	149	[-471.0, -766.0, -47.0, 819.0, -465.0, -786.0, 39.0]
61F	FAIL	100000	
66T	OK  	57	[554.0, 509.0, -731.0, -952.0, 577.0, 516.0, 74.0]
66F	OK  	86	[554.0, 509.0, 292.0, 71.0, 577.0, 516.0, 970.0]
68T	OK  	634	[440.0, -298.0, -564.0, 204.0, -562.0, 203.0, 60.0]
68F	OK  	57	[554.0, 509.0, -731.0, -952.0, 577.0, 516.0, 74.0]
70T	FAIL	100000	
70F	OK  	57	[554.0, 509.0, -731.0, -952.0, 577.0, 516.0, 74.0]
74T	OK  	57	[554.0, 509.0, -731.0, -952.0, 577.0, 516.0, 74.0]
74F	FAIL	100000	
79T	OK  	122	[-471.0, -766.0, -47.0, 819.0, -465.0, -786.0, 39.0]
79F	OK  	57	[554.0, 509.0, -731.0, -952.0, 577.0, 516.0, 74.0]
