Test object: org.iguanatool.casestudies.spice1.testobjects.clip_to_circle
7T	OK  	1	[-978.0, 371.0, -994.0, 887.0, 822.0, -510.0, -210.0]
7F	OK  	90	[53.0, -525.0, -994.0, 887.0, 53.0, -525.0, -210.0]
10T	OK  	1	[-978.0, 371.0, -994.0, 887.0, 822.0, -510.0, -210.0]
10F	OK  	116	[-978.0, 371.0, 61.0, -256.0, 61.0, -256.0, -210.0]
13T	OK  	69	[556.0, 371.0, -994.0, 887.0, -201.0, 513.0, -210.0]
13F	OK  	1	[-978.0, 371.0, -994.0, 887.0, 822.0, -510.0, -210.0]
15T	OK  	70	[-978.0, 371.0, 540.0, 439.0, -201.0, 513.0, -210.0]
15F	OK  	1	[-978.0, 371.0, -994.0, 887.0, 822.0, -510.0, -210.0]
18T	OK  	69	[300.0, 882.0, -997.0, -136.0, -201.0, 513.0, -210.0]
18F	OK  	1	[-978.0, 371.0, -994.0, 887.0, 822.0, -510.0, -210.0]
20T	OK  	68	[-738.0, -652.0, 29.0, 950.0, -201.0, 513.0, -210.0]
20F	OK  	1	[-978.0, 371.0, -994.0, 887.0, 822.0, -510.0, -210.0]
22T	OK  	1	[-978.0, 371.0, -994.0, 887.0, 822.0, -510.0, -210.0]
22F	OK  	12	[45.0, 371.0, -994.0, 887.0, 822.0, -510.0, -210.0]
40T	OK  	46	[555.0, 506.0, -233.0, -920.0, -30.0, -522.0, 239.0]
40F	OK  	1	[-978.0, 371.0, -994.0, 887.0, 822.0, -510.0, -210.0]
42T	OK  	6204	[-534.0, 788.0, -990.0, -960.0, -696.0, 167.0, -505.0]
42F	OK  	46	[555.0, 506.0, -233.0, -920.0, -30.0, -522.0, 239.0]
44T	FAIL	100000	
44F	OK  	46	[555.0, 506.0, -233.0, -920.0, -30.0, -522.0, 239.0]
48T	OK  	20	[-993.0, 882.0, -987.0, 887.0, 822.0, -510.0, -210.0]
48F	OK  	1	[-978.0, 371.0, -994.0, 887.0, 822.0, -510.0, -210.0]
51T	OK  	1	[-978.0, 371.0, -994.0, 887.0, 822.0, -510.0, -210.0]
51F	OK  	68	[45.0, -525.0, -994.0, 887.0, 54.0, -525.0, 45.0]
53T	OK  	68	[45.0, -525.0, -994.0, 887.0, 54.0, -525.0, 45.0]
53F	OK  	95	[45.0, -525.0, 29.0, -136.0, 54.0, -525.0, 813.0]
55T	OK  	3755	[-418.0, -215.0, -388.0, 955.0, -417.0, -176.0, 248.0]
55F	OK  	68	[45.0, -525.0, -994.0, 887.0, 54.0, -525.0, 45.0]
57T	FAIL	100000	
57F	OK  	68	[45.0, -525.0, -994.0, 887.0, 54.0, -525.0, 45.0]
61T	OK  	68	[45.0, -525.0, -994.0, 887.0, 54.0, -525.0, 45.0]
61F	FAIL	100000	
66T	OK  	226	[570.0, 492.0, 582.0, 651.0, 173.0, -152.0, 889.0]
66F	OK  	68	[45.0, -525.0, -994.0, 887.0, 54.0, -525.0, 45.0]
68T	OK  	21411	[703.0, -622.0, 1.0, -739.0, 697.0, -623.0, 19.0]
68F	OK  	226	[570.0, 492.0, 582.0, 651.0, 173.0, -152.0, 889.0]
70T	FAIL	100000	
70F	OK  	226	[570.0, 492.0, 582.0, 651.0, 173.0, -152.0, 889.0]
74T	OK  	226	[570.0, 492.0, 582.0, 651.0, 173.0, -152.0, 889.0]
74F	FAIL	100000	
79T	OK  	68	[45.0, -525.0, -994.0, 887.0, 54.0, -525.0, 45.0]
79F	OK  	127	[-74.0, -24.0, 728.0, -505.0, 728.0, -447.0, 493.0]
