Test object: org.iguanatool.casestudies.spice1.testobjects.clip_to_circle
7T	OK  	1	[955.0, -386.0, -595.0, 925.0, 800.0, -96.0, 849.0]
7F	OK  	9205	[-578.5625, -615.1603393554688, 206.78125, 736.3144226074219, -578.76953125, -615.75, -510.0]
10T	OK  	1	[955.0, -386.0, -595.0, 925.0, 800.0, -96.0, 849.0]
10F	OK  	13532	[279.0030517578125, -389.99998400878906, -981.38720703125, 444.79462890625, -981.0, 444.29094238281255, -687.0645263671875]
13T	OK  	1	[955.0, -386.0, -595.0, 925.0, 800.0, -96.0, 849.0]
13F	OK  	4	[-266.0, 826.0, -958.0, -261.0, 885.0, 619.0, 205.0]
15T	OK  	2	[-21.0, -297.0, 9.0, 116.0, -519.0, 684.0, 438.0]
15F	OK  	1	[955.0, -386.0, -595.0, 925.0, 800.0, -96.0, 849.0]
18T	OK  	8	[272.0, 383.0, 805.0, 48.0, 371.0, 58.0, -676.0]
18F	OK  	1	[955.0, -386.0, -595.0, 925.0, 800.0, -96.0, 849.0]
20T	OK  	3	[489.0, -769.0, 608.0, 462.0, -182.0, -258.0, 266.0]
20F	OK  	1	[955.0, -386.0, -595.0, 925.0, 800.0, -96.0, 849.0]
22T	OK  	1	[955.0, -386.0, -595.0, 925.0, 800.0, -96.0, 849.0]
22F	OK  	2	[-21.0, -297.0, 9.0, 116.0, -519.0, 684.0, 438.0]
40T	OK  	3	[489.0, -769.0, 608.0, 462.0, -182.0, -258.0, 266.0]
40F	OK  	1	[955.0, -386.0, -595.0, 925.0, 800.0, -96.0, 849.0]
42T	OK  	8419	[-240.853515625, 201.0, 450.0, 205.0, 105.9969482421875, 203.756103515625, 391.118896484375]
42F	OK  	3	[489.0, -769.0, 608.0, 462.0, -182.0, -258.0, 266.0]
44T	FAIL	100000	
44F	OK  	3	[489.0, -769.0, 608.0, 462.0, -182.0, -258.0, 266.0]
48T	OK  	4	[-266.0, 826.0, -958.0, -261.0, 885.0, 619.0, 205.0]
48F	OK  	1	[955.0, -386.0, -595.0, 925.0, 800.0, -96.0, 849.0]
51T	OK  	2	[-21.0, -297.0, 9.0, 116.0, -519.0, 684.0, 438.0]
51F	OK  	1	[955.0, -386.0, -595.0, 925.0, 800.0, -96.0, 849.0]
53T	OK  	1	[955.0, -386.0, -595.0, 925.0, 800.0, -96.0, 849.0]
53F	OK  	9	[-260.0, -619.0, -428.0, -595.0, -273.0, 112.0, 857.0]
55T	FAIL	100000	
55F	OK  	1	[955.0, -386.0, -595.0, 925.0, 800.0, -96.0, 849.0]
57T	FAIL	100000	
57F	OK  	1	[955.0, -386.0, -595.0, 925.0, 800.0, -96.0, 849.0]
61T	OK  	1	[955.0, -386.0, -595.0, 925.0, 800.0, -96.0, 849.0]
61F	FAIL	100000	
66T	OK  	13	[-784.0, 966.0, 390.0, -218.0, -470.0, 708.0, 583.0]
66F	OK  	1	[955.0, -386.0, -595.0, 925.0, 800.0, -96.0, 849.0]
68T	FAIL	100000	
68F	OK  	13	[-784.0, 966.0, 390.0, -218.0, -470.0, 708.0, 583.0]
70T	FAIL	100000	
70F	OK  	13	[-784.0, 966.0, 390.0, -218.0, -470.0, 708.0, 583.0]
74T	OK  	13	[-784.0, 966.0, 390.0, -218.0, -470.0, 708.0, 583.0]
74F	FAIL	100000	
79T	OK  	1	[955.0, -386.0, -595.0, 925.0, 800.0, -96.0, 849.0]
79F	OK  	13	[-784.0, 966.0, 390.0, -218.0, -470.0, 708.0, 583.0]
