Test object: org.iguanatool.casestudies.spice1.testobjects.clip_to_circle
7T	OK  	1	[995.0, -966.0, 179.0, -320.0, 214.0, 931.0, -910.0]
7F	FAIL	100000	
10T	OK  	1	[995.0, -966.0, 179.0, -320.0, 214.0, 931.0, -910.0]
10F	FAIL	100000	
13T	OK  	1	[995.0, -966.0, 179.0, -320.0, 214.0, 931.0, -910.0]
13F	OK  	2	[936.0, 979.0, 262.0, -451.0, -901.0, 62.0, 23.0]
15T	OK  	1	[995.0, -966.0, 179.0, -320.0, 214.0, 931.0, -910.0]
15F	OK  	3	[88.0, -105.0, -331.0, 923.0, 28.0, 386.0, -947.0]
18T	OK  	2	[936.0, 979.0, 262.0, -451.0, -901.0, 62.0, 23.0]
18F	OK  	1	[995.0, -966.0, 179.0, -320.0, 214.0, 931.0, -910.0]
20T	OK  	9	[423.0, -620.0, 988.0, 676.0, 226.0, 407.0, 610.0]
20F	OK  	1	[995.0, -966.0, 179.0, -320.0, 214.0, 931.0, -910.0]
22T	OK  	1	[995.0, -966.0, 179.0, -320.0, 214.0, 931.0, -910.0]
22F	OK  	5	[897.0, 262.0, 152.0, 238.0, 483.0, -514.0, -521.0]
40T	OK  	3	[88.0, -105.0, -331.0, 923.0, 28.0, 386.0, -947.0]
40F	OK  	1	[995.0, -966.0, 179.0, -320.0, 214.0, 931.0, -910.0]
42T	FAIL	100000	
42F	OK  	3	[88.0, -105.0, -331.0, 923.0, 28.0, 386.0, -947.0]
44T	FAIL	100000	
44F	OK  	3	[88.0, -105.0, -331.0, 923.0, 28.0, 386.0, -947.0]
48T	OK  	1	[995.0, -966.0, 179.0, -320.0, 214.0, 931.0, -910.0]
48F	OK  	24	[-589.0, -806.0, -181.0, -542.0, -577.0, 909.0, -97.0]
51T	OK  	1	[995.0, -966.0, 179.0, -320.0, 214.0, 931.0, -910.0]
51F	OK  	4	[-601.0, -357.0, -633.0, -826.0, -681.0, -792.0, 414.0]
53T	OK  	9	[423.0, -620.0, 988.0, 676.0, 226.0, 407.0, 610.0]
53F	OK  	4	[-601.0, -357.0, -633.0, -826.0, -681.0, -792.0, 414.0]
55T	FAIL	100000	
55F	OK  	9	[423.0, -620.0, 988.0, 676.0, 226.0, 407.0, 610.0]
57T	FAIL	100000	
57F	OK  	9	[423.0, -620.0, 988.0, 676.0, 226.0, 407.0, 610.0]
61T	OK  	9	[423.0, -620.0, 988.0, 676.0, 226.0, 407.0, 610.0]
61F	FAIL	100000	
66T	OK  	4	[-601.0, -357.0, -633.0, -826.0, -681.0, -792.0, 414.0]
66F	OK  	39	[-197.0, -858.0, 2.0, -916.0, -523.0, -338.0, 920.0]
68T	FAIL	100000	
68F	OK  	4	[-601.0, -357.0, -633.0, -826.0, -681.0, -792.0, 414.0]
70T	FAIL	100000	
70F	OK  	4	[-601.0, -357.0, -633.0, -826.0, -681.0, -792.0, 414.0]
74T	OK  	4	[-601.0, -357.0, -633.0, -826.0, -681.0, -792.0, 414.0]
74F	FAIL	100000	
79T	OK  	4	[-601.0, -357.0, -633.0, -826.0, -681.0, -792.0, 414.0]
79F	OK  	9	[423.0, -620.0, 988.0, 676.0, 226.0, 407.0, 610.0]
