Test object: org.iguanatool.casestudies.spice1.testobjects.clip_to_circle
7T	OK  	1	[-968.0, 232.0, -110.0, 62.0, -302.0, -729.0, 786.0]
7F	FAIL	100000	
10T	OK  	1	[-968.0, 232.0, -110.0, 62.0, -302.0, -729.0, 786.0]
10F	FAIL	100000	
13T	OK  	2	[370.0, -12.0, 996.0, -918.0, -690.0, 289.0, 818.0]
13F	OK  	1	[-968.0, 232.0, -110.0, 62.0, -302.0, -729.0, 786.0]
15T	OK  	2	[370.0, -12.0, 996.0, -918.0, -690.0, 289.0, 818.0]
15F	OK  	1	[-968.0, 232.0, -110.0, 62.0, -302.0, -729.0, 786.0]
18T	OK  	9	[504.0, 555.0, -534.0, -689.0, -630.0, -580.0, -867.0]
18F	OK  	1	[-968.0, 232.0, -110.0, 62.0, -302.0, -729.0, 786.0]
20T	OK  	11	[-713.0, -687.0, 370.0, 570.0, -614.0, -277.0, 155.0]
20F	OK  	1	[-968.0, 232.0, -110.0, 62.0, -302.0, -729.0, 786.0]
22T	OK  	1	[-968.0, 232.0, -110.0, 62.0, -302.0, -729.0, 786.0]
22F	OK  	3	[-266.0, 903.0, -605.0, -567.0, -286.0, -133.0, -440.0]
40T	OK  	3	[-266.0, 903.0, -605.0, -567.0, -286.0, -133.0, -440.0]
40F	OK  	1	[-968.0, 232.0, -110.0, 62.0, -302.0, -729.0, 786.0]
42T	FAIL	100000	
42F	OK  	3	[-266.0, 903.0, -605.0, -567.0, -286.0, -133.0, -440.0]
44T	FAIL	100000	
44F	OK  	3	[-266.0, 903.0, -605.0, -567.0, -286.0, -133.0, -440.0]
48T	OK  	1	[-968.0, 232.0, -110.0, 62.0, -302.0, -729.0, 786.0]
48F	OK  	2	[370.0, -12.0, 996.0, -918.0, -690.0, 289.0, 818.0]
51T	OK  	1	[-968.0, 232.0, -110.0, 62.0, -302.0, -729.0, 786.0]
51F	OK  	10	[-477.0, 16.0, 153.0, -668.0, 502.0, 194.0, 914.0]
53T	OK  	10	[-477.0, 16.0, 153.0, -668.0, 502.0, 194.0, 914.0]
53F	OK  	24	[348.0, -613.0, 348.0, -165.0, 920.0, -42.0, 691.0]
55T	FAIL	100000	
55F	OK  	10	[-477.0, 16.0, 153.0, -668.0, 502.0, 194.0, 914.0]
57T	FAIL	100000	
57F	OK  	10	[-477.0, 16.0, 153.0, -668.0, 502.0, 194.0, 914.0]
61T	OK  	10	[-477.0, 16.0, 153.0, -668.0, 502.0, 194.0, 914.0]
61F	FAIL	100000	
66T	OK  	10	[-477.0, 16.0, 153.0, -668.0, 502.0, 194.0, 914.0]
66F	OK  	19	[-853.0, 92.0, -637.0, 585.0, -566.0, -386.0, 932.0]
68T	FAIL	100000	
68F	OK  	10	[-477.0, 16.0, 153.0, -668.0, 502.0, 194.0, 914.0]
70T	FAIL	100000	
70F	OK  	10	[-477.0, 16.0, 153.0, -668.0, 502.0, 194.0, 914.0]
74T	OK  	10	[-477.0, 16.0, 153.0, -668.0, 502.0, 194.0, 914.0]
74F	FAIL	100000	
79T	OK  	19	[-853.0, 92.0, -637.0, 585.0, -566.0, -386.0, 932.0]
79F	OK  	10	[-477.0, 16.0, 153.0, -668.0, 502.0, 194.0, 914.0]
