Test object: org.iguanatool.casestudies.spice1.testobjects.clip_to_circle
7T	OK  	1	[-69.0, -139.0, -574.0, -594.0, 336.0, -397.0, -680.0]
7F	OK  	65	[457.0, -142.0, -574.0, -594.0, 457.0, -142.0, -680.0]
10T	OK  	1	[-69.0, -139.0, -574.0, -594.0, 336.0, -397.0, -680.0]
10F	OK  	89	[-69.0, -139.0, 464.0, -590.0, 464.0, -590.0, -680.0]
13T	OK  	21	[954.0, -650.0, -574.0, -594.0, 336.0, -397.0, -680.0]
13F	OK  	1	[-69.0, -139.0, -574.0, -594.0, 336.0, -397.0, -680.0]
15T	OK  	1	[-69.0, -139.0, -574.0, -594.0, 336.0, -397.0, -680.0]
15F	OK  	25	[-69.0, -139.0, 449.0, -339.0, 336.0, -397.0, -680.0]
18T	OK  	19	[954.0, -266.0, -574.0, -594.0, 336.0, -397.0, -680.0]
18F	OK  	1	[-69.0, -139.0, -574.0, -594.0, 336.0, -397.0, -680.0]
20T	OK  	51	[-580.0, -650.0, -829.0, 429.0, -687.0, -397.0, -680.0]
20F	OK  	1	[-69.0, -139.0, -574.0, -594.0, 336.0, -397.0, -680.0]
22T	OK  	20	[-580.0, -650.0, -574.0, -594.0, 336.0, -397.0, -680.0]
22F	OK  	1	[-69.0, -139.0, -574.0, -594.0, 336.0, -397.0, -680.0]
40T	OK  	76	[198.0, 127.0, -537.0, 883.0, -142.0, 511.0, -123.0]
40F	OK  	1	[-69.0, -139.0, -574.0, -594.0, 336.0, -397.0, -680.0]
42T	OK  	17403	[-315.0, 910.0, 829.0, 416.0, 81.0, 739.0, 692.0]
42F	OK  	76	[198.0, 127.0, -537.0, 883.0, -142.0, 511.0, -123.0]
44T	FAIL	100000	
44F	OK  	76	[198.0, 127.0, -537.0, 883.0, -142.0, 511.0, -123.0]
48T	OK  	1	[-69.0, -139.0, -574.0, -594.0, 336.0, -397.0, -680.0]
48F	OK  	92	[-942.0, -936.0, 567.0, -292.0, 612.0, 298.0, 784.0]
51T	OK  	1	[-69.0, -139.0, -574.0, -594.0, 336.0, -397.0, -680.0]
51F	OK  	43	[954.0, -263.0, -573.0, -594.0, 336.0, -397.0, 343.0]
53T	OK  	43	[954.0, -263.0, -573.0, -594.0, 336.0, -397.0, 343.0]
53F	OK  	52	[443.0, -263.0, -573.0, -594.0, 336.0, -397.0, 343.0]
55T	OK  	4432	[740.0, -412.0, -669.0, 997.0, 738.0, -410.0, 222.0]
55F	OK  	43	[954.0, -263.0, -573.0, -594.0, 336.0, -397.0, 343.0]
57T	FAIL	100000	
57F	OK  	43	[954.0, -263.0, -573.0, -594.0, 336.0, -397.0, 343.0]
61T	OK  	43	[954.0, -263.0, -573.0, -594.0, 336.0, -397.0, 343.0]
61F	FAIL	100000	
66T	OK  	43	[954.0, -263.0, -573.0, -594.0, 336.0, -397.0, 343.0]
66F	OK  	82	[955.0, -390.0, -573.0, -594.0, 463.0, -390.0, 598.0]
68T	OK  	15626	[901.0, 600.0, -624.0, -925.0, 870.0, 569.0, 625.0]
68F	OK  	43	[954.0, -263.0, -573.0, -594.0, 336.0, -397.0, 343.0]
70T	FAIL	100000	
70F	OK  	43	[954.0, -263.0, -573.0, -594.0, 336.0, -397.0, 343.0]
74T	OK  	43	[954.0, -263.0, -573.0, -594.0, 336.0, -397.0, 343.0]
74F	FAIL	100000	
79T	OK  	45	[955.0, -263.0, -573.0, -594.0, 336.0, -397.0, 343.0]
79F	OK  	43	[954.0, -263.0, -573.0, -594.0, 336.0, -397.0, 343.0]
