Test object: org.iguanatool.casestudies.toms708.testobjects.bratio
7T	OK  	6	[5.2, -69.8, 64.7, 72.8, 35.4, -44.7, 0.0, 1.0]
7F	OK  	1	[51.7, 15.6, -97.1, -92.1, 28.5, -40.7, 0.0, 1.0]
10T	FAIL	100000	
10F	OK  	1	[51.7, 15.6, -97.1, -92.1, 28.5, -40.7, 0.0, 1.0]
13T	OK  	1	[51.7, 15.6, -97.1, -92.1, 28.5, -40.7, 0.0, 1.0]
13F	OK  	15	[89.9, 28.0, 0.8, 94.3, -28.5, 76.4, 0.0, 1.0]
16T	OK  	15	[89.9, 28.0, 0.8, 94.3, -28.5, 76.4, 0.0, 1.0]
16F	OK  	7116	[80.0, 84.6974609375, 0.8, 0.16040618896484382, -97.69996481323243, -8.3, 0.05033874511718751, 0.0]
20T	OK  	7116	[80.0, 84.6974609375, 0.8, 0.16040618896484382, -97.69996481323243, -8.3, 0.05033874511718751, 0.0]
20F	OK  	24430	[79.94215319824218, 31.901251922607422, 0.8395960693359374, 0.16040393066406256, -26.12499853515625, 96.57938006591797, 4.992379760742187E-4, 4.8828125E-9]
25T	FAIL	100000	
25F	OK  	24430	[79.94215319824218, 31.901251922607422, 0.8395960693359374, 0.16040393066406256, -26.12499853515625, 96.57938006591797, 4.992379760742187E-4, 4.8828125E-9]
27T	FAIL	100000	
27F	OK  	24430	[79.94215319824218, 31.901251922607422, 0.8395960693359374, 0.16040393066406256, -26.12499853515625, 96.57938006591797, 4.992379760742187E-4, 4.8828125E-9]
29T	FAIL	100000	
29F	OK  	24430	[79.94215319824218, 31.901251922607422, 0.8395960693359374, 0.16040393066406256, -26.12499853515625, 96.57938006591797, 4.992379760742187E-4, 4.8828125E-9]
31T	FAIL	100000	
31F	OK  	24430	[79.94215319824218, 31.901251922607422, 0.8395960693359374, 0.16040393066406256, -26.12499853515625, 96.57938006591797, 4.992379760742187E-4, 4.8828125E-9]
34T	FAIL	100000	
34F	OK  	24430	[79.94215319824218, 31.901251922607422, 0.8395960693359374, 0.16040393066406256, -26.12499853515625, 96.57938006591797, 4.992379760742187E-4, 4.8828125E-9]
35T	FAIL	100000	
35F	FAIL	100000	
42T	OK  	37526	[79.41577029418944, 0.7212165222167961, 0.839595977783203, 0.16040402221679695, -21.7483212890625, 95.07888006591797, 0.1751434326171875, 0.0]
42F	OK  	24430	[79.94215319824218, 31.901251922607422, 0.8395960693359374, 0.16040393066406256, -26.12499853515625, 96.57938006591797, 4.992379760742187E-4, 4.8828125E-9]
44T	OK  	37526	[79.41577029418944, 0.7212165222167961, 0.839595977783203, 0.16040402221679695, -21.7483212890625, 95.07888006591797, 0.1751434326171875, 0.0]
44F	FAIL	100000	
48T	FAIL	100000	
48F	OK  	37526	[79.41577029418944, 0.7212165222167961, 0.839595977783203, 0.16040402221679695, -21.7483212890625, 95.07888006591797, 0.1751434326171875, 0.0]
53T	FAIL	100000	
53F	OK  	37526	[79.41577029418944, 0.7212165222167961, 0.839595977783203, 0.16040402221679695, -21.7483212890625, 95.07888006591797, 0.1751434326171875, 0.0]
57T	OK  	37526	[79.41577029418944, 0.7212165222167961, 0.839595977783203, 0.16040402221679695, -21.7483212890625, 95.07888006591797, 0.1751434326171875, 0.0]
57F	OK  	46793	[0.42598164062499677, 0.6430915222167961, 0.839595977783203, 0.16040402221679695, -26.15110891723633, 96.41936285400391, 0.0017211914062500028, 1.52587890625E-6]
59T	OK  	58193	[0.22944843749999677, 1.863794647216796, 0.839595977783203, 0.16040402221679695, -49.84190481567383, 96.49809820556641, 0.07404379302978517, 0.09374237060546875]
59F	OK  	37526	[79.41577029418944, 0.7212165222167961, 0.839595977783203, 0.16040402221679695, -21.7483212890625, 95.07888006591797, 0.1751434326171875, 0.0]
61T	FAIL	100000	
61F	OK  	37526	[79.41577029418944, 0.7212165222167961, 0.839595977783203, 0.16040402221679695, -21.7483212890625, 95.07888006591797, 0.1751434326171875, 0.0]
63T	FAIL	100000	
63F	OK  	37526	[79.41577029418944, 0.7212165222167961, 0.839595977783203, 0.16040402221679695, -21.7483212890625, 95.07888006591797, 0.1751434326171875, 0.0]
64T	FAIL	100000	
64F	FAIL	100000	
66T	FAIL	100000	
66F	FAIL	100000	
70T	OK  	46793	[0.42598164062499677, 0.6430915222167961, 0.839595977783203, 0.16040402221679695, -26.15110891723633, 96.41936285400391, 0.0017211914062500028, 1.52587890625E-6]
70F	OK  	47344	[0.43086445312499677, 0.1877692565917961, 0.839595977783203, 0.16040402221679695, -26.13218801879883, 96.41936285400391, 0.0, 1.52587890625E-6]
72T	OK  	47344	[0.43086445312499677, 0.1877692565917961, 0.839595977783203, 0.16040402221679695, -26.13218801879883, 96.41936285400391, 0.0, 1.52587890625E-6]
72F	OK  	48401	[0.42598164062499677, 0.026636444091796108, 0.839595977783203, 0.16040402221679695, -26.15110891723633, 96.57622320556641, 0.037173461914062504, 1.52587890625E-6]
74T	FAIL	100000	
74F	OK  	48401	[0.42598164062499677, 0.026636444091796108, 0.839595977783203, 0.16040402221679695, -26.15110891723633, 96.57622320556641, 0.037173461914062504, 1.52587890625E-6]
84T	OK  	24430	[79.94215319824218, 31.901251922607422, 0.8395960693359374, 0.16040393066406256, -26.12499853515625, 96.57938006591797, 4.992379760742187E-4, 4.8828125E-9]
84F	OK  	24674	[79.3333984375, 82.92469580078125, 0.839595977783203, 0.16040402221679695, -26.125000244140626, 96.57888006591797, 4.992770385742187E-4, 0.0]
88T	OK  	24430	[79.94215319824218, 31.901251922607422, 0.8395960693359374, 0.16040393066406256, -26.12499853515625, 96.57938006591797, 4.992379760742187E-4, 4.8828125E-9]
88F	OK  	63945	[79.36007768554688, 11.833958984374998, 0.839595977783203, 0.16040402221679695, -26.124814013671877, 96.57933001708986, 0.0012654875640869142, 1.5963069152832033E-4]
93T	OK  	31331	[30.18047717285156, 26.65079345703125, 0.839595977783203, 0.16040402221679695, -26.125, 96.58132934570312, 0.050143432617187504, 5.859375E-6]
93F	OK  	24430	[79.94215319824218, 31.901251922607422, 0.8395960693359374, 0.16040393066406256, -26.12499853515625, 96.57938006591797, 4.992379760742187E-4, 4.8828125E-9]
95T	FAIL	100000	
95F	OK  	31331	[30.18047717285156, 26.65079345703125, 0.839595977783203, 0.16040402221679695, -26.125, 96.58132934570312, 0.050143432617187504, 5.859375E-6]
98T	OK  	24674	[79.3333984375, 82.92469580078125, 0.839595977783203, 0.16040402221679695, -26.125000244140626, 96.57888006591797, 4.992770385742187E-4, 0.0]
98F	OK  	24430	[79.94215319824218, 31.901251922607422, 0.8395960693359374, 0.16040393066406256, -26.12499853515625, 96.57938006591797, 4.992379760742187E-4, 4.8828125E-9]
100T	OK  	24674	[79.3333984375, 82.92469580078125, 0.839595977783203, 0.16040402221679695, -26.125000244140626, 96.57888006591797, 4.992770385742187E-4, 0.0]
100F	FAIL	100000	
102T	OK  	24430	[79.94215319824218, 31.901251922607422, 0.8395960693359374, 0.16040393066406256, -26.12499853515625, 96.57938006591797, 4.992379760742187E-4, 4.8828125E-9]
102F	FAIL	100000	
105T	FAIL	100000	
105F	FAIL	100000	
130T	FAIL	100000	
130F	OK  	31331	[30.18047717285156, 26.65079345703125, 0.839595977783203, 0.16040402221679695, -26.125, 96.58132934570312, 0.050143432617187504, 5.859375E-6]
135T	FAIL	100000	
135F	OK  	31331	[30.18047717285156, 26.65079345703125, 0.839595977783203, 0.16040402221679695, -26.125, 96.58132934570312, 0.050143432617187504, 5.859375E-6]
138T	OK  	31331	[30.18047717285156, 26.65079345703125, 0.839595977783203, 0.16040402221679695, -26.125, 96.58132934570312, 0.050143432617187504, 5.859375E-6]
138F	OK  	45229	[30.51372912597656, 4.15079650878906, 0.839595977783203, 0.16040402221679695, -28.63631742858887, 85.86231933593753, 4.873898315429686E-4, 0.0]
142T	OK  	52675	[7.09423449707031, 1.1039215087890604, 0.839595977783203, 0.16040402221679695, -27.3775947265625, 86.09760986328128, 0.1377166748046875, 5.859375E-6]
142F	OK  	45229	[30.51372912597656, 4.15079650878906, 0.839595977783203, 0.16040402221679695, -28.63631742858887, 85.86231933593753, 4.873898315429686E-4, 0.0]
151T	FAIL	100000	
151F	FAIL	100000	
159T	FAIL	100000	
159F	FAIL	100000	
167T	FAIL	100000	
167F	OK  	31331	[30.18047717285156, 26.65079345703125, 0.839595977783203, 0.16040402221679695, -26.125, 96.58132934570312, 0.050143432617187504, 5.859375E-6]
173T	FAIL	100000	
173F	FAIL	100000	
178T	OK  	24430	[79.94215319824218, 31.901251922607422, 0.8395960693359374, 0.16040393066406256, -26.12499853515625, 96.57938006591797, 4.992379760742187E-4, 4.8828125E-9]
178F	OK  	63945	[79.36007768554688, 11.833958984374998, 0.839595977783203, 0.16040402221679695, -26.124814013671877, 96.57933001708986, 0.0012654875640869142, 1.5963069152832033E-4]
Test object: org.iguanatool.casestudies.toms708.testobjects.psi
13T	FAIL	100000	
13F	OK  	1	[51.7]
17T	OK  	3	[-97.1]
17F	OK  	1	[51.7]
18T	OK  	10716	[-1.7764610244527627E-16]
18F	OK  	3	[-97.1]
19T	OK  	70178	[0.0]
19F	OK  	10716	[-1.7764610244527627E-16]
24T	OK  	1142	[0.07578125000000036]
24F	OK  	3	[-97.1]
27T	FAIL	100000	
27F	OK  	3	[-97.1]
34T	OK  	7	[-46.9]
34F	OK  	3	[-97.1]
38T	OK  	6	[-40.7]
38F	OK  	3	[-97.1]
43T	OK  	3	[-97.1]
43F	OK  	6	[-40.7]
44T	OK  	36	[-24.0]
44F	OK  	3	[-97.1]
49T	OK  	16	[-0.8]
49F	OK  	1	[51.7]
52T	OK  	16	[-0.8]
52F	OK  	16	[-0.8]
58T	OK  	1	[51.7]
58F	FAIL	100000	
62T	OK  	1	[51.7]
62F	OK  	1	[51.7]
