Test object: org.iguanatool.casestudies.toms708.testobjects.bratio
7T	OK  	1	[-87.1, 84.6, 55.2, -9.6, -11.5, 0.1, 1.0, 0.0]
7F	OK  	12	[15.20000000000001, 84.6, 55.2, -9.6, -11.5, 0.1, 1.0, 0.0]
10T	FAIL	100000	
10F	OK  	12	[15.20000000000001, 84.6, 55.2, -9.6, -11.5, 0.1, 1.0, 0.0]
13T	OK  	12	[15.20000000000001, 84.6, 55.2, -9.6, -11.5, 0.1, 1.0, 0.0]
13F	OK  	42	[15.20000000000001, 84.6, 0.9999999999999978, -9.6, -11.5, 0.1, 1.0, 0.0]
16T	OK  	42	[15.20000000000001, 84.6, 0.9999999999999978, -9.6, -11.5, 0.1, 1.0, 0.0]
16F	OK  	70	[15.20000000000001, 84.6, 0.9999999999999978, 2.220446049250313E-16, -11.5, 0.1, 1.0, 0.0]
20T	OK  	70	[15.20000000000001, 84.6, 0.9999999999999978, 2.220446049250313E-16, -11.5, 0.1, 1.0, 0.0]
20F	OK  	1967	[45.8, 34.4, 0.5000000000000002, 0.4999999999999995, 19.0, -37.0, 0.0, 1.0]
