Test object: org.iguanatool.casestudies.toms708.testobjects.bratio
7T	OK  	1	[-19.2, 75.3, 97.9, 83.2, -99.1, 38.8, 1.0, 0.0]
7F	OK  	2	[26.8, 97.4, 32.5, 25.6, 57.6, -64.4, 0.0, 1.0]
10T	FAIL	100000	
10F	OK  	2	[26.8, 97.4, 32.5, 25.6, 57.6, -64.4, 0.0, 1.0]
13T	OK  	2	[26.8, 97.4, 32.5, 25.6, 57.6, -64.4, 0.0, 1.0]
13F	OK  	1856	[75.198779296875, 70.2375, 0.049694824218750044, -52.178125, -19.3, -5.8, 0.09335937500000001, 1.0]
16T	OK  	1856	[75.198779296875, 70.2375, 0.049694824218750044, -52.178125, -19.3, -5.8, 0.09335937500000001, 1.0]
16F	OK  	6468	[75.198779296875, 91.090625, 0.049694824218750044, 0.3715698242187502, 67.499755859375, -26.8267578125, 0.07142333984375, 1.0]
20T	OK  	6468	[75.198779296875, 91.090625, 0.049694824218750044, 0.3715698242187502, 67.499755859375, -26.8267578125, 0.07142333984375, 1.0]
20F	OK  	21744	[75.51731201171876, 93.10084228515625, 0.6740008544921875, 0.32599914550781267, 67.49218322753906, -26.827773132324218, 0.106256201171875, 0.9999748291015625]
25T	FAIL	100000	
25F	OK  	21744	[75.51731201171876, 93.10084228515625, 0.6740008544921875, 0.32599914550781267, 67.49218322753906, -26.827773132324218, 0.106256201171875, 0.9999748291015625]
27T	FAIL	100000	
27F	OK  	21744	[75.51731201171876, 93.10084228515625, 0.6740008544921875, 0.32599914550781267, 67.49218322753906, -26.827773132324218, 0.106256201171875, 0.9999748291015625]
29T	FAIL	100000	
29F	OK  	21744	[75.51731201171876, 93.10084228515625, 0.6740008544921875, 0.32599914550781267, 67.49218322753906, -26.827773132324218, 0.106256201171875, 0.9999748291015625]
31T	FAIL	100000	
31F	OK  	21744	[75.51731201171876, 93.10084228515625, 0.6740008544921875, 0.32599914550781267, 67.49218322753906, -26.827773132324218, 0.106256201171875, 0.9999748291015625]
34T	FAIL	100000	
34F	OK  	21744	[75.51731201171876, 93.10084228515625, 0.6740008544921875, 0.32599914550781267, 67.49218322753906, -26.827773132324218, 0.106256201171875, 0.9999748291015625]
35T	FAIL	100000	
35F	FAIL	100000	
42T	OK  	46162	[72.0547540802002, 0.6637042846679719, 0.6740008544921875, 0.32599914550781267, 67.49227103881836, -27.515844750976562, 0.10663422851562498, 0.999356048828125]
42F	OK  	21744	[75.51731201171876, 93.10084228515625, 0.6740008544921875, 0.32599914550781267, 67.49218322753906, -26.827773132324218, 0.106256201171875, 0.9999748291015625]
44T	OK  	46162	[72.0547540802002, 0.6637042846679719, 0.6740008544921875, 0.32599914550781267, 67.49227103881836, -27.515844750976562, 0.10663422851562498, 0.999356048828125]
44F	FAIL	100000	
48T	FAIL	100000	
48F	OK  	46162	[72.0547540802002, 0.6637042846679719, 0.6740008544921875, 0.32599914550781267, 67.49227103881836, -27.515844750976562, 0.10663422851562498, 0.999356048828125]
53T	FAIL	100000	
53F	OK  	46162	[72.0547540802002, 0.6637042846679719, 0.6740008544921875, 0.32599914550781267, 67.49227103881836, -27.515844750976562, 0.10663422851562498, 0.999356048828125]
57T	OK  	46162	[72.0547540802002, 0.6637042846679719, 0.6740008544921875, 0.32599914550781267, 67.49227103881836, -27.515844750976562, 0.10663422851562498, 0.999356048828125]
57F	OK  	57607	[0.5685480255126976, 0.33106268310547193, 0.6740008544921875, 0.32599914550781267, 67.49253164672852, -25.964012145996094, 0.05547608642578124, 0.9483975771484376]
59T	OK  	69292	[0.011785330200197563, 2.5473560180664094, 0.6740008544921875, 0.32599914550781267, 55.421674081420896, -27.64006805419922, 0.09242557830810548, 0.9491943911132813]
59F	OK  	46162	[72.0547540802002, 0.6637042846679719, 0.6740008544921875, 0.32599914550781267, 67.49227103881836, -27.515844750976562, 0.10663422851562498, 0.999356048828125]
61T	OK  	46162	[72.0547540802002, 0.6637042846679719, 0.6740008544921875, 0.32599914550781267, 67.49227103881836, -27.515844750976562, 0.10663422851562498, 0.999356048828125]
61F	OK  	77848	[85.19720959472657, 0.5590900268554719, 0.7366229248046875, 0.26337707519531267, 68.49969901733398, -26.110109887695312, 0.10939121704101562, 0.9999717099609374]
63T	FAIL	100000	
63F	OK  	77848	[85.19720959472657, 0.5590900268554719, 0.7366229248046875, 0.26337707519531267, 68.49969901733398, -26.110109887695312, 0.10939121704101562, 0.9999717099609374]
64T	FAIL	100000	
64F	FAIL	100000	
66T	FAIL	100000	
66F	FAIL	100000	
70T	OK  	57607	[0.5685480255126976, 0.33106268310547193, 0.6740008544921875, 0.32599914550781267, 67.49253164672852, -25.964012145996094, 0.05547608642578124, 0.9483975771484376]
70F	OK  	58451	[0.5685480255126976, 0.03809393310547193, 0.6740008544921875, 0.32599914550781267, 67.49253164672852, -25.964012145996094, 0.10748109130859373, 0.9483975771484376]
72T	OK  	62756	[0.6277521270751976, 0.12171209716797193, 0.6740008544921875, 0.32599914550781267, 67.49009024047852, -27.423071313476562, 0.20786103515625, 0.9507596376953126]
72F	OK  	58451	[0.5685480255126976, 0.03809393310547193, 0.6740008544921875, 0.32599914550781267, 67.49253164672852, -25.964012145996094, 0.10748109130859373, 0.9483975771484376]
74T	OK  	58451	[0.5685480255126976, 0.03809393310547193, 0.6740008544921875, 0.32599914550781267, 67.49253164672852, -25.964012145996094, 0.10748109130859373, 0.9483975771484376]
74F	FAIL	100000	
84T	OK  	22280	[75.51731201171876, 71.59469787597654, 0.6740008544921875, 0.32599914550781267, 67.49218322753906, -26.82683563232422, 0.106256005859375, 0.9996480712890625]
84F	OK  	21744	[75.51731201171876, 93.10084228515625, 0.6740008544921875, 0.32599914550781267, 67.49218322753906, -26.827773132324218, 0.106256201171875, 0.9999748291015625]
88T	OK  	21744	[75.51731201171876, 93.10084228515625, 0.6740008544921875, 0.32599914550781267, 67.49218322753906, -26.827773132324218, 0.106256201171875, 0.9999748291015625]
88F	OK  	26582	[75.51731201171876, 32.08095350341797, 0.6740008544921875, 0.32599914550781267, 67.499855859375, -26.826445007324217, 0.10625605310058593, 0.9999872491912843]
93T	OK  	26580	[75.49257812500001, 32.08091561279297, 0.6740008544921875, 0.32599914550781267, 67.499905859375, -26.82683563232422, 0.1062558751525879, 0.999981439453125]
93F	OK  	21744	[75.51731201171876, 93.10084228515625, 0.6740008544921875, 0.32599914550781267, 67.49218322753906, -26.827773132324218, 0.106256201171875, 0.9999748291015625]
95T	FAIL	100000	
95F	OK  	26580	[75.49257812500001, 32.08091561279297, 0.6740008544921875, 0.32599914550781267, 67.499905859375, -26.82683563232422, 0.1062558751525879, 0.999981439453125]
98T	OK  	21744	[75.51731201171876, 93.10084228515625, 0.6740008544921875, 0.32599914550781267, 67.49218322753906, -26.827773132324218, 0.106256201171875, 0.9999748291015625]
98F	OK  	22280	[75.51731201171876, 71.59469787597654, 0.6740008544921875, 0.32599914550781267, 67.49218322753906, -26.82683563232422, 0.106256005859375, 0.9996480712890625]
100T	OK  	21744	[75.51731201171876, 93.10084228515625, 0.6740008544921875, 0.32599914550781267, 67.49218322753906, -26.827773132324218, 0.106256201171875, 0.9999748291015625]
100F	FAIL	100000	
102T	OK  	22280	[75.51731201171876, 71.59469787597654, 0.6740008544921875, 0.32599914550781267, 67.49218322753906, -26.82683563232422, 0.106256005859375, 0.9996480712890625]
102F	FAIL	100000	
105T	FAIL	100000	
105F	FAIL	100000	
