Test object: org.iguanatool.casestudies.toms708.testobjects.bratio
7T	OK  	1	[-38.4, 28.5, 81.1, 81.8, -84.5, 4.4, 0.0, 0.0]
7F	OK  	11	[12.700000000000006, 28.5, 81.1, 81.8, -84.5, 4.4, 0.0, 0.0]
10T	FAIL	100000	
10F	OK  	11	[12.700000000000006, 28.5, 81.1, 81.8, -84.5, 4.4, 0.0, 0.0]
13T	OK  	11	[12.700000000000006, 28.5, 81.1, 81.8, -84.5, 4.4, 0.0, 0.0]
13F	OK  	81	[12.700000000000006, 28.5, 0.6999999999999892, 81.8, -84.5, 4.4, 0.0, 0.0]
16T	OK  	81	[12.700000000000006, 28.5, 0.6999999999999892, 81.8, -84.5, 4.4, 0.0, 0.0]
16F	OK  	151	[12.700000000000006, 28.5, 0.6999999999999892, 0.5999999999999919, -84.5, 4.4, 0.0, 0.0]
20T	OK  	151	[12.700000000000006, 28.5, 0.6999999999999892, 0.5999999999999919, -84.5, 4.4, 0.0, 0.0]
20F	OK  	4489	[71.8, 57.7, 0.49999999999999944, 0.5000000000000007, 46.6, 50.7, 0.0, 1.0]
