Test object: org.iguanatool.casestudies.toms708.testobjects.bratio
7T	OK  	7	[-2.0000000000000004, 38.2, -73.1, -95.2, 96.1, 48.5, 0.0, 0.0]
7F	OK  	1	[4.3, 38.2, -73.1, -95.2, 96.1, 48.5, 0.0, 0.0]
10T	FAIL	100000	
10F	OK  	1	[4.3, 38.2, -73.1, -95.2, 96.1, 48.5, 0.0, 0.0]
13T	OK  	1	[4.3, 38.2, -73.1, -95.2, 96.1, 48.5, 0.0, 0.0]
13F	OK  	55	[4.3, 38.2, 0.6000000000000063, -95.2, 96.1, 48.5, 0.0, 0.0]
16T	OK  	55	[4.3, 38.2, 0.6000000000000063, -95.2, 96.1, 48.5, 0.0, 0.0]
16F	OK  	86	[4.3, 38.2, 0.6000000000000063, 0.8000000000000016, 96.1, 48.5, 0.0, 0.0]
20T	OK  	86	[4.3, 38.2, 0.6000000000000063, 0.8000000000000016, 96.1, 48.5, 0.0, 0.0]
20F	OK  	711	[91.8, 6.6, 0.1, 0.9000000000000005, -91.8, 54.2, 0.0, 0.0]
