Test object: org.iguanatool.casestudies.toms708.testobjects.bratio
7T	OK  	1	[-6.9, -13.9, -57.4, -59.4, 33.6, -39.7, 0.0, 0.0]
7F	OK  	8	[85.2, 79.3, -3.9, 57.0, 49.4, -55.2, 0.0, 1.0]
10T	FAIL	100000	
10F	OK  	8	[85.2, 79.3, -3.9, 57.0, 49.4, -55.2, 0.0, 1.0]
13T	OK  	8	[85.2, 79.3, -3.9, 57.0, 49.4, -55.2, 0.0, 1.0]
13F	OK  	313	[85.2, 79.3, 0.6, 57.0, 49.4, -10.4, 0.0, 1.0]
16T	OK  	313	[85.2, 79.3, 0.6, 57.0, 49.4, -10.4, 0.0, 1.0]
16F	OK  	5591	[73.6, 8.698779296875, 0.2875, 0.25214841308593705, -70.580029296875, -35.7, 0.9996093749999999, 1.0]
20T	OK  	5591	[73.6, 8.698779296875, 0.2875, 0.25214841308593705, -70.580029296875, -35.7, 0.9996093749999999, 1.0]
20F	OK  	26539	[72.97300390625, 8.689605377197264, 0.11815791931152339, 0.8818420806884761, -75.73749829101564, -35.69993125, 0.0024702726135253914, 1.9836425781249996E-10]
25T	FAIL	100000	
25F	OK  	26539	[72.97300390625, 8.689605377197264, 0.11815791931152339, 0.8818420806884761, -75.73749829101564, -35.69993125, 0.0024702726135253914, 1.9836425781249996E-10]
27T	FAIL	100000	
27F	OK  	26539	[72.97300390625, 8.689605377197264, 0.11815791931152339, 0.8818420806884761, -75.73749829101564, -35.69993125, 0.0024702726135253914, 1.9836425781249996E-10]
29T	FAIL	100000	
29F	OK  	26539	[72.97300390625, 8.689605377197264, 0.11815791931152339, 0.8818420806884761, -75.73749829101564, -35.69993125, 0.0024702726135253914, 1.9836425781249996E-10]
31T	FAIL	100000	
31F	OK  	26539	[72.97300390625, 8.689605377197264, 0.11815791931152339, 0.8818420806884761, -75.73749829101564, -35.69993125, 0.0024702726135253914, 1.9836425781249996E-10]
34T	FAIL	100000	
34F	OK  	26539	[72.97300390625, 8.689605377197264, 0.11815791931152339, 0.8818420806884761, -75.73749829101564, -35.69993125, 0.0024702726135253914, 1.9836425781249996E-10]
35T	FAIL	100000	
35F	FAIL	100000	
42T	OK  	34691	[73.75435908203124, 0.417316851806639, 0.11815791931152339, 0.8818420806884761, -63.119560668945326, -56.334696875, 0.0024702735900878916, 1.2981842041015624E-5]
42F	OK  	26539	[72.97300390625, 8.689605377197264, 0.11815791931152339, 0.8818420806884761, -75.73749829101564, -35.69993125, 0.0024702726135253914, 1.9836425781249996E-10]
44T	FAIL	100000	
44F	OK  	34691	[73.75435908203124, 0.417316851806639, 0.11815791931152339, 0.8818420806884761, -63.119560668945326, -56.334696875, 0.0024702735900878916, 1.2981842041015624E-5]
48T	FAIL	100000	
48F	OK  	34691	[73.75435908203124, 0.417316851806639, 0.11815791931152339, 0.8818420806884761, -63.119560668945326, -56.334696875, 0.0024702735900878916, 1.2981842041015624E-5]
53T	FAIL	100000	
53F	OK  	34691	[73.75435908203124, 0.417316851806639, 0.11815791931152339, 0.8818420806884761, -63.119560668945326, -56.334696875, 0.0024702735900878916, 1.2981842041015624E-5]
57T	OK  	34691	[73.75435908203124, 0.417316851806639, 0.11815791931152339, 0.8818420806884761, -63.119560668945326, -56.334696875, 0.0024702735900878916, 1.2981842041015624E-5]
57F	OK  	44120	[0.42641718749999313, 0.441730914306639, 0.11815791931152339, 0.8818420806884761, -48.897148559570326, -51.0997802734375, 0.0024580665588378914, 0.009909713867187501]
59T	OK  	34691	[73.75435908203124, 0.417316851806639, 0.11815791931152339, 0.8818420806884761, -63.119560668945326, -56.334696875, 0.0024702735900878916, 1.2981842041015624E-5]
