Test object: org.iguanatool.casestudies.toms708.testobjects.bratio
7T	OK  	8	[38.3, -0.8000000000000005, 58.7, 40.3, -43.6, 51.0, 0.0, 1.0]
7F	OK  	1	[38.3, 2.3, 58.7, 40.3, -43.6, 51.0, 0.0, 1.0]
10T	FAIL	100000	
10F	OK  	1	[38.3, 2.3, 58.7, 40.3, -43.6, 51.0, 0.0, 1.0]
13T	OK  	1	[38.3, 2.3, 58.7, 40.3, -43.6, 51.0, 0.0, 1.0]
13F	OK  	51	[38.3, 2.3, 0.6000000000000015, 40.3, -43.6, 51.0, 0.0, 1.0]
16T	OK  	51	[38.3, 2.3, 0.6000000000000015, 40.3, -43.6, 51.0, 0.0, 1.0]
16F	OK  	100	[38.3, 2.3, 0.6000000000000015, 0.5999999999999923, -43.6, 51.0, 0.0, 1.0]
20T	OK  	100	[38.3, 2.3, 0.6000000000000015, 0.5999999999999923, -43.6, 51.0, 0.0, 1.0]
20F	OK  	3914	[35.9, 9.500000000000002, 0.4000000000000001, 0.6000000000000003, 67.8, -35.2, 0.0, 0.0]
