Test object: org.iguanatool.casestudies.toms708.testobjects.bratio
7T	OK  	1	[8.7, -15.1, 94.4, 91.6, -65.3, 16.5, 1.0, 0.0]
7F	OK  	4	[59.2, 21.9, -13.1, 88.7, -69.0, 49.1, 0.0, 0.0]
10T	FAIL	100000	
10F	OK  	4	[59.2, 21.9, -13.1, 88.7, -69.0, 49.1, 0.0, 0.0]
13T	OK  	4	[59.2, 21.9, -13.1, 88.7, -69.0, 49.1, 0.0, 0.0]
13F	OK  	142	[70.5, 94.0, 0.5, 78.4, -41.0, -39.7, 1.0, 1.0]
16T	OK  	142	[70.5, 94.0, 0.5, 78.4, -41.0, -39.7, 1.0, 1.0]
16F	OK  	902	[73.9, 78.4, 0.2, 0.6, 8.00040283203125, -72.9, 0.0, 0.0]
20T	OK  	902	[73.9, 78.4, 0.2, 0.6, 8.00040283203125, -72.9, 0.0, 0.0]
20F	OK  	8788	[79.45791015625001, 67.27421874999999, 0.4, 0.6, -43.199163818359374, 54.45004882812499, 0.0, 1.0]
25T	FAIL	100000	
25F	OK  	8788	[79.45791015625001, 67.27421874999999, 0.4, 0.6, -43.199163818359374, 54.45004882812499, 0.0, 1.0]
27T	FAIL	100000	
27F	OK  	8788	[79.45791015625001, 67.27421874999999, 0.4, 0.6, -43.199163818359374, 54.45004882812499, 0.0, 1.0]
29T	FAIL	100000	
29F	OK  	8788	[79.45791015625001, 67.27421874999999, 0.4, 0.6, -43.199163818359374, 54.45004882812499, 0.0, 1.0]
31T	FAIL	100000	
31F	OK  	8788	[79.45791015625001, 67.27421874999999, 0.4, 0.6, -43.199163818359374, 54.45004882812499, 0.0, 1.0]
34T	FAIL	100000	
34F	OK  	8788	[79.45791015625001, 67.27421874999999, 0.4, 0.6, -43.199163818359374, 54.45004882812499, 0.0, 1.0]
35T	FAIL	100000	
35F	FAIL	100000	
42T	OK  	19419	[0.5996833312988272, 22.616427978515624, 0.4, 0.6, -43.20619506835937, 54.48283691406249, 3.8328247070312495E-6, 7.3699951171875005E-9]
42F	OK  	8788	[79.45791015625001, 67.27421874999999, 0.4, 0.6, -43.199163818359374, 54.45004882812499, 0.0, 1.0]
44T	FAIL	100000	
44F	OK  	19419	[0.5996833312988272, 22.616427978515624, 0.4, 0.6, -43.20619506835937, 54.48283691406249, 3.8328247070312495E-6, 7.3699951171875005E-9]
48T	FAIL	100000	
48F	OK  	19419	[0.5996833312988272, 22.616427978515624, 0.4, 0.6, -43.20619506835937, 54.48283691406249, 3.8328247070312495E-6, 7.3699951171875005E-9]
53T	FAIL	100000	
53F	OK  	19419	[0.5996833312988272, 22.616427978515624, 0.4, 0.6, -43.20619506835937, 54.48283691406249, 3.8328247070312495E-6, 7.3699951171875005E-9]
57T	OK  	19419	[0.5996833312988272, 22.616427978515624, 0.4, 0.6, -43.20619506835937, 54.48283691406249, 3.8328247070312495E-6, 7.3699951171875005E-9]
57F	OK  	28036	[0.5996833312988272, 0.36590942382812486, 0.4, 0.6, -48.20650024414062, -52.501220703125, 3.8328247070312495E-6, 0.013476569869995118]
59T	OK  	39595	[1.2466559875488272, 0.9542883300781249, 0.4, 0.6, -72.54057004394531, -52.50244140625, 0.003125781066894532, 0.038577277877807625]
59F	OK  	19419	[0.5996833312988272, 22.616427978515624, 0.4, 0.6, -43.20619506835937, 54.48283691406249, 3.8328247070312495E-6, 7.3699951171875005E-9]
61T	OK  	19419	[0.5996833312988272, 22.616427978515624, 0.4, 0.6, -43.20619506835937, 54.48283691406249, 3.8328247070312495E-6, 7.3699951171875005E-9]
61F	FAIL	100000	
63T	FAIL	100000	
63F	FAIL	100000	
64T	FAIL	100000	
64F	FAIL	100000	
66T	FAIL	100000	
66F	FAIL	100000	
70T	OK  	28036	[0.5996833312988272, 0.36590942382812486, 0.4, 0.6, -48.20650024414062, -52.501220703125, 3.8328247070312495E-6, 0.013476569869995118]
70F	OK  	34192	[0.11842417602538971, 0.36590942382812486, 0.4, 0.6, -43.400335693359374, 54.332055664062494, 0.02447285583496094, 1.636973571777344E-5]
72T	OK  	34192	[0.11842417602538971, 0.36590942382812486, 0.4, 0.6, -43.400335693359374, 54.332055664062494, 0.02447285583496094, 1.636973571777344E-5]
72F	OK  	36328	[0.10581431274413972, 0.34076599121093737, 0.4, 0.6, -43.400332641601565, 54.33204956054687, 3.8328247070312495E-6, 0.012890632369995119]
74T	OK  	36328	[0.10581431274413972, 0.34076599121093737, 0.4, 0.6, -43.400332641601565, 54.33204956054687, 3.8328247070312495E-6, 0.012890632369995119]
74F	FAIL	100000	
84T	OK  	8788	[79.45791015625001, 67.27421874999999, 0.4, 0.6, -43.199163818359374, 54.45004882812499, 0.0, 1.0]
84F	OK  	10311	[55.00644836425781, 61.09989995117188, 0.4, 0.6, -42.99916381835937, 54.412499999999994, 2.49725341796875E-4, 1.0]
88T	OK  	10802	[8.100012503051758, 61.1, 0.4, 0.6, -69.39998124694824, 54.45004882812499, 2.49725341796875E-4, 1.0]
88F	OK  	8788	[79.45791015625001, 67.27421874999999, 0.4, 0.6, -43.199163818359374, 54.45004882812499, 0.0, 1.0]
93T	OK  	9257	[82.40351562500001, 17.6190185546875, 0.4, 0.6, -43.39994506835937, 54.4, 2.497406005859375E-4, 1.0]
93F	OK  	8788	[79.45791015625001, 67.27421874999999, 0.4, 0.6, -43.199163818359374, 54.45004882812499, 0.0, 1.0]
95T	FAIL	100000	
95F	OK  	9257	[82.40351562500001, 17.6190185546875, 0.4, 0.6, -43.39994506835937, 54.4, 2.497406005859375E-4, 1.0]
98T	OK  	8788	[79.45791015625001, 67.27421874999999, 0.4, 0.6, -43.199163818359374, 54.45004882812499, 0.0, 1.0]
98F	OK  	10798	[73.89492187500001, 78.45770568847657, 0.4, 0.6, -43.24994812011719, 54.4, 2.49481201171875E-4, 0.999]
100T	OK  	8788	[79.45791015625001, 67.27421874999999, 0.4, 0.6, -43.199163818359374, 54.45004882812499, 0.0, 1.0]
100F	FAIL	100000	
102T	OK  	10798	[73.89492187500001, 78.45770568847657, 0.4, 0.6, -43.24994812011719, 54.4, 2.49481201171875E-4, 0.999]
102F	FAIL	100000	
105T	FAIL	100000	
105F	FAIL	100000	
