Test object: org.iguanatool.casestudies.toms708.testobjects.bratio
7T	OK  	10	[14.2, -4.6000000000000005, -58.3, -12.1, 7.5, 60.4, 1.0, 1.0]
7F	OK  	1	[14.2, 8.1, -58.3, -12.1, 7.5, 60.4, 1.0, 1.0]
10T	FAIL	100000	
10F	OK  	1	[14.2, 8.1, -58.3, -12.1, 7.5, 60.4, 1.0, 1.0]
13T	OK  	1	[14.2, 8.1, -58.3, -12.1, 7.5, 60.4, 1.0, 1.0]
13F	OK  	110	[14.2, 8.1, 0.9000000000000021, -12.1, 7.5, 60.4, 1.0, 1.0]
16T	OK  	110	[14.2, 8.1, 0.9000000000000021, -12.1, 7.5, 60.4, 1.0, 1.0]
16F	OK  	120	[14.2, 8.1, 0.9000000000000021, 0.6000000000000005, 7.5, 60.4, 1.0, 1.0]
20T	OK  	120	[14.2, 8.1, 0.9000000000000021, 0.6000000000000005, 7.5, 60.4, 1.0, 1.0]
20F	OK  	4144	[68.6, 8.9, 0.29999999999999805, 0.7000000000000015, 77.7, 8.4, 1.0, 1.0]
