Test object: org.iguanatool.casestudies.toms708.testobjects.bratio
7T	OK  	1	[95.5, -38.6, -59.5, 92.5, 80.0, -9.6, 1.0, 0.0]
7F	OK  	13	[95.5, 12.500000000000004, -59.5, 92.5, 80.0, -9.6, 1.0, 0.0]
10T	FAIL	100000	
10F	OK  	13	[95.5, 12.500000000000004, -59.5, 92.5, 80.0, -9.6, 1.0, 0.0]
13T	OK  	13	[95.5, 12.500000000000004, -59.5, 92.5, 80.0, -9.6, 1.0, 0.0]
13F	OK  	102	[95.5, 12.500000000000004, 0.7999999999999995, 92.5, 80.0, -9.6, 1.0, 0.0]
16T	OK  	102	[95.5, 12.500000000000004, 0.7999999999999995, 92.5, 80.0, -9.6, 1.0, 0.0]
16F	OK  	175	[95.5, 12.500000000000004, 0.7999999999999995, 0.09999999999999365, 80.0, -9.6, 1.0, 0.0]
20T	OK  	175	[95.5, 12.500000000000004, 0.7999999999999995, 0.09999999999999365, 80.0, -9.6, 1.0, 0.0]
20F	OK  	391	[21.400000000000002, 0.9, 0.3999999999999995, 0.6000000000000009, 68.4, 43.8, 1.0, 0.0]
