Test object: org.iguanatool.casestudies.toms708.testobjects.bratio
7T	OK  	6	[5.2, -69.8, 64.7, 72.8, 35.4, -44.7, 0.0, 1.0]
7F	OK  	1	[51.7, 15.6, -97.1, -92.1, 28.5, -40.7, 0.0, 1.0]
10T	FAIL	100000	
10F	OK  	1	[51.7, 15.6, -97.1, -92.1, 28.5, -40.7, 0.0, 1.0]
13T	OK  	1	[51.7, 15.6, -97.1, -92.1, 28.5, -40.7, 0.0, 1.0]
13F	OK  	15	[89.9, 28.0, 0.8, 94.3, -28.5, 76.4, 0.0, 1.0]
16T	OK  	15	[89.9, 28.0, 0.8, 94.3, -28.5, 76.4, 0.0, 1.0]
16F	OK  	63378	[71.1, 21.8, 0.9, 0.3, 7.9, -74.5, 1.0, 0.0]
20T	OK  	63378	[71.1, 21.8, 0.9, 0.3, 7.9, -74.5, 1.0, 0.0]
20F	FAIL	100000	
25T	FAIL	100000	
25F	FAIL	100000	
27T	FAIL	100000	
27F	FAIL	100000	
29T	FAIL	100000	
29F	FAIL	100000	
31T	FAIL	100000	
31F	FAIL	100000	
34T	FAIL	100000	
34F	FAIL	100000	
35T	FAIL	100000	
35F	FAIL	100000	
42T	FAIL	100000	
42F	FAIL	100000	
44T	FAIL	100000	
44F	FAIL	100000	
48T	FAIL	100000	
48F	FAIL	100000	
53T	FAIL	100000	
53F	FAIL	100000	
57T	FAIL	100000	
57F	FAIL	100000	
59T	FAIL	100000	
59F	FAIL	100000	
61T	FAIL	100000	
61F	FAIL	100000	
63T	FAIL	100000	
63F	FAIL	100000	
64T	FAIL	100000	
64F	FAIL	100000	
66T	FAIL	100000	
66F	FAIL	100000	
70T	FAIL	100000	
70F	FAIL	100000	
72T	FAIL	100000	
72F	FAIL	100000	
74T	FAIL	100000	
74F	FAIL	100000	
84T	FAIL	100000	
84F	FAIL	100000	
88T	FAIL	100000	
88F	FAIL	100000	
93T	FAIL	100000	
93F	FAIL	100000	
95T	FAIL	100000	
95F	FAIL	100000	
98T	FAIL	100000	
98F	FAIL	100000	
100T	FAIL	100000	
100F	FAIL	100000	
102T	FAIL	100000	
102F	FAIL	100000	
105T	FAIL	100000	
105F	FAIL	100000	
130T	FAIL	100000	
130F	FAIL	100000	
135T	FAIL	100000	
135F	FAIL	100000	
138T	FAIL	100000	
138F	FAIL	100000	
142T	FAIL	100000	
142F	FAIL	100000	
151T	FAIL	100000	
151F	FAIL	100000	
159T	FAIL	100000	
159F	FAIL	100000	
167T	FAIL	100000	
167F	FAIL	100000	
173T	FAIL	100000	
173F	FAIL	100000	
178T	FAIL	100000	
178F	FAIL	100000	
Test object: org.iguanatool.casestudies.toms708.testobjects.psi
