Test object: org.iguanatool.casestudies.toms708.testobjects.bratio
7T	OK  	1	[66.7, -77.5, 70.1, 49.9, -4.7, 90.2, 1.0, 1.0]
7F	OK  	14	[66.7, 24.800000000000004, 70.1, 49.9, -4.7, 90.2, 1.0, 1.0]
10T	FAIL	100000	
10F	OK  	14	[66.7, 24.800000000000004, 70.1, 49.9, -4.7, 90.2, 1.0, 1.0]
13T	OK  	14	[66.7, 24.800000000000004, 70.1, 49.9, -4.7, 90.2, 1.0, 1.0]
13F	OK  	82	[66.7, 24.800000000000004, 0.09999999999999143, 49.9, -4.7, 90.2, 1.0, 1.0]
16T	OK  	82	[66.7, 24.800000000000004, 0.09999999999999143, 49.9, -4.7, 90.2, 1.0, 1.0]
16F	OK  	170	[66.7, 24.800000000000004, 0.09999999999999143, 0.7999999999999938, -4.7, 90.2, 1.0, 1.0]
20T	OK  	170	[66.7, 24.800000000000004, 0.09999999999999143, 0.7999999999999938, -4.7, 90.2, 1.0, 1.0]
20F	OK  	1854	[59.8, 68.0, 0.9, 0.10000000000000009, 68.9, -40.7, 1.0, 1.0]
