Test object: org.iguanatool.casestudies.toms708.testobjects.bratio
7T	OK  	11	[51.7, -9.9, -97.1, -92.1, 28.5, -40.7, 0.0, 1.0]
7F	OK  	1	[51.7, 15.6, -97.1, -92.1, 28.5, -40.7, 0.0, 1.0]
10T	FAIL	100000	
10F	OK  	1	[51.7, 15.6, -97.1, -92.1, 28.5, -40.7, 0.0, 1.0]
13T	OK  	1	[51.7, 15.6, -97.1, -92.1, 28.5, -40.7, 0.0, 1.0]
13F	OK  	51	[51.7, 15.6, 0.6000000000000096, -92.1, 28.5, -40.7, 0.0, 1.0]
16T	OK  	51	[51.7, 15.6, 0.6000000000000096, -92.1, 28.5, -40.7, 0.0, 1.0]
16F	OK  	101	[51.7, 15.6, 0.6000000000000096, 0.80000000000001, 28.5, -40.7, 0.0, 1.0]
20T	OK  	101	[51.7, 15.6, 0.6000000000000096, 0.80000000000001, 28.5, -40.7, 0.0, 1.0]
20F	OK  	5735	[84.0, 48.10000000000001, 0.2999999999999975, 0.7000000000000023, 42.7, -12.1, 0.0, 0.0]
