Test object: org.iguanatool.casestudies.unity.testobjects.cephes_exp
2T	FAIL	100000	
2F	OK  	1	[4.3]
4T	FAIL	100000	
4F	OK  	1	[4.3]
6T	OK  	1	[4.3]
6F	OK  	11	[0.49999999999999967]
Test object: org.iguanatool.casestudies.unity.testobjects.cephes_log
2T	OK  	1	[4.3]
2F	OK  	14	[0.3999999999999997]
Test object: org.iguanatool.casestudies.unity.testobjects.cosm1
2T	OK  	1	[4.3]
2F	OK  	11	[0.49999999999999967]
