Test object: org.iguanatool.casestudies.unity.testobjects.cephes_exp
2T	FAIL	100000	
2F	OK  	1	[20.1]
4T	FAIL	100000	
4F	OK  	1	[20.1]
6T	OK  	1	[20.1]
6F	OK  	21	[0.40000000000000047]
Test object: org.iguanatool.casestudies.unity.testobjects.cephes_log
2T	OK  	1	[20.1]
2F	OK  	21	[0.40000000000000047]
Test object: org.iguanatool.casestudies.unity.testobjects.cosm1
2T	OK  	1	[20.1]
2F	OK  	21	[0.40000000000000047]
