Test object: org.iguanatool.casestudies.unity.testobjects.cephes_exp
2T	FAIL	100000	
2F	OK  	1	[-93.3]
4T	FAIL	100000	
4F	OK  	1	[-93.3]
6T	OK  	1	[-93.3]
6F	OK  	25	[-0.39999999999999303]
Test object: org.iguanatool.casestudies.unity.testobjects.cephes_log
2T	OK  	1	[-93.3]
2F	OK  	32	[0.400000000000007]
Test object: org.iguanatool.casestudies.unity.testobjects.cosm1
2T	OK  	1	[-93.3]
2F	OK  	25	[-0.39999999999999303]
