File,Function,Start,End,ConditionNo,node,EdgeType,Estimate,Min,Max,Count,Mean,TrueEvaluations,FalseEvaluations,MinEvals,Method
gamma_cody.c,gamma_cody(),30127,30138,0,13,DO,N,2,2,1.0,2.0,1.76666666667,2.03333333333,1.76666666667,dcEvolve
gamma_cody.c,gamma_cody(),30344,30471,1,17,DO,N,3,6,2.0,4.5,1.8,22.7,1.8,dcEvolve
gamma_cody.c,gamma_cody(),30366,30396,2,18,DO,N,5,7,2.0,6.0,4.36666666667,4.36666666667,4.36666666667,dcEvolve
gamma_cody.c,gamma_cody(),30688,30953,3,23,DO,N,2,3,2.0,2.5,-1.0,1.0,1.0,dcEvolve
gamma_cody.c,gamma_cody(),30868,30913,4,24,DO,N,2,3,2.0,2.5,-1.0,-1.0,-1.0,dcEvolve
gamma_cody.c,gamma_cody(),30955,32267,5,27,DO,N,2,3,2.0,2.5,6.26666666667,1.16666666667,1.16666666667,dcEvolve
gamma_cody.c,gamma_cody(),30980,31188,6,29,DO,N,2,3,2.0,2.5,317.5,6.36666666667,6.36666666667,dcEvolve
gamma_cody.c,gamma_cody(),31769,31989,8,41,DO,N,3,5,8.0,3.75,309.433333333,6.36666666667,6.36666666667,dcEvolve
gamma_cody.c,gamma_cody(),31991,32001,9,43,DO,N,3,5,8.0,3.75,6.36666666667,113.566666667,6.36666666667,dcEvolve
gamma_cody.c,gamma_cody(),32211,32215,10,44,DO,N,3,4,2.0,3.5,6.36666666667,6.36666666667,6.36666666667,dcEvolve
gamma_cody.c,gamma_cody(),32441,32648,11,47,DO,N,1,3,3.0,2.0,1.16666666667,-1.0,1.16666666667,dcEvolve
gamma_cody.c,gamma_cody(),32912,32926,14,58,DO,N,6,9,2.0,7.5,1.8,2.03333333333,1.8,dcEvolve
