File,Function,Start,End,ConditionNo,node,EdgeType,Estimate,Min,Max,Count,Mean,TrueEvaluations,FalseEvaluations,MinEvals,Method
gamma_cody.c,gamma_cody(),30127,30138,0,13,DO,N,2,2,1.0,2.0,1.76666666667,2.03333333333,1.76666666667,random
gamma_cody.c,gamma_cody(),30344,30471,1,17,DO,N,3,6,2.0,4.5,1.8,22.4333333333,1.8,random
gamma_cody.c,gamma_cody(),30366,30396,2,18,DO,N,5,7,2.0,6.0,4.36666666667,4.36666666667,4.36666666667,random
