File,Function,Start,End,ConditionNo,node,EdgeType,Estimate,Min,Max,Count,Mean,TrueEvaluations,FalseEvaluations,MinEvals,Method
gamma_cody.c,gamma_cody(),30127,30138,0,13,BO,N,2,3,4.0,2.5,5.1,6.13333333333,5.1,nhc
gamma_cody.c,gamma_cody(),30344,30471,1,17,BO,N,3,9,34.0,5.971,5.1,31.4333333333,5.1,nhc
gamma_cody.c,gamma_cody(),30366,30396,2,18,BO,N,2,13,144.0,8.125,11.8666666667,9.86666666667,9.86666666667,nhc
gamma_cody.c,gamma_cody(),30688,30953,3,23,BO,N,2,11,115.0,7.217,722.533333333,1.0,1.0,nhc
gamma_cody.c,gamma_cody(),30868,30913,4,24,BO,N,2,12,158.0,7.93,722.533333333,-1.0,722.533333333,nhc
gamma_cody.c,gamma_cody(),30955,32267,5,27,BO,N,2,12,158.0,7.93,9.96666666667,2.33333333333,2.33333333333,nhc
gamma_cody.c,gamma_cody(),30980,31188,6,29,BO,N,2,13,201.0,8.552,18.1666666667,10.4,10.4,nhc
gamma_cody.c,gamma_cody(),31666,31670,7,37,BO,N,3,15,474.0,9.93,9.96666666667,9.96666666667,9.96666666667,nhc
gamma_cody.c,gamma_cody(),31769,31989,8,41,BO,N,3,16,1091.0,10.074,149.6,11.4333333333,11.4333333333,nhc
gamma_cody.c,gamma_cody(),31991,32001,9,43,BO,N,3,17,2024.0,10.703,11.8,132.033333333,11.8,nhc
gamma_cody.c,gamma_cody(),32211,32215,10,44,BO,N,3,20,6317.0,12.602,17.0,17.0,17.0,nhc
gamma_cody.c,gamma_cody(),32441,32648,11,47,BO,N,1,13,203.0,8.483,2.33333333333,-1.0,2.33333333333,nhc
gamma_cody.c,gamma_cody(),32510,32514,12,50,BO,N,2,16,609.0,10.483,1.5,1.5,1.5,nhc
gamma_cody.c,gamma_cody(),32883,32893,13,56,BO,N,2,15,1025.0,9.663,9.73333333333,1.9,1.9,nhc
gamma_cody.c,gamma_cody(),32912,32926,14,58,BO,N,2,15,1015.0,9.572,3.33333333333,7.56666666667,3.33333333333,nhc
