File,Function,Start,End,ConditionNo,node,EdgeType,Estimate,Min,Max,Count,Mean,TrueEvaluations,FalseEvaluations,MinEvals,Method
i0.c,cephes_bessel_I0 (),44437,44446,0,2,DO,N,1,1,1.0,1.0,5.1,6.13333333333,5.1,nhc
i0.c,cephes_bessel_I0 (),44461,44473,1,4,DO,N,1,2,2.0,1.5,10.4333333333,1.7,1.7,nhc
i0.c,i0e (),44644,44653,0,2,DO,N,1,1,1.0,1.0,5.1,6.13333333333,5.1,nhc
i0.c,i0e (),44668,44680,1,4,DO,N,1,2,2.0,1.5,10.4333333333,1.7,1.7,nhc
