File,Function,Start,End,ConditionNo,node,EdgeType,Estimate,Min,Max,Count,Mean,TrueEvaluations,FalseEvaluations,MinEvals,Method
i0.c,cephes_bessel_I0 (),44437,44446,0,2,CO,N,2,2,1.0,2.0,1.76666666667,2.03333333333,1.76666666667,random
i0.c,cephes_bessel_I0 (),44461,44473,1,4,CO,N,2,2,1.0,2.0,8.96666666667,1.13333333333,1.13333333333,random
i0.c,i0e (),44644,44653,0,2,CO,N,2,2,1.0,2.0,1.76666666667,2.03333333333,1.76666666667,random
i0.c,i0e (),44668,44680,1,4,CO,N,2,2,1.0,2.0,8.96666666667,1.13333333333,1.13333333333,random
