File,Function,Start,End,ConditionNo,node,EdgeType,Estimate,Min,Max,Count,Mean,TrueEvaluations,FalseEvaluations,MinEvals,Method
k0.c,cephes_bessel_K0 (),44156,44168,0,2,BO,N,1,2,3.0,1.667,1.76666666667,2.03333333333,1.76666666667,random
k0.c,cephes_bessel_K0 (),44229,44241,1,5,BO,N,1,4,8.0,2.75,103.9,2.03333333333,2.03333333333,random
k0.c,k0e (),44469,44481,0,2,BO,N,1,2,3.0,1.667,1.76666666667,2.03333333333,1.76666666667,random
k0.c,k0e (),44543,44555,1,5,BO,N,1,4,8.0,2.75,103.9,2.03333333333,2.03333333333,random
