File,Function,Start,End,ConditionNo,node,EdgeType,Estimate,Min,Max,Count,Mean,TrueEvaluations,FalseEvaluations,MinEvals,Method
pnchisq.c,pnchisq(),30129,30136,0,2,BO,N,2,2,1.0,2.0,-1.0,1.0,1.0,dcEvolve
pnchisq.c,pnchisq(),30141,30149,1,2,BO,N,4,11,29.0,6.966,-1.0,1.0,1.0,dcEvolve
pnchisq.c,pnchisq(),30154,30163,2,2,BO,N,3,18,337.0,10.914,-1.0,1.0,1.0,dcEvolve
pnchisq.c,pnchisq(),30197,30208,3,4,BO,N,3,27,7816.0,16.394,1.0,-1.0,1.0,dcEvolve
pnchisq.c,pnchisq(),30214,30226,4,4,BO,N,3,35,85994.0,21.663,1.0,-1.0,1.0,dcEvolve
pnchisq.c,pnchisq(),30230,30246,5,6,BO,N,3,43,1031946.0,26.496,-1.0,-1.0,-1.0,dcEvolve
pnchisq.c,pnchisq(),30261,30284,6,6,BO,N,1,45,1977902.0,28.228,-1.0,-1.0,-1.0,dcEvolve
pnchisq.c,pnchisq(),30388,30400,7,9,BO,N,1,47,5933706.0,29.561,-1.0,-1.0,-1.0,dcEvolve
pnchisq.c,pnchisq(),30405,30497,8,10,BO,N,1,48,5933708.0,30.561,-1.0,-1.0,-1.0,dcEvolve
pnchisq.c,pnchisq(),30591,30605,9,12,BO,N,2,52,184000000.0,34.27,-1.0,-1.0,-1.0,dcEvolve
pnchisq.c,pnchisq(),30709,30719,10,15,BO,N,1,47,5933706.0,29.561,-1.0,-1.0,-1.0,dcEvolve
pnchisq.c,pnchisq(),30809,30817,11,17,BO,N,1,49,11900000.0,31.06,-1.0,-1.0,-1.0,dcEvolve
pnchisq.c,pnchisq_raw(),31427,31438,0,7,BO,N,1,2,3.0,1.667,1.96666666667,2.33333333333,1.96666666667,dcEvolve
pnchisq.c,pnchisq_raw(),31446,31452,1,8,BO,N,1,3,5.0,2.2,-1.0,1.96666666667,1.96666666667,dcEvolve
pnchisq.c,pnchisq_raw(),31604,31614,3,11,BO,N,2,7,22.0,4.636,2.33333333333,-1.0,2.33333333333,dcEvolve
pnchisq.c,pnchisq_raw(),31765,31778,4,14,BO,N,1,16,522.0,10.048,-1.0,-1.0,-1.0,dcEvolve
pnchisq.c,pnchisq_raw(),32028,32034,5,18,BO,N,2,26,23530.0,16.766,-1.0,-1.0,-1.0,dcEvolve
pnchisq.c,pnchisq_raw(),32134,32153,6,21,BO,N,3,23,8884.0,14.567,-1.0,-1.0,-1.0,dcEvolve
pnchisq.c,pnchisq_raw(),32360,32560,7,28,BO,N,2,20,3136.0,12.536,-1.0,-1.0,-1.0,dcEvolve
pnchisq.c,pnchisq_raw(),32784,32807,8,38,BO,N,2,19,2090.0,12.039,-1.0,-1.0,-1.0,dcEvolve
pnchisq.c,pnchisq_raw(),33381,33625,10,44,BO,N,2,31,284392.0,20.753,-1.0,-1.0,-1.0,dcEvolve
pnchisq.c,pnchisq_raw(),33393,33439,11,45,BO,N,1,35,853188.0,23.419,-1.0,-1.0,-1.0,dcEvolve
pnchisq.c,pnchisq_raw(),33905,33916,12,55,BO,Y,3,74,7.49e+11,49.6,-1.0,-1.0,-1.0,dcEvolve
pnchisq.c,pnchisq_raw(),34031,34045,13,57,BO,Y,3,71,1.22e+11,47.83,-1.0,-1.0,-1.0,dcEvolve
pnchisq.c,pnchisq_raw(),34347,34372,14,61,BO,Y,2,73,5.57e+11,48.65,-1.0,-1.0,-1.0,dcEvolve
pnchisq.c,pnchisq_raw(),34818,35201,16,64,BO,Y,2,72,2.58e+11,47.53,-1.0,-1.0,-1.0,dcEvolve
pnchisq.c,pnchisq_raw(),34898,34919,17,66,BO,Y,1,71,3.88e+11,45.72,-1.0,-1.0,-1.0,dcEvolve
pnchisq.c,pnchisq_raw(),35241,35621,18,72,BO,Y,2,72,3e+11,48.4,-1.0,-1.0,-1.0,dcEvolve
pnchisq.c,pnchisq_raw(),35323,35344,19,74,BO,Y,1,71,3.06e+11,46.58,-1.0,-1.0,-1.0,dcEvolve
pnchisq.c,pnchisq_raw(),35659,35665,20,79,BO,Y,2,73,8.32e+11,48.31,-1.0,-1.0,-1.0,dcEvolve
pnchisq.c,pnchisq_raw(),35759,35768,22,82,BO,Y,2,74,7.34e+11,49.46,-1.0,-1.0,-1.0,dcEvolve
