File,Function,Start,End,ConditionNo,node,EdgeType,Estimate,Min,Max,Count,Mean,TrueEvaluations,FalseEvaluations,MinEvals,Method
pnchisq.c,pnchisq(),30129,30136,0,2,CO,N,2,2,1.0,2.0,-1.0,1.0,1.0,dcEvolve
pnchisq.c,pnchisq(),30141,30149,1,2,CO,N,4,4,1.0,4.0,-1.0,1.0,1.0,dcEvolve
pnchisq.c,pnchisq(),30154,30163,2,2,CO,N,4,4,1.0,4.0,-1.0,1.0,1.0,dcEvolve
pnchisq.c,pnchisq(),30197,30208,3,4,CO,N,4,6,4.0,5.0,1.0,-1.0,1.0,dcEvolve
pnchisq.c,pnchisq(),30214,30226,4,4,CO,N,5,7,4.0,6.0,1.0,-1.0,1.0,dcEvolve
pnchisq.c,pnchisq(),30230,30246,5,6,CO,N,5,8,8.0,6.5,-1.0,-1.0,-1.0,dcEvolve
pnchisq.c,pnchisq(),30261,30284,6,6,CO,N,7,10,12.0,8.333,-1.0,-1.0,-1.0,dcEvolve
pnchisq.c,pnchisq(),30388,30400,7,9,CO,N,8,12,36.0,9.667,-1.0,-1.0,-1.0,dcEvolve
pnchisq.c,pnchisq(),30405,30497,8,10,CO,N,9,13,36.0,10.667,-1.0,-1.0,-1.0,dcEvolve
pnchisq.c,pnchisq(),30591,30605,9,12,CO,N,10,14,36.0,11.667,-1.0,-1.0,-1.0,dcEvolve
pnchisq.c,pnchisq(),30709,30719,10,15,CO,N,8,12,36.0,9.667,-1.0,-1.0,-1.0,dcEvolve
pnchisq.c,pnchisq(),30809,30817,11,17,CO,N,9,14,72.0,11.167,-1.0,-1.0,-1.0,dcEvolve
pnchisq.c,pnchisq_raw(),31427,31438,0,7,CO,N,2,2,1.0,2.0,1.96666666667,2.33333333333,1.96666666667,dcEvolve
pnchisq.c,pnchisq_raw(),31446,31452,1,8,CO,N,3,3,1.0,3.0,-1.0,1.96666666667,1.96666666667,dcEvolve
pnchisq.c,pnchisq_raw(),31604,31614,3,11,CO,N,3,7,4.0,5.25,2.33333333333,-1.0,2.33333333333,dcEvolve
pnchisq.c,pnchisq_raw(),31765,31778,4,14,CO,N,4,9,8.0,6.75,-1.0,-1.0,-1.0,dcEvolve
pnchisq.c,pnchisq_raw(),32028,32034,5,18,CO,N,5,10,8.0,7.75,-1.0,-1.0,-1.0,dcEvolve
pnchisq.c,pnchisq_raw(),32134,32153,6,21,CO,N,6,11,8.0,8.75,-1.0,-1.0,-1.0,dcEvolve
pnchisq.c,pnchisq_raw(),32360,32560,7,28,CO,N,5,11,16.0,8.25,-1.0,-1.0,-1.0,dcEvolve
pnchisq.c,pnchisq_raw(),32784,32807,8,38,CO,N,5,11,16.0,8.25,-1.0,-1.0,-1.0,dcEvolve
pnchisq.c,pnchisq_raw(),33381,33625,10,44,CO,N,5,11,16.0,8.25,-1.0,-1.0,-1.0,dcEvolve
pnchisq.c,pnchisq_raw(),33393,33439,11,45,CO,N,6,12,16.0,9.25,-1.0,-1.0,-1.0,dcEvolve
pnchisq.c,pnchisq_raw(),33905,33916,12,55,CO,N,7,15,48.0,11.25,-1.0,-1.0,-1.0,dcEvolve
pnchisq.c,pnchisq_raw(),34031,34045,13,57,CO,N,7,15,48.0,11.25,-1.0,-1.0,-1.0,dcEvolve
pnchisq.c,pnchisq_raw(),34347,34372,14,61,CO,N,8,16,48.0,12.25,-1.0,-1.0,-1.0,dcEvolve
pnchisq.c,pnchisq_raw(),34818,35201,16,64,CO,N,8,20,288.0,14.75,-1.0,-1.0,-1.0,dcEvolve
pnchisq.c,pnchisq_raw(),34898,34919,17,66,CO,N,9,21,288.0,15.75,-1.0,-1.0,-1.0,dcEvolve
pnchisq.c,pnchisq_raw(),35241,35621,18,72,CO,N,8,20,288.0,14.75,-1.0,-1.0,-1.0,dcEvolve
pnchisq.c,pnchisq_raw(),35323,35344,19,74,CO,N,9,21,288.0,15.75,-1.0,-1.0,-1.0,dcEvolve
pnchisq.c,pnchisq_raw(),35659,35665,20,79,CO,N,8,20,288.0,14.75,-1.0,-1.0,-1.0,dcEvolve
pnchisq.c,pnchisq_raw(),35759,35768,22,82,CO,N,6,14,48.0,10.25,-1.0,-1.0,-1.0,dcEvolve
