File,Function,Start,End,ConditionNo,node,EdgeType,Estimate,Min,Max,Count,Mean,TrueEvaluations,FalseEvaluations,MinEvals,Method
pnorm.c,pnorm5(),31792,31799,0,2,DO,N,4,5,3.0,4.667,-1.0,1.0,1.0,random
pnorm.c,pnorm5(),31930,31944,5,6,DO,N,1,1,1.0,1.0,1.83333333333,2.16666666667,1.83333333333,random
pnorm.c,pnorm5(),31949,31961,6,7,DO,N,1,1,1.0,1.0,1.83333333333,1564.36666667,1.83333333333,random
pnorm.c,pnorm5(),32009,32016,7,11,DO,N,1,1,2.0,1.0,2.16666666667,-1.0,2.16666666667,random
pnorm.c,pnorm_both(),34035,34514,1,17,DO,N,4,4,1.0,4.0,165.033333333,1.0,1.0,random
pnorm.c,pnorm_both(),34111,34289,2,18,DO,N,4,4,1.0,4.0,198.5,1820.96666667,198.5,random
pnorm.c,pnorm_both(),34355,34363,4,27,DO,N,2,2,1.0,2.0,325.7,402.066666667,325.7,random
pnorm.c,pnorm_both(),34386,34394,5,29,DO,N,2,2,1.0,2.0,402.066666667,325.7,325.7,random
pnorm.c,pnorm_both(),34417,34425,6,31,DO,N,1,1,1.0,1.0,300.4,338.566666667,300.4,random
pnorm.c,pnorm_both(),34434,34442,7,32,DO,N,2,2,1.0,2.0,589.0,585.5,585.5,random
pnorm.c,pnorm_both(),34468,34476,8,34,DO,N,2,2,1.0,2.0,585.5,589.0,585.5,random
pnorm.c,pnorm_both(),34516,35667,9,36,DO,N,4,4,1.0,4.0,19.2,1.03333333333,1.03333333333,random
pnorm.c,pnorm_both(),35673,35677,11,45,DO,N,1,1,1.0,1.0,1.53333333333,3.83333333333,1.53333333333,random
pnorm.c,pnorm_both(),36661,36710,15,56,DO,N,1,1,1.0,1.0,7.26666666667,6.5,6.5,random
