File,Function,Start,End,ConditionNo,node,EdgeType,Estimate,Min,Max,Count,Mean,TrueEvaluations,FalseEvaluations,MinEvals,Method
ptukey.c,wprob(),32888,32902,0,14,BO,N,1,3,6.0,2.167,2.43333333333,1.66666666667,1.66666666667,dcEvolve
ptukey.c,wprob(),33130,33186,1,17,BO,N,2,10,243.0,7.35,23.3666666667,1.86666666667,1.86666666667,dcEvolve
ptukey.c,wprob(),33324,33362,2,20,BO,N,1,5,16.0,3.125,9.66666666667,2.0,2.0,dcEvolve
ptukey.c,wprob(),33889,33899,3,28,BO,N,2,7,72.0,4.75,1.66666666667,1.66666666667,1.66666666667,dcEvolve
ptukey.c,wprob(),34034,34043,4,32,BO,N,2,18,8664.0,12.718,1.66666666667,2.93333333333,1.66666666667,dcEvolve
ptukey.c,wprob(),34059,34128,5,33,BO,N,3,19,11448.0,12.9,2.0,1.66666666667,1.66666666667,dcEvolve
ptukey.c,wprob(),34315,34329,6,41,BO,N,1,17,4056.0,11.177,1.66666666667,2.0,1.66666666667,dcEvolve
ptukey.c,wprob(),34562,34589,7,46,BO,N,2,25,290164.0,17.664,23.8,2.1,2.1,dcEvolve
ptukey.c,wprob(),34859,34883,8,54,BO,Y,2,34,2338229.0,25.218,1.73333333333,38.4,1.73333333333,dcEvolve
ptukey.c,wprob(),34928,34942,9,57,BO,Y,3,40,25700000.0,29.04,49.1333333333,-1.0,49.1333333333,dcEvolve
ptukey.c,ptukey(),38216,38223,0,15,BO,N,2,9,29.0,4.966,-1.0,1.0,1.0,dcEvolve
ptukey.c,ptukey(),38228,38236,1,15,BO,N,3,10,29.0,5.966,-1.0,1.0,1.0,dcEvolve
ptukey.c,ptukey(),38241,38249,2,15,BO,N,4,19,337.0,11.914,-1.0,1.0,1.0,dcEvolve
ptukey.c,ptukey(),38254,38262,3,15,BO,N,4,27,3725.0,17.133,-1.0,1.0,1.0,dcEvolve
ptukey.c,ptukey(),38297,38307,4,17,BO,N,1,35,86079.0,21.648,1.83333333333,1.86666666667,1.83333333333,dcEvolve
ptukey.c,ptukey(),38404,38409,5,19,BO,N,1,37,172160.0,23.148,2.16666666667,16.1,2.16666666667,dcEvolve
ptukey.c,ptukey(),38460,38470,8,21,BO,N,3,42,688650.0,27.148,16.1,-1.0,16.1,dcEvolve
ptukey.c,ptukey(),38494,38508,9,23,BO,N,1,50,15200000.0,31.92,-1.0,-1.0,-1.0,dcEvolve
ptukey.c,ptukey(),38916,38957,10,29,BO,N,1,52,30300000.0,33.42,-1.0,-1.0,-1.0,dcEvolve
ptukey.c,ptukey(),38959,38997,11,31,BO,N,1,53,30300000.0,34.42,-1.0,-1.0,-1.0,dcEvolve
ptukey.c,ptukey(),38999,39037,12,33,BO,N,1,54,30300000.0,35.42,-1.0,-1.0,-1.0,dcEvolve
ptukey.c,ptukey(),39155,39161,13,38,BO,N,2,76,5.45e+11,49.18,-1.0,-1.0,-1.0,dcEvolve
ptukey.c,ptukey(),39334,39344,14,41,BO,Y,3,79,1.64e+12,51.16,-1.0,-1.0,-1.0,dcEvolve
ptukey.c,ptukey(),39360,39510,15,42,BO,Y,4,79,3.83e+12,52.15,-1.0,-1.0,-1.0,dcEvolve
ptukey.c,ptukey(),39707,39721,16,47,BO,Y,1,79,1.5e+12,52.22,-1.0,-1.0,-1.0,dcEvolve
ptukey.c,ptukey(),39727,39810,17,48,BO,Y,2,80,3.26e+12,52.26,-1.0,-1.0,-1.0,dcEvolve
ptukey.c,ptukey(),40268,40282,18,54,BO,Y,2,77,9.6e+11,49.95,-1.0,-1.0,-1.0,dcEvolve
ptukey.c,ptukey(),40380,40395,20,57,BO,Y,1,81,4.73e+12,52.09,-1.0,-1.0,-1.0,dcEvolve
ptukey.c,ptukey(),40464,40476,21,59,BO,Y,2,82,8.6e+12,52.99,-1.0,-1.0,-1.0,dcEvolve
