File,Function,Start,End,ConditionNo,node,EdgeType,Estimate,Min,Max,Count,Mean,TrueEvaluations,FalseEvaluations,MinEvals,Method
cil__true__spice.c,clip_to_circle(),51457,51464,0,7,BO,N,1,2,5.0,1.6,1.0,7364.2,1.0,dcEvolve
cil__true__spice.c,clip_to_circle(),51662,51669,2,10,BO,N,1,2,5.0,1.6,1.0,7458.6,1.0,dcEvolve
cil__true__spice.c,clip_to_circle(),51855,51871,4,13,BO,N,2,8,76.0,5.447,1.73333333333,2.03333333333,1.73333333333,dcEvolve
cil__true__spice.c,clip_to_circle(),51966,51982,5,15,BO,N,2,8,76.0,5.447,1.83333333333,1.93333333333,1.83333333333,dcEvolve
cil__true__spice.c,clip_to_circle(),52118,52228,6,18,BO,N,2,11,454.0,7.46,13.6666666667,1.03333333333,1.03333333333,dcEvolve
cil__true__spice.c,clip_to_circle(),52249,52286,7,20,BO,N,3,12,907.0,7.967,12.4333333333,1.13333333333,1.13333333333,dcEvolve
cil__true__spice.c,clip_to_circle(),52389,52412,8,22,BO,N,2,14,2721.0,8.967,1.7,2.16666666667,1.7,dcEvolve
cil__true__spice.c,clip_to_circle(),53254,53259,9,40,BO,N,2,6,33.0,4.667,4.03333333333,1.26666666667,1.26666666667,dcEvolve
cil__true__spice.c,clip_to_circle(),53365,53419,11,42,BO,N,4,9,169.0,6.408,-1.0,4.03333333333,4.03333333333,dcEvolve
cil__true__spice.c,clip_to_circle(),53442,53456,12,44,BO,N,4,10,273.0,7.073,-1.0,4.03333333333,4.03333333333,dcEvolve
cil__true__spice.c,clip_to_circle(),53628,53682,13,48,BO,N,3,8,124.0,5.685,2.53333333333,2.9,2.53333333333,dcEvolve
cil__true__spice.c,clip_to_circle(),53743,53770,14,51,BO,N,1,19,1295.0,11.932,1.2,6.16666666667,1.2,dcEvolve
cil__true__spice.c,clip_to_circle(),53822,53842,15,53,BO,N,1,21,2605.0,13.378,12.1666666667,12.0666666667,12.0666666667,dcEvolve
cil__true__spice.c,clip_to_circle(),53937,53991,16,55,BO,N,2,23,5249.0,14.807,-1.0,12.1666666667,12.1666666667,dcEvolve
cil__true__spice.c,clip_to_circle(),54014,54028,17,57,BO,N,3,24,7893.0,15.614,-1.0,12.1666666667,12.1666666667,dcEvolve
cil__true__spice.c,clip_to_circle(),54222,54273,18,61,BO,N,2,35,41857.0,21.911,12.1666666667,-1.0,12.1666666667,dcEvolve
cil__true__spice.c,clip_to_circle(),54665,54685,19,66,BO,N,1,21,2605.0,13.378,13.2,10.8333333333,10.8333333333,dcEvolve
cil__true__spice.c,clip_to_circle(),54780,54834,20,68,BO,N,2,23,5249.0,14.807,-1.0,13.2,13.2,dcEvolve
cil__true__spice.c,clip_to_circle(),54857,54871,21,70,BO,N,3,24,7893.0,15.614,-1.0,13.2,13.2,dcEvolve
cil__true__spice.c,clip_to_circle(),55065,55116,22,74,BO,N,2,35,41857.0,21.911,13.2,-1.0,13.2,dcEvolve
cil__true__spice.c,clip_to_circle(),55504,55512,23,79,BO,N,2,21,5312.0,12.167,14.0666666667,9.96666666667,9.96666666667,dcEvolve
