File,Function,Start,End,ConditionNo,node,EdgeType,Estimate,Min,Max,Count,Mean,TrueEvaluations,FalseEvaluations,MinEvals,Method
toms708.c,bratio(),965,971,0,7,BO,N,1,2,3.0,1.667,2.33333333333,12.2333333333,2.33333333333,nhc
toms708.c,bratio(),1018,1025,2,10,BO,N,1,5,15.0,3.4,-1.0,12.2333333333,12.2333333333,nhc
toms708.c,bratio(),1071,1077,4,13,BO,N,1,8,51.0,5.059,12.2333333333,74.3,12.2333333333,nhc
toms708.c,bratio(),1124,1130,6,16,BO,N,1,11,159.0,7.208,74.3,131.6,74.3,nhc
toms708.c,bratio(),1239,1262,8,20,BO,N,2,17,1935.0,11.444,131.6,1688.7,131.6,nhc
