File,Function,Start,End,ConditionNo,node,EdgeType,Estimate,Min,Max,Count,Mean,TrueEvaluations,FalseEvaluations,MinEvals,Method
toms708.c,bratio(),965,971,0,7,DO,N,1,1,1.0,1.0,1.3,3.8,1.3,random
toms708.c,bratio(),1018,1025,2,10,DO,N,1,1,1.0,1.0,-1.0,3.8,3.8,random
toms708.c,bratio(),1071,1077,4,13,DO,N,1,1,1.0,1.0,3.8,551.9,3.8,random
toms708.c,bratio(),1124,1130,6,16,DO,N,1,1,1.0,1.0,551.9,-1.0,551.9,random
toms708.c,bratio(),1239,1262,8,20,DO,N,4,4,2.0,4.0,-1.0,-1.0,-1.0,random
toms708.c,bratio(),1417,1429,9,25,DO,N,1,1,1.0,1.0,-1.0,-1.0,-1.0,random
toms708.c,bratio(),1446,1458,10,27,DO,N,1,1,1.0,1.0,-1.0,-1.0,-1.0,random
toms708.c,bratio(),1476,1488,11,29,DO,N,1,1,1.0,1.0,-1.0,-1.0,-1.0,random
toms708.c,bratio(),1505,1517,12,31,DO,N,1,1,1.0,1.0,-1.0,-1.0,-1.0,random
toms708.c,bratio(),1562,1587,13,34,DO,N,2,2,2.0,2.0,-1.0,-1.0,-1.0,random
toms708.c,bratio(),1647,1731,14,35,DO,N,1,1,1.0,1.0,-1.0,-1.0,-1.0,random
toms708.c,bratio(),1941,3605,15,42,DO,N,2,2,2.0,2.0,-1.0,-1.0,-1.0,random
toms708.c,bratio(),2041,2079,16,44,DO,N,2,2,1.0,2.0,-1.0,-1.0,-1.0,random
toms708.c,bratio(),2245,2272,17,48,DO,N,2,3,4.0,2.5,-1.0,-1.0,-1.0,random
toms708.c,bratio(),2502,2524,18,53,DO,N,2,3,4.0,2.5,-1.0,-1.0,-1.0,random
toms708.c,bratio(),2711,3082,20,57,DO,N,3,3,4.0,3.0,-1.0,-1.0,-1.0,random
toms708.c,bratio(),2858,2871,21,59,DO,N,2,2,2.0,2.0,-1.0,-1.0,-1.0,random
toms708.c,bratio(),2890,2904,22,61,DO,N,2,2,2.0,2.0,-1.0,-1.0,-1.0,random
toms708.c,bratio(),2947,2959,23,63,DO,N,2,2,2.0,2.0,-1.0,-1.0,-1.0,random
toms708.c,bratio(),2965,2990,24,64,DO,N,4,4,6.0,4.0,-1.0,-1.0,-1.0,random
toms708.c,bratio(),3027,3040,25,66,DO,N,2,2,2.0,2.0,-1.0,-1.0,-1.0,random
toms708.c,bratio(),3171,3193,26,70,DO,N,2,3,4.0,2.5,-1.0,-1.0,-1.0,random
toms708.c,bratio(),3212,3234,27,72,DO,N,4,4,4.0,4.0,-1.0,-1.0,-1.0,random
toms708.c,bratio(),3253,3266,28,74,DO,N,2,2,2.0,2.0,-1.0,-1.0,-1.0,random
toms708.c,bratio(),3682,3728,29,84,DO,N,1,1,2.0,1.0,-1.0,-1.0,-1.0,random
toms708.c,bratio(),3790,3851,30,88,DO,N,3,3,6.0,3.0,-1.0,-1.0,-1.0,random
toms708.c,bratio(),3996,4194,31,93,DO,N,2,2,2.0,2.0,-1.0,-1.0,-1.0,random
toms708.c,bratio(),4079,4092,32,95,DO,N,2,2,4.0,2.0,-1.0,-1.0,-1.0,random
toms708.c,bratio(),4196,4370,34,98,DO,N,2,2,4.0,2.0,-1.0,-1.0,-1.0,random
toms708.c,bratio(),4315,4325,35,100,DO,N,2,2,2.0,2.0,-1.0,-1.0,-1.0,random
toms708.c,bratio(),4372,4489,37,102,DO,N,2,2,2.0,2.0,-1.0,-1.0,-1.0,random
toms708.c,bratio(),4491,4513,38,105,DO,N,2,3,14.0,2.429,-1.0,-1.0,-1.0,random
toms708.c,bratio(),5702,5714,39,130,DO,N,3,4,4.0,3.5,-1.0,-1.0,-1.0,random
toms708.c,bratio(),5874,5885,40,135,DO,N,1,7,36.0,4.417,-1.0,-1.0,-1.0,random
toms708.c,bratio(),6037,6050,42,138,DO,N,2,2,2.0,2.0,-1.0,-1.0,-1.0,random
toms708.c,bratio(),6316,6330,43,142,DO,N,2,2,2.0,2.0,-1.0,-1.0,-1.0,random
toms708.c,bratio(),6668,6680,44,151,DO,N,1,1,1.0,1.0,-1.0,-1.0,-1.0,random
toms708.c,bratio(),6773,6785,45,159,DO,N,1,1,1.0,1.0,-1.0,-1.0,-1.0,random
toms708.c,bratio(),6886,6942,46,167,DO,N,1,1,1.0,1.0,-1.0,-1.0,-1.0,random
toms708.c,bratio(),7021,7079,47,173,DO,N,1,1,1.0,1.0,-1.0,-1.0,-1.0,random
toms708.c,bratio(),7134,7145,48,178,DO,N,2,3,7.0,2.857,-1.0,-1.0,-1.0,random
