File,Function,Start,End,ConditionNo,node,EdgeType,Estimate,Min,Max,Count,Mean,TrueEvaluations,FalseEvaluations,MinEvals,Method
cil__true__gimpdraw.c,gradient_calc_conical_sym_factor(),51768,51822,0,6,BO,N,1,2,3.0,1.667,1287.5,1.0,1.0,random
cil__true__gimpdraw.c,gradient_calc_conical_sym_factor(),51847,51862,1,8,BO,N,1,3,5.0,2.2,1.0,1565.5,1.0,random
cil__true__gimpdraw.c,gradient_calc_conical_sym_factor(),52090,52150,3,16,BO,N,2,11,138.0,6.587,2.0,1.0,1.0,random
cil__true__gimpdraw.c,gradient_calc_conical_sym_factor(),52175,52190,4,18,BO,N,2,12,264.0,7.25,1.0,50.5,1.0,random
cil__true__gimpdraw.c,gradient_calc_conical_sym_factor(),52372,52419,5,23,BO,N,2,21,642.0,14.067,1.0,2.0,1.0,random
cil__true__gimpdraw.c,gradient_calc_conical_sym_factor(),52431,52486,6,25,BO,N,3,22,1272.0,14.671,-1.0,2.0,2.0,random
cil__true__gimpdraw.c,gradient_calc_conical_asym_factor(),52991,53045,0,8,BO,N,1,2,3.0,1.667,1287.5,1.0,1.0,random
cil__true__gimpdraw.c,gradient_calc_conical_asym_factor(),53070,53085,1,10,BO,N,1,3,5.0,2.2,1.0,1565.5,1.0,random
cil__true__gimpdraw.c,gradient_calc_conical_asym_factor(),53325,53338,3,19,BO,N,2,11,156.0,7.167,2.0,1.0,1.0,random
cil__true__gimpdraw.c,gradient_calc_conical_asym_factor(),53501,53548,4,23,BO,N,2,17,520.0,11.465,1.0,2.0,1.0,random
cil__true__gimpdraw.c,gradient_calc_conical_asym_factor(),53560,53615,5,25,BO,N,3,18,1028.0,12.064,-1.0,2.0,2.0,random
cil__true__gimpdraw.c,gradient_calc_square_factor(),54151,54205,0,9,BO,N,1,2,3.0,1.667,1898.0,1.0,1.0,random
cil__true__gimpdraw.c,gradient_calc_square_factor(),54304,54390,1,14,BO,N,2,7,29.0,4.69,-1.0,1.0,1.0,random
cil__true__gimpdraw.c,gradient_calc_square_factor(),54502,54561,2,20,BO,N,2,14,253.0,9.233,1.0,2.0,1.0,random
cil__true__gimpdraw.c,gradient_calc_square_factor(),54584,54724,3,22,BO,N,2,15,258.0,10.097,2067.0,2.0,2.0,random
cil__true__gimpdraw.c,gradient_calc_square_factor(),54613,54665,4,23,BO,N,2,16,503.0,10.288,2067.0,-1.0,2067.0,random
cil__true__gimpdraw.c,gradient_calc_radial_factor(),55058,55112,0,3,BO,N,1,2,3.0,1.667,1898.0,1.0,1.0,random
cil__true__gimpdraw.c,gradient_calc_radial_factor(),55242,55301,1,8,BO,N,2,8,28.0,4.571,1.0,2.0,1.0,random
cil__true__gimpdraw.c,gradient_calc_radial_factor(),55324,55464,2,10,BO,N,2,9,33.0,5.212,2974.0,2.0,2.0,random
cil__true__gimpdraw.c,gradient_calc_radial_factor(),55353,55405,3,11,BO,N,2,10,53.0,5.83,2974.0,-1.0,2974.0,random
cil__true__gimpdraw.c,gradient_calc_linear_factor(),55813,55867,0,3,BO,N,1,2,3.0,1.667,1287.5,1.0,1.0,random
cil__true__gimpdraw.c,gradient_calc_linear_factor(),56013,56022,1,8,BO,N,2,5,17.0,3.471,2.0,1.0,1.0,random
cil__true__gimpdraw.c,gradient_calc_linear_factor(),56105,56245,3,13,BO,N,2,7,58.0,4.672,1198.5,1.0,1.0,random
cil__true__gimpdraw.c,gradient_calc_linear_factor(),56134,56186,4,14,BO,N,2,8,72.0,5.278,2817.5,1580.5,1580.5,random
cil__true__gimpdraw.c,gradient_calc_linear_factor(),56270,56344,5,17,BO,N,2,8,72.0,5.278,1.0,2.0,1.0,random
cil__true__gimpdraw.c,gradient_calc_bilinear_factor(),56743,56797,0,5,BO,N,1,2,3.0,1.667,1287.5,1.0,1.0,random
cil__true__gimpdraw.c,gradient_calc_bilinear_factor(),56977,57040,1,11,BO,N,2,8,33.0,5.212,497.0,1.0,1.0,random
cil__true__gimpdraw.c,gradient_calc_bilinear_factor(),57063,57203,2,13,BO,N,2,9,38.0,5.816,1198.5,1.0,1.0,random
cil__true__gimpdraw.c,gradient_calc_bilinear_factor(),57092,57144,3,14,BO,N,2,10,52.0,5.962,-1.0,1198.5,1198.5,random
cil__true__gimpdraw.c,gradient_calc_spiral_factor(),57702,57756,0,9,BO,N,1,2,3.0,1.667,1357.0,1.0,1.0,random
cil__true__gimpdraw.c,gradient_calc_spiral_factor(),57781,57788,1,11,BO,N,1,3,5.0,2.2,1.0,1817.0,1.0,random
cil__true__gimpdraw.c,gradient_calc_spiral_factor(),57982,58050,3,19,BO,N,1,5,14.0,3.214,1.0,65.0,1.0,random
cil__true__gimpdraw.c,gradient_calc_spiral_factor(),58121,58134,4,22,BO,N,2,11,304.0,7.342,2.0,1.0,1.0,random
