File,Function,Start,End,ConditionNo,node,EdgeType,Estimate,Min,Max,Count,Mean,TrueEvaluations,FalseEvaluations,MinEvals,Method
i0.c,cephes_bessel_I0 (),44437,44446,0,2,BO,N,1,2,3.0,1.667,1.0,9.0,1.0,nhc
i0.c,cephes_bessel_I0 (),44461,44473,1,4,BO,N,1,4,8.0,2.625,10.0,1.0,1.0,nhc
i0.c,i0e (),44644,44653,0,2,BO,N,1,2,3.0,1.667,1.0,9.0,1.0,nhc
i0.c,i0e (),44668,44680,1,4,BO,N,1,4,8.0,2.625,10.0,1.0,1.0,nhc
