File,Function,Start,End,ConditionNo,node,EdgeType,Estimate,Min,Max,Count,Mean,TrueEvaluations,FalseEvaluations,MinEvals,Method
k0.c,cephes_bessel_K0 (),44156,44168,0,2,DO,N,1,1,1.0,1.0,1.0,9.0,1.0,nhc
k0.c,cephes_bessel_K0 (),44229,44241,1,5,DO,N,1,1,1.0,1.0,20.0,9.0,9.0,nhc
k0.c,k0e (),44469,44481,0,2,DO,N,1,1,1.0,1.0,1.0,9.0,1.0,nhc
k0.c,k0e (),44543,44555,1,5,DO,N,1,1,1.0,1.0,20.0,9.0,9.0,nhc
