File,Function,Start,End,ConditionNo,node,EdgeType,Estimate,Min,Max,Count,Mean,TrueEvaluations,FalseEvaluations,MinEvals,Method
pnorm.c,pnorm5(),31792,31799,0,2,CO,N,3,3,1.0,3.0,-1.0,1.0,1.0,nhc
pnorm.c,pnorm5(),31804,31812,1,2,CO,N,3,3,1.0,3.0,-1.0,1.0,1.0,nhc
pnorm.c,pnorm5(),31817,31828,2,2,CO,N,4,4,1.0,4.0,-1.0,1.0,1.0,nhc
pnorm.c,pnorm5(),31870,31880,3,4,CO,N,5,7,4.0,6.0,129.5,1.0,1.0,nhc
pnorm.c,pnorm5(),31930,31944,5,6,CO,N,5,9,12.0,7.0,1.0,14.0,1.0,nhc
pnorm.c,pnorm5(),31949,31961,6,7,CO,N,6,10,12.0,8.0,1.0,13522.0,1.0,nhc
pnorm.c,pnorm5(),32009,32016,7,11,CO,N,7,12,24.0,9.5,14.0,-1.0,14.0,nhc
pnorm.c,pnorm_both(),33796,33803,0,10,CO,N,2,2,1.0,2.0,-1.0,1.0,1.0,nhc
pnorm.c,pnorm_both(),34035,34514,1,17,CO,N,3,4,2.0,3.5,22.5,1.0,1.0,nhc
pnorm.c,pnorm_both(),34111,34289,2,18,CO,N,4,5,2.0,4.5,22.5,405.0,22.5,nhc
pnorm.c,pnorm_both(),34202,34206,3,22,CO,N,5,6,2.0,5.5,640.0,640.0,640.0,nhc
pnorm.c,pnorm_both(),34355,34363,4,27,CO,N,4,5,2.0,4.5,29.5,24.5,24.5,nhc
pnorm.c,pnorm_both(),34386,34394,5,29,CO,N,4,5,2.0,4.5,24.5,29.5,24.5,nhc
pnorm.c,pnorm_both(),34417,34425,6,31,CO,N,4,5,2.0,4.5,27.5,25.0,25.0,nhc
pnorm.c,pnorm_both(),34434,34442,7,32,CO,N,5,6,2.0,5.5,31.5,29.5,29.5,nhc
pnorm.c,pnorm_both(),34468,34476,8,34,CO,N,5,6,2.0,5.5,29.5,31.5,29.5,nhc
pnorm.c,pnorm_both(),34516,35667,9,36,CO,N,4,5,2.0,4.5,13.5,1.0,1.0,nhc
pnorm.c,pnorm_both(),34656,34660,10,39,CO,N,5,6,2.0,5.5,13.5,13.5,13.5,nhc
pnorm.c,pnorm_both(),35673,35677,11,45,CO,N,5,6,2.0,5.5,1.0,9.0,1.0,nhc
pnorm.c,pnorm_both(),36418,36422,14,49,CO,N,7,14,18.0,11.056,1.0,1.0,1.0,nhc
pnorm.c,pnorm_both(),36661,36710,15,56,CO,N,8,14,36.0,11.0,40.5,40.5,40.5,nhc
