File,Function,Start,End,ConditionNo,node,EdgeType,Estimate,Min,Max,Count,Mean,TrueEvaluations,FalseEvaluations,MinEvals,Method
cil__true__spice.c,clip_to_circle(),51457,51464,0,7,CO,N,2,2,1.0,2.0,1.0,-1.0,1.0,random
cil__true__spice.c,clip_to_circle(),51662,51669,2,10,CO,N,2,2,1.0,2.0,1.0,-1.0,1.0,random
cil__true__spice.c,clip_to_circle(),51855,51871,4,13,CO,N,2,2,1.0,2.0,1.0,2.0,1.0,random
cil__true__spice.c,clip_to_circle(),51966,51982,5,15,CO,N,2,2,1.0,2.0,1.0,2.0,1.0,random
cil__true__spice.c,clip_to_circle(),52118,52228,6,18,CO,N,2,2,1.0,2.0,10.0,1.0,1.0,random
cil__true__spice.c,clip_to_circle(),52249,52286,7,20,CO,N,3,3,1.0,3.0,9.0,1.0,1.0,random
cil__true__spice.c,clip_to_circle(),52389,52412,8,22,CO,N,2,2,1.0,2.0,1.0,2.0,1.0,random
cil__true__spice.c,clip_to_circle(),53254,53259,9,40,CO,N,2,2,1.0,2.0,3.0,1.0,1.0,random
cil__true__spice.c,clip_to_circle(),53365,53419,11,42,CO,N,4,4,1.0,4.0,-1.0,3.0,3.0,random
cil__true__spice.c,clip_to_circle(),53442,53456,12,44,CO,N,5,5,1.0,5.0,-1.0,3.0,3.0,random
cil__true__spice.c,clip_to_circle(),53628,53682,13,48,CO,N,3,4,2.0,3.5,2.0,1.5,1.5,random
cil__true__spice.c,clip_to_circle(),53743,53770,14,51,CO,N,2,2,1.0,2.0,1.0,4.0,1.0,random
cil__true__spice.c,clip_to_circle(),53822,53842,15,53,CO,N,3,4,2.0,3.5,8.5,10.0,8.5,random
cil__true__spice.c,clip_to_circle(),53937,53991,16,55,CO,N,4,5,2.0,4.5,-1.0,8.5,8.5,random
cil__true__spice.c,clip_to_circle(),54014,54028,17,57,CO,N,5,6,2.0,5.5,-1.0,8.5,8.5,random
cil__true__spice.c,clip_to_circle(),54222,54273,18,61,CO,N,4,5,2.0,4.5,8.5,-1.0,8.5,random
cil__true__spice.c,clip_to_circle(),54665,54685,19,66,CO,N,3,4,2.0,3.5,11.0,4.5,4.5,random
cil__true__spice.c,clip_to_circle(),54780,54834,20,68,CO,N,4,5,2.0,4.5,-1.0,11.0,11.0,random
cil__true__spice.c,clip_to_circle(),54857,54871,21,70,CO,N,5,6,2.0,5.5,-1.0,11.0,11.0,random
cil__true__spice.c,clip_to_circle(),55065,55116,22,74,CO,N,4,5,2.0,4.5,11.0,-1.0,11.0,random
cil__true__spice.c,clip_to_circle(),55504,55512,23,79,CO,N,3,4,2.0,3.5,11.5,9.0,9.0,random
