File,Function,Start,End,ConditionNo,node,EdgeType,Estimate,Min,Max,Count,Mean,TrueEvaluations,FalseEvaluations,MinEvals,Method
cil__true__spice.c,clip_to_circle(),51457,51464,0,7,DO,N,1,1,2.0,1.0,1.0,-1.0,1.0,random
cil__true__spice.c,clip_to_circle(),51662,51669,2,10,DO,N,1,1,2.0,1.0,1.0,-1.0,1.0,random
cil__true__spice.c,clip_to_circle(),51855,51871,4,13,DO,N,4,4,4.0,4.0,1.0,2.0,1.0,random
cil__true__spice.c,clip_to_circle(),51966,51982,5,15,DO,N,4,4,4.0,4.0,1.0,2.0,1.0,random
cil__true__spice.c,clip_to_circle(),52118,52228,6,18,DO,N,5,6,16.0,5.5,10.0,1.0,1.0,random
cil__true__spice.c,clip_to_circle(),52249,52286,7,20,DO,N,5,6,16.0,5.5,9.0,1.0,1.0,random
cil__true__spice.c,clip_to_circle(),52389,52412,8,22,DO,N,5,7,48.0,6.167,1.0,2.0,1.0,random
cil__true__spice.c,clip_to_circle(),53254,53259,9,40,DO,N,4,5,10.0,4.4,3.0,1.0,1.0,random
cil__true__spice.c,clip_to_circle(),53365,53419,11,42,DO,N,5,5,12.0,5.0,-1.0,3.0,3.0,random
cil__true__spice.c,clip_to_circle(),53442,53456,12,44,DO,N,5,5,12.0,5.0,-1.0,3.0,3.0,random
cil__true__spice.c,clip_to_circle(),53628,53682,13,48,DO,N,4,4,8.0,4.0,2.0,1.5,1.5,random
cil__true__spice.c,clip_to_circle(),53743,53770,14,51,DO,N,1,12,25.0,8.2,1.0,4.0,1.0,random
cil__true__spice.c,clip_to_circle(),53822,53842,15,53,DO,N,1,4,5.0,3.4,8.5,10.0,8.5,random
cil__true__spice.c,clip_to_circle(),53937,53991,16,55,DO,N,5,5,12.0,5.0,-1.0,8.5,8.5,random
cil__true__spice.c,clip_to_circle(),54014,54028,17,57,DO,N,5,5,12.0,5.0,-1.0,8.5,8.5,random
cil__true__spice.c,clip_to_circle(),54222,54273,18,61,DO,N,4,14,17.0,11.765,8.5,-1.0,8.5,random
cil__true__spice.c,clip_to_circle(),54665,54685,19,66,DO,N,1,4,5.0,3.4,11.0,4.5,4.5,random
cil__true__spice.c,clip_to_circle(),54780,54834,20,68,DO,N,5,5,12.0,5.0,-1.0,11.0,11.0,random
cil__true__spice.c,clip_to_circle(),54857,54871,21,70,DO,N,5,5,12.0,5.0,-1.0,11.0,11.0,random
cil__true__spice.c,clip_to_circle(),55065,55116,22,74,DO,N,4,14,17.0,11.765,11.0,-1.0,11.0,random
